0.0
0.024170000000000004
0.01895
0.013860000000000004
0.015969999999999998
0.0212
0.01931
0.016069999999999997
0.01435
0.01851
0.01562
0.013880000000000002
0.015290000000000003
0.015429999999999998
0.020730000000000005
0.014949999999999996
0.013750000000000002
0.019440000000000002
0.016390000000000002
0.01875
0.019029999999999995
0.014889999999999999
0.016200000000000003
0.026470000000000007
0.020300000000000002
0.013040000000000001
0.01663
0.01738
0.01908
0.01656
0.018640000000000004
0.0147
0.01607
0.01668
0.015460000000000003
0.015410000000000002
0.0171
0.016169999999999997
0.019289999999999998
0.017669999999999998
0.013159999999999998
0.015150000000000002
0.01343
0.018189999999999998
0.018799999999999997
0.014589999999999999
0.015019999999999999
0.016390000000000002
0.01842
0.0137
0.021599999999999998
0.01733
0.012119999999999999
0.01897
0.017490000000000002
0.02114
0.01851
0.01344
0.01075
0.015830000000000004
0.018930000000000002
0.014889999999999997
0.017870000000000004
0.016720000000000002
0.015559999999999997
0.018760000000000002
0.0161
0.01474
0.01489
0.015719999999999998
0.02183
0.01655
0.01666
0.01703
0.014449999999999998
0.020059999999999995
0.01653
0.0184
0.01246
0.013840000000000005
0.01622
0.019120000000000005
0.02246
0.016040000000000002
0.019079999999999996
0.01786
0.01924
0.01638
0.02023
0.015729999999999997
0.018720000000000004
0.01987
0.01922
0.01592
0.016849999999999997
0.01692
0.01505
0.01756
0.017629999999999996
0.017349999999999997
0.01721
0.014770000000000004
0.016010000000000007
0.012630000000000004
0.01467
0.016760000000000004
0.014669999999999999
0.015040000000000003
0.01653
0.0189
0.020050000000000002
0.01661
0.014190000000000005
0.021409999999999995
0.01993
0.01713
0.02
0.018080000000000002
0.019629999999999998
0.015140000000000002
0.017269999999999997
0.0158
0.013049999999999999
0.014719999999999997
0.015400000000000002
0.018459999999999997
0.015790000000000005
0.020420000000000004
0.018250000000000002
0.01664
0.02151000000000001
0.0131
0.018269999999999998
0.019819999999999997
0.018780000000000005
0.016370000000000003
0.014140000000000002
0.018050000000000004
0.017730000000000003
0.01432
0.012490000000000003
0.01259
0.01627
0.016210000000000002
0.019119999999999998
0.015109999999999998
0.015
0.02136
0.020989999999999995
0.02136
0.015030000000000005
0.01747
0.020059999999999998
0.01776
0.016
0.016760000000000004
0.013430000000000004
0.014059999999999996
0.020319999999999994
0.019100000000000002
0.01929
0.016149999999999998
0.016710000000000006
0.017159999999999998
0.01876
0.01914
0.016569999999999998
0.015599999999999996
0.01669
0.021120000000000007
0.012340000000000002
0.01493
0.01744
0.015700000000000002
0.01922
0.0147
0.01436
0.017089999999999998
0.018160000000000003
0.01344
0.02146
0.015710000000000002
0.020229999999999998
0.019949999999999996
0.02104
0.018590000000000002
0.01615
0.015420000000000003
0.021029999999999997
0.01665
0.025189999999999997
0.01767
0.014760000000000002
0.018809999999999997
0.015479999999999995
0.01997
0.017779999999999997
0.0179
0.01851
0.013770000000000003
0.016580000000000004
0.022520000000000002
0.019300000000000005
0.01604
0.01452
0.02006
0.015399999999999995
0.009860000000000002
0.01778
0.020470000000000002
0.01888
0.01932
0.01714
0.01278
0.016880000000000003
0.02001
0.015510000000000001
0.018909999999999996
0.01513
0.01757
0.016
0.017690000000000004
0.015130000000000001
0.011580000000000003
0.016460000000000002
0.01613
0.01662
0.020509999999999997
0.016129999999999995
0.015370000000000003
0.01183
0.01628
0.018320000000000003
0.01927
0.01763
0.01933
0.016190000000000003
0.017070000000000002
0.020470000000000006
0.017959999999999997
0.017110000000000004
0.01837
0.01785
0.017800000000000003
0.017270000000000004
0.01718
0.019549999999999998
0.015539999999999998
0.018779999999999998
0.015280000000000002
0.014989999999999998
0.01902
0.020260000000000004
0.013420000000000003
0.01703
0.013579999999999998
0.013989999999999997
0.017550000000000003
0.01642
0.01749
0.013330000000000002
0.013640000000000003
0.015739999999999997
0.013830000000000002
0.01531
0.01729
0.017280000000000004
0.015260000000000001
0.020560000000000005
0.01547
0.017320000000000006
0.01696
0.01565
0.011740000000000002
0.01844
0.021419999999999998
0.014579999999999997
0.022719999999999997
0.02135
0.015700000000000002
0.01611
0.01933
0.017249999999999998
0.01309
0.01539
0.016679999999999997
0.0174
0.01749
0.017580000000000002
0.014600000000000002
0.014619999999999998
0.014300000000000002
0.01414
0.012560000000000002
0.017650000000000002
0.01686
0.013720000000000001
0.015969999999999998
0.016739999999999998
0.01421
0.013419999999999996
0.014819999999999998
0.019260000000000006
0.012940000000000002
0.015780000000000002
0.013700000000000004
0.01918
0.01478
0.013210000000000001
0.016649999999999998
0.01608
0.017310000000000002
0.015290000000000003
0.01893
0.018789999999999998
0.01855
0.015230000000000004
0.01695
0.021070000000000002
0.01255
0.016779999999999996
0.018150000000000003
0.01746
0.018680000000000002
0.015340000000000005
0.01944
0.01718
0.016620000000000003
0.01801
0.015969999999999998
0.01487
0.01623
0.01904
0.017329999999999998
0.01494
0.01914
0.016580000000000004
0.014489999999999998
0.015139999999999997
0.013630000000000001
0.01729
0.01946
0.014459999999999999
0.014000000000000002
0.015700000000000006
0.013549999999999998
0.018930000000000006
0.01681
0.01613
0.0174
0.018170000000000006
0.012060000000000001
0.01627
0.016980000000000006
0.014589999999999999
0.01694
0.019239999999999993
0.01624
0.01678
0.01767
0.017490000000000002
0.01925
0.02197
0.0141
0.016189999999999996
0.01766
0.017920000000000002
0.01915
0.012750000000000001
0.01426
0.019949999999999996
0.01882
0.01656
0.015659999999999997
0.014180000000000003
0.01872
0.016319999999999998
0.017220000000000003
0.017040000000000003
0.019110000000000002
0.023250000000000003
0.019700000000000002
0.019700000000000006
0.01805
0.016390000000000002
0.015530000000000004
0.015640000000000005
0.018709999999999994
0.019940000000000003
0.01803
0.021780000000000004
0.01448
0.015290000000000002
0.01518
0.01567
0.01531
0.012519999999999998
0.01778
0.015180000000000004
0.020599999999999997
0.014879999999999999
0.01481
0.016080000000000004
0.01594
0.020299999999999995
0.015309999999999999
0.01756
0.01318
0.017410000000000002
0.01657
0.015510000000000003
0.020040000000000006
0.01605
0.016879999999999996
0.01516
0.01933
0.015470000000000005
0.0131
0.019759999999999996
0.02343
0.01237
0.01626
0.01671
0.015590000000000003
0.017410000000000002
0.017149999999999995
0.01737
0.017589999999999998
0.01642
0.015110000000000002
0.016079999999999997
0.013300000000000001
0.016939999999999993
0.0185
0.0158
0.017910000000000002
0.015730000000000004
0.016999999999999994
0.01746
0.016390000000000002
0.01982
0.014970000000000004
0.016149999999999998
0.014769999999999998
0.015069999999999997
0.01687
0.01651
0.01589
0.015960000000000002
0.01745
0.015300000000000001
0.01532
0.011119999999999998
0.016980000000000002
0.015309999999999999
0.017869999999999997
0.01943
0.019770000000000003
0.015030000000000005
0.016040000000000002
0.015969999999999998
0.019830000000000004
0.01586
0.01433
0.013540000000000002
0.014950000000000003
0.014530000000000001
0.018260000000000002
0.019160000000000003
0.02068
0.017380000000000003
0.018959999999999998
0.01925
0.01812
0.013590000000000001
0.013460000000000003
0.014990000000000003
0.02215
0.021579999999999995
0.014410000000000001
0.018110000000000005
0.017009999999999997
0.01316
0.01646
0.017129999999999996
0.017179999999999997
0.015820000000000004
0.016429999999999997
0.018819999999999996
0.015129999999999998
0.015170000000000003
0.01748
0.01794
0.016230000000000005
0.017409999999999995
0.019319999999999997
0.01684
0.010610000000000001
0.01881
0.018930000000000002
0.01919
0.01782
0.01828
0.01721
0.01081
0.01527
0.02035
0.013200000000000003
0.014679999999999997
0.014110000000000003
0.01676
0.011920000000000002
0.01802
0.02016
0.01458
0.019000000000000003
0.018119999999999997
0.019039999999999998
0.01676
0.021199999999999997
0.01591
0.01982
0.015219999999999997
0.01784
0.017019999999999997
0.016120000000000002
0.015280000000000002
0.01613
0.016439999999999996
0.015340000000000005
0.015120000000000001
0.01517
0.02204
0.018989999999999996
0.01367
0.016850000000000004
0.015609999999999999
0.01517
0.015290000000000002
0.016279999999999996
0.014709999999999999
0.015139999999999997
0.014889999999999999
0.018009999999999998
0.015710000000000002
0.01743
0.01251
0.01774
0.017980000000000003
0.017519999999999997
0.016940000000000007
0.01572
0.013930000000000003
0.016489999999999998
0.01633
0.014549999999999999
0.02033
0.01677
0.015529999999999999
0.015739999999999997
0.018120000000000004
0.015929999999999996
0.01854
0.018280000000000005
0.01768
0.014980000000000002
0.01481
0.017910000000000002
0.01779
0.01962
0.01754
0.017860000000000008
0.0241
0.01393
0.016040000000000002
0.017930000000000005
0.015990000000000004
0.01341
0.019390000000000004
0.01492
0.01802
0.01583
0.0183
0.016229999999999998
0.01939
0.015600000000000003
0.0175
0.019390000000000004
0.015089999999999998
0.01711
0.01771
0.01883
0.015590000000000001
0.01883
0.023559999999999998
0.019410000000000004
0.016589999999999997
0.01349
0.02193
0.015529999999999999
0.01744
0.016780000000000003
0.01691
0.019960000000000006
0.018349999999999998
0.016110000000000003
0.013150000000000002
0.018930000000000002
0.01743
0.013480000000000002
0.01485
0.01737
0.01858
0.016360000000000003
0.01401
0.014220000000000002
0.014069999999999997
0.01626
0.017299999999999996
0.016280000000000003
0.01625
0.015550000000000001
0.014190000000000001
0.015629999999999998
0.014650000000000002
0.014030000000000003
0.01637
0.01259
0.017810000000000003
0.01351
0.013590000000000005
0.01567
0.016170000000000004
0.01412
0.014079999999999999
0.021260000000000005
0.019379999999999998
0.01779
0.018189999999999998
0.021380000000000003
0.02125
0.017650000000000002
0.01786
0.01504
0.01794
0.014439999999999998
0.017780000000000004
0.01742
0.018100000000000005
0.015300000000000001
0.01933
0.015220000000000003
0.01379
0.020110000000000006
0.014609999999999998
0.01983
0.018340000000000002
0.015030000000000002
0.020179999999999997
0.013400000000000002
0.01534
0.01427
0.01551
0.01498
0.02005
0.01606
0.013650000000000002
0.016689999999999997
0.015220000000000003
0.017079999999999998
0.013790000000000002
0.014619999999999998
0.01684
0.0124
0.017570000000000002
0.018660000000000003
0.022080000000000002
0.01451
0.016560000000000005
0.01642
0.01582
0.01771
0.01506
0.016270000000000003
0.018910000000000003
0.0155
0.01798
0.014860000000000002
0.01616
0.015290000000000003
0.017509999999999998
0.021220000000000003
0.017589999999999998
0.016489999999999998
0.01828
0.012890000000000002
0.009649999999999999
0.01516
0.01993
0.01752
0.01627
0.019430000000000003
0.016649999999999998
0.016239999999999997
0.01532
0.0174
0.017989999999999996
0.01645
0.02094
0.01975
0.01647
0.01801
0.017170000000000005
0.015059999999999997
0.019460000000000005
0.016659999999999998
0.01758
0.01613
0.01325
0.016769999999999997
0.022090000000000002
0.016700000000000003
0.017310000000000002
0.01865
0.022070000000000003
0.013750000000000002
0.01975
0.018840000000000003
0.01312
0.01462
0.014999999999999998
0.013680000000000001
0.013170000000000001
0.011150000000000004
0.012370000000000003
0.011280000000000002
0.01603
0.01654
0.013520000000000003
0.01645
0.015840000000000003
0.01492
0.01865
0.017730000000000003
0.01543
0.01425
0.015950000000000002
0.01789
0.020029999999999996
0.011720000000000001
0.015529999999999999
0.016810000000000002
0.015469999999999998
0.014349999999999998
0.020550000000000006
0.017790000000000004
0.01615
0.01733
0.01219
0.015260000000000004
0.018690000000000002
0.015840000000000007
0.02038
0.020239999999999994
0.016619999999999996
0.012850000000000004
0.012390000000000002
0.01491
0.01567
0.01548
0.01403
0.014140000000000002
0.013080000000000003
0.011380000000000001
0.015290000000000003
0.01631
0.017260000000000005
0.019450000000000002
0.018839999999999996
0.0161
0.01283
0.01552
0.01494
0.016000000000000004
0.015950000000000006
0.018350000000000005
0.01794
0.01552
0.01689
0.015440000000000004
0.01528
0.017610000000000004
0.01587
0.016149999999999998
0.01571
0.01301
0.015680000000000003
0.016789999999999996
0.01367
0.01617
0.016619999999999996
0.01688
0.01643
0.019620000000000002
0.015410000000000002
0.018539999999999994
0.019799999999999998
0.02305
0.01621
0.012350000000000003
0.017959999999999997
0.015570000000000004
0.015530000000000002
0.017500000000000005
0.014649999999999996
0.01523
0.0166
0.01979
0.014689999999999998
0.013700000000000004
0.01688
0.01711
0.015430000000000001
0.01691
0.01858
0.01811
0.018260000000000002
0.015070000000000004
0.01497
0.02039
0.015610000000000002
0.017910000000000002
0.015799999999999995
0.018309999999999996
0.01696
0.01554
0.018009999999999998
0.01773
0.01719
0.021230000000000002
0.018810000000000004
0.01613
0.015450000000000002
0.01663
0.02063999999999999
0.01663
0.018340000000000002
0.01665
0.01696
0.01564
0.014580000000000003
0.01858
0.016269999999999996
0.015630000000000005
0.016059999999999998
0.017400000000000002
0.01534
0.016450000000000006
0.01772
0.01761
0.018760000000000006
0.01864
0.01455
0.015549999999999998
0.01173
0.020520000000000004
0.014530000000000001
0.01568
0.01535
0.012859999999999998
0.013509999999999998
0.015269999999999999
0.01471
0.01226
0.016739999999999998
0.014849999999999995
0.014839999999999999
0.0162
0.017990000000000003
0.014419999999999999
0.015810000000000005
0.016659999999999998
0.017449999999999997
0.017740000000000002
0.017990000000000003
0.019569999999999997
0.01602
0.02036
0.017130000000000003
0.016309999999999998
0.017379999999999996
0.01708
0.01768
0.021300000000000003
0.017470000000000006
0.019110000000000002
0.01805
0.018760000000000002
0.018160000000000003
0.01395
0.01552
0.013540000000000003
0.01261
0.017060000000000002
0.014039999999999999
0.01615
0.014410000000000001
0.01359
0.01093
0.0185
0.01672
0.018789999999999998
0.020080000000000004
0.019610000000000002
0.01959
0.02167
0.01654
0.015090000000000003
0.01715
0.018750000000000003
0.020709999999999996
0.014210000000000002
0.015
0.01631
0.016550000000000006
0.015149999999999997
0.01529
0.01424
0.020189999999999996
0.01874
0.02208
0.019370000000000002
0.018370000000000004
0.018920000000000003
0.017729999999999996
0.0195
0.014520000000000003
0.01795
0.011239999999999998
0.017620000000000004
0.019559999999999994
0.019629999999999998
0.013810000000000003
0.01705
0.016349999999999996
0.017890000000000007
0.015389999999999994
0.014839999999999999
0.018199999999999997
0.017900000000000003
0.016920000000000004
0.019039999999999994
0.02023
0.02013
0.021819999999999996
0.019479999999999997
0.01782
0.013290000000000001
0.01859
0.015670000000000003
0.011619999999999998
0.016930000000000004
0.01615
0.012110000000000001
0.01492
0.01203
0.011420000000000001
0.012310000000000001
0.01375
0.01762
0.01548
0.01887
0.01637
0.015760000000000003
0.018079999999999995
0.014299999999999997
0.02175
0.01687
0.01916
0.019680000000000003
0.01564
0.019709999999999995
0.017910000000000002
0.011860000000000004
0.019020000000000002
0.017320000000000002
0.016780000000000003
0.01332
0.022360000000000005
0.017850000000000005
0.01765
0.01958
0.01834
0.02035
0.015269999999999999
0.014629999999999999
0.01744
0.016790000000000003
0.02009
0.021570000000000006
