upper: 0, lower: 0 
upper: 0, lower: 1 
upper: 1, lower: 0 
upper: 0, lower: 0 
upper: 1, lower: 0 
upper: 0, lower: 0 
upper: 1, lower: 0 
upper: 0, lower: 0 
upper: 1, lower: 0 
upper: 0, lower: 0 
upper: 0, lower: 1 
upper: 1, lower: 0 
upper: 1, lower: 0 
upper: 0, lower: 0 
upper: 1, lower: 0 
upper: 0, lower: 0 
upper: 0, lower: 1 
upper: 1, lower: 0 
upper: 0, lower: 0 
upper: 0, lower: 0 
upper: 1, lower: 0 
upper: 0, lower: 0 
upper: 0, lower: 0 
upper: 1, lower: 0 
upper: 0, lower: 0 
upper: 0, lower: 0 
upper: 0, lower: 0 
upper: 1, lower: 0 
upper: 0, lower: 0 
upper: 0, lower: 0 
upper: 0, lower: 0 
upper: 0, lower: 0 
upper: 0, lower: 1 
upper: 1, lower: 0 
upper: 0, lower: 0 
upper: 0, lower: 0 
upper: 0, lower: 0 
upper: 0, lower: 0 
upper: 0, lower: 0 
upper: 0, lower: 0 
upper: 0, lower: 0 
upper: 0, lower: 0 
upper: 0, lower: 0 
upper: 0, lower: 0 
upper: 0, lower: 0 
upper: 0, lower: 1 
upper: 0, lower: 0 
upper: 1, lower: 0 
upper: 0, lower: 0 
upper: 0, lower: 0 
upper: 0, lower: 0 
upper: 1, lower: 0 
upper: 1, lower: 0 
upper: 0, lower: 0 
upper: 0, lower: 0 
upper: 0, lower: 0 
upper: 0, lower: 0 
upper: 0, lower: 1 
upper: 1, lower: 0 
upper: 0, lower: 1 
upper: 1, lower: 0 
upper: 0, lower: 0 
upper: 0, lower: 0 
upper: 0, lower: 0 
upper: 0, lower: 0 
upper: 0, lower: 0 
upper: 0, lower: 0 
upper: 0, lower: 0 
upper: 0, lower: 0 
upper: 1, lower: 0 
upper: 0, lower: 1 
upper: 1, lower: 0 
upper: 1, lower: 0 
upper: 0, lower: 1 
upper: 0, lower: 0 
upper: 1, lower: 0 
upper: 0, lower: 0 
upper: 1, lower: 0 
upper: 0, lower: 0 
upper: 0, lower: 0 
upper: 1, lower: 0 
upper: 0, lower: 1 
upper: 1, lower: 0 
upper: 0, lower: 0 
upper: 0, lower: 1 
upper: 0, lower: 0 
upper: 1, lower: 0 
upper: 0, lower: 0 
upper: 0, lower: 0 
upper: 0, lower: 0 
upper: 0, lower: 0 
upper: 0, lower: 0 
upper: 0, lower: 0 
upper: 1, lower: 0 
upper: 1, lower: 0 
upper: 1, lower: 0 
upper: 0, lower: 1 
upper: 1, lower: 0 
upper: 0, lower: 0 
upper: 0, lower: 1 
upper: 1, lower: 0 
upper: 0, lower: 0 
upper: 0, lower: 0 
upper: 0, lower: 0 
upper: 0, lower: 1 
upper: 1, lower: 0 
upper: 1, lower: 0 
upper: 0, lower: 1 
upper: 1, lower: 0 
upper: 0, lower: 0 
upper: 1, lower: 0 
upper: 0, lower: 0 
upper: 0, lower: 0 
upper: 0, lower: 0 
upper: 0, lower: 0 
upper: 1, lower: 0 
upper: 0, lower: 0 
upper: 0, lower: 1 
upper: 1, lower: 0 
upper: 0, lower: 0 
upper: 0, lower: 0 
upper: 0, lower: 0 
upper: 0, lower: 1 
upper: 1, lower: 0 
upper: 1, lower: 0 
upper: 1, lower: 0 
upper: 1, lower: 0 
upper: 0, lower: 0 
upper: 1, lower: 0 
upper: 0, lower: 0 
upper: 0, lower: 0 
upper: 0, lower: 1 
upper: 1, lower: 0 
upper: 1, lower: 0 
upper: 0, lower: 0 
upper: 1, lower: 0 
upper: 0, lower: 0 
upper: 0, lower: 0 
upper: 0, lower: 0 
upper: 0, lower: 0 
upper: 1, lower: 0 
upper: 0, lower: 1 
upper: 1, lower: 0 
upper: 0, lower: 0 
upper: 0, lower: 0 
upper: 1, lower: 0 
upper: 0, lower: 0 
upper: 1, lower: 0 
upper: 0, lower: 0 
upper: 0, lower: 0 
upper: 0, lower: 1 
upper: 1, lower: 0 
upper: 1, lower: 0 
upper: 0, lower: 0 
upper: 0, lower: 1 
upper: 1, lower: 0 
upper: 0, lower: 0 
upper: 0, lower: 0 
upper: 1, lower: 0 
upper: 0, lower: 0 
upper: 0, lower: 0 
upper: 1, lower: 0 
upper: 0, lower: 1 
upper: 0, lower: 0 
upper: 0, lower: 0 
upper: 1, lower: 0 
upper: 1, lower: 0 
upper: 0, lower: 0 
upper: 1, lower: 0 
upper: 1, lower: 0 
upper: 0, lower: 0 
upper: 0, lower: 0 
upper: 0, lower: 0 
upper: 0, lower: 0 
upper: 0, lower: 1 
upper: 1, lower: 0 
upper: 0, lower: 0 
upper: 0, lower: 0 
upper: 1, lower: 0 
upper: 1, lower: 0 
upper: 0, lower: 0 
upper: 0, lower: 0 
upper: 0, lower: 1 
upper: 1, lower: 0 
upper: 0, lower: 1 
upper: 1, lower: 0 
upper: 0, lower: 0 
upper: 0, lower: 0 
upper: 0, lower: 0 
upper: 0, lower: 0 
upper: 0, lower: 0 
upper: 0, lower: 0 
upper: 0, lower: 0 
upper: 0, lower: 0 
upper: 0, lower: 0 
upper: 0, lower: 0 
upper: 0, lower: 0 
upper: 0, lower: 0 
upper: 0, lower: 0 
upper: 0, lower: 0 
upper: 0, lower: 0 
upper: 1, lower: 0 
upper: 0, lower: 0 
upper: 0, lower: 0 
upper: 0, lower: 0 
upper: 0, lower: 0 
upper: 0, lower: 0 
upper: 0, lower: 0 
upper: 0, lower: 0 
upper: 0, lower: 0 
upper: 0, lower: 1 
upper: 1, lower: 0 
upper: 0, lower: 0 
upper: 0, lower: 0 
upper: 1, lower: 0 
upper: 1, lower: 0 
upper: 0, lower: 0 
upper: 0, lower: 1 
upper: 1, lower: 0 
upper: 0, lower: 0 
upper: 0, lower: 1 
upper: 1, lower: 0 
upper: 0, lower: 0 
upper: 0, lower: 0 
upper: 0, lower: 0 
upper: 0, lower: 0 
upper: 0, lower: 1 
upper: 1, lower: 0 
upper: 0, lower: 0 
upper: 0, lower: 0 
upper: 0, lower: 0 
upper: 0, lower: 1 
upper: 1, lower: 0 
upper: 0, lower: 0 
upper: 1, lower: 0 
upper: 0, lower: 0 
upper: 0, lower: 1 
upper: 1, lower: 0 
upper: 1, lower: 0 
upper: 1, lower: 0 
upper: 0, lower: 0 
upper: 0, lower: 0 
upper: 0, lower: 1 
upper: 1, lower: 0 
upper: 0, lower: 0 
upper: 0, lower: 0 
upper: 1, lower: 0 
upper: 0, lower: 1 
upper: 1, lower: 0 
upper: 0, lower: 0 
upper: 1, lower: 0 
upper: 0, lower: 0 
upper: 0, lower: 0 
upper: 0, lower: 0 
upper: 0, lower: 0 
upper: 0, lower: 0 
upper: 0, lower: 0 
upper: 0, lower: 0 
upper: 0, lower: 1 
upper: 0, lower: 0 
upper: 1, lower: 0 
upper: 1, lower: 0 
upper: 0, lower: 0 
upper: 0, lower: 1 
upper: 0, lower: 0 
upper: 1, lower: 0 
upper: 1, lower: 0 
upper: 0, lower: 0 
upper: 0, lower: 1 
upper: 1, lower: 0 
upper: 0, lower: 0 
upper: 0, lower: 0 
upper: 0, lower: 0 
upper: 0, lower: 0 
upper: 1, lower: 0 
upper: 1, lower: 0 
upper: 0, lower: 0 
upper: 0, lower: 1 
upper: 0, lower: 0 
upper: 1, lower: 0 
upper: 1, lower: 0 
upper: 0, lower: 0 
upper: 0, lower: 0 
upper: 0, lower: 0 
upper: 1, lower: 0 
upper: 0, lower: 0 
upper: 0, lower: 0 
upper: 0, lower: 0 
upper: 0, lower: 0 
upper: 0, lower: 0 
upper: 1, lower: 0 
upper: 0, lower: 0 
upper: 0, lower: 0 
upper: 0, lower: 1 
upper: 1, lower: 0 
upper: 0, lower: 0 
upper: 0, lower: 0 
upper: 0, lower: 0 
upper: 0, lower: 0 
upper: 0, lower: 0 
upper: 0, lower: 0 
upper: 1, lower: 0 
upper: 0, lower: 1 
upper: 1, lower: 0 
upper: 0, lower: 1 
upper: 1, lower: 0 
upper: 1, lower: 0 
upper: 0, lower: 0 
upper: 0, lower: 0 
upper: 1, lower: 0 
upper: 0, lower: 0 
upper: 0, lower: 0 
upper: 1, lower: 0 
upper: 1, lower: 0 
upper: 0, lower: 0 
upper: 0, lower: 1 
upper: 1, lower: 0 
upper: 1, lower: 0 
upper: 0, lower: 0 
upper: 0, lower: 1 
upper: 1, lower: 0 
upper: 1, lower: 0 
upper: 1, lower: 0 
upper: 0, lower: 0 
upper: 0, lower: 0 
upper: 1, lower: 0 
upper: 0, lower: 0 
upper: 0, lower: 1 
upper: 1, lower: 0 
upper: 0, lower: 1 
upper: 1, lower: 0 
upper: 1, lower: 0 
upper: 0, lower: 1 
upper: 1, lower: 0 
upper: 0, lower: 0 
upper: 0, lower: 0 
upper: 0, lower: 0 
upper: 0, lower: 0 
upper: 0, lower: 0 
upper: 0, lower: 0 
upper: 0, lower: 0 
upper: 0, lower: 0 
upper: 1, lower: 0 
upper: 0, lower: 0 
upper: 0, lower: 0 
upper: 1, lower: 0 
upper: 0, lower: 0 
upper: 0, lower: 1 
upper: 1, lower: 0 
upper: 1, lower: 0 
upper: 0, lower: 1 
upper: 1, lower: 0 
upper: 0, lower: 0 
upper: 0, lower: 0 
upper: 0, lower: 0 
upper: 1, lower: 0 
upper: 0, lower: 0 
upper: 0, lower: 1 
upper: 1, lower: 0 
upper: 0, lower: 0 
upper: 1, lower: 0 
upper: 1, lower: 0 
upper: 0, lower: 0 
upper: 0, lower: 0 
upper: 0, lower: 0 
upper: 0, lower: 0 
upper: 0, lower: 0 
upper: 1, lower: 0 
upper: 0, lower: 1 
upper: 1, lower: 0 
upper: 1, lower: 0 
upper: 0, lower: 0 
upper: 0, lower: 0 
upper: 0, lower: 0 
upper: 0, lower: 0 
upper: 0, lower: 0 
upper: 0, lower: 0 
upper: 0, lower: 1 
upper: 1, lower: 0 
upper: 1, lower: 0 
upper: 0, lower: 0 
upper: 0, lower: 0 
upper: 0, lower: 1 
upper: 1, lower: 0 
upper: 1, lower: 0 
upper: 0, lower: 0 
upper: 0, lower: 0 
upper: 0, lower: 0 
upper: 0, lower: 1 
upper: 1, lower: 0 
upper: 1, lower: 0 
upper: 1, lower: 0 
upper: 1, lower: 0 
upper: 0, lower: 0 
upper: 0, lower: 1 
upper: 1, lower: 0 
upper: 0, lower: 0 
upper: 0, lower: 0 
upper: 1, lower: 0 
upper: 0, lower: 1 
upper: 0, lower: 0 
upper: 1, lower: 0 
upper: 0, lower: 0 
upper: 0, lower: 0 
upper: 0, lower: 0 
upper: 0, lower: 0 
upper: 1, lower: 0 
upper: 0, lower: 0 
upper: 1, lower: 0 
upper: 0, lower: 1 
upper: 1, lower: 0 
upper: 0, lower: 0 
upper: 1, lower: 0 
upper: 0, lower: 1 
upper: 1, lower: 0 
upper: 0, lower: 1 
upper: 1, lower: 0 
upper: 1, lower: 0 
upper: 1, lower: 0 
upper: 0, lower: 0 
upper: 0, lower: 0 
upper: 0, lower: 1 
upper: 1, lower: 0 
upper: 0, lower: 0 
upper: 0, lower: 0 
upper: 0, lower: 0 
upper: 0, lower: 0 
upper: 0, lower: 0 
upper: 0, lower: 0 
upper: 0, lower: 0 
upper: 1, lower: 0 
upper: 0, lower: 0 
upper: 0, lower: 0 
upper: 0, lower: 1 
upper: 1, lower: 0 
upper: 0, lower: 0 
upper: 0, lower: 0 
upper: 1, lower: 0 
upper: 1, lower: 0 
upper: 0, lower: 0 
upper: 0, lower: 0 
upper: 0, lower: 0 
upper: 1, lower: 0 
upper: 0, lower: 1 
upper: 1, lower: 0 
upper: 1, lower: 0 
upper: 0, lower: 0 
upper: 1, lower: 0 
upper: 1, lower: 0 
upper: 0, lower: 0 
upper: 0, lower: 0 
upper: 0, lower: 1 
upper: 1, lower: 0 
upper: 0, lower: 0 
upper: 1, lower: 0 
upper: 0, lower: 0 
upper: 1, lower: 0 
upper: 1, lower: 0 
upper: 0, lower: 0 
upper: 0, lower: 1 
upper: 1, lower: 0 
upper: 0, lower: 0 
upper: 0, lower: 0 
upper: 0, lower: 0 
upper: 0, lower: 0 
upper: 0, lower: 0 
upper: 0, lower: 0 
upper: 0, lower: 0 
upper: 0, lower: 0 
upper: 1, lower: 0 
upper: 0, lower: 0 
upper: 1, lower: 0 
upper: 0, lower: 0 
upper: 0, lower: 0 
upper: 0, lower: 0 
upper: 0, lower: 0 
upper: 0, lower: 0 
upper: 0, lower: 1 
upper: 1, lower: 0 
upper: 1, lower: 0 
upper: 0, lower: 1 
upper: 0, lower: 0 
upper: 0, lower: 0 
upper: 1, lower: 0 
upper: 1, lower: 0 
upper: 1, lower: 0 
upper: 0, lower: 1 
upper: 1, lower: 0 
upper: 1, lower: 0 
upper: 0, lower: 0 
upper: 1, lower: 0 
upper: 1, lower: 0 
upper: 0, lower: 0 
upper: 0, lower: 0 
upper: 1, lower: 0 
upper: 0, lower: 0 
upper: 0, lower: 0 
upper: 0, lower: 0 
upper: 0, lower: 0 
upper: 0, lower: 0 
upper: 0, lower: 0 
upper: 0, lower: 0 
upper: 0, lower: 0 
upper: 0, lower: 0 
upper: 0, lower: 0 
upper: 1, lower: 0 
upper: 0, lower: 0 
upper: 0, lower: 0 
upper: 0, lower: 0 
upper: 0, lower: 0 
upper: 0, lower: 0 
upper: 0, lower: 1 
upper: 1, lower: 0 
upper: 1, lower: 0 
upper: 0, lower: 0 
upper: 1, lower: 0 
upper: 0, lower: 0 
upper: 0, lower: 0 
upper: 0, lower: 0 
upper: 0, lower: 1 
upper: 1, lower: 0 
upper: 0, lower: 0 
upper: 0, lower: 0 
upper: 0, lower: 0 
upper: 0, lower: 0 
upper: 0, lower: 0 
upper: 1, lower: 0 
upper: 1, lower: 0 
upper: 0, lower: 0 
upper: 0, lower: 0 
upper: 0, lower: 1 
upper: 1, lower: 0 
upper: 0, lower: 0 
upper: 0, lower: 1 
upper: 1, lower: 0 
upper: 1, lower: 0 
upper: 0, lower: 1 
upper: 1, lower: 0 
upper: 1, lower: 0 
upper: 1, lower: 0 
upper: 0, lower: 0 
upper: 0, lower: 0 
upper: 0, lower: 0 
upper: 0, lower: 0 
upper: 0, lower: 0 
upper: 0, lower: 1 
upper: 0, lower: 0 
upper: 1, lower: 0 
upper: 1, lower: 0 
upper: 0, lower: 0 
upper: 1, lower: 0 
upper: 0, lower: 0 
upper: 1, lower: 0 
upper: 0, lower: 1 
upper: 1, lower: 0 
upper: 1, lower: 0 
upper: 0, lower: 0 
upper: 0, lower: 0 
upper: 0, lower: 1 
upper: 1, lower: 0 
upper: 0, lower: 0 
upper: 0, lower: 0 
upper: 0, lower: 0 
upper: 0, lower: 0 
upper: 1, lower: 0 
upper: 0, lower: 0 
upper: 0, lower: 0 
upper: 0, lower: 0 
upper: 0, lower: 0 
upper: 0, lower: 1 
upper: 1, lower: 0 
upper: 0, lower: 1 
upper: 1, lower: 0 
upper: 1, lower: 0 
upper: 1, lower: 0 
upper: 0, lower: 1 
upper: 1, lower: 0 
upper: 1, lower: 0 
upper: 1, lower: 0 
upper: 0, lower: 0 
upper: 0, lower: 0 
upper: 0, lower: 1 
upper: 1, lower: 0 
upper: 0, lower: 0 
upper: 0, lower: 0 
upper: 0, lower: 0 
upper: 0, lower: 0 
upper: 0, lower: 0 
upper: 0, lower: 0 
upper: 0, lower: 0 
upper: 0, lower: 1 
upper: 1, lower: 0 
upper: 0, lower: 0 
upper: 1, lower: 0 
upper: 0, lower: 0 
upper: 0, lower: 0 
upper: 1, lower: 0 
upper: 0, lower: 0 
upper: 0, lower: 0 
upper: 0, lower: 0 
upper: 0, lower: 0 
upper: 0, lower: 0 
upper: 0, lower: 0 
upper: 0, lower: 1 
upper: 1, lower: 0 
upper: 1, lower: 0 
upper: 0, lower: 1 
upper: 1, lower: 0 
upper: 1, lower: 0 
upper: 0, lower: 0 
upper: 0, lower: 1 
upper: 1, lower: 0 
upper: 1, lower: 0 
upper: 1, lower: 0 
upper: 0, lower: 1 
upper: 1, lower: 0 
upper: 1, lower: 0 
upper: 0, lower: 0 
upper: 1, lower: 0 
upper: 0, lower: 0 
upper: 1, lower: 0 
upper: 0, lower: 1 
upper: 1, lower: 0 
upper: 1, lower: 0 
upper: 0, lower: 0 
upper: 1, lower: 0 
upper: 0, lower: 0 
upper: 0, lower: 0 
upper: 0, lower: 1 
upper: 1, lower: 0 
upper: 1, lower: 0 
upper: 0, lower: 0 
upper: 1, lower: 0 
upper: 0, lower: 1 
upper: 1, lower: 0 
upper: 0, lower: 0 
upper: 0, lower: 1 
upper: 0, lower: 1 
upper: 1, lower: 0 
upper: 1, lower: 0 
upper: 0, lower: 0 
upper: 0, lower: 0 
upper: 0, lower: 0 
upper: 1, lower: 0 
upper: 0, lower: 1 
upper: 1, lower: 0 
upper: 1, lower: 0 
upper: 0, lower: 0 
upper: 0, lower: 0 
upper: 0, lower: 0 
upper: 1, lower: 0 
upper: 0, lower: 1 
upper: 1, lower: 0 
upper: 1, lower: 0 
upper: 0, lower: 0 
upper: 0, lower: 0 
upper: 1, lower: 0 
upper: 0, lower: 0 
upper: 0, lower: 0 
upper: 0, lower: 0 
upper: 0, lower: 0 
upper: 0, lower: 1 
upper: 1, lower: 0 
upper: 0, lower: 1 
upper: 1, lower: 0 
upper: 0, lower: 0 
upper: 1, lower: 0 
upper: 0, lower: 0 
upper: 0, lower: 0 
upper: 0, lower: 0 
upper: 0, lower: 0 
upper: 0, lower: 1 
upper: 1, lower: 0 
upper: 1, lower: 0 
upper: 0, lower: 1 
upper: 0, lower: 0 
upper: 1, lower: 0 
upper: 1, lower: 0 
upper: 1, lower: 0 
upper: 0, lower: 1 
upper: 1, lower: 0 
upper: 0, lower: 1 
upper: 1, lower: 0 
upper: 0, lower: 0 
upper: 1, lower: 0 
upper: 0, lower: 0 
upper: 0, lower: 0 
upper: 1, lower: 0 
upper: 0, lower: 0 
upper: 0, lower: 0 
upper: 0, lower: 0 
upper: 0, lower: 1 
upper: 1, lower: 0 
upper: 0, lower: 0 
upper: 0, lower: 0 
upper: 1, lower: 0 
upper: 1, lower: 0 
upper: 0, lower: 0 
upper: 0, lower: 1 
upper: 1, lower: 0 
upper: 1, lower: 0 
upper: 0, lower: 0 
upper: 0, lower: 0 
upper: 0, lower: 0 
upper: 0, lower: 0 
upper: 0, lower: 0 
upper: 0, lower: 0 
upper: 0, lower: 0 
upper: 1, lower: 0 
upper: 1, lower: 0 
upper: 0, lower: 0 
upper: 0, lower: 0 
upper: 0, lower: 0 
upper: 0, lower: 0 
upper: 1, lower: 0 
upper: 0, lower: 1 
upper: 1, lower: 0 
upper: 0, lower: 0 
upper: 1, lower: 0 
upper: 0, lower: 0 
upper: 0, lower: 0 
upper: 0, lower: 0 
upper: 0, lower: 0 
upper: 0, lower: 0 
upper: 0, lower: 0 
upper: 1, lower: 0 
upper: 0, lower: 0 
upper: 0, lower: 0 
upper: 1, lower: 0 
upper: 0, lower: 0 
upper: 0, lower: 0 
upper: 0, lower: 0 
upper: 1, lower: 0 
upper: 0, lower: 0 
upper: 1, lower: 0 
upper: 0, lower: 0 
upper: 0, lower: 1 
upper: 1, lower: 0 
upper: 0, lower: 0 
upper: 1, lower: 0 
upper: 0, lower: 1 
upper: 1, lower: 0 
upper: 0, lower: 0 
upper: 1, lower: 0 
upper: 0, lower: 0 
upper: 0, lower: 0 
upper: 1, lower: 0 
upper: 1, lower: 0 
upper: 0, lower: 0 
upper: 0, lower: 1 
upper: 1, lower: 0 
upper: 0, lower: 0 
upper: 0, lower: 1 
upper: 1, lower: 0 
upper: 0, lower: 0 
upper: 0, lower: 0 
upper: 0, lower: 1 
upper: 1, lower: 0 
upper: 1, lower: 0 
upper: 0, lower: 0 
upper: 1, lower: 0 
upper: 0, lower: 0 
upper: 0, lower: 0 
upper: 0, lower: 1 
upper: 1, lower: 0 
upper: 1, lower: 0 
upper: 1, lower: 0 
upper: 0, lower: 0 
upper: 0, lower: 0 
upper: 1, lower: 0 
upper: 0, lower: 0 
upper: 0, lower: 0 
upper: 0, lower: 1 
upper: 1, lower: 0 
upper: 1, lower: 0 
upper: 1, lower: 0 
upper: 0, lower: 1 
upper: 1, lower: 0 
upper: 0, lower: 0 
upper: 0, lower: 1 
upper: 1, lower: 0 
upper: 1, lower: 0 
upper: 0, lower: 0 
upper: 1, lower: 0 
upper: 0, lower: 0 
upper: 0, lower: 0 
upper: 0, lower: 0 
upper: 0, lower: 1 
upper: 0, lower: 0 
upper: 1, lower: 0 
upper: 0, lower: 0 
upper: 0, lower: 1 
upper: 1, lower: 0 
upper: 1, lower: 0 
upper: 0, lower: 0 
upper: 0, lower: 0 
upper: 1, lower: 0 
upper: 0, lower: 0 
upper: 0, lower: 1 
upper: 1, lower: 0 
upper: 0, lower: 1 
upper: 1, lower: 0 
upper: 0, lower: 0 
upper: 1, lower: 0 
upper: 0, lower: 0 
upper: 0, lower: 1 
upper: 1, lower: 0 
upper: 1, lower: 0 
upper: 0, lower: 0 
upper: 0, lower: 0 
upper: 0, lower: 0 
upper: 0, lower: 0 
upper: 0, lower: 0 
upper: 0, lower: 0 
upper: 0, lower: 0 
upper: 0, lower: 0 
upper: 0, lower: 0 
upper: 0, lower: 0 
upper: 0, lower: 0 
upper: 0, lower: 0 
upper: 1, lower: 0 
upper: 0, lower: 0 
upper: 0, lower: 1 
upper: 0, lower: 0 
upper: 1, lower: 0 
upper: 1, lower: 0 
upper: 0, lower: 0 
upper: 0, lower: 0 
upper: 0, lower: 0 
upper: 1, lower: 0 
upper: 1, lower: 0 
upper: 0, lower: 0 
upper: 0, lower: 0 
upper: 0, lower: 0 
upper: 0, lower: 0 
upper: 0, lower: 0 
upper: 0, lower: 0 
upper: 0, lower: 0 
upper: 0, lower: 0 
upper: 0, lower: 0 
upper: 0, lower: 0 
upper: 0, lower: 0 
upper: 0, lower: 0 
upper: 0, lower: 0 
upper: 1, lower: 0 
upper: 0, lower: 0 
upper: 0, lower: 0 
upper: 0, lower: 0 
upper: 0, lower: 0 
upper: 0, lower: 0 
upper: 0, lower: 1 
upper: 1, lower: 0 
upper: 0, lower: 0 
upper: 0, lower: 0 
upper: 1, lower: 0 
upper: 0, lower: 0 
upper: 0, lower: 0 
upper: 0, lower: 0 
upper: 0, lower: 0 
upper: 0, lower: 0 
upper: 0, lower: 0 
upper: 0, lower: 0 
upper: 0, lower: 0 
upper: 0, lower: 0 
upper: 0, lower: 0 
upper: 1, lower: 0 
upper: 0, lower: 0 
upper: 0, lower: 0 
upper: 0, lower: 0 
upper: 0, lower: 0 
upper: 0, lower: 0 
upper: 0, lower: 1 
upper: 1, lower: 0 
upper: 0, lower: 0 
upper: 0, lower: 0 
upper: 0, lower: 0 
upper: 0, lower: 0 
upper: 0, lower: 0 
upper: 0, lower: 1 
upper: 1, lower: 0 
upper: 0, lower: 0 
upper: 0, lower: 0 
upper: 0, lower: 0 
upper: 0, lower: 1 
upper: 1, lower: 0 
upper: 1, lower: 0 
upper: 1, lower: 0 
upper: 0, lower: 0 
upper: 0, lower: 0 
upper: 0, lower: 0 
upper: 1, lower: 0 
upper: 0, lower: 0 
upper: 1, lower: 0 
upper: 0, lower: 1 
upper: 1, lower: 0 
upper: 0, lower: 0 
upper: 1, lower: 0 
upper: 0, lower: 1 
upper: 1, lower: 0 
upper: 0, lower: 0 
upper: 0, lower: 1 
upper: 1, lower: 0 
upper: 0, lower: 0 
upper: 1, lower: 0 
upper: 0, lower: 0 
upper: 0, lower: 0 
upper: 0, lower: 0 
upper: 0, lower: 0 
upper: 0, lower: 0 
upper: 1, lower: 0 
upper: 0, lower: 0 
upper: 0, lower: 0 
upper: 0, lower: 0 
upper: 0, lower: 1 
upper: 1, lower: 0 
upper: 1, lower: 0 
upper: 0, lower: 0 
upper: 1, lower: 0 
upper: 0, lower: 0 
upper: 0, lower: 1 
upper: 1, lower: 0 
upper: 0, lower: 0 
upper: 0, lower: 0 
upper: 0, lower: 0 
upper: 0, lower: 0 
upper: 0, lower: 0 
upper: 0, lower: 0 
upper: 0, lower: 0 
upper: 0, lower: 0 
upper: 0, lower: 0 
upper: 0, lower: 0 
upper: 0, lower: 0 
upper: 0, lower: 0 
upper: 0, lower: 0 
upper: 0, lower: 1 
upper: 1, lower: 0 
upper: 1, lower: 0 
upper: 0, lower: 0 
upper: 1, lower: 0 
upper: 0, lower: 0 
upper: 1, lower: 0 
upper: 0, lower: 1 
upper: 1, lower: 0 
upper: 1, lower: 0 
upper: 1, lower: 0 
upper: 0, lower: 0 
upper: 1, lower: 0 
upper: 0, lower: 0 
upper: 0, lower: 0 
upper: 0, lower: 0 
upper: 0, lower: 0 
upper: 1, lower: 0 
upper: 0, lower: 0 
upper: 0, lower: 0 
upper: 0, lower: 0 
upper: 1, lower: 0 
upper: 0, lower: 0 
upper: 0, lower: 0 
upper: 0, lower: 0 
upper: 1, lower: 0 
upper: 0, lower: 0 
upper: 0, lower: 0 
upper: 0, lower: 1 
upper: 1, lower: 0 
upper: 1, lower: 0 
upper: 1, lower: 0 
upper: 0, lower: 0 
upper: 0, lower: 0 
upper: 1, lower: 0 
upper: 0, lower: 0 
upper: 0, lower: 0 
upper: 0, lower: 0 
upper: 0, lower: 0 
upper: 0, lower: 0 
upper: 1, lower: 0 
upper: 0, lower: 1 
upper: 1, lower: 0 
upper: 1, lower: 0 
upper: 0, lower: 0 
upper: 1, lower: 0 
upper: 0, lower: 0 
upper: 1, lower: 0 
upper: 0, lower: 0 
upper: 0, lower: 0 
upper: 0, lower: 1 
upper: 1, lower: 0 
upper: 0, lower: 1 
upper: 1, lower: 0 
upper: 1, lower: 0 
upper: 0, lower: 0 
upper: 1, lower: 0 
upper: 0, lower: 1 
upper: 1, lower: 0 
upper: 1, lower: 0 
upper: 0, lower: 0 
upper: 1, lower: 0 
upper: 0, lower: 0 
upper: 0, lower: 1 
upper: 1, lower: 0 
upper: 0, lower: 0 
