mrth: 72.56 cth: 62.92 usage: 42.98 residual: 29.58
mrth: 39.16 cth: 34.86 usage: 32.66 residual: 6.5
mrth: 71.68 cth: 63.35 usage: 51.1 residual: 20.58
mrth: 73.4 cth: 52.41 usage: 57.63 residual: 15.77
mrth: 156.69 cth: 140.83 usage: 116.46 residual: 40.23
mrth: 35.97 cth: 27.75 usage: 35.66 residual: 0.31
mrth: 140.48 cth: 126.18 usage: 116.64 residual: 23.84
mrth: 140.46 cth: 104.56 usage: 83.91 residual: 56.55
mrth: 175.67 cth: 134.1 usage: 135.61 residual: 40.06
mrth: 130.77 cth: 92.52 usage: 111.71 residual: 19.06
mrth: 70.47 cth: 61.52 usage: 63.29 residual: 7.18
mrth: 125.69 cth: 103.76 usage: 107.12 residual: 18.57
mrth: 85.7 cth: 73.21 usage: 83.03 residual: 2.67
mrth: 159.09 cth: 126.75 usage: 87.06 residual: 72.03
mrth: 104.77 cth: 90.84 usage: 77.08 residual: 27.69
mrth: 81.02 cth: 60.07 usage: 74.34 residual: 6.68
mrth: 72.99 cth: 60.98 usage: 46.17 residual: 26.82
mrth: 174.5 cth: 147.17 usage: 165.16 residual: 9.34
mrth: 99.4 cth: 88.48 usage: 52.22 residual: 47.18
mrth: 78.11 cth: 67.18 usage: 61.25 residual: 16.86
mrth: 56.49 cth: 41.1 usage: 44.16 residual: 12.33
mrth: 95.78 cth: 68.83 usage: 48.28 residual: 47.5
mrth: 66.6 cth: 51.56 usage: 38.08 residual: 28.52
mrth: 144.66 cth: 126.88 usage: 144.6 residual: 0.06
mrth: 45.47 cth: 33.82 usage: 33.09 residual: 12.38
mrth: 149.08 cth: 108.84 usage: 86.89 residual: 62.19
mrth: 80.03 cth: 63.62 usage: 64.6 residual: 15.43
mrth: 137.81 cth: 97.46 usage: 108.89 residual: 28.92
mrth: 117.03 cth: 103.76 usage: 62.54 residual: 54.49
mrth: 19.67 cth: 14.08 usage: 18.91 residual: 0.76
mrth: 136.82 cth: 107.69 usage: 106.03 residual: 30.79
mrth: 194.12 cth: 136.09 usage: 150.93 residual: 43.19
mrth: 89.82 cth: 69.33 usage: 89.2 residual: 0.62
mrth: 29.45 cth: 26.39 usage: 19.21 residual: 10.24
mrth: 21.32 cth: 18.01 usage: 12.95 residual: 8.37
mrth: 89.58 cth: 73.93 usage: 84.27 residual: 5.31
mrth: 79.0 cth: 56.78 usage: 73.36 residual: 5.64
mrth: 70.16 cth: 59.11 usage: 62.71 residual: 7.45
mrth: 57.53 cth: 44.8 usage: 33.57 residual: 23.96
mrth: 92.07 cth: 70.6 usage: 71.65 residual: 20.42
mrth: 14.54 cth: 11.2 usage: 7.67 residual: 6.87
mrth: 126.56 cth: 112.42 usage: 122.29 residual: 4.27
mrth: 42.16 cth: 35.87 usage: 23.9 residual: 18.26
mrth: 82.91 cth: 67.16 usage: 81.23 residual: 1.68
mrth: 63.0 cth: 50.31 usage: 42.12 residual: 20.88
mrth: 61.01 cth: 51.39 usage: 38.56 residual: 22.45
mrth: 88.64 cth: 65.14 usage: 55.27 residual: 33.37
mrth: 83.45 cth: 58.83 usage: 58.31 residual: 25.14
mrth: 47.09 cth: 34.43 usage: 30.18 residual: 16.91
mrth: 65.0 cth: 51.93 usage: 34.35 residual: 30.65
mrth: 106.35 cth: 82.78 usage: 89.47 residual: 16.88
mrth: 160.63 cth: 123.04 usage: 110.92 residual: 49.71
mrth: 167.96 cth: 121.24 usage: 167.83 residual: 0.13
mrth: 71.08 cth: 53.82 usage: 70.43 residual: 0.65
mrth: 155.48 cth: 118.07 usage: 78.7 residual: 76.78
mrth: 76.35 cth: 61.29 usage: 65.11 residual: 11.24
mrth: 123.68 cth: 106.21 usage: 107.69 residual: 15.99
mrth: 23.55 cth: 20.83 usage: 20.05 residual: 3.5
mrth: 107.89 cth: 79.65 usage: 60.74 residual: 47.15
mrth: 136.61 cth: 115.81 usage: 91.33 residual: 45.28
mrth: 234.4 cth: 194.22 usage: 225.79 residual: 8.61
mrth: 26.16 cth: 20.76 usage: 17.28 residual: 8.88
mrth: 180.53 cth: 153.5 usage: 159.52 residual: 21.01
mrth: 154.11 cth: 133.51 usage: 136.22 residual: 17.89
mrth: 139.23 cth: 102.57 usage: 85.38 residual: 53.85
mrth: 125.43 cth: 102.36 usage: 115.83 residual: 9.6
mrth: 65.8 cth: 48.65 usage: 59.3 residual: 6.5
mrth: 142.21 cth: 103.8 usage: 105.4 residual: 36.81
mrth: 126.08 cth: 111.86 usage: 100.88 residual: 25.2
mrth: 69.54 cth: 49.65 usage: 64.67 residual: 4.87
mrth: 229.24 cth: 178.54 usage: 181.66 residual: 47.58
mrth: 58.29 cth: 52.45 usage: 35.43 residual: 22.86
mrth: 149.7 cth: 127.98 usage: 111.47 residual: 38.23
mrth: 177.06 cth: 142.57 usage: 165.56 residual: 11.5
mrth: 90.36 cth: 64.56 usage: 85.06 residual: 5.3
mrth: 29.08 cth: 24.32 usage: 20.69 residual: 8.39
mrth: 105.95 cth: 93.6 usage: 83.65 residual: 22.3
mrth: 73.58 cth: 64.84 usage: 53.22 residual: 20.36
mrth: 23.43 cth: 17.73 usage: 22.19 residual: 1.24
mrth: 6.11 cth: 5.3 usage: 4.62 residual: 1.49
mrth: 25.53 cth: 18.87 usage: 20.65 residual: 4.88
mrth: 120.79 cth: 103.44 usage: 68.64 residual: 52.15
mrth: 18.39 cth: 14.94 usage: 16.64 residual: 1.75
mrth: 36.48 cth: 29.44 usage: 33.32 residual: 3.16
mrth: 75.67 cth: 66.16 usage: 54.3 residual: 21.37
mrth: 192.25 cth: 169.79 usage: 155.08 residual: 37.17
mrth: 220.63 cth: 182.15 usage: 123.65 residual: 96.98
mrth: 95.11 cth: 84.98 usage: 56.06 residual: 39.05
mrth: 180.13 cth: 139.49 usage: 93.29 residual: 86.84
mrth: 96.85 cth: 85.18 usage: 85.8 residual: 11.05
mrth: 29.42 cth: 23.53 usage: 23.07 residual: 6.35
mrth: 27.79 cth: 23.84 usage: 17.29 residual: 10.5
mrth: 121.33 cth: 97.35 usage: 89.4 residual: 31.93
mrth: 49.28 cth: 40.15 usage: 28.83 residual: 20.45
mrth: 34.11 cth: 25.95 usage: 17.3 residual: 16.81
mrth: 101.17 cth: 79.24 usage: 55.37 residual: 45.8
mrth: 112.08 cth: 92.65 usage: 63.45 residual: 48.63
mrth: 8.41 cth: 5.96 usage: 6.62 residual: 1.79
mrth: 71.4 cth: 58.98 usage: 36.88 residual: 34.52
mrth: 148.98 cth: 105.08 usage: 141.33 residual: 7.65
mrth: 49.49 cth: 38.14 usage: 49.48 residual: 0.01
mrth: 28.35 cth: 20.43 usage: 23.59 residual: 4.76
mrth: 49.41 cth: 34.66 usage: 43.02 residual: 6.39
mrth: 226.83 cth: 183.66 usage: 169.72 residual: 57.11
mrth: 124.89 cth: 102.58 usage: 117.04 residual: 7.85
mrth: 127.33 cth: 99.26 usage: 98.17 residual: 29.16
mrth: 81.11 cth: 70.57 usage: 56.49 residual: 24.62
mrth: 48.2 cth: 36.0 usage: 28.78 residual: 19.42
mrth: 11.53 cth: 8.84 usage: 9.27 residual: 2.26
mrth: 48.83 cth: 42.96 usage: 39.56 residual: 9.27
mrth: 181.86 cth: 139.54 usage: 153.91 residual: 27.95
mrth: 135.82 cth: 114.38 usage: 102.79 residual: 33.03
mrth: 147.42 cth: 104.25 usage: 129.84 residual: 17.58
mrth: 166.61 cth: 138.2 usage: 135.44 residual: 31.17
mrth: 109.24 cth: 79.26 usage: 89.15 residual: 20.09
mrth: 81.95 cth: 61.73 usage: 55.44 residual: 26.51
mrth: 93.24 cth: 74.66 usage: 57.76 residual: 35.48
mrth: 64.27 cth: 47.31 usage: 46.35 residual: 17.92
mrth: 49.21 cth: 36.4 usage: 42.63 residual: 6.58
mrth: 118.82 cth: 90.78 usage: 84.68 residual: 34.14
mrth: 122.46 cth: 99.78 usage: 72.93 residual: 49.53
mrth: 102.19 cth: 74.18 usage: 83.4 residual: 18.79
mrth: 177.02 cth: 151.65 usage: 144.02 residual: 33.0
mrth: 112.97 cth: 101.42 usage: 99.83 residual: 13.14
mrth: 128.8 cth: 114.47 usage: 94.01 residual: 34.79
mrth: 43.07 cth: 35.8 usage: 34.12 residual: 8.95
mrth: 78.72 cth: 57.4 usage: 57.98 residual: 20.74
mrth: 209.0 cth: 155.81 usage: 149.22 residual: 59.78
mrth: 112.46 cth: 100.69 usage: 90.5 residual: 21.96
mrth: 47.53 cth: 37.34 usage: 38.4 residual: 9.13
mrth: 65.6 cth: 54.79 usage: 32.94 residual: 32.66
mrth: 73.66 cth: 63.14 usage: 70.56 residual: 3.1
mrth: 126.59 cth: 90.67 usage: 99.52 residual: 27.07
mrth: 46.21 cth: 41.09 usage: 28.92 residual: 17.29
mrth: 46.99 cth: 33.46 usage: 33.92 residual: 13.07
mrth: 39.11 cth: 31.16 usage: 20.1 residual: 19.01
mrth: 105.66 cth: 80.45 usage: 88.35 residual: 17.31
mrth: 55.64 cth: 40.9 usage: 41.9 residual: 13.74
mrth: 119.53 cth: 101.15 usage: 113.09 residual: 6.44
mrth: 22.73 cth: 18.88 usage: 20.56 residual: 2.17
mrth: 85.29 cth: 72.53 usage: 48.93 residual: 36.36
mrth: 108.94 cth: 88.03 usage: 88.78 residual: 20.16
mrth: 50.75 cth: 39.45 usage: 35.54 residual: 15.21
mrth: 52.42 cth: 40.41 usage: 37.4 residual: 15.02
mrth: 205.24 cth: 182.5 usage: 135.5 residual: 69.74
mrth: 9.94 cth: 7.84 usage: 8.82 residual: 1.12
mrth: 164.62 cth: 126.72 usage: 130.01 residual: 34.61
mrth: 125.35 cth: 100.34 usage: 110.46 residual: 14.89
mrth: 57.45 cth: 40.7 usage: 51.97 residual: 5.48
mrth: 154.61 cth: 136.96 usage: 81.01 residual: 73.6
mrth: 73.29 cth: 57.18 usage: 37.02 residual: 36.27
mrth: 74.26 cth: 52.85 usage: 51.52 residual: 22.74
mrth: 148.83 cth: 122.99 usage: 76.51 residual: 72.32
mrth: 129.49 cth: 94.48 usage: 69.38 residual: 60.11
mrth: 86.94 cth: 77.44 usage: 54.49 residual: 32.45
mrth: 151.38 cth: 122.36 usage: 142.62 residual: 8.76
mrth: 71.41 cth: 55.49 usage: 67.32 residual: 4.09
mrth: 111.96 cth: 88.47 usage: 92.0 residual: 19.96
mrth: 194.99 cth: 163.02 usage: 138.78 residual: 56.21
mrth: 74.1 cth: 56.48 usage: 61.6 residual: 12.5
mrth: 83.12 cth: 63.24 usage: 77.73 residual: 5.39
mrth: 167.3 cth: 124.66 usage: 113.01 residual: 54.29
mrth: 8.36 cth: 6.46 usage: 7.79 residual: 0.57
mrth: 128.42 cth: 107.17 usage: 81.11 residual: 47.31
mrth: 79.53 cth: 64.93 usage: 41.07 residual: 38.46
mrth: 97.72 cth: 71.51 usage: 89.66 residual: 8.06
mrth: 132.33 cth: 109.18 usage: 131.93 residual: 0.4
mrth: 53.02 cth: 41.91 usage: 26.71 residual: 26.31
mrth: 164.47 cth: 116.02 usage: 103.72 residual: 60.75
mrth: 98.76 cth: 80.64 usage: 83.57 residual: 15.19
mrth: 87.42 cth: 65.32 usage: 65.39 residual: 22.03
mrth: 24.83 cth: 19.86 usage: 16.16 residual: 8.67
mrth: 153.66 cth: 133.48 usage: 84.34 residual: 69.32
mrth: 118.34 cth: 92.61 usage: 73.09 residual: 45.25
mrth: 51.15 cth: 39.28 usage: 47.93 residual: 3.22
mrth: 76.59 cth: 55.99 usage: 67.69 residual: 8.9
mrth: 7.93 cth: 5.63 usage: 4.38 residual: 3.55
mrth: 173.11 cth: 153.65 usage: 103.3 residual: 69.81
mrth: 50.61 cth: 35.84 usage: 29.87 residual: 20.74
mrth: 132.21 cth: 108.7 usage: 81.63 residual: 50.58
mrth: 131.99 cth: 116.73 usage: 119.39 residual: 12.6
mrth: 106.4 cth: 95.29 usage: 92.08 residual: 14.32
mrth: 80.84 cth: 57.61 usage: 50.67 residual: 30.17
mrth: 66.09 cth: 48.9 usage: 51.84 residual: 14.25
mrth: 127.04 cth: 109.92 usage: 107.0 residual: 20.04
mrth: 94.92 cth: 67.01 usage: 64.28 residual: 30.64
mrth: 35.0 cth: 30.09 usage: 33.36 residual: 1.64
mrth: 85.88 cth: 76.95 usage: 71.22 residual: 14.66
mrth: 102.73 cth: 85.89 usage: 66.26 residual: 36.47
mrth: 98.45 cth: 71.07 usage: 84.33 residual: 14.12
mrth: 64.27 cth: 47.99 usage: 44.6 residual: 19.67
mrth: 61.73 cth: 44.29 usage: 34.03 residual: 27.7
mrth: 147.62 cth: 122.2 usage: 130.76 residual: 16.86
mrth: 40.79 cth: 32.72 usage: 27.6 residual: 13.19
mrth: 46.22 cth: 35.65 usage: 23.59 residual: 22.63
mrth: 23.83 cth: 18.64 usage: 17.66 residual: 6.17
mrth: 54.97 cth: 42.12 usage: 32.7 residual: 22.27
mrth: 60.55 cth: 45.86 usage: 38.87 residual: 21.68
mrth: 88.82 cth: 69.61 usage: 58.51 residual: 30.31
mrth: 80.43 cth: 57.52 usage: 74.51 residual: 5.92
mrth: 114.13 cth: 84.93 usage: 66.46 residual: 47.67
mrth: 79.15 cth: 66.39 usage: 46.48 residual: 32.67
mrth: 54.09 cth: 38.58 usage: 40.49 residual: 13.6
mrth: 59.88 cth: 45.28 usage: 31.34 residual: 28.54
mrth: 120.77 cth: 89.64 usage: 83.25 residual: 37.52
mrth: 61.16 cth: 43.77 usage: 59.66 residual: 1.5
mrth: 220.0 cth: 176.74 usage: 151.63 residual: 68.37
mrth: 194.18 cth: 143.7 usage: 143.38 residual: 50.8
mrth: 102.65 cth: 86.1 usage: 74.48 residual: 28.17
mrth: 89.71 cth: 65.22 usage: 86.65 residual: 3.06
mrth: 65.88 cth: 56.23 usage: 55.96 residual: 9.92
mrth: 158.26 cth: 116.67 usage: 128.07 residual: 30.19
mrth: 157.72 cth: 121.48 usage: 105.73 residual: 51.99
mrth: 87.91 cth: 73.5 usage: 58.22 residual: 29.69
mrth: 75.0 cth: 52.76 usage: 47.8 residual: 27.2
mrth: 99.28 cth: 80.99 usage: 55.38 residual: 43.9
mrth: 61.09 cth: 47.68 usage: 31.04 residual: 30.05
mrth: 139.97 cth: 123.18 usage: 75.84 residual: 64.13
mrth: 88.29 cth: 72.98 usage: 84.08 residual: 4.21
mrth: 96.11 cth: 71.53 usage: 77.2 residual: 18.91
mrth: 274.99 cth: 221.58 usage: 158.48 residual: 116.51
mrth: 120.3 cth: 101.31 usage: 60.63 residual: 59.67
mrth: 233.32 cth: 187.94 usage: 163.83 residual: 69.49
mrth: 80.83 cth: 61.05 usage: 63.26 residual: 17.57
mrth: 220.16 cth: 170.16 usage: 157.1 residual: 63.06
mrth: 66.5 cth: 48.88 usage: 64.43 residual: 2.07
mrth: 42.21 cth: 35.81 usage: 37.39 residual: 4.82
mrth: 68.82 cth: 59.06 usage: 53.85 residual: 14.97
mrth: 57.32 cth: 42.83 usage: 44.83 residual: 12.49
mrth: 117.47 cth: 85.69 usage: 87.92 residual: 29.55
mrth: 119.6 cth: 98.75 usage: 93.42 residual: 26.18
mrth: 102.0 cth: 89.42 usage: 91.58 residual: 10.42
mrth: 42.31 cth: 32.99 usage: 33.07 residual: 9.24
mrth: 83.79 cth: 67.87 usage: 81.68 residual: 2.11
mrth: 85.71 cth: 71.51 usage: 71.49 residual: 14.22
mrth: 72.76 cth: 58.11 usage: 54.83 residual: 17.93
mrth: 158.64 cth: 122.48 usage: 122.05 residual: 36.59
mrth: 111.04 cth: 85.09 usage: 102.5 residual: 8.54
mrth: 54.56 cth: 44.47 usage: 35.44 residual: 19.12
mrth: 36.14 cth: 27.95 usage: 35.1 residual: 1.04
mrth: 205.32 cth: 166.5 usage: 151.46 residual: 53.86
mrth: 88.15 cth: 63.25 usage: 56.14 residual: 32.01
mrth: 112.98 cth: 80.56 usage: 77.75 residual: 35.23
mrth: 84.28 cth: 64.99 usage: 63.03 residual: 21.25
mrth: 45.98 cth: 34.83 usage: 23.91 residual: 22.07
mrth: 203.7 cth: 159.76 usage: 173.75 residual: 29.95
mrth: 107.29 cth: 94.18 usage: 78.36 residual: 28.93
mrth: 21.02 cth: 17.19 usage: 18.13 residual: 2.89
mrth: 173.57 cth: 147.77 usage: 104.47 residual: 69.1
mrth: 84.67 cth: 75.63 usage: 61.78 residual: 22.89
mrth: 155.83 cth: 114.79 usage: 123.9 residual: 31.93
mrth: 103.32 cth: 83.33 usage: 79.23 residual: 24.09
mrth: 122.29 cth: 99.81 usage: 81.76 residual: 40.53
mrth: 115.03 cth: 99.32 usage: 64.19 residual: 50.84
mrth: 119.38 cth: 86.87 usage: 85.87 residual: 33.51
mrth: 95.78 cth: 81.95 usage: 91.44 residual: 4.34
mrth: 26.78 cth: 23.53 usage: 15.7 residual: 11.08
mrth: 126.18 cth: 110.9 usage: 118.84 residual: 7.34
mrth: 43.25 cth: 30.61 usage: 22.97 residual: 20.28
mrth: 232.03 cth: 208.82 usage: 140.08 residual: 91.95
mrth: 100.15 cth: 79.64 usage: 90.0 residual: 10.15
mrth: 33.03 cth: 23.75 usage: 31.39 residual: 1.64
mrth: 152.57 cth: 135.88 usage: 106.43 residual: 46.14
mrth: 40.73 cth: 35.7 usage: 22.13 residual: 18.6
mrth: 137.36 cth: 103.15 usage: 132.3 residual: 5.06
mrth: 100.2 cth: 72.97 usage: 52.55 residual: 47.65
mrth: 133.3 cth: 93.37 usage: 116.75 residual: 16.55
mrth: 63.28 cth: 50.78 usage: 47.29 residual: 15.99
mrth: 105.69 cth: 94.08 usage: 53.16 residual: 52.53
mrth: 83.51 cth: 62.49 usage: 54.16 residual: 29.35
mrth: 120.03 cth: 89.14 usage: 64.61 residual: 55.42
mrth: 146.85 cth: 104.3 usage: 111.72 residual: 35.13
mrth: 62.04 cth: 47.24 usage: 44.64 residual: 17.4
mrth: 96.22 cth: 79.87 usage: 57.61 residual: 38.61
mrth: 48.45 cth: 34.63 usage: 39.57 residual: 8.88
mrth: 97.13 cth: 85.81 usage: 84.6 residual: 12.53
mrth: 183.73 cth: 132.42 usage: 125.39 residual: 58.34
mrth: 80.4 cth: 72.34 usage: 65.42 residual: 14.98
mrth: 68.04 cth: 48.63 usage: 54.22 residual: 13.82
mrth: 152.77 cth: 123.94 usage: 134.76 residual: 18.01
mrth: 29.81 cth: 21.22 usage: 29.2 residual: 0.61
mrth: 163.93 cth: 146.39 usage: 104.04 residual: 59.89
mrth: 82.74 cth: 63.29 usage: 82.26 residual: 0.48
mrth: 188.11 cth: 159.6 usage: 140.58 residual: 47.53
mrth: 82.51 cth: 72.21 usage: 52.29 residual: 30.22
mrth: 179.28 cth: 125.55 usage: 99.12 residual: 80.16
mrth: 113.01 cth: 88.47 usage: 84.71 residual: 28.3
mrth: 155.12 cth: 139.45 usage: 136.79 residual: 18.33
mrth: 210.36 cth: 182.86 usage: 143.53 residual: 66.83
mrth: 23.63 cth: 18.83 usage: 16.13 residual: 7.5
mrth: 50.82 cth: 36.89 usage: 44.57 residual: 6.25
mrth: 43.05 cth: 34.89 usage: 39.55 residual: 3.5
mrth: 111.01 cth: 93.92 usage: 81.04 residual: 29.97
mrth: 23.12 cth: 16.32 usage: 23.08 residual: 0.04
mrth: 144.02 cth: 114.82 usage: 78.82 residual: 65.2
mrth: 106.68 cth: 78.48 usage: 93.69 residual: 12.99
mrth: 62.32 cth: 46.14 usage: 37.45 residual: 24.87
mrth: 22.56 cth: 18.08 usage: 12.13 residual: 10.43
mrth: 69.54 cth: 52.44 usage: 36.19 residual: 33.35
mrth: 85.81 cth: 69.5 usage: 72.71 residual: 13.1
mrth: 99.22 cth: 72.5 usage: 96.19 residual: 3.03
mrth: 109.54 cth: 85.64 usage: 108.76 residual: 0.78
mrth: 210.96 cth: 150.54 usage: 156.97 residual: 53.99
mrth: 118.66 cth: 85.41 usage: 118.36 residual: 0.3
mrth: 44.09 cth: 36.81 usage: 24.98 residual: 19.11
mrth: 119.17 cth: 92.31 usage: 71.73 residual: 47.44
mrth: 109.14 cth: 87.36 usage: 86.93 residual: 22.21
mrth: 88.2 cth: 79.08 usage: 44.86 residual: 43.34
mrth: 59.48 cth: 42.31 usage: 52.9 residual: 6.58
mrth: 81.93 cth: 72.01 usage: 43.08 residual: 38.85
mrth: 56.0 cth: 43.84 usage: 43.9 residual: 12.1
mrth: 29.85 cth: 21.13 usage: 17.14 residual: 12.71
mrth: 141.83 cth: 107.01 usage: 130.79 residual: 11.04
mrth: 135.19 cth: 98.66 usage: 93.88 residual: 41.31
mrth: 78.83 cth: 56.78 usage: 68.27 residual: 10.56
mrth: 257.72 cth: 201.26 usage: 235.53 residual: 22.19
mrth: 113.55 cth: 81.37 usage: 83.02 residual: 30.53
mrth: 118.3 cth: 82.95 usage: 95.09 residual: 23.21
mrth: 123.04 cth: 96.13 usage: 99.72 residual: 23.32
mrth: 30.0 cth: 21.33 usage: 21.39 residual: 8.61
mrth: 29.62 cth: 20.84 usage: 29.62 residual: 0.0
mrth: 134.34 cth: 97.4 usage: 86.43 residual: 47.91
mrth: 55.59 cth: 39.98 usage: 48.92 residual: 6.67
mrth: 54.22 cth: 44.95 usage: 48.58 residual: 5.64
mrth: 111.46 cth: 84.1 usage: 74.71 residual: 36.75
mrth: 19.59 cth: 17.11 usage: 18.82 residual: 0.77
mrth: 70.65 cth: 54.52 usage: 53.91 residual: 16.74
mrth: 44.4 cth: 36.62 usage: 37.92 residual: 6.48
mrth: 71.48 cth: 51.06 usage: 45.8 residual: 25.68
mrth: 102.55 cth: 75.9 usage: 88.36 residual: 14.19
mrth: 106.65 cth: 91.82 usage: 74.3 residual: 32.35
mrth: 37.14 cth: 30.81 usage: 33.8 residual: 3.34
mrth: 115.11 cth: 95.35 usage: 86.15 residual: 28.96
mrth: 45.12 cth: 38.73 usage: 43.52 residual: 1.6
mrth: 276.67 cth: 242.79 usage: 164.6 residual: 112.07
mrth: 127.47 cth: 94.46 usage: 80.54 residual: 46.93
mrth: 115.29 cth: 94.16 usage: 90.86 residual: 24.43
mrth: 20.97 cth: 18.13 usage: 10.69 residual: 10.28
mrth: 28.25 cth: 25.41 usage: 19.24 residual: 9.01
mrth: 93.8 cth: 83.25 usage: 61.79 residual: 32.01
mrth: 97.77 cth: 72.82 usage: 82.94 residual: 14.83
mrth: 56.46 cth: 47.45 usage: 48.52 residual: 7.94
mrth: 41.12 cth: 32.53 usage: 34.18 residual: 6.94
mrth: 62.14 cth: 52.63 usage: 59.73 residual: 2.41
mrth: 100.72 cth: 87.8 usage: 65.37 residual: 35.35
mrth: 97.13 cth: 78.94 usage: 56.06 residual: 41.07
mrth: 56.1 cth: 49.9 usage: 38.27 residual: 17.83
mrth: 116.16 cth: 89.86 usage: 74.99 residual: 41.17
mrth: 86.14 cth: 71.47 usage: 73.33 residual: 12.81
mrth: 112.72 cth: 92.42 usage: 83.97 residual: 28.75
mrth: 103.6 cth: 85.5 usage: 79.31 residual: 24.29
mrth: 115.84 cth: 95.92 usage: 71.39 residual: 44.45
mrth: 58.87 cth: 47.73 usage: 48.62 residual: 10.25
mrth: 212.21 cth: 157.6 usage: 179.15 residual: 33.06
mrth: 158.58 cth: 123.02 usage: 79.77 residual: 78.81
mrth: 101.68 cth: 82.49 usage: 91.43 residual: 10.25
mrth: 34.37 cth: 29.49 usage: 18.1 residual: 16.27
mrth: 148.81 cth: 128.11 usage: 143.86 residual: 4.95
mrth: 58.81 cth: 42.96 usage: 44.73 residual: 14.08
mrth: 134.05 cth: 100.41 usage: 131.36 residual: 2.69
mrth: 135.53 cth: 96.69 usage: 76.79 residual: 58.74
mrth: 68.36 cth: 55.19 usage: 64.0 residual: 4.36
mrth: 110.31 cth: 96.84 usage: 78.69 residual: 31.62
mrth: 130.52 cth: 92.48 usage: 111.0 residual: 19.52
mrth: 167.93 cth: 124.33 usage: 147.31 residual: 20.62
mrth: 102.88 cth: 82.28 usage: 82.63 residual: 20.25
mrth: 107.96 cth: 86.44 usage: 56.98 residual: 50.98
mrth: 158.5 cth: 117.69 usage: 145.82 residual: 12.68
mrth: 71.57 cth: 59.97 usage: 60.14 residual: 11.43
mrth: 84.38 cth: 74.51 usage: 81.82 residual: 2.56
mrth: 90.75 cth: 69.34 usage: 87.97 residual: 2.78
mrth: 158.87 cth: 117.97 usage: 157.68 residual: 1.19
mrth: 83.41 cth: 58.62 usage: 77.81 residual: 5.6
mrth: 49.4 cth: 38.43 usage: 37.63 residual: 11.77
mrth: 104.14 cth: 86.19 usage: 64.98 residual: 39.16
mrth: 187.78 cth: 141.12 usage: 176.47 residual: 11.31
mrth: 92.62 cth: 66.9 usage: 89.66 residual: 2.96
mrth: 82.74 cth: 72.2 usage: 71.05 residual: 11.69
mrth: 128.0 cth: 92.16 usage: 68.3 residual: 59.7
mrth: 25.01 cth: 20.63 usage: 13.51 residual: 11.5
mrth: 113.45 cth: 83.08 usage: 58.33 residual: 55.12
mrth: 55.95 cth: 47.72 usage: 55.62 residual: 0.33
mrth: 131.8 cth: 114.97 usage: 99.44 residual: 32.36
mrth: 71.87 cth: 51.79 usage: 37.11 residual: 34.76
mrth: 44.11 cth: 37.97 usage: 24.78 residual: 19.33
mrth: 65.69 cth: 49.72 usage: 39.15 residual: 26.54
mrth: 40.57 cth: 29.25 usage: 27.4 residual: 13.17
mrth: 190.81 cth: 150.06 usage: 152.46 residual: 38.35
mrth: 81.28 cth: 63.1 usage: 45.06 residual: 36.22
mrth: 138.27 cth: 109.32 usage: 88.95 residual: 49.32
mrth: 151.99 cth: 107.74 usage: 89.24 residual: 62.75
mrth: 35.38 cth: 28.64 usage: 29.97 residual: 5.41
mrth: 75.35 cth: 66.91 usage: 45.78 residual: 29.57
mrth: 192.64 cth: 151.63 usage: 137.36 residual: 55.28
mrth: 25.48 cth: 18.54 usage: 20.68 residual: 4.8
mrth: 113.61 cth: 89.25 usage: 97.86 residual: 15.75
mrth: 84.77 cth: 66.07 usage: 54.82 residual: 29.95
mrth: 128.69 cth: 95.77 usage: 111.63 residual: 17.06
mrth: 39.26 cth: 30.25 usage: 36.43 residual: 2.83
mrth: 60.38 cth: 53.39 usage: 50.49 residual: 9.89
mrth: 54.27 cth: 41.92 usage: 33.12 residual: 21.15
mrth: 27.93 cth: 22.01 usage: 20.96 residual: 6.97
mrth: 91.09 cth: 79.08 usage: 85.52 residual: 5.57
mrth: 86.42 cth: 73.98 usage: 63.98 residual: 22.44
mrth: 107.11 cth: 90.53 usage: 77.44 residual: 29.67
mrth: 104.07 cth: 83.58 usage: 80.29 residual: 23.78
mrth: 60.27 cth: 45.31 usage: 57.45 residual: 2.82
mrth: 173.45 cth: 153.94 usage: 165.27 residual: 8.18
mrth: 62.07 cth: 49.62 usage: 44.78 residual: 17.29
mrth: 119.06 cth: 96.19 usage: 68.74 residual: 50.32
mrth: 31.02 cth: 27.21 usage: 23.58 residual: 7.44
mrth: 67.17 cth: 58.53 usage: 46.97 residual: 20.2
mrth: 53.95 cth: 37.78 usage: 34.69 residual: 19.26
mrth: 73.6 cth: 58.73 usage: 37.86 residual: 35.74
mrth: 131.17 cth: 117.12 usage: 118.64 residual: 12.53
mrth: 15.16 cth: 10.98 usage: 10.89 residual: 4.27
mrth: 82.65 cth: 74.18 usage: 59.11 residual: 23.54
mrth: 59.83 cth: 45.17 usage: 40.25 residual: 19.58
mrth: 50.46 cth: 40.56 usage: 41.16 residual: 9.3
mrth: 240.32 cth: 212.09 usage: 150.61 residual: 89.71
mrth: 92.08 cth: 72.34 usage: 52.36 residual: 39.72
mrth: 52.38 cth: 38.05 usage: 28.92 residual: 23.46
mrth: 261.01 cth: 203.95 usage: 244.01 residual: 17.0
mrth: 133.44 cth: 94.93 usage: 92.08 residual: 41.36
mrth: 119.97 cth: 97.89 usage: 92.74 residual: 27.23
mrth: 32.6 cth: 27.43 usage: 22.11 residual: 10.49
mrth: 58.8 cth: 42.14 usage: 44.64 residual: 14.16
mrth: 103.64 cth: 81.08 usage: 100.03 residual: 3.61
mrth: 130.82 cth: 106.91 usage: 107.71 residual: 23.11
mrth: 151.74 cth: 122.2 usage: 78.88 residual: 72.86
mrth: 59.08 cth: 43.04 usage: 55.32 residual: 3.76
mrth: 33.79 cth: 26.29 usage: 21.01 residual: 12.78
mrth: 183.34 cth: 164.87 usage: 178.52 residual: 4.82
mrth: 131.35 cth: 117.76 usage: 72.5 residual: 58.85
mrth: 78.59 cth: 69.2 usage: 59.88 residual: 18.71
mrth: 119.43 cth: 101.99 usage: 97.59 residual: 21.84
mrth: 49.67 cth: 42.36 usage: 46.96 residual: 2.71
mrth: 41.02 cth: 33.25 usage: 35.19 residual: 5.83
mrth: 43.18 cth: 31.57 usage: 22.57 residual: 20.61
mrth: 58.22 cth: 47.62 usage: 52.53 residual: 5.69
mrth: 79.93 cth: 67.68 usage: 40.26 residual: 39.67
mrth: 131.7 cth: 112.27 usage: 110.07 residual: 21.63
mrth: 112.84 cth: 100.34 usage: 74.43 residual: 38.41
mrth: 22.06 cth: 15.57 usage: 11.27 residual: 10.79
mrth: 58.56 cth: 52.1 usage: 47.5 residual: 11.06
mrth: 125.97 cth: 111.73 usage: 64.45 residual: 61.52
mrth: 55.2 cth: 46.86 usage: 30.54 residual: 24.66
mrth: 121.38 cth: 87.18 usage: 82.97 residual: 38.41
mrth: 11.75 cth: 9.01 usage: 9.65 residual: 2.1
mrth: 138.28 cth: 105.84 usage: 117.49 residual: 20.79
mrth: 113.02 cth: 87.17 usage: 88.22 residual: 24.8
mrth: 65.4 cth: 47.5 usage: 61.02 residual: 4.38
mrth: 69.52 cth: 61.02 usage: 42.74 residual: 26.78
mrth: 175.62 cth: 151.71 usage: 123.95 residual: 51.67
mrth: 141.42 cth: 117.49 usage: 102.21 residual: 39.21
mrth: 3.6 cth: 2.61 usage: 3.29 residual: 0.31
mrth: 54.45 cth: 41.52 usage: 53.14 residual: 1.31
mrth: 66.95 cth: 54.67 usage: 51.39 residual: 15.56
mrth: 238.25 cth: 172.18 usage: 236.43 residual: 1.82
mrth: 101.21 cth: 73.03 usage: 59.96 residual: 41.25
mrth: 93.82 cth: 65.85 usage: 64.59 residual: 29.23
mrth: 44.66 cth: 32.18 usage: 27.66 residual: 17.0
mrth: 98.7 cth: 85.9 usage: 69.25 residual: 29.45
mrth: 72.23 cth: 64.65 usage: 46.74 residual: 25.49
mrth: 25.45 cth: 20.26 usage: 21.49 residual: 3.96
mrth: 139.99 cth: 124.0 usage: 112.52 residual: 27.47
mrth: 64.68 cth: 49.23 usage: 53.39 residual: 11.29
mrth: 130.75 cth: 115.64 usage: 117.01 residual: 13.74
mrth: 94.06 cth: 83.57 usage: 53.06 residual: 41.0
mrth: 64.8 cth: 57.64 usage: 46.17 residual: 18.63
mrth: 77.74 cth: 58.85 usage: 54.78 residual: 22.96
mrth: 33.56 cth: 23.7 usage: 30.28 residual: 3.28
mrth: 167.47 cth: 150.55 usage: 160.04 residual: 7.43
mrth: 53.73 cth: 40.26 usage: 31.87 residual: 21.86
mrth: 133.48 cth: 94.86 usage: 68.58 residual: 64.9
mrth: 80.09 cth: 72.04 usage: 51.43 residual: 28.66
mrth: 67.86 cth: 53.9 usage: 61.81 residual: 6.05
mrth: 57.06 cth: 51.09 usage: 32.16 residual: 24.9
mrth: 136.01 cth: 114.5 usage: 104.98 residual: 31.03
mrth: 118.91 cth: 106.91 usage: 94.72 residual: 24.19
mrth: 74.76 cth: 66.8 usage: 56.76 residual: 18.0
mrth: 116.17 cth: 104.11 usage: 83.23 residual: 32.94
mrth: 148.4 cth: 118.49 usage: 126.91 residual: 21.49
mrth: 87.42 cth: 72.0 usage: 82.61 residual: 4.81
mrth: 112.83 cth: 84.48 usage: 64.17 residual: 48.66
mrth: 63.69 cth: 53.94 usage: 34.92 residual: 28.77
mrth: 120.39 cth: 84.98 usage: 89.84 residual: 30.55
mrth: 54.8 cth: 42.97 usage: 48.75 residual: 6.05
mrth: 60.21 cth: 48.84 usage: 59.11 residual: 1.1
mrth: 95.51 cth: 75.76 usage: 54.88 residual: 40.63
mrth: 182.77 cth: 137.3 usage: 168.23 residual: 14.54
mrth: 33.7 cth: 24.34 usage: 24.5 residual: 9.2
mrth: 180.16 cth: 155.73 usage: 158.74 residual: 21.42
mrth: 110.82 cth: 88.7 usage: 91.35 residual: 19.47
mrth: 240.42 cth: 186.36 usage: 174.86 residual: 65.56
mrth: 55.7 cth: 43.55 usage: 50.73 residual: 4.97
mrth: 50.86 cth: 41.01 usage: 37.26 residual: 13.6
mrth: 60.56 cth: 51.52 usage: 30.42 residual: 30.14
mrth: 69.88 cth: 58.18 usage: 66.27 residual: 3.61
mrth: 43.09 cth: 37.64 usage: 38.92 residual: 4.17
mrth: 27.13 cth: 23.88 usage: 20.08 residual: 7.05
mrth: 79.25 cth: 57.08 usage: 77.46 residual: 1.79
mrth: 79.58 cth: 65.42 usage: 42.33 residual: 37.25
mrth: 78.92 cth: 66.67 usage: 40.07 residual: 38.85
mrth: 62.44 cth: 54.74 usage: 51.46 residual: 10.98
mrth: 67.22 cth: 59.02 usage: 67.01 residual: 0.21
mrth: 129.36 cth: 112.18 usage: 76.55 residual: 52.81
mrth: 62.83 cth: 46.74 usage: 49.47 residual: 13.36
mrth: 47.51 cth: 35.82 usage: 39.11 residual: 8.4
mrth: 108.32 cth: 89.09 usage: 89.46 residual: 18.86
mrth: 141.35 cth: 122.39 usage: 95.69 residual: 45.66
mrth: 104.51 cth: 88.0 usage: 87.19 residual: 17.32
mrth: 167.13 cth: 136.47 usage: 99.41 residual: 67.72
mrth: 180.03 cth: 149.04 usage: 139.88 residual: 40.15
mrth: 186.23 cth: 152.13 usage: 104.09 residual: 82.14
mrth: 51.89 cth: 41.23 usage: 36.63 residual: 15.26
mrth: 74.84 cth: 61.8 usage: 37.86 residual: 36.98
mrth: 233.75 cth: 204.55 usage: 140.39 residual: 93.36
mrth: 44.13 cth: 33.46 usage: 39.17 residual: 4.96
mrth: 39.28 cth: 31.13 usage: 34.58 residual: 4.7
mrth: 89.69 cth: 72.46 usage: 57.93 residual: 31.76
mrth: 156.51 cth: 131.86 usage: 117.24 residual: 39.27
mrth: 63.27 cth: 49.78 usage: 48.02 residual: 15.25
mrth: 224.76 cth: 192.55 usage: 169.24 residual: 55.52
mrth: 53.43 cth: 38.67 usage: 45.87 residual: 7.56
mrth: 70.62 cth: 49.91 usage: 50.09 residual: 20.53
mrth: 39.0 cth: 31.31 usage: 35.94 residual: 3.06
mrth: 112.61 cth: 85.07 usage: 93.82 residual: 18.79
mrth: 90.65 cth: 73.91 usage: 80.54 residual: 10.11
mrth: 108.26 cth: 93.42 usage: 84.43 residual: 23.83
mrth: 69.5 cth: 52.78 usage: 37.87 residual: 31.63
mrth: 75.39 cth: 59.6 usage: 70.7 residual: 4.69
mrth: 117.32 cth: 86.39 usage: 82.94 residual: 34.38
mrth: 75.02 cth: 58.49 usage: 65.39 residual: 9.63
mrth: 51.8 cth: 44.36 usage: 38.01 residual: 13.79
mrth: 98.12 cth: 78.86 usage: 69.5 residual: 28.62
mrth: 35.79 cth: 31.06 usage: 31.68 residual: 4.11
mrth: 57.05 cth: 47.33 usage: 30.38 residual: 26.67
mrth: 79.25 cth: 67.02 usage: 40.06 residual: 39.19
mrth: 67.56 cth: 56.82 usage: 55.78 residual: 11.78
mrth: 10.66 cth: 8.16 usage: 6.13 residual: 4.53
mrth: 140.74 cth: 104.82 usage: 74.09 residual: 66.65
mrth: 118.22 cth: 95.23 usage: 89.74 residual: 28.48
mrth: 87.95 cth: 76.73 usage: 70.14 residual: 17.81
mrth: 103.26 cth: 83.06 usage: 98.9 residual: 4.36
mrth: 84.9 cth: 69.88 usage: 43.01 residual: 41.89
mrth: 215.47 cth: 187.06 usage: 199.04 residual: 16.43
mrth: 53.93 cth: 40.9 usage: 28.99 residual: 24.94
mrth: 50.81 cth: 41.39 usage: 32.32 residual: 18.49
mrth: 78.19 cth: 67.07 usage: 56.52 residual: 21.67
mrth: 208.61 cth: 156.68 usage: 197.26 residual: 11.35
mrth: 75.29 cth: 60.52 usage: 50.93 residual: 24.36
mrth: 2.59 cth: 1.95 usage: 1.66 residual: 0.93
mrth: 68.6 cth: 52.75 usage: 42.36 residual: 26.24
mrth: 122.11 cth: 86.22 usage: 66.74 residual: 55.37
mrth: 171.68 cth: 127.72 usage: 165.45 residual: 6.23
mrth: 105.72 cth: 94.13 usage: 92.74 residual: 12.98
mrth: 105.48 cth: 76.87 usage: 97.04 residual: 8.44
mrth: 167.91 cth: 132.51 usage: 117.55 residual: 50.36
mrth: 113.33 cth: 90.95 usage: 70.36 residual: 42.97
mrth: 58.09 cth: 51.21 usage: 33.34 residual: 24.75
mrth: 153.16 cth: 125.98 usage: 93.83 residual: 59.33
mrth: 132.44 cth: 116.85 usage: 116.63 residual: 15.81
mrth: 92.06 cth: 78.99 usage: 80.49 residual: 11.57
mrth: 129.75 cth: 99.51 usage: 110.88 residual: 18.87
mrth: 155.34 cth: 109.64 usage: 78.3 residual: 77.04
mrth: 80.21 cth: 60.4 usage: 69.35 residual: 10.86
mrth: 155.03 cth: 133.0 usage: 115.71 residual: 39.32
mrth: 102.12 cth: 84.5 usage: 88.68 residual: 13.44
mrth: 161.67 cth: 137.72 usage: 83.17 residual: 78.5
mrth: 88.59 cth: 70.89 usage: 60.12 residual: 28.47
mrth: 59.44 cth: 45.42 usage: 52.62 residual: 6.82
mrth: 146.56 cth: 112.47 usage: 142.25 residual: 4.31
mrth: 63.25 cth: 45.43 usage: 40.86 residual: 22.39
mrth: 86.09 cth: 62.36 usage: 49.56 residual: 36.53
mrth: 19.17 cth: 16.43 usage: 18.61 residual: 0.56
mrth: 52.65 cth: 38.02 usage: 30.48 residual: 22.17
mrth: 158.55 cth: 116.02 usage: 87.11 residual: 71.44
mrth: 84.51 cth: 65.19 usage: 50.98 residual: 33.53
mrth: 138.09 cth: 101.15 usage: 115.43 residual: 22.66
mrth: 36.91 cth: 26.31 usage: 36.44 residual: 0.47
mrth: 26.71 cth: 22.54 usage: 15.76 residual: 10.95
mrth: 146.86 cth: 129.91 usage: 97.49 residual: 49.37
mrth: 92.36 cth: 69.37 usage: 49.61 residual: 42.75
mrth: 105.56 cth: 92.56 usage: 88.65 residual: 16.91
mrth: 45.08 cth: 32.54 usage: 23.4 residual: 21.68
mrth: 82.07 cth: 72.4 usage: 68.28 residual: 13.79
mrth: 72.21 cth: 57.82 usage: 59.07 residual: 13.14
mrth: 93.91 cth: 67.64 usage: 81.42 residual: 12.49
mrth: 90.99 cth: 72.52 usage: 54.03 residual: 36.96
mrth: 124.2 cth: 96.24 usage: 84.01 residual: 40.19
mrth: 32.8 cth: 28.12 usage: 27.22 residual: 5.58
mrth: 39.75 cth: 28.84 usage: 32.1 residual: 7.65
mrth: 106.11 cth: 87.27 usage: 86.48 residual: 19.63
mrth: 68.44 cth: 53.96 usage: 66.11 residual: 2.33
mrth: 45.64 cth: 40.89 usage: 32.33 residual: 13.31
mrth: 333.14 cth: 259.47 usage: 168.43 residual: 164.71
mrth: 12.58 cth: 10.02 usage: 7.07 residual: 5.51
mrth: 119.69 cth: 96.71 usage: 77.12 residual: 42.57
mrth: 43.81 cth: 33.9 usage: 24.14 residual: 19.67
mrth: 165.83 cth: 148.22 usage: 145.17 residual: 20.66
mrth: 142.21 cth: 123.68 usage: 92.61 residual: 49.6
mrth: 48.37 cth: 35.95 usage: 46.85 residual: 1.52
mrth: 191.15 cth: 165.84 usage: 116.27 residual: 74.88
mrth: 75.49 cth: 54.99 usage: 43.8 residual: 31.69
mrth: 64.06 cth: 50.46 usage: 48.11 residual: 15.95
mrth: 3.88 cth: 3.23 usage: 3.62 residual: 0.26
mrth: 31.81 cth: 26.19 usage: 19.44 residual: 12.37
mrth: 70.6 cth: 56.57 usage: 60.08 residual: 10.52
mrth: 35.15 cth: 26.86 usage: 22.26 residual: 12.89
mrth: 169.83 cth: 142.65 usage: 124.05 residual: 45.78
mrth: 148.04 cth: 111.71 usage: 114.99 residual: 33.05
mrth: 200.16 cth: 158.26 usage: 174.29 residual: 25.87
mrth: 43.79 cth: 35.11 usage: 31.53 residual: 12.26
mrth: 88.61 cth: 68.04 usage: 54.24 residual: 34.37
mrth: 122.58 cth: 101.15 usage: 71.84 residual: 50.74
mrth: 46.9 cth: 33.23 usage: 36.72 residual: 10.18
mrth: 28.52 cth: 23.88 usage: 18.74 residual: 9.78
mrth: 163.08 cth: 146.49 usage: 156.41 residual: 6.67
mrth: 148.99 cth: 116.49 usage: 148.58 residual: 0.41
mrth: 114.07 cth: 96.58 usage: 58.92 residual: 55.15
mrth: 63.91 cth: 57.14 usage: 44.3 residual: 19.61
mrth: 173.5 cth: 152.76 usage: 165.26 residual: 8.24
mrth: 59.52 cth: 49.91 usage: 56.53 residual: 2.99
mrth: 55.32 cth: 46.99 usage: 43.19 residual: 12.13
mrth: 108.58 cth: 80.96 usage: 108.36 residual: 0.22
mrth: 46.69 cth: 34.28 usage: 29.77 residual: 16.92
mrth: 84.14 cth: 69.16 usage: 72.59 residual: 11.55
mrth: 57.72 cth: 43.23 usage: 54.29 residual: 3.43
mrth: 97.82 cth: 71.97 usage: 54.82 residual: 43.0
mrth: 190.06 cth: 156.3 usage: 150.64 residual: 39.42
mrth: 106.29 cth: 87.28 usage: 56.93 residual: 49.36
mrth: 47.81 cth: 38.85 usage: 26.58 residual: 21.23
mrth: 181.91 cth: 135.59 usage: 133.86 residual: 48.05
mrth: 112.46 cth: 79.08 usage: 64.63 residual: 47.83
mrth: 121.53 cth: 107.26 usage: 96.5 residual: 25.03
mrth: 47.0 cth: 34.01 usage: 28.84 residual: 18.16
mrth: 172.88 cth: 150.62 usage: 138.48 residual: 34.4
mrth: 41.66 cth: 31.72 usage: 31.94 residual: 9.72
mrth: 75.74 cth: 55.34 usage: 75.03 residual: 0.71
mrth: 55.89 cth: 44.55 usage: 29.78 residual: 26.11
mrth: 30.9 cth: 25.56 usage: 17.83 residual: 13.07
mrth: 50.23 cth: 40.05 usage: 34.18 residual: 16.05
mrth: 91.89 cth: 69.28 usage: 75.66 residual: 16.23
mrth: 82.64 cth: 69.94 usage: 50.16 residual: 32.48
mrth: 226.0 cth: 174.8 usage: 221.6 residual: 4.4
mrth: 116.35 cth: 90.52 usage: 106.11 residual: 10.24
mrth: 5.89 cth: 4.94 usage: 4.56 residual: 1.33
mrth: 29.96 cth: 26.2 usage: 21.16 residual: 8.8
mrth: 131.76 cth: 110.06 usage: 74.17 residual: 57.59
mrth: 138.22 cth: 107.06 usage: 120.12 residual: 18.1
mrth: 112.8 cth: 88.64 usage: 81.28 residual: 31.52
mrth: 43.85 cth: 37.15 usage: 31.93 residual: 11.92
mrth: 80.58 cth: 62.78 usage: 44.15 residual: 36.43
mrth: 96.75 cth: 71.03 usage: 74.16 residual: 22.59
mrth: 126.79 cth: 93.4 usage: 126.72 residual: 0.07
mrth: 76.13 cth: 56.69 usage: 49.37 residual: 26.76
mrth: 33.65 cth: 29.59 usage: 25.39 residual: 8.26
mrth: 70.03 cth: 49.89 usage: 56.74 residual: 13.29
mrth: 87.36 cth: 63.66 usage: 83.81 residual: 3.55
mrth: 177.67 cth: 124.78 usage: 137.75 residual: 39.92
mrth: 81.44 cth: 68.73 usage: 57.56 residual: 23.88
mrth: 68.27 cth: 53.12 usage: 42.75 residual: 25.52
mrth: 121.47 cth: 97.99 usage: 113.71 residual: 7.76
mrth: 250.88 cth: 178.05 usage: 212.1 residual: 38.78
mrth: 28.93 cth: 24.51 usage: 24.51 residual: 4.42
mrth: 119.85 cth: 105.38 usage: 113.4 residual: 6.45
mrth: 85.33 cth: 67.4 usage: 57.2 residual: 28.13
mrth: 134.35 cth: 114.52 usage: 85.68 residual: 48.67
mrth: 69.57 cth: 52.26 usage: 43.36 residual: 26.21
mrth: 23.17 cth: 18.71 usage: 21.91 residual: 1.26
mrth: 97.9 cth: 78.06 usage: 70.78 residual: 27.12
mrth: 11.08 cth: 8.23 usage: 8.39 residual: 2.69
mrth: 150.29 cth: 120.56 usage: 132.51 residual: 17.78
mrth: 40.47 cth: 34.58 usage: 23.18 residual: 17.29
mrth: 153.7 cth: 128.54 usage: 137.92 residual: 15.78
mrth: 102.08 cth: 80.11 usage: 92.55 residual: 9.53
mrth: 134.53 cth: 110.34 usage: 108.07 residual: 26.46
mrth: 102.41 cth: 79.56 usage: 80.68 residual: 21.73
mrth: 81.14 cth: 67.88 usage: 40.79 residual: 40.35
mrth: 191.03 cth: 153.97 usage: 144.36 residual: 46.67
mrth: 158.75 cth: 140.72 usage: 141.48 residual: 17.27
mrth: 183.53 cth: 156.29 usage: 140.61 residual: 42.92
mrth: 145.5 cth: 128.06 usage: 107.35 residual: 38.15
mrth: 24.76 cth: 18.85 usage: 23.97 residual: 0.79
mrth: 102.77 cth: 91.95 usage: 90.21 residual: 12.56
mrth: 136.09 cth: 96.13 usage: 122.71 residual: 13.38
mrth: 162.4 cth: 142.33 usage: 141.46 residual: 20.94
mrth: 64.7 cth: 50.53 usage: 48.0 residual: 16.7
mrth: 81.48 cth: 58.75 usage: 71.34 residual: 10.14
mrth: 182.49 cth: 128.66 usage: 139.44 residual: 43.05
mrth: 12.95 cth: 10.17 usage: 10.67 residual: 2.28
mrth: 123.89 cth: 108.99 usage: 65.48 residual: 58.41
mrth: 21.88 cth: 18.04 usage: 17.14 residual: 4.74
mrth: 63.59 cth: 50.66 usage: 38.38 residual: 25.21
mrth: 19.03 cth: 14.03 usage: 17.05 residual: 1.98
mrth: 135.97 cth: 105.46 usage: 131.93 residual: 4.04
mrth: 20.98 cth: 15.2 usage: 14.63 residual: 6.35
mrth: 83.77 cth: 64.98 usage: 71.03 residual: 12.74
mrth: 34.67 cth: 30.54 usage: 25.21 residual: 9.46
mrth: 101.4 cth: 86.45 usage: 64.55 residual: 36.85
mrth: 50.42 cth: 42.11 usage: 30.75 residual: 19.67
mrth: 181.58 cth: 138.95 usage: 94.8 residual: 86.78
mrth: 131.47 cth: 108.57 usage: 117.06 residual: 14.41
mrth: 33.87 cth: 25.01 usage: 33.28 residual: 0.59
mrth: 181.36 cth: 151.18 usage: 143.61 residual: 37.75
mrth: 80.29 cth: 70.6 usage: 77.05 residual: 3.24
mrth: 199.43 cth: 145.08 usage: 111.66 residual: 87.77
mrth: 100.41 cth: 79.64 usage: 57.03 residual: 43.38
mrth: 58.43 cth: 42.35 usage: 39.3 residual: 19.13
mrth: 109.03 cth: 81.32 usage: 89.74 residual: 19.29
mrth: 83.56 cth: 68.59 usage: 76.38 residual: 7.18
mrth: 71.25 cth: 57.47 usage: 66.68 residual: 4.57
mrth: 110.21 cth: 99.1 usage: 83.34 residual: 26.87
mrth: 107.71 cth: 88.26 usage: 86.88 residual: 20.83
mrth: 80.08 cth: 68.25 usage: 45.92 residual: 34.16
mrth: 84.68 cth: 65.94 usage: 65.83 residual: 18.85
mrth: 90.96 cth: 72.28 usage: 53.35 residual: 37.61
mrth: 74.83 cth: 61.01 usage: 62.88 residual: 11.95
mrth: 111.27 cth: 94.86 usage: 62.53 residual: 48.74
mrth: 124.94 cth: 96.56 usage: 69.99 residual: 54.95
mrth: 52.35 cth: 43.49 usage: 40.11 residual: 12.24
mrth: 90.93 cth: 80.92 usage: 50.23 residual: 40.7
mrth: 113.89 cth: 91.57 usage: 70.9 residual: 42.99
mrth: 76.07 cth: 66.79 usage: 57.3 residual: 18.77
mrth: 28.63 cth: 23.72 usage: 26.98 residual: 1.65
mrth: 1.5 cth: 1.08 usage: 1.15 residual: 0.35
mrth: 193.65 cth: 163.39 usage: 171.17 residual: 22.48
mrth: 159.67 cth: 129.11 usage: 151.85 residual: 7.82
mrth: 30.98 cth: 23.44 usage: 26.25 residual: 4.73
mrth: 40.59 cth: 29.84 usage: 36.65 residual: 3.94
mrth: 85.01 cth: 66.49 usage: 53.03 residual: 31.98
mrth: 253.57 cth: 207.83 usage: 251.76 residual: 1.81
mrth: 111.82 cth: 91.68 usage: 76.56 residual: 35.26
mrth: 139.68 cth: 119.91 usage: 115.3 residual: 24.38
mrth: 151.89 cth: 107.69 usage: 84.83 residual: 67.06
mrth: 75.11 cth: 58.79 usage: 72.41 residual: 2.7
mrth: 167.12 cth: 117.07 usage: 112.27 residual: 54.85
mrth: 151.38 cth: 116.11 usage: 112.91 residual: 38.47
mrth: 101.48 cth: 83.62 usage: 66.08 residual: 35.4
mrth: 133.01 cth: 96.98 usage: 124.08 residual: 8.93
mrth: 137.61 cth: 107.12 usage: 124.38 residual: 13.23
mrth: 25.06 cth: 19.77 usage: 24.88 residual: 0.18
mrth: 62.81 cth: 52.46 usage: 42.12 residual: 20.69
mrth: 133.41 cth: 94.89 usage: 67.2 residual: 66.21
mrth: 122.2 cth: 104.61 usage: 88.43 residual: 33.77
mrth: 173.31 cth: 125.33 usage: 106.88 residual: 66.43
mrth: 48.68 cth: 34.57 usage: 33.97 residual: 14.71
mrth: 51.69 cth: 36.37 usage: 50.24 residual: 1.45
mrth: 65.46 cth: 46.16 usage: 36.58 residual: 28.88
mrth: 162.19 cth: 134.18 usage: 108.09 residual: 54.1
mrth: 42.52 cth: 32.24 usage: 32.25 residual: 10.27
mrth: 73.75 cth: 57.01 usage: 69.27 residual: 4.48
mrth: 67.38 cth: 52.85 usage: 44.61 residual: 22.77
mrth: 89.97 cth: 65.94 usage: 47.35 residual: 42.62
mrth: 220.76 cth: 196.6 usage: 165.11 residual: 55.65
mrth: 52.53 cth: 44.1 usage: 49.38 residual: 3.15
mrth: 173.27 cth: 141.61 usage: 138.06 residual: 35.21
mrth: 134.79 cth: 116.31 usage: 109.78 residual: 25.01
mrth: 109.49 cth: 81.09 usage: 95.46 residual: 14.03
mrth: 141.57 cth: 125.81 usage: 128.84 residual: 12.73
mrth: 114.84 cth: 92.91 usage: 89.15 residual: 25.69
mrth: 53.22 cth: 46.42 usage: 38.98 residual: 14.24
mrth: 98.76 cth: 81.72 usage: 57.31 residual: 41.45
mrth: 97.56 cth: 81.96 usage: 80.95 residual: 16.61
mrth: 181.95 cth: 128.32 usage: 156.91 residual: 25.04
mrth: 112.63 cth: 100.31 usage: 92.36 residual: 20.27
mrth: 31.71 cth: 27.88 usage: 16.64 residual: 15.07
mrth: 104.02 cth: 81.31 usage: 67.93 residual: 36.09
mrth: 110.45 cth: 80.33 usage: 95.34 residual: 15.11
mrth: 235.23 cth: 169.11 usage: 139.96 residual: 95.27
mrth: 122.08 cth: 96.27 usage: 92.23 residual: 29.85
mrth: 85.65 cth: 73.52 usage: 79.51 residual: 6.14
mrth: 229.0 cth: 199.26 usage: 122.76 residual: 106.24
mrth: 126.85 cth: 91.12 usage: 94.92 residual: 31.93
mrth: 145.54 cth: 114.1 usage: 77.82 residual: 67.72
mrth: 148.12 cth: 108.87 usage: 104.26 residual: 43.86
mrth: 56.3 cth: 47.98 usage: 29.23 residual: 27.07
mrth: 75.11 cth: 56.62 usage: 67.85 residual: 7.26
mrth: 214.43 cth: 153.44 usage: 140.33 residual: 74.1
mrth: 36.14 cth: 27.84 usage: 35.48 residual: 0.66
mrth: 164.39 cth: 133.83 usage: 93.95 residual: 70.44
mrth: 115.98 cth: 81.31 usage: 71.21 residual: 44.77
mrth: 125.87 cth: 111.81 usage: 97.46 residual: 28.41
mrth: 31.12 cth: 24.41 usage: 26.92 residual: 4.2
mrth: 68.34 cth: 51.37 usage: 42.3 residual: 26.04
mrth: 31.09 cth: 23.96 usage: 23.58 residual: 7.51
mrth: 80.03 cth: 67.91 usage: 71.71 residual: 8.32
mrth: 147.99 cth: 119.11 usage: 109.33 residual: 38.66
mrth: 125.95 cth: 110.59 usage: 106.47 residual: 19.48
mrth: 16.83 cth: 14.78 usage: 16.3 residual: 0.53
mrth: 74.86 cth: 66.97 usage: 42.0 residual: 32.86
mrth: 108.55 cth: 91.25 usage: 107.19 residual: 1.36
mrth: 91.93 cth: 66.27 usage: 85.99 residual: 5.94
mrth: 154.02 cth: 110.31 usage: 94.15 residual: 59.87
mrth: 65.64 cth: 55.7 usage: 44.19 residual: 21.45
mrth: 47.25 cth: 40.91 usage: 28.76 residual: 18.49
mrth: 200.91 cth: 175.85 usage: 194.77 residual: 6.14
mrth: 34.43 cth: 29.55 usage: 29.09 residual: 5.34
mrth: 60.84 cth: 43.84 usage: 30.68 residual: 30.16
mrth: 52.65 cth: 36.91 usage: 38.44 residual: 14.21
mrth: 65.13 cth: 45.81 usage: 42.08 residual: 23.05
mrth: 19.54 cth: 16.25 usage: 14.98 residual: 4.56
mrth: 88.58 cth: 69.74 usage: 76.09 residual: 12.49
mrth: 138.27 cth: 104.2 usage: 128.55 residual: 9.72
mrth: 41.36 cth: 36.13 usage: 37.21 residual: 4.15
mrth: 154.65 cth: 112.4 usage: 114.54 residual: 40.11
mrth: 58.41 cth: 44.55 usage: 48.96 residual: 9.45
mrth: 230.37 cth: 188.69 usage: 214.04 residual: 16.33
mrth: 41.08 cth: 36.19 usage: 33.28 residual: 7.8
mrth: 123.1 cth: 94.36 usage: 79.94 residual: 43.16
mrth: 62.54 cth: 55.14 usage: 38.4 residual: 24.14
mrth: 39.13 cth: 31.19 usage: 33.94 residual: 5.19
mrth: 106.74 cth: 90.3 usage: 95.0 residual: 11.74
mrth: 82.67 cth: 64.07 usage: 62.1 residual: 20.57
mrth: 196.0 cth: 165.29 usage: 177.4 residual: 18.6
mrth: 54.67 cth: 42.14 usage: 31.94 residual: 22.73
mrth: 51.48 cth: 44.8 usage: 36.26 residual: 15.22
mrth: 127.35 cth: 113.87 usage: 82.15 residual: 45.2
mrth: 149.11 cth: 112.87 usage: 98.21 residual: 50.9
mrth: 132.7 cth: 107.89 usage: 117.82 residual: 14.88
mrth: 141.07 cth: 116.47 usage: 72.37 residual: 68.7
mrth: 217.74 cth: 165.47 usage: 158.93 residual: 58.81
mrth: 174.53 cth: 154.06 usage: 114.08 residual: 60.45
mrth: 24.01 cth: 18.76 usage: 21.93 residual: 2.08
mrth: 52.71 cth: 37.69 usage: 49.78 residual: 2.93
mrth: 274.99 cth: 238.19 usage: 184.43 residual: 90.56
mrth: 90.86 cth: 77.99 usage: 60.26 residual: 30.6
mrth: 83.41 cth: 65.96 usage: 48.59 residual: 34.82
mrth: 83.84 cth: 61.91 usage: 82.58 residual: 1.26
mrth: 141.04 cth: 119.52 usage: 129.16 residual: 11.88
mrth: 176.94 cth: 157.27 usage: 98.87 residual: 78.07
mrth: 48.5 cth: 36.08 usage: 39.26 residual: 9.24
mrth: 99.06 cth: 80.07 usage: 68.36 residual: 30.7
mrth: 32.13 cth: 23.17 usage: 28.65 residual: 3.48
mrth: 23.43 cth: 19.2 usage: 13.43 residual: 10.0
mrth: 92.3 cth: 68.42 usage: 49.65 residual: 42.65
mrth: 159.18 cth: 127.65 usage: 113.1 residual: 46.08
mrth: 151.57 cth: 111.54 usage: 95.56 residual: 56.01
mrth: 162.01 cth: 113.87 usage: 113.8 residual: 48.21
mrth: 87.75 cth: 62.67 usage: 56.94 residual: 30.81
mrth: 59.59 cth: 52.31 usage: 48.8 residual: 10.79
mrth: 114.63 cth: 93.69 usage: 87.03 residual: 27.6
mrth: 76.74 cth: 61.79 usage: 69.93 residual: 6.81
mrth: 99.84 cth: 72.64 usage: 69.19 residual: 30.65
mrth: 100.16 cth: 73.19 usage: 88.75 residual: 11.41
mrth: 210.55 cth: 170.19 usage: 161.76 residual: 48.79
mrth: 54.42 cth: 39.88 usage: 47.69 residual: 6.73
mrth: 152.07 cth: 118.21 usage: 91.79 residual: 60.28
mrth: 87.73 cth: 73.24 usage: 62.75 residual: 24.98
mrth: 152.05 cth: 111.99 usage: 131.53 residual: 20.52
mrth: 152.81 cth: 124.54 usage: 115.25 residual: 37.56
mrth: 60.62 cth: 45.12 usage: 45.18 residual: 15.44
mrth: 167.56 cth: 118.04 usage: 86.97 residual: 80.59
mrth: 28.4 cth: 24.53 usage: 18.57 residual: 9.83
mrth: 34.36 cth: 28.69 usage: 18.68 residual: 15.68
mrth: 84.31 cth: 67.54 usage: 66.43 residual: 17.88
mrth: 208.15 cth: 185.29 usage: 138.26 residual: 69.89
mrth: 150.2 cth: 125.32 usage: 123.31 residual: 26.89
mrth: 153.44 cth: 111.71 usage: 116.57 residual: 36.87
mrth: 128.53 cth: 115.35 usage: 96.06 residual: 32.47
mrth: 92.57 cth: 71.2 usage: 55.85 residual: 36.72
mrth: 91.08 cth: 67.1 usage: 66.69 residual: 24.39
mrth: 20.31 cth: 17.73 usage: 11.99 residual: 8.32
mrth: 186.3 cth: 154.29 usage: 172.57 residual: 13.73
mrth: 98.27 cth: 85.0 usage: 84.84 residual: 13.43
mrth: 95.04 cth: 83.58 usage: 58.83 residual: 36.21
mrth: 111.72 cth: 100.26 usage: 110.8 residual: 0.92
mrth: 90.41 cth: 72.22 usage: 56.68 residual: 33.73
mrth: 44.55 cth: 31.93 usage: 34.0 residual: 10.55
mrth: 72.71 cth: 53.5 usage: 45.32 residual: 27.39
mrth: 135.22 cth: 115.24 usage: 101.07 residual: 34.15
mrth: 244.37 cth: 188.23 usage: 139.43 residual: 104.94
mrth: 66.35 cth: 57.31 usage: 59.43 residual: 6.92
mrth: 175.67 cth: 150.29 usage: 104.36 residual: 71.31
mrth: 172.02 cth: 125.37 usage: 89.13 residual: 82.89
mrth: 112.98 cth: 85.02 usage: 96.56 residual: 16.42
mrth: 145.58 cth: 115.62 usage: 75.75 residual: 69.83
mrth: 33.91 cth: 25.27 usage: 29.25 residual: 4.66
mrth: 24.88 cth: 18.42 usage: 24.34 residual: 0.54
mrth: 203.46 cth: 169.72 usage: 140.8 residual: 62.66
mrth: 38.2 cth: 29.02 usage: 29.63 residual: 8.57
mrth: 104.78 cth: 74.25 usage: 92.99 residual: 11.79
mrth: 96.04 cth: 81.18 usage: 50.52 residual: 45.52
mrth: 29.31 cth: 23.9 usage: 15.62 residual: 13.69
mrth: 118.69 cth: 87.99 usage: 83.69 residual: 35.0
mrth: 80.5 cth: 66.5 usage: 67.04 residual: 13.46
mrth: 93.15 cth: 77.49 usage: 76.08 residual: 17.07
mrth: 72.75 cth: 50.99 usage: 61.58 residual: 11.17
mrth: 22.35 cth: 17.9 usage: 15.23 residual: 7.12
mrth: 7.86 cth: 7.03 usage: 5.97 residual: 1.89
mrth: 97.94 cth: 85.97 usage: 53.11 residual: 44.83
mrth: 183.74 cth: 156.25 usage: 112.05 residual: 71.69
mrth: 126.17 cth: 94.09 usage: 94.08 residual: 32.09
mrth: 4.07 cth: 3.42 usage: 3.13 residual: 0.94
mrth: 108.48 cth: 90.47 usage: 87.84 residual: 20.64
mrth: 120.74 cth: 92.39 usage: 83.14 residual: 37.6
mrth: 33.87 cth: 27.08 usage: 28.68 residual: 5.19
mrth: 67.34 cth: 52.08 usage: 61.99 residual: 5.35
mrth: 170.99 cth: 138.31 usage: 97.73 residual: 73.26
mrth: 33.35 cth: 29.99 usage: 31.94 residual: 1.41
mrth: 59.87 cth: 43.48 usage: 58.68 residual: 1.19
mrth: 115.0 cth: 87.99 usage: 105.48 residual: 9.52
mrth: 100.96 cth: 90.41 usage: 68.52 residual: 32.44
mrth: 139.53 cth: 100.95 usage: 74.93 residual: 64.6
mrth: 46.18 cth: 32.59 usage: 29.68 residual: 16.5
mrth: 92.36 cth: 66.79 usage: 52.71 residual: 39.65
mrth: 70.57 cth: 62.16 usage: 36.07 residual: 34.5
mrth: 186.44 cth: 143.63 usage: 154.19 residual: 32.25
mrth: 115.11 cth: 87.87 usage: 66.05 residual: 49.06
mrth: 69.82 cth: 52.33 usage: 35.72 residual: 34.1
mrth: 137.99 cth: 108.27 usage: 72.99 residual: 65.0
mrth: 91.02 cth: 80.38 usage: 56.83 residual: 34.19
mrth: 140.66 cth: 113.84 usage: 100.84 residual: 39.82
mrth: 108.25 cth: 81.91 usage: 68.02 residual: 40.23
mrth: 140.87 cth: 123.7 usage: 100.46 residual: 40.41
mrth: 181.57 cth: 151.25 usage: 143.67 residual: 37.9
mrth: 65.58 cth: 53.22 usage: 35.93 residual: 29.65
mrth: 130.77 cth: 103.18 usage: 74.83 residual: 55.94
mrth: 22.91 cth: 20.34 usage: 17.6 residual: 5.31
mrth: 31.22 cth: 22.34 usage: 30.13 residual: 1.09
mrth: 116.87 cth: 102.91 usage: 95.28 residual: 21.59
mrth: 86.25 cth: 64.87 usage: 61.4 residual: 24.85
mrth: 97.43 cth: 72.55 usage: 79.73 residual: 17.7
mrth: 52.76 cth: 44.91 usage: 41.98 residual: 10.78
mrth: 123.88 cth: 90.19 usage: 104.54 residual: 19.34
mrth: 78.07 cth: 63.52 usage: 75.62 residual: 2.45
mrth: 71.55 cth: 62.26 usage: 54.28 residual: 17.27
mrth: 82.05 cth: 64.66 usage: 48.8 residual: 33.25
mrth: 166.26 cth: 119.67 usage: 129.42 residual: 36.84
mrth: 217.52 cth: 166.28 usage: 181.73 residual: 35.79
mrth: 107.37 cth: 88.01 usage: 61.06 residual: 46.31
mrth: 31.82 cth: 22.61 usage: 19.2 residual: 12.62
mrth: 199.21 cth: 161.35 usage: 147.1 residual: 52.11
mrth: 68.3 cth: 55.51 usage: 46.44 residual: 21.86
mrth: 35.74 cth: 30.08 usage: 33.1 residual: 2.64
mrth: 94.61 cth: 83.64 usage: 87.48 residual: 7.13
mrth: 88.65 cth: 68.18 usage: 59.7 residual: 28.95
mrth: 121.37 cth: 109.09 usage: 88.41 residual: 32.96
mrth: 174.94 cth: 123.38 usage: 165.76 residual: 9.18
mrth: 43.03 cth: 34.07 usage: 27.39 residual: 15.64
mrth: 126.33 cth: 102.11 usage: 106.06 residual: 20.27
mrth: 161.4 cth: 122.24 usage: 131.54 residual: 29.86
mrth: 160.71 cth: 138.77 usage: 111.69 residual: 49.02
mrth: 62.23 cth: 46.34 usage: 47.54 residual: 14.69
mrth: 250.44 cth: 215.48 usage: 244.7 residual: 5.74
mrth: 96.82 cth: 77.14 usage: 76.8 residual: 20.02
mrth: 130.96 cth: 114.51 usage: 115.18 residual: 15.78
mrth: 132.2 cth: 95.29 usage: 68.15 residual: 64.05
mrth: 97.32 cth: 72.07 usage: 72.66 residual: 24.66
mrth: 79.78 cth: 59.87 usage: 39.93 residual: 39.85
mrth: 44.71 cth: 35.31 usage: 44.33 residual: 0.38
mrth: 150.67 cth: 127.93 usage: 119.91 residual: 30.76
mrth: 104.59 cth: 77.06 usage: 56.2 residual: 48.39
mrth: 83.54 cth: 70.07 usage: 50.67 residual: 32.87
mrth: 123.4 cth: 90.55 usage: 78.32 residual: 45.08
mrth: 35.55 cth: 25.52 usage: 23.11 residual: 12.44
mrth: 142.16 cth: 110.8 usage: 131.14 residual: 11.02
mrth: 44.14 cth: 34.12 usage: 28.85 residual: 15.29
mrth: 92.04 cth: 65.6 usage: 82.54 residual: 9.5
mrth: 130.43 cth: 106.44 usage: 71.34 residual: 59.09
mrth: 67.04 cth: 58.1 usage: 44.52 residual: 22.52
mrth: 73.24 cth: 61.58 usage: 49.3 residual: 23.94
mrth: 139.9 cth: 115.0 usage: 94.58 residual: 45.32
mrth: 123.22 cth: 87.62 usage: 88.27 residual: 34.95
mrth: 120.75 cth: 101.35 usage: 106.53 residual: 14.22
mrth: 192.72 cth: 158.87 usage: 101.75 residual: 90.97
mrth: 137.74 cth: 97.28 usage: 96.97 residual: 40.77
mrth: 148.08 cth: 132.21 usage: 86.53 residual: 61.55
mrth: 117.65 cth: 95.5 usage: 111.84 residual: 5.81
mrth: 172.07 cth: 146.02 usage: 90.33 residual: 81.74
mrth: 87.3 cth: 73.4 usage: 55.38 residual: 31.92
mrth: 75.72 cth: 67.74 usage: 44.76 residual: 30.96
mrth: 72.18 cth: 62.39 usage: 53.83 residual: 18.35
mrth: 162.32 cth: 120.1 usage: 148.37 residual: 13.95
mrth: 63.27 cth: 51.44 usage: 46.3 residual: 16.97
mrth: 13.47 cth: 11.78 usage: 11.04 residual: 2.43
mrth: 206.74 cth: 177.34 usage: 164.84 residual: 41.9
mrth: 74.87 cth: 53.11 usage: 62.45 residual: 12.42
mrth: 103.92 cth: 75.79 usage: 98.45 residual: 5.47
mrth: 101.16 cth: 90.89 usage: 70.1 residual: 31.06
mrth: 125.15 cth: 95.71 usage: 106.09 residual: 19.06
mrth: 168.51 cth: 132.38 usage: 109.61 residual: 58.9
mrth: 60.18 cth: 45.66 usage: 31.35 residual: 28.83
mrth: 92.57 cth: 81.34 usage: 75.02 residual: 17.55
mrth: 70.57 cth: 59.83 usage: 65.5 residual: 5.07
mrth: 35.1 cth: 29.82 usage: 22.18 residual: 12.92
mrth: 68.84 cth: 58.9 usage: 53.08 residual: 15.76
mrth: 78.09 cth: 61.24 usage: 67.46 residual: 10.63
mrth: 50.02 cth: 44.47 usage: 36.98 residual: 13.04
mrth: 77.78 cth: 65.76 usage: 62.61 residual: 15.17
mrth: 84.96 cth: 67.6 usage: 54.43 residual: 30.53
mrth: 99.25 cth: 76.48 usage: 96.53 residual: 2.72
mrth: 77.8 cth: 65.0 usage: 41.68 residual: 36.12
mrth: 83.03 cth: 66.92 usage: 52.5 residual: 30.53
mrth: 100.14 cth: 77.72 usage: 71.06 residual: 29.08
mrth: 150.2 cth: 131.81 usage: 91.42 residual: 58.78
mrth: 86.83 cth: 77.26 usage: 71.15 residual: 15.68
mrth: 47.09 cth: 36.19 usage: 25.57 residual: 21.52
mrth: 93.93 cth: 66.74 usage: 88.12 residual: 5.81
