mrth: 28.98 cth: 21.68 usage: 16.15 residual: 12.83
mrth: 36.53 cth: 27.27 usage: 35.65 residual: 0.88
mrth: 124.29 cth: 91.26 usage: 120.08 residual: 4.21
mrth: 56.74 cth: 48.77 usage: 37.59 residual: 19.15
mrth: 76.77 cth: 53.79 usage: 41.54 residual: 35.23
mrth: 31.81 cth: 25.67 usage: 28.15 residual: 3.66
mrth: 41.02 cth: 36.7 usage: 24.54 residual: 16.48
mrth: 45.4 cth: 36.82 usage: 36.54 residual: 8.86
mrth: 129.09 cth: 103.68 usage: 81.08 residual: 48.01
mrth: 62.5 cth: 47.57 usage: 57.97 residual: 4.53
mrth: 113.51 cth: 90.94 usage: 69.62 residual: 43.89
mrth: 84.56 cth: 65.79 usage: 49.21 residual: 35.35
mrth: 173.95 cth: 136.52 usage: 89.32 residual: 84.63
mrth: 107.56 cth: 85.93 usage: 105.07 residual: 2.49
mrth: 40.63 cth: 31.73 usage: 38.76 residual: 1.87
mrth: 167.41 cth: 137.26 usage: 151.2 residual: 16.21
mrth: 208.96 cth: 151.84 usage: 201.2 residual: 7.76
mrth: 45.59 cth: 37.13 usage: 32.02 residual: 13.57
mrth: 28.46 cth: 21.68 usage: 25.8 residual: 2.66
mrth: 67.69 cth: 52.66 usage: 38.36 residual: 29.33
mrth: 88.09 cth: 78.5 usage: 64.66 residual: 23.43
mrth: 104.33 cth: 81.44 usage: 101.56 residual: 2.77
mrth: 45.75 cth: 35.92 usage: 41.23 residual: 4.52
mrth: 86.18 cth: 63.98 usage: 53.47 residual: 32.71
mrth: 91.35 cth: 76.75 usage: 51.11 residual: 40.24
mrth: 61.16 cth: 49.93 usage: 32.99 residual: 28.17
mrth: 211.82 cth: 184.65 usage: 166.04 residual: 45.78
mrth: 94.11 cth: 74.46 usage: 83.38 residual: 10.73
mrth: 102.89 cth: 74.28 usage: 61.76 residual: 41.13
mrth: 92.39 cth: 64.81 usage: 46.56 residual: 45.83
mrth: 89.22 cth: 65.4 usage: 82.23 residual: 6.99
mrth: 129.38 cth: 100.35 usage: 96.82 residual: 32.56
mrth: 89.53 cth: 74.51 usage: 74.01 residual: 15.52
mrth: 79.76 cth: 69.66 usage: 46.12 residual: 33.64
mrth: 88.12 cth: 64.86 usage: 51.6 residual: 36.52
mrth: 107.95 cth: 82.94 usage: 79.32 residual: 28.63
mrth: 43.88 cth: 38.7 usage: 34.33 residual: 9.55
mrth: 54.55 cth: 44.91 usage: 43.33 residual: 11.22
mrth: 36.82 cth: 27.08 usage: 30.29 residual: 6.53
mrth: 108.74 cth: 90.89 usage: 87.0 residual: 21.74
mrth: 70.47 cth: 51.59 usage: 53.92 residual: 16.55
mrth: 88.03 cth: 72.41 usage: 54.16 residual: 33.87
mrth: 35.08 cth: 25.76 usage: 22.26 residual: 12.82
mrth: 262.07 cth: 235.76 usage: 189.43 residual: 72.64
mrth: 81.27 cth: 69.41 usage: 75.35 residual: 5.92
mrth: 173.93 cth: 122.72 usage: 123.58 residual: 50.35
mrth: 123.23 cth: 86.29 usage: 66.14 residual: 57.09
mrth: 112.32 cth: 97.98 usage: 110.08 residual: 2.24
mrth: 165.39 cth: 120.42 usage: 109.24 residual: 56.15
mrth: 46.27 cth: 40.35 usage: 31.38 residual: 14.89
mrth: 102.52 cth: 79.94 usage: 53.9 residual: 48.62
mrth: 67.35 cth: 60.26 usage: 65.38 residual: 1.97
mrth: 32.97 cth: 25.16 usage: 25.6 residual: 7.37
mrth: 51.2 cth: 41.16 usage: 48.23 residual: 2.97
mrth: 55.17 cth: 49.24 usage: 42.91 residual: 12.26
mrth: 101.28 cth: 75.84 usage: 86.35 residual: 14.93
mrth: 96.01 cth: 81.8 usage: 50.82 residual: 45.19
mrth: 195.99 cth: 172.97 usage: 179.85 residual: 16.14
mrth: 75.69 cth: 57.49 usage: 55.77 residual: 19.92
mrth: 73.47 cth: 61.78 usage: 59.39 residual: 14.08
mrth: 139.87 cth: 102.85 usage: 70.31 residual: 69.56
mrth: 70.87 cth: 54.92 usage: 58.24 residual: 12.63
mrth: 161.38 cth: 119.86 usage: 113.23 residual: 48.15
mrth: 123.77 cth: 93.55 usage: 118.99 residual: 4.78
mrth: 73.02 cth: 63.82 usage: 58.92 residual: 14.1
mrth: 190.73 cth: 159.14 usage: 181.22 residual: 9.51
mrth: 107.09 cth: 82.32 usage: 79.2 residual: 27.89
mrth: 44.08 cth: 33.26 usage: 37.65 residual: 6.43
mrth: 104.94 cth: 90.87 usage: 91.35 residual: 13.59
mrth: 179.16 cth: 160.86 usage: 119.84 residual: 59.32
mrth: 79.64 cth: 65.64 usage: 49.58 residual: 30.06
mrth: 71.48 cth: 51.11 usage: 56.26 residual: 15.22
mrth: 185.16 cth: 155.15 usage: 123.78 residual: 61.38
mrth: 131.69 cth: 104.49 usage: 83.69 residual: 48.0
mrth: 190.5 cth: 139.04 usage: 131.97 residual: 58.53
mrth: 53.23 cth: 40.16 usage: 45.95 residual: 7.28
mrth: 107.58 cth: 91.64 usage: 88.89 residual: 18.69
mrth: 30.28 cth: 24.76 usage: 28.74 residual: 1.54
mrth: 139.16 cth: 109.03 usage: 92.38 residual: 46.78
mrth: 85.33 cth: 73.35 usage: 84.29 residual: 1.04
mrth: 122.69 cth: 102.27 usage: 122.11 residual: 0.58
mrth: 145.15 cth: 118.99 usage: 100.58 residual: 44.57
mrth: 223.41 cth: 194.06 usage: 191.48 residual: 31.93
mrth: 168.35 cth: 146.66 usage: 130.33 residual: 38.02
mrth: 157.46 cth: 126.82 usage: 101.35 residual: 56.11
mrth: 171.32 cth: 144.12 usage: 122.04 residual: 49.28
mrth: 124.4 cth: 96.77 usage: 98.38 residual: 26.02
mrth: 58.48 cth: 48.45 usage: 51.01 residual: 7.47
mrth: 42.65 cth: 31.35 usage: 22.43 residual: 20.22
mrth: 116.85 cth: 86.43 usage: 112.65 residual: 4.2
mrth: 26.18 cth: 21.2 usage: 18.3 residual: 7.88
mrth: 137.39 cth: 105.16 usage: 124.28 residual: 13.11
mrth: 111.36 cth: 92.14 usage: 57.42 residual: 53.94
mrth: 66.99 cth: 54.54 usage: 53.02 residual: 13.97
mrth: 67.97 cth: 54.59 usage: 65.78 residual: 2.19
mrth: 93.92 cth: 71.86 usage: 60.27 residual: 33.65
mrth: 132.31 cth: 110.99 usage: 125.98 residual: 6.33
mrth: 114.95 cth: 98.47 usage: 84.12 residual: 30.83
mrth: 62.91 cth: 46.58 usage: 49.6 residual: 13.31
mrth: 61.45 cth: 55.15 usage: 53.39 residual: 8.06
mrth: 71.76 cth: 63.7 usage: 39.44 residual: 32.32
mrth: 68.29 cth: 49.84 usage: 58.67 residual: 9.62
mrth: 108.81 cth: 77.25 usage: 60.61 residual: 48.2
mrth: 29.31 cth: 22.29 usage: 16.5 residual: 12.81
mrth: 67.0 cth: 59.76 usage: 38.98 residual: 28.02
mrth: 108.75 cth: 93.3 usage: 99.81 residual: 8.94
mrth: 117.91 cth: 88.48 usage: 87.6 residual: 30.31
mrth: 69.27 cth: 50.79 usage: 62.22 residual: 7.05
mrth: 187.82 cth: 168.94 usage: 172.22 residual: 15.6
mrth: 164.98 cth: 139.29 usage: 93.11 residual: 71.87
mrth: 60.01 cth: 50.51 usage: 47.49 residual: 12.52
mrth: 88.92 cth: 73.85 usage: 48.94 residual: 39.98
mrth: 124.65 cth: 94.84 usage: 109.57 residual: 15.08
mrth: 63.5 cth: 46.87 usage: 59.79 residual: 3.71
mrth: 156.0 cth: 131.29 usage: 140.24 residual: 15.76
mrth: 59.92 cth: 50.95 usage: 56.99 residual: 2.93
mrth: 36.17 cth: 27.86 usage: 28.48 residual: 7.69
mrth: 87.53 cth: 65.01 usage: 57.67 residual: 29.86
mrth: 54.97 cth: 45.49 usage: 36.19 residual: 18.78
mrth: 76.25 cth: 58.8 usage: 65.81 residual: 10.44
mrth: 69.56 cth: 61.58 usage: 67.49 residual: 2.07
mrth: 79.51 cth: 66.1 usage: 63.34 residual: 16.17
mrth: 97.36 cth: 86.56 usage: 93.86 residual: 3.5
mrth: 174.36 cth: 148.87 usage: 135.63 residual: 38.73
mrth: 176.29 cth: 127.95 usage: 124.49 residual: 51.8
mrth: 85.63 cth: 64.59 usage: 76.8 residual: 8.83
mrth: 59.77 cth: 51.85 usage: 56.75 residual: 3.02
mrth: 44.3 cth: 36.61 usage: 30.3 residual: 14.0
mrth: 176.32 cth: 132.8 usage: 100.0 residual: 76.32
mrth: 37.16 cth: 31.26 usage: 19.77 residual: 17.39
mrth: 112.41 cth: 87.15 usage: 87.93 residual: 24.48
mrth: 63.35 cth: 55.22 usage: 63.29 residual: 0.06
mrth: 63.28 cth: 47.24 usage: 45.93 residual: 17.35
mrth: 102.5 cth: 75.83 usage: 96.72 residual: 5.78
mrth: 240.13 cth: 195.22 usage: 170.53 residual: 69.6
mrth: 77.15 cth: 65.33 usage: 42.16 residual: 34.99
mrth: 49.77 cth: 36.25 usage: 35.39 residual: 14.38
mrth: 123.51 cth: 89.93 usage: 79.4 residual: 44.11
mrth: 118.36 cth: 88.53 usage: 104.03 residual: 14.33
mrth: 67.01 cth: 59.6 usage: 40.85 residual: 26.16
mrth: 61.91 cth: 43.94 usage: 36.16 residual: 25.75
mrth: 100.39 cth: 84.51 usage: 63.91 residual: 36.48
mrth: 18.27 cth: 14.25 usage: 15.68 residual: 2.59
mrth: 61.89 cth: 54.62 usage: 31.21 residual: 30.68
mrth: 75.17 cth: 60.85 usage: 43.85 residual: 31.32
mrth: 101.63 cth: 71.31 usage: 52.98 residual: 48.65
mrth: 39.88 cth: 35.02 usage: 32.14 residual: 7.74
mrth: 76.95 cth: 56.14 usage: 66.94 residual: 10.01
mrth: 42.29 cth: 31.25 usage: 40.62 residual: 1.67
mrth: 38.97 cth: 34.0 usage: 27.93 residual: 11.04
mrth: 154.13 cth: 134.01 usage: 103.48 residual: 50.65
mrth: 60.84 cth: 53.82 usage: 60.29 residual: 0.55
mrth: 21.09 cth: 14.88 usage: 18.46 residual: 2.63
mrth: 87.31 cth: 66.88 usage: 78.55 residual: 8.76
mrth: 64.81 cth: 47.45 usage: 53.41 residual: 11.4
mrth: 137.88 cth: 119.01 usage: 89.11 residual: 48.77
mrth: 114.96 cth: 90.8 usage: 65.15 residual: 49.81
mrth: 4.93 cth: 3.89 usage: 2.95 residual: 1.98
mrth: 143.42 cth: 103.2 usage: 143.01 residual: 0.41
mrth: 115.73 cth: 103.81 usage: 77.26 residual: 38.47
mrth: 113.86 cth: 80.59 usage: 64.46 residual: 49.4
mrth: 162.56 cth: 130.61 usage: 97.67 residual: 64.89
mrth: 115.96 cth: 96.29 usage: 91.34 residual: 24.62
mrth: 58.7 cth: 42.68 usage: 44.19 residual: 14.51
mrth: 189.24 cth: 135.05 usage: 149.32 residual: 39.92
mrth: 78.74 cth: 67.56 usage: 59.28 residual: 19.46
mrth: 152.14 cth: 113.93 usage: 99.03 residual: 53.11
mrth: 111.19 cth: 93.54 usage: 99.38 residual: 11.81
mrth: 100.58 cth: 86.09 usage: 65.08 residual: 35.5
mrth: 111.4 cth: 88.15 usage: 111.06 residual: 0.34
mrth: 160.86 cth: 134.76 usage: 100.83 residual: 60.03
mrth: 115.24 cth: 81.89 usage: 114.38 residual: 0.86
mrth: 56.27 cth: 43.06 usage: 54.79 residual: 1.48
mrth: 17.04 cth: 14.34 usage: 13.24 residual: 3.8
mrth: 59.08 cth: 42.51 usage: 48.62 residual: 10.46
mrth: 51.23 cth: 39.48 usage: 42.84 residual: 8.39
mrth: 75.83 cth: 60.71 usage: 71.6 residual: 4.23
mrth: 124.14 cth: 97.54 usage: 71.81 residual: 52.33
mrth: 63.0 cth: 48.53 usage: 56.56 residual: 6.44
mrth: 124.59 cth: 104.06 usage: 67.07 residual: 57.52
mrth: 156.25 cth: 127.15 usage: 103.75 residual: 52.5
mrth: 72.76 cth: 53.61 usage: 42.86 residual: 29.9
mrth: 152.05 cth: 110.05 usage: 99.06 residual: 52.99
mrth: 79.34 cth: 66.74 usage: 63.2 residual: 16.14
mrth: 127.43 cth: 106.5 usage: 113.05 residual: 14.38
mrth: 55.88 cth: 45.17 usage: 41.18 residual: 14.7
mrth: 98.39 cth: 85.98 usage: 84.39 residual: 14.0
mrth: 223.03 cth: 193.92 usage: 185.86 residual: 37.17
mrth: 148.49 cth: 113.83 usage: 134.42 residual: 14.07
mrth: 77.53 cth: 56.04 usage: 53.07 residual: 24.46
mrth: 131.92 cth: 108.78 usage: 131.79 residual: 0.13
mrth: 129.87 cth: 100.51 usage: 76.5 residual: 53.37
mrth: 105.04 cth: 91.54 usage: 91.68 residual: 13.36
mrth: 102.74 cth: 83.99 usage: 74.98 residual: 27.76
mrth: 42.8 cth: 30.0 usage: 26.04 residual: 16.76
mrth: 135.22 cth: 103.62 usage: 101.31 residual: 33.91
mrth: 106.14 cth: 74.64 usage: 97.94 residual: 8.2
mrth: 95.15 cth: 66.86 usage: 50.93 residual: 44.22
mrth: 227.6 cth: 188.42 usage: 164.97 residual: 62.63
mrth: 58.85 cth: 42.98 usage: 35.24 residual: 23.61
mrth: 81.12 cth: 57.97 usage: 50.38 residual: 30.74
mrth: 119.52 cth: 95.16 usage: 109.27 residual: 10.25
mrth: 144.98 cth: 124.99 usage: 142.69 residual: 2.29
mrth: 106.23 cth: 78.47 usage: 58.91 residual: 47.32
mrth: 181.74 cth: 163.13 usage: 141.63 residual: 40.11
mrth: 129.6 cth: 95.27 usage: 107.97 residual: 21.63
mrth: 31.1 cth: 26.79 usage: 28.52 residual: 2.58
mrth: 146.41 cth: 109.04 usage: 108.36 residual: 38.05
mrth: 22.53 cth: 18.65 usage: 17.87 residual: 4.66
mrth: 43.83 cth: 38.28 usage: 31.97 residual: 11.86
mrth: 57.44 cth: 41.35 usage: 45.6 residual: 11.84
mrth: 165.47 cth: 146.92 usage: 147.86 residual: 17.61
mrth: 128.35 cth: 97.67 usage: 117.83 residual: 10.52
mrth: 110.79 cth: 87.19 usage: 61.38 residual: 49.41
mrth: 151.95 cth: 113.98 usage: 138.82 residual: 13.13
mrth: 79.82 cth: 61.9 usage: 71.12 residual: 8.7
mrth: 84.38 cth: 61.29 usage: 75.56 residual: 8.82
mrth: 126.35 cth: 103.2 usage: 67.11 residual: 59.24
mrth: 110.45 cth: 81.58 usage: 63.73 residual: 46.72
mrth: 53.9 cth: 42.37 usage: 49.26 residual: 4.64
mrth: 118.7 cth: 88.24 usage: 63.54 residual: 55.16
mrth: 120.14 cth: 95.84 usage: 81.21 residual: 38.93
mrth: 3.65 cth: 3.02 usage: 2.99 residual: 0.66
mrth: 73.51 cth: 58.19 usage: 66.95 residual: 6.56
mrth: 135.69 cth: 115.87 usage: 110.69 residual: 25.0
mrth: 56.4 cth: 50.06 usage: 42.64 residual: 13.76
mrth: 60.3 cth: 49.63 usage: 38.98 residual: 21.32
mrth: 75.76 cth: 61.35 usage: 75.31 residual: 0.45
mrth: 119.33 cth: 100.37 usage: 98.41 residual: 20.92
mrth: 47.8 cth: 33.61 usage: 41.69 residual: 6.11
mrth: 96.58 cth: 80.81 usage: 83.17 residual: 13.41
mrth: 105.75 cth: 74.54 usage: 98.08 residual: 7.67
mrth: 16.06 cth: 13.16 usage: 12.34 residual: 3.72
mrth: 182.2 cth: 162.61 usage: 91.92 residual: 90.28
mrth: 138.14 cth: 116.19 usage: 86.1 residual: 52.04
mrth: 36.37 cth: 28.85 usage: 20.63 residual: 15.74
mrth: 120.05 cth: 89.27 usage: 82.52 residual: 37.53
mrth: 84.5 cth: 68.82 usage: 46.77 residual: 37.73
mrth: 86.62 cth: 64.65 usage: 84.93 residual: 1.69
mrth: 36.78 cth: 26.34 usage: 28.97 residual: 7.81
mrth: 144.61 cth: 123.81 usage: 94.88 residual: 49.73
mrth: 167.38 cth: 127.29 usage: 113.54 residual: 53.84
mrth: 140.76 cth: 118.61 usage: 138.76 residual: 2.0
mrth: 11.71 cth: 9.78 usage: 8.47 residual: 3.24
mrth: 172.03 cth: 150.37 usage: 129.8 residual: 42.23
mrth: 22.63 cth: 16.91 usage: 11.77 residual: 10.86
mrth: 73.6 cth: 55.15 usage: 45.89 residual: 27.71
mrth: 100.4 cth: 71.71 usage: 88.89 residual: 11.51
mrth: 179.18 cth: 147.4 usage: 150.77 residual: 28.41
mrth: 31.92 cth: 27.61 usage: 31.68 residual: 0.24
mrth: 67.68 cth: 59.47 usage: 50.78 residual: 16.9
mrth: 128.41 cth: 103.04 usage: 114.09 residual: 14.32
mrth: 53.57 cth: 39.39 usage: 50.17 residual: 3.4
mrth: 85.48 cth: 60.78 usage: 67.95 residual: 17.53
mrth: 109.64 cth: 84.14 usage: 100.01 residual: 9.63
mrth: 65.04 cth: 50.04 usage: 57.31 residual: 7.73
mrth: 79.21 cth: 64.99 usage: 63.06 residual: 16.15
mrth: 162.99 cth: 115.0 usage: 114.4 residual: 48.59
mrth: 113.42 cth: 101.64 usage: 108.95 residual: 4.47
mrth: 136.76 cth: 98.57 usage: 96.49 residual: 40.27
mrth: 45.37 cth: 33.71 usage: 31.36 residual: 14.01
mrth: 128.26 cth: 101.12 usage: 107.32 residual: 20.94
mrth: 20.16 cth: 15.12 usage: 19.94 residual: 0.22
mrth: 59.28 cth: 46.6 usage: 39.34 residual: 19.94
mrth: 53.41 cth: 39.78 usage: 30.69 residual: 22.72
mrth: 91.22 cth: 76.19 usage: 82.49 residual: 8.73
mrth: 176.64 cth: 152.98 usage: 170.22 residual: 6.42
mrth: 51.46 cth: 38.83 usage: 27.96 residual: 23.5
mrth: 89.24 cth: 67.69 usage: 47.94 residual: 41.3
mrth: 102.83 cth: 91.4 usage: 99.52 residual: 3.31
mrth: 43.58 cth: 38.62 usage: 27.46 residual: 16.12
mrth: 181.84 cth: 142.2 usage: 117.82 residual: 64.02
mrth: 133.42 cth: 102.31 usage: 111.81 residual: 21.61
mrth: 180.81 cth: 157.26 usage: 104.25 residual: 76.56
mrth: 112.68 cth: 89.31 usage: 62.63 residual: 50.05
mrth: 112.18 cth: 90.51 usage: 74.99 residual: 37.19
mrth: 95.67 cth: 72.16 usage: 88.16 residual: 7.51
mrth: 227.05 cth: 189.95 usage: 179.78 residual: 47.27
mrth: 125.34 cth: 94.45 usage: 110.9 residual: 14.44
mrth: 41.36 cth: 34.49 usage: 31.82 residual: 9.54
mrth: 145.63 cth: 115.27 usage: 116.77 residual: 28.86
mrth: 90.82 cth: 72.37 usage: 58.79 residual: 32.03
mrth: 75.39 cth: 65.48 usage: 42.17 residual: 33.22
mrth: 79.16 cth: 64.37 usage: 70.36 residual: 8.8
mrth: 39.06 cth: 28.86 usage: 24.05 residual: 15.01
mrth: 114.39 cth: 90.29 usage: 105.46 residual: 8.93
mrth: 218.3 cth: 159.76 usage: 122.32 residual: 95.98
mrth: 85.67 cth: 75.27 usage: 68.33 residual: 17.34
mrth: 194.8 cth: 149.81 usage: 162.98 residual: 31.82
mrth: 40.63 cth: 29.67 usage: 38.4 residual: 2.23
mrth: 55.96 cth: 43.2 usage: 48.78 residual: 7.18
mrth: 115.39 cth: 83.5 usage: 113.95 residual: 1.44
mrth: 132.07 cth: 99.57 usage: 126.02 residual: 6.05
mrth: 78.78 cth: 59.36 usage: 39.81 residual: 38.97
mrth: 92.62 cth: 75.36 usage: 47.19 residual: 45.43
mrth: 83.98 cth: 73.74 usage: 81.16 residual: 2.82
mrth: 31.6 cth: 27.49 usage: 20.67 residual: 10.93
mrth: 71.75 cth: 55.34 usage: 48.11 residual: 23.64
mrth: 22.57 cth: 17.75 usage: 20.8 residual: 1.77
mrth: 87.53 cth: 76.59 usage: 66.49 residual: 21.04
mrth: 81.57 cth: 61.96 usage: 50.05 residual: 31.52
mrth: 61.19 cth: 48.9 usage: 44.78 residual: 16.41
mrth: 108.0 cth: 88.59 usage: 84.39 residual: 23.61
mrth: 166.09 cth: 123.5 usage: 87.25 residual: 78.84
mrth: 189.61 cth: 158.18 usage: 102.28 residual: 87.33
mrth: 107.87 cth: 80.24 usage: 87.58 residual: 20.29
mrth: 63.23 cth: 47.11 usage: 39.28 residual: 23.95
mrth: 66.69 cth: 47.81 usage: 57.04 residual: 9.65
mrth: 53.7 cth: 39.12 usage: 44.33 residual: 9.37
mrth: 96.82 cth: 83.55 usage: 67.58 residual: 29.24
mrth: 75.2 cth: 62.13 usage: 47.29 residual: 27.91
mrth: 36.82 cth: 30.39 usage: 35.74 residual: 1.08
mrth: 122.04 cth: 86.35 usage: 91.32 residual: 30.72
mrth: 74.34 cth: 55.62 usage: 44.7 residual: 29.64
mrth: 73.54 cth: 58.58 usage: 49.86 residual: 23.68
mrth: 47.16 cth: 40.27 usage: 33.2 residual: 13.96
mrth: 37.88 cth: 30.67 usage: 26.84 residual: 11.04
mrth: 142.77 cth: 106.48 usage: 118.56 residual: 24.21
mrth: 80.53 cth: 58.34 usage: 53.46 residual: 27.07
mrth: 146.36 cth: 124.12 usage: 126.06 residual: 20.3
mrth: 61.37 cth: 52.36 usage: 53.67 residual: 7.7
mrth: 120.52 cth: 99.61 usage: 101.47 residual: 19.05
mrth: 135.92 cth: 121.51 usage: 104.41 residual: 31.51
mrth: 25.25 cth: 18.05 usage: 22.53 residual: 2.72
mrth: 26.38 cth: 19.25 usage: 21.22 residual: 5.16
mrth: 119.4 cth: 103.65 usage: 112.89 residual: 6.51
mrth: 88.76 cth: 71.34 usage: 48.11 residual: 40.65
mrth: 105.22 cth: 77.34 usage: 55.49 residual: 49.73
mrth: 110.59 cth: 92.3 usage: 61.26 residual: 49.33
mrth: 14.71 cth: 10.57 usage: 8.31 residual: 6.4
mrth: 153.95 cth: 115.46 usage: 131.11 residual: 22.84
mrth: 106.34 cth: 88.64 usage: 85.93 residual: 20.41
mrth: 132.64 cth: 100.4 usage: 93.78 residual: 38.86
mrth: 103.72 cth: 86.5 usage: 87.5 residual: 16.22
mrth: 72.43 cth: 54.53 usage: 43.07 residual: 29.36
mrth: 59.7 cth: 46.9 usage: 32.86 residual: 26.84
mrth: 191.85 cth: 169.83 usage: 170.62 residual: 21.23
mrth: 70.54 cth: 61.24 usage: 67.2 residual: 3.34
mrth: 19.69 cth: 17.7 usage: 15.16 residual: 4.53
mrth: 155.66 cth: 110.03 usage: 153.27 residual: 2.39
mrth: 125.27 cth: 101.3 usage: 112.33 residual: 12.94
mrth: 161.81 cth: 122.75 usage: 90.67 residual: 71.14
mrth: 104.33 cth: 85.85 usage: 98.76 residual: 5.57
mrth: 143.81 cth: 112.77 usage: 103.57 residual: 40.24
mrth: 54.47 cth: 38.34 usage: 53.02 residual: 1.45
mrth: 26.7 cth: 22.97 usage: 15.62 residual: 11.08
mrth: 150.82 cth: 110.1 usage: 131.41 residual: 19.41
mrth: 114.51 cth: 84.56 usage: 67.16 residual: 47.35
mrth: 51.91 cth: 45.63 usage: 32.89 residual: 19.02
mrth: 34.44 cth: 25.81 usage: 18.89 residual: 15.55
mrth: 47.92 cth: 43.02 usage: 42.88 residual: 5.04
mrth: 106.38 cth: 76.52 usage: 98.41 residual: 7.97
mrth: 60.89 cth: 49.48 usage: 55.53 residual: 5.36
mrth: 20.82 cth: 16.54 usage: 16.82 residual: 4.0
mrth: 142.45 cth: 117.91 usage: 90.77 residual: 51.68
mrth: 117.72 cth: 92.23 usage: 67.46 residual: 50.26
mrth: 88.37 cth: 69.81 usage: 74.96 residual: 13.41
mrth: 64.14 cth: 47.95 usage: 43.17 residual: 20.97
mrth: 79.97 cth: 70.95 usage: 74.28 residual: 5.69
mrth: 101.39 cth: 80.7 usage: 90.67 residual: 10.72
mrth: 163.75 cth: 134.62 usage: 155.99 residual: 7.76
mrth: 103.95 cth: 84.22 usage: 54.85 residual: 49.1
mrth: 159.69 cth: 136.27 usage: 135.26 residual: 24.43
mrth: 113.01 cth: 81.65 usage: 57.26 residual: 55.75
mrth: 83.95 cth: 72.36 usage: 51.69 residual: 32.26
mrth: 136.89 cth: 99.78 usage: 87.76 residual: 49.13
mrth: 25.58 cth: 19.52 usage: 23.27 residual: 2.31
mrth: 36.99 cth: 30.51 usage: 25.62 residual: 11.37
mrth: 40.03 cth: 28.24 usage: 31.55 residual: 8.48
mrth: 82.04 cth: 72.66 usage: 54.85 residual: 27.19
mrth: 48.68 cth: 39.65 usage: 32.7 residual: 15.98
mrth: 72.28 cth: 53.0 usage: 57.38 residual: 14.9
mrth: 104.67 cth: 87.31 usage: 75.8 residual: 28.87
mrth: 50.72 cth: 45.21 usage: 30.88 residual: 19.84
mrth: 169.27 cth: 133.16 usage: 87.13 residual: 82.14
mrth: 29.53 cth: 22.32 usage: 28.52 residual: 1.01
mrth: 83.51 cth: 68.05 usage: 52.27 residual: 31.24
mrth: 75.89 cth: 56.32 usage: 72.57 residual: 3.32
mrth: 74.24 cth: 58.31 usage: 38.36 residual: 35.88
mrth: 122.52 cth: 103.57 usage: 102.14 residual: 20.38
mrth: 39.65 cth: 29.3 usage: 26.98 residual: 12.67
mrth: 208.64 cth: 167.74 usage: 205.56 residual: 3.08
mrth: 55.84 cth: 48.58 usage: 54.12 residual: 1.72
mrth: 71.99 cth: 63.4 usage: 59.51 residual: 12.48
mrth: 130.03 cth: 107.0 usage: 89.9 residual: 40.13
mrth: 175.23 cth: 125.57 usage: 171.86 residual: 3.37
mrth: 116.73 cth: 99.47 usage: 59.45 residual: 57.28
mrth: 102.24 cth: 81.27 usage: 102.02 residual: 0.22
mrth: 98.76 cth: 70.79 usage: 63.12 residual: 35.64
mrth: 106.52 cth: 76.28 usage: 74.11 residual: 32.41
mrth: 141.04 cth: 104.55 usage: 108.14 residual: 32.9
mrth: 45.16 cth: 32.24 usage: 44.36 residual: 0.8
mrth: 15.5 cth: 12.28 usage: 13.23 residual: 2.27
mrth: 63.44 cth: 45.72 usage: 59.95 residual: 3.49
mrth: 108.92 cth: 85.7 usage: 75.44 residual: 33.48
mrth: 71.75 cth: 62.51 usage: 47.65 residual: 24.1
mrth: 238.54 cth: 209.46 usage: 151.15 residual: 87.39
mrth: 91.15 cth: 73.54 usage: 85.7 residual: 5.45
mrth: 18.92 cth: 16.65 usage: 15.12 residual: 3.8
mrth: 78.41 cth: 64.21 usage: 64.74 residual: 13.67
mrth: 98.11 cth: 78.12 usage: 89.56 residual: 8.55
mrth: 127.4 cth: 102.61 usage: 127.17 residual: 0.23
mrth: 36.21 cth: 31.87 usage: 27.5 residual: 8.71
mrth: 169.55 cth: 136.21 usage: 162.26 residual: 7.29
mrth: 181.63 cth: 146.08 usage: 166.32 residual: 15.31
mrth: 111.93 cth: 90.49 usage: 84.07 residual: 27.86
mrth: 52.78 cth: 47.43 usage: 39.21 residual: 13.57
mrth: 57.32 cth: 41.44 usage: 31.03 residual: 26.29
mrth: 175.19 cth: 126.14 usage: 95.15 residual: 80.04
mrth: 92.84 cth: 72.34 usage: 70.25 residual: 22.59
mrth: 31.49 cth: 26.54 usage: 20.1 residual: 11.39
mrth: 39.4 cth: 33.83 usage: 20.38 residual: 19.02
mrth: 19.55 cth: 17.1 usage: 13.81 residual: 5.74
mrth: 64.41 cth: 53.08 usage: 52.69 residual: 11.72
mrth: 112.39 cth: 93.43 usage: 85.51 residual: 26.88
mrth: 135.33 cth: 102.03 usage: 73.73 residual: 61.6
mrth: 85.25 cth: 75.04 usage: 70.96 residual: 14.29
mrth: 25.33 cth: 22.09 usage: 17.29 residual: 8.04
mrth: 69.23 cth: 52.45 usage: 39.39 residual: 29.84
mrth: 40.28 cth: 29.34 usage: 36.33 residual: 3.95
mrth: 70.1 cth: 58.41 usage: 36.51 residual: 33.59
mrth: 68.22 cth: 55.54 usage: 62.68 residual: 5.54
mrth: 71.59 cth: 54.07 usage: 64.02 residual: 7.57
mrth: 45.66 cth: 39.41 usage: 34.43 residual: 11.23
mrth: 98.58 cth: 70.0 usage: 83.23 residual: 15.35
mrth: 115.43 cth: 98.77 usage: 101.29 residual: 14.14
mrth: 127.52 cth: 103.38 usage: 81.63 residual: 45.89
mrth: 41.48 cth: 31.13 usage: 35.69 residual: 5.79
mrth: 86.44 cth: 62.46 usage: 64.53 residual: 21.91
mrth: 74.59 cth: 60.4 usage: 48.99 residual: 25.6
mrth: 37.82 cth: 33.17 usage: 23.63 residual: 14.19
mrth: 33.24 cth: 26.56 usage: 17.49 residual: 15.75
mrth: 38.56 cth: 34.57 usage: 36.76 residual: 1.8
mrth: 36.89 cth: 26.76 usage: 32.56 residual: 4.33
mrth: 43.54 cth: 34.86 usage: 35.05 residual: 8.49
mrth: 122.78 cth: 87.59 usage: 61.85 residual: 60.93
mrth: 90.62 cth: 76.74 usage: 75.59 residual: 15.03
mrth: 53.96 cth: 46.8 usage: 48.79 residual: 5.17
mrth: 28.74 cth: 22.47 usage: 18.89 residual: 9.85
mrth: 137.01 cth: 113.78 usage: 98.97 residual: 38.04
mrth: 80.63 cth: 66.84 usage: 53.06 residual: 27.57
mrth: 46.39 cth: 39.9 usage: 31.11 residual: 15.28
mrth: 183.33 cth: 159.5 usage: 182.72 residual: 0.61
mrth: 179.23 cth: 147.65 usage: 153.49 residual: 25.74
mrth: 86.08 cth: 72.47 usage: 60.02 residual: 26.06
mrth: 62.33 cth: 53.88 usage: 60.0 residual: 2.33
mrth: 67.81 cth: 55.58 usage: 60.41 residual: 7.4
mrth: 86.61 cth: 77.37 usage: 82.18 residual: 4.43
mrth: 168.39 cth: 136.12 usage: 102.59 residual: 65.8
mrth: 26.05 cth: 22.79 usage: 20.47 residual: 5.58
mrth: 152.63 cth: 122.79 usage: 122.98 residual: 29.65
mrth: 117.56 cth: 89.57 usage: 99.77 residual: 17.79
mrth: 76.18 cth: 54.29 usage: 62.7 residual: 13.48
mrth: 89.35 cth: 73.66 usage: 74.92 residual: 14.43
mrth: 149.36 cth: 129.39 usage: 141.3 residual: 8.06
mrth: 133.26 cth: 100.95 usage: 128.68 residual: 4.58
mrth: 141.78 cth: 125.71 usage: 118.27 residual: 23.51
mrth: 82.25 cth: 69.21 usage: 62.55 residual: 19.7
mrth: 107.41 cth: 91.58 usage: 64.15 residual: 43.26
mrth: 208.21 cth: 179.12 usage: 166.34 residual: 41.87
mrth: 40.09 cth: 32.62 usage: 25.8 residual: 14.29
mrth: 49.23 cth: 41.29 usage: 40.01 residual: 9.22
mrth: 211.32 cth: 186.27 usage: 130.26 residual: 81.06
mrth: 32.44 cth: 26.33 usage: 29.01 residual: 3.43
mrth: 88.34 cth: 70.29 usage: 49.79 residual: 38.55
mrth: 94.53 cth: 76.2 usage: 55.08 residual: 39.45
mrth: 62.37 cth: 46.99 usage: 37.67 residual: 24.7
mrth: 57.53 cth: 40.44 usage: 44.08 residual: 13.45
mrth: 82.47 cth: 71.88 usage: 72.71 residual: 9.76
mrth: 95.92 cth: 78.99 usage: 64.36 residual: 31.56
mrth: 72.27 cth: 56.82 usage: 44.66 residual: 27.61
mrth: 110.43 cth: 85.22 usage: 59.99 residual: 50.44
mrth: 67.14 cth: 51.54 usage: 41.59 residual: 25.55
mrth: 206.28 cth: 176.43 usage: 148.77 residual: 57.51
mrth: 46.73 cth: 34.57 usage: 38.69 residual: 8.04
mrth: 39.12 cth: 31.09 usage: 23.99 residual: 15.13
mrth: 95.44 cth: 83.86 usage: 50.93 residual: 44.51
mrth: 155.91 cth: 135.74 usage: 100.16 residual: 55.75
mrth: 120.68 cth: 91.0 usage: 101.28 residual: 19.4
mrth: 74.02 cth: 61.97 usage: 49.21 residual: 24.81
mrth: 36.52 cth: 26.05 usage: 24.19 residual: 12.33
mrth: 88.97 cth: 70.64 usage: 65.26 residual: 23.71
mrth: 75.26 cth: 59.63 usage: 49.67 residual: 25.59
mrth: 135.18 cth: 105.98 usage: 79.77 residual: 55.41
mrth: 46.23 cth: 36.36 usage: 25.55 residual: 20.68
mrth: 24.92 cth: 20.07 usage: 23.65 residual: 1.27
mrth: 76.41 cth: 66.95 usage: 74.29 residual: 2.12
mrth: 123.39 cth: 99.4 usage: 107.31 residual: 16.08
mrth: 114.7 cth: 87.23 usage: 64.66 residual: 50.04
mrth: 93.93 cth: 74.58 usage: 84.39 residual: 9.54
mrth: 108.01 cth: 83.99 usage: 82.43 residual: 25.58
mrth: 83.33 cth: 69.71 usage: 79.86 residual: 3.47
mrth: 36.34 cth: 31.15 usage: 29.21 residual: 7.13
mrth: 110.38 cth: 85.3 usage: 97.37 residual: 13.01
mrth: 126.27 cth: 112.02 usage: 112.46 residual: 13.81
mrth: 90.67 cth: 71.02 usage: 54.08 residual: 36.59
mrth: 119.51 cth: 88.21 usage: 72.98 residual: 46.53
mrth: 186.83 cth: 135.18 usage: 115.02 residual: 71.81
mrth: 203.66 cth: 142.82 usage: 197.45 residual: 6.21
mrth: 39.15 cth: 32.27 usage: 28.59 residual: 10.56
mrth: 144.88 cth: 101.82 usage: 80.95 residual: 63.93
mrth: 79.83 cth: 58.74 usage: 52.87 residual: 26.96
mrth: 98.24 cth: 76.06 usage: 51.21 residual: 47.03
mrth: 62.6 cth: 50.86 usage: 36.49 residual: 26.11
mrth: 63.33 cth: 51.09 usage: 57.07 residual: 6.26
mrth: 23.68 cth: 17.09 usage: 16.57 residual: 7.11
mrth: 170.17 cth: 135.68 usage: 90.01 residual: 80.16
mrth: 94.88 cth: 67.9 usage: 68.29 residual: 26.59
mrth: 87.52 cth: 66.49 usage: 72.23 residual: 15.29
mrth: 62.71 cth: 50.61 usage: 53.33 residual: 9.38
mrth: 58.85 cth: 42.13 usage: 40.71 residual: 18.14
mrth: 159.94 cth: 127.63 usage: 152.54 residual: 7.4
mrth: 90.44 cth: 78.09 usage: 55.45 residual: 34.99
mrth: 47.28 cth: 41.21 usage: 43.22 residual: 4.06
mrth: 80.56 cth: 70.29 usage: 64.69 residual: 15.87
mrth: 84.23 cth: 69.32 usage: 61.38 residual: 22.85
mrth: 52.08 cth: 36.83 usage: 49.87 residual: 2.21
mrth: 136.31 cth: 110.34 usage: 128.09 residual: 8.22
mrth: 45.54 cth: 33.7 usage: 44.97 residual: 0.57
mrth: 44.62 cth: 34.8 usage: 42.99 residual: 1.63
mrth: 220.73 cth: 181.34 usage: 194.95 residual: 25.78
mrth: 49.91 cth: 37.02 usage: 43.07 residual: 6.84
mrth: 34.21 cth: 28.96 usage: 29.78 residual: 4.43
mrth: 50.76 cth: 41.92 usage: 48.77 residual: 1.99
mrth: 81.73 cth: 62.55 usage: 76.72 residual: 5.01
mrth: 24.68 cth: 22.07 usage: 15.13 residual: 9.55
mrth: 94.39 cth: 78.89 usage: 55.63 residual: 38.76
mrth: 87.36 cth: 66.35 usage: 56.77 residual: 30.59
mrth: 99.3 cth: 78.12 usage: 75.48 residual: 23.82
mrth: 75.08 cth: 53.92 usage: 42.43 residual: 32.65
mrth: 31.49 cth: 27.36 usage: 25.09 residual: 6.4
mrth: 27.4 cth: 20.53 usage: 21.48 residual: 5.92
mrth: 12.02 cth: 10.71 usage: 9.31 residual: 2.71
mrth: 83.68 cth: 67.46 usage: 73.31 residual: 10.37
mrth: 62.52 cth: 44.32 usage: 35.32 residual: 27.2
mrth: 123.03 cth: 96.77 usage: 65.22 residual: 57.81
mrth: 208.1 cth: 166.58 usage: 114.03 residual: 94.07
mrth: 31.94 cth: 25.63 usage: 23.8 residual: 8.14
mrth: 61.44 cth: 48.11 usage: 39.97 residual: 21.47
mrth: 87.65 cth: 64.85 usage: 75.58 residual: 12.07
mrth: 56.19 cth: 44.74 usage: 44.48 residual: 11.71
mrth: 114.09 cth: 86.67 usage: 61.19 residual: 52.9
mrth: 79.51 cth: 63.52 usage: 47.86 residual: 31.65
mrth: 102.94 cth: 78.8 usage: 79.12 residual: 23.82
mrth: 162.8 cth: 122.04 usage: 159.04 residual: 3.76
mrth: 141.65 cth: 115.5 usage: 97.34 residual: 44.31
mrth: 170.58 cth: 149.37 usage: 164.02 residual: 6.56
mrth: 70.56 cth: 57.02 usage: 51.78 residual: 18.78
mrth: 197.34 cth: 174.09 usage: 112.85 residual: 84.49
mrth: 40.27 cth: 29.03 usage: 38.75 residual: 1.52
mrth: 68.43 cth: 48.98 usage: 68.33 residual: 0.1
mrth: 118.91 cth: 85.04 usage: 117.05 residual: 1.86
mrth: 82.39 cth: 68.77 usage: 49.56 residual: 32.83
mrth: 48.47 cth: 34.22 usage: 33.88 residual: 14.59
mrth: 95.62 cth: 84.35 usage: 79.46 residual: 16.16
mrth: 89.03 cth: 64.21 usage: 51.93 residual: 37.1
mrth: 191.29 cth: 150.99 usage: 102.11 residual: 89.18
mrth: 122.48 cth: 85.79 usage: 73.69 residual: 48.79
mrth: 80.9 cth: 71.38 usage: 62.23 residual: 18.67
mrth: 73.2 cth: 60.85 usage: 57.28 residual: 15.92
mrth: 86.98 cth: 77.43 usage: 74.25 residual: 12.73
mrth: 64.85 cth: 52.55 usage: 41.49 residual: 23.36
mrth: 122.34 cth: 109.28 usage: 67.91 residual: 54.43
mrth: 174.51 cth: 139.82 usage: 117.53 residual: 56.98
mrth: 71.54 cth: 52.28 usage: 50.14 residual: 21.4
mrth: 141.95 cth: 102.78 usage: 73.85 residual: 68.1
mrth: 105.4 cth: 85.92 usage: 69.83 residual: 35.57
mrth: 54.98 cth: 48.31 usage: 43.17 residual: 11.81
mrth: 155.54 cth: 118.4 usage: 83.34 residual: 72.2
mrth: 138.55 cth: 110.71 usage: 71.57 residual: 66.98
mrth: 41.51 cth: 33.41 usage: 29.94 residual: 11.57
mrth: 126.69 cth: 109.3 usage: 107.14 residual: 19.55
mrth: 88.62 cth: 77.32 usage: 65.02 residual: 23.6
mrth: 6.74 cth: 4.79 usage: 3.93 residual: 2.81
mrth: 146.6 cth: 105.66 usage: 124.23 residual: 22.37
mrth: 41.37 cth: 33.51 usage: 40.55 residual: 0.82
mrth: 73.65 cth: 51.77 usage: 44.89 residual: 28.76
mrth: 217.98 cth: 173.2 usage: 152.91 residual: 65.07
mrth: 173.59 cth: 123.89 usage: 135.55 residual: 38.04
mrth: 30.59 cth: 23.62 usage: 26.13 residual: 4.46
mrth: 104.75 cth: 75.58 usage: 103.32 residual: 1.43
mrth: 130.56 cth: 106.21 usage: 81.86 residual: 48.7
mrth: 116.78 cth: 102.82 usage: 97.7 residual: 19.08
mrth: 181.25 cth: 137.24 usage: 107.56 residual: 73.69
mrth: 187.84 cth: 150.54 usage: 104.6 residual: 83.24
mrth: 133.59 cth: 95.87 usage: 111.76 residual: 21.83
mrth: 54.17 cth: 40.98 usage: 33.08 residual: 21.09
mrth: 44.57 cth: 39.18 usage: 32.71 residual: 11.86
mrth: 47.35 cth: 40.45 usage: 37.64 residual: 9.71
mrth: 129.19 cth: 100.6 usage: 109.99 residual: 19.2
mrth: 193.36 cth: 136.17 usage: 189.74 residual: 3.62
mrth: 128.09 cth: 108.04 usage: 93.72 residual: 34.37
mrth: 122.68 cth: 100.47 usage: 61.83 residual: 60.85
mrth: 75.53 cth: 65.88 usage: 74.93 residual: 0.6
mrth: 101.3 cth: 73.26 usage: 79.3 residual: 22.0
mrth: 82.2 cth: 69.3 usage: 67.83 residual: 14.37
mrth: 152.08 cth: 129.7 usage: 126.81 residual: 25.27
mrth: 75.05 cth: 56.22 usage: 68.97 residual: 6.08
mrth: 207.85 cth: 148.16 usage: 168.08 residual: 39.77
mrth: 91.2 cth: 81.55 usage: 50.88 residual: 40.32
mrth: 44.57 cth: 39.27 usage: 39.81 residual: 4.76
mrth: 114.19 cth: 101.62 usage: 59.39 residual: 54.8
mrth: 79.33 cth: 71.16 usage: 65.13 residual: 14.2
mrth: 50.1 cth: 45.0 usage: 28.07 residual: 22.03
mrth: 21.61 cth: 15.76 usage: 19.82 residual: 1.79
mrth: 50.71 cth: 42.04 usage: 27.69 residual: 23.02
mrth: 48.53 cth: 43.21 usage: 32.23 residual: 16.3
mrth: 37.22 cth: 30.63 usage: 20.13 residual: 17.09
mrth: 31.59 cth: 24.0 usage: 18.51 residual: 13.08
mrth: 93.83 cth: 65.72 usage: 53.92 residual: 39.91
mrth: 42.79 cth: 30.89 usage: 35.93 residual: 6.86
mrth: 86.47 cth: 60.6 usage: 43.83 residual: 42.64
mrth: 59.32 cth: 45.99 usage: 41.25 residual: 18.07
mrth: 136.64 cth: 110.57 usage: 134.75 residual: 1.89
mrth: 88.84 cth: 76.27 usage: 44.77 residual: 44.07
mrth: 118.68 cth: 84.33 usage: 69.33 residual: 49.35
mrth: 109.84 cth: 95.59 usage: 76.8 residual: 33.04
mrth: 21.02 cth: 17.72 usage: 13.95 residual: 7.07
mrth: 35.91 cth: 32.27 usage: 23.37 residual: 12.54
mrth: 104.5 cth: 77.08 usage: 79.12 residual: 25.38
mrth: 91.05 cth: 73.83 usage: 81.59 residual: 9.46
mrth: 13.68 cth: 9.81 usage: 13.13 residual: 0.55
mrth: 200.26 cth: 154.49 usage: 161.49 residual: 38.77
mrth: 135.55 cth: 105.51 usage: 77.72 residual: 57.83
mrth: 93.2 cth: 80.6 usage: 60.71 residual: 32.49
mrth: 151.81 cth: 122.23 usage: 139.33 residual: 12.48
mrth: 96.49 cth: 71.93 usage: 75.4 residual: 21.09
mrth: 44.48 cth: 39.88 usage: 32.28 residual: 12.2
mrth: 62.21 cth: 52.01 usage: 51.58 residual: 10.63
mrth: 113.5 cth: 86.85 usage: 102.57 residual: 10.93
mrth: 205.68 cth: 164.58 usage: 106.14 residual: 99.54
mrth: 98.19 cth: 79.17 usage: 96.29 residual: 1.9
mrth: 112.98 cth: 82.57 usage: 97.48 residual: 15.5
mrth: 86.11 cth: 69.71 usage: 85.86 residual: 0.25
mrth: 30.31 cth: 21.48 usage: 24.85 residual: 5.46
mrth: 119.13 cth: 85.96 usage: 72.61 residual: 46.52
mrth: 100.54 cth: 88.59 usage: 96.26 residual: 4.28
mrth: 132.65 cth: 97.5 usage: 106.09 residual: 26.56
mrth: 137.45 cth: 123.19 usage: 75.0 residual: 62.45
mrth: 81.07 cth: 71.73 usage: 72.46 residual: 8.61
mrth: 46.49 cth: 35.33 usage: 25.98 residual: 20.51
mrth: 109.29 cth: 95.61 usage: 69.66 residual: 39.63
mrth: 26.83 cth: 22.5 usage: 26.61 residual: 0.22
mrth: 124.81 cth: 91.43 usage: 65.07 residual: 59.74
mrth: 85.93 cth: 61.19 usage: 81.11 residual: 4.82
mrth: 25.89 cth: 21.9 usage: 23.77 residual: 2.12
mrth: 126.24 cth: 101.06 usage: 108.04 residual: 18.2
mrth: 126.02 cth: 103.11 usage: 109.91 residual: 16.11
mrth: 68.6 cth: 61.38 usage: 49.24 residual: 19.36
mrth: 150.85 cth: 131.62 usage: 95.57 residual: 55.28
mrth: 126.63 cth: 106.95 usage: 83.51 residual: 43.12
mrth: 79.29 cth: 68.11 usage: 68.41 residual: 10.88
mrth: 150.69 cth: 128.94 usage: 139.88 residual: 10.81
mrth: 54.7 cth: 40.3 usage: 54.64 residual: 0.06
mrth: 33.08 cth: 28.06 usage: 22.88 residual: 10.2
mrth: 36.1 cth: 32.24 usage: 21.04 residual: 15.06
mrth: 88.0 cth: 73.47 usage: 79.74 residual: 8.26
mrth: 101.06 cth: 75.12 usage: 54.77 residual: 46.29
mrth: 25.95 cth: 20.48 usage: 21.71 residual: 4.24
mrth: 149.08 cth: 124.14 usage: 122.67 residual: 26.41
mrth: 68.68 cth: 55.37 usage: 52.3 residual: 16.38
mrth: 102.38 cth: 76.77 usage: 74.58 residual: 27.8
mrth: 29.58 cth: 21.43 usage: 15.09 residual: 14.49
mrth: 67.84 cth: 56.12 usage: 58.61 residual: 9.23
mrth: 28.48 cth: 22.58 usage: 25.91 residual: 2.57
mrth: 113.24 cth: 83.09 usage: 100.81 residual: 12.43
mrth: 75.59 cth: 67.57 usage: 47.77 residual: 27.82
mrth: 80.23 cth: 57.88 usage: 53.69 residual: 26.54
mrth: 78.41 cth: 67.94 usage: 44.22 residual: 34.19
mrth: 89.19 cth: 67.54 usage: 60.01 residual: 29.18
mrth: 95.84 cth: 68.81 usage: 93.03 residual: 2.81
mrth: 93.26 cth: 65.77 usage: 86.96 residual: 6.3
mrth: 146.52 cth: 129.64 usage: 80.64 residual: 65.88
mrth: 57.33 cth: 44.84 usage: 34.01 residual: 23.32
mrth: 85.21 cth: 74.97 usage: 45.39 residual: 39.82
mrth: 114.93 cth: 95.89 usage: 112.13 residual: 2.8
mrth: 81.05 cth: 71.42 usage: 61.78 residual: 19.27
mrth: 148.53 cth: 122.39 usage: 98.99 residual: 49.54
mrth: 53.4 cth: 43.32 usage: 45.31 residual: 8.09
mrth: 88.01 cth: 69.07 usage: 55.4 residual: 32.61
mrth: 141.57 cth: 116.47 usage: 136.73 residual: 4.84
mrth: 105.86 cth: 78.76 usage: 60.1 residual: 45.76
mrth: 75.32 cth: 56.4 usage: 63.89 residual: 11.43
mrth: 79.15 cth: 68.02 usage: 41.96 residual: 37.19
mrth: 177.21 cth: 127.75 usage: 106.37 residual: 70.84
mrth: 139.1 cth: 115.61 usage: 93.13 residual: 45.97
mrth: 88.29 cth: 67.35 usage: 82.55 residual: 5.74
mrth: 55.41 cth: 45.54 usage: 41.35 residual: 14.06
mrth: 8.62 cth: 7.35 usage: 7.72 residual: 0.9
mrth: 135.54 cth: 99.59 usage: 84.63 residual: 50.91
mrth: 157.98 cth: 137.75 usage: 150.37 residual: 7.61
mrth: 106.2 cth: 90.7 usage: 69.03 residual: 37.17
mrth: 46.48 cth: 33.87 usage: 35.95 residual: 10.53
mrth: 39.6 cth: 28.48 usage: 35.97 residual: 3.63
mrth: 104.71 cth: 78.78 usage: 54.42 residual: 50.29
mrth: 42.93 cth: 33.31 usage: 38.67 residual: 4.26
mrth: 57.44 cth: 50.45 usage: 30.24 residual: 27.2
mrth: 101.02 cth: 74.53 usage: 98.06 residual: 2.96
mrth: 82.39 cth: 67.17 usage: 44.84 residual: 37.55
mrth: 128.46 cth: 105.4 usage: 64.86 residual: 63.6
mrth: 81.67 cth: 59.56 usage: 41.42 residual: 40.25
mrth: 38.64 cth: 32.47 usage: 29.43 residual: 9.21
mrth: 105.87 cth: 82.4 usage: 105.22 residual: 0.65
mrth: 22.2 cth: 19.22 usage: 19.81 residual: 2.39
mrth: 104.54 cth: 94.06 usage: 103.99 residual: 0.55
mrth: 55.09 cth: 44.49 usage: 46.52 residual: 8.57
mrth: 163.07 cth: 124.44 usage: 86.66 residual: 76.41
mrth: 139.92 cth: 117.99 usage: 139.82 residual: 0.1
mrth: 76.58 cth: 56.28 usage: 62.29 residual: 14.29
mrth: 153.3 cth: 117.16 usage: 94.72 residual: 58.58
mrth: 11.55 cth: 10.1 usage: 7.62 residual: 3.93
mrth: 161.97 cth: 114.81 usage: 157.29 residual: 4.68
mrth: 77.09 cth: 62.98 usage: 46.73 residual: 30.36
mrth: 142.92 cth: 118.22 usage: 123.11 residual: 19.81
mrth: 137.37 cth: 100.26 usage: 99.91 residual: 37.46
mrth: 147.59 cth: 119.02 usage: 117.44 residual: 30.15
mrth: 74.22 cth: 55.09 usage: 50.24 residual: 23.98
mrth: 32.74 cth: 27.61 usage: 16.75 residual: 15.99
mrth: 189.12 cth: 166.59 usage: 157.58 residual: 31.54
mrth: 138.28 cth: 109.62 usage: 125.69 residual: 12.59
mrth: 102.55 cth: 84.48 usage: 71.73 residual: 30.82
mrth: 136.97 cth: 99.41 usage: 136.36 residual: 0.61
mrth: 38.15 cth: 34.13 usage: 28.51 residual: 9.64
mrth: 164.62 cth: 142.94 usage: 117.84 residual: 46.78
mrth: 219.54 cth: 186.36 usage: 168.5 residual: 51.04
mrth: 15.95 cth: 12.92 usage: 8.61 residual: 7.34
mrth: 75.82 cth: 63.02 usage: 52.28 residual: 23.54
mrth: 130.18 cth: 106.12 usage: 111.55 residual: 18.63
mrth: 104.58 cth: 78.31 usage: 98.7 residual: 5.88
mrth: 144.58 cth: 120.0 usage: 107.8 residual: 36.78
mrth: 50.17 cth: 35.32 usage: 48.86 residual: 1.31
mrth: 148.2 cth: 119.32 usage: 141.98 residual: 6.22
mrth: 125.48 cth: 110.0 usage: 81.49 residual: 43.99
mrth: 148.26 cth: 115.84 usage: 108.16 residual: 40.1
mrth: 121.51 cth: 108.95 usage: 119.71 residual: 1.8
mrth: 174.76 cth: 143.12 usage: 161.31 residual: 13.45
mrth: 84.49 cth: 74.86 usage: 60.63 residual: 23.86
mrth: 142.77 cth: 108.64 usage: 104.22 residual: 38.55
mrth: 218.73 cth: 177.99 usage: 198.69 residual: 20.04
mrth: 137.16 cth: 118.38 usage: 70.55 residual: 66.61
mrth: 44.86 cth: 37.15 usage: 37.99 residual: 6.87
mrth: 86.06 cth: 64.32 usage: 82.69 residual: 3.37
mrth: 249.35 cth: 221.24 usage: 204.86 residual: 44.49
mrth: 127.35 cth: 90.92 usage: 85.84 residual: 41.51
mrth: 106.21 cth: 90.62 usage: 81.77 residual: 24.44
mrth: 113.25 cth: 81.71 usage: 87.59 residual: 25.66
mrth: 96.0 cth: 68.5 usage: 62.81 residual: 33.19
mrth: 115.71 cth: 84.76 usage: 86.24 residual: 29.47
mrth: 82.9 cth: 67.97 usage: 54.75 residual: 28.15
mrth: 116.94 cth: 101.44 usage: 109.68 residual: 7.26
mrth: 196.36 cth: 174.53 usage: 186.81 residual: 9.55
mrth: 93.31 cth: 76.75 usage: 48.85 residual: 44.46
mrth: 95.28 cth: 83.34 usage: 49.76 residual: 45.52
mrth: 158.12 cth: 118.55 usage: 82.07 residual: 76.05
mrth: 116.46 cth: 87.37 usage: 63.22 residual: 53.24
mrth: 130.64 cth: 95.52 usage: 97.31 residual: 33.33
mrth: 87.06 cth: 77.46 usage: 59.89 residual: 27.17
mrth: 104.21 cth: 79.61 usage: 52.85 residual: 51.36
mrth: 108.7 cth: 90.27 usage: 66.99 residual: 41.71
mrth: 65.55 cth: 49.65 usage: 59.66 residual: 5.89
mrth: 84.4 cth: 70.07 usage: 51.87 residual: 32.53
mrth: 140.26 cth: 111.76 usage: 101.53 residual: 38.73
mrth: 170.53 cth: 146.07 usage: 90.53 residual: 80.0
mrth: 159.21 cth: 124.42 usage: 144.85 residual: 14.36
mrth: 107.96 cth: 93.22 usage: 91.97 residual: 15.99
mrth: 167.66 cth: 131.04 usage: 142.71 residual: 24.95
mrth: 23.86 cth: 19.38 usage: 18.17 residual: 5.69
mrth: 84.78 cth: 59.89 usage: 71.61 residual: 13.17
mrth: 73.59 cth: 61.79 usage: 60.38 residual: 13.21
mrth: 103.6 cth: 77.1 usage: 99.72 residual: 3.88
mrth: 46.74 cth: 40.29 usage: 31.56 residual: 15.18
mrth: 19.65 cth: 16.26 usage: 12.25 residual: 7.4
mrth: 106.09 cth: 90.23 usage: 63.72 residual: 42.37
mrth: 221.68 cth: 193.54 usage: 136.16 residual: 85.52
mrth: 91.18 cth: 67.94 usage: 84.38 residual: 6.8
mrth: 126.34 cth: 88.8 usage: 74.77 residual: 51.57
mrth: 146.2 cth: 108.85 usage: 81.31 residual: 64.89
mrth: 102.34 cth: 76.81 usage: 56.1 residual: 46.24
mrth: 146.17 cth: 126.6 usage: 112.48 residual: 33.69
mrth: 93.35 cth: 69.4 usage: 57.16 residual: 36.19
mrth: 209.31 cth: 150.64 usage: 184.47 residual: 24.84
mrth: 103.3 cth: 81.01 usage: 87.98 residual: 15.32
mrth: 69.32 cth: 56.67 usage: 35.06 residual: 34.26
mrth: 36.04 cth: 28.25 usage: 29.87 residual: 6.17
mrth: 78.42 cth: 69.32 usage: 59.53 residual: 18.89
mrth: 40.77 cth: 36.39 usage: 33.48 residual: 7.29
mrth: 69.44 cth: 56.2 usage: 38.01 residual: 31.43
mrth: 7.53 cth: 5.4 usage: 4.52 residual: 3.01
mrth: 110.53 cth: 79.31 usage: 58.67 residual: 51.86
mrth: 82.51 cth: 71.74 usage: 68.39 residual: 14.12
mrth: 59.56 cth: 51.06 usage: 45.13 residual: 14.43
mrth: 110.55 cth: 97.92 usage: 103.46 residual: 7.09
mrth: 99.71 cth: 77.36 usage: 64.62 residual: 35.09
mrth: 141.36 cth: 100.87 usage: 73.67 residual: 67.69
mrth: 179.16 cth: 149.92 usage: 158.34 residual: 20.82
mrth: 19.24 cth: 15.77 usage: 13.87 residual: 5.37
mrth: 93.92 cth: 70.74 usage: 50.91 residual: 43.01
mrth: 42.67 cth: 36.47 usage: 22.55 residual: 20.12
mrth: 169.24 cth: 135.46 usage: 166.71 residual: 2.53
mrth: 131.6 cth: 115.61 usage: 104.65 residual: 26.95
mrth: 99.42 cth: 70.23 usage: 69.79 residual: 29.63
mrth: 84.35 cth: 61.76 usage: 45.26 residual: 39.09
mrth: 55.49 cth: 39.21 usage: 29.93 residual: 25.56
mrth: 122.97 cth: 101.09 usage: 77.59 residual: 45.38
mrth: 50.63 cth: 43.24 usage: 36.7 residual: 13.93
mrth: 31.27 cth: 23.33 usage: 30.41 residual: 0.86
mrth: 305.23 cth: 267.14 usage: 205.51 residual: 99.72
mrth: 74.86 cth: 59.66 usage: 41.68 residual: 33.18
mrth: 102.28 cth: 89.69 usage: 100.12 residual: 2.16
mrth: 35.06 cth: 31.15 usage: 25.34 residual: 9.72
mrth: 85.33 cth: 68.12 usage: 75.18 residual: 10.15
mrth: 90.84 cth: 71.32 usage: 61.32 residual: 29.52
mrth: 169.65 cth: 144.02 usage: 118.71 residual: 50.94
mrth: 149.24 cth: 131.06 usage: 135.16 residual: 14.08
mrth: 62.85 cth: 55.1 usage: 43.54 residual: 19.31
mrth: 86.3 cth: 70.68 usage: 53.85 residual: 32.45
mrth: 72.43 cth: 52.95 usage: 45.76 residual: 26.67
mrth: 125.43 cth: 92.78 usage: 90.25 residual: 35.18
mrth: 85.18 cth: 68.71 usage: 58.28 residual: 26.9
mrth: 61.84 cth: 43.73 usage: 48.04 residual: 13.8
mrth: 44.22 cth: 38.53 usage: 26.0 residual: 18.22
mrth: 94.39 cth: 81.95 usage: 51.88 residual: 42.51
mrth: 295.72 cth: 247.79 usage: 239.98 residual: 55.74
mrth: 138.86 cth: 122.33 usage: 111.74 residual: 27.12
mrth: 75.52 cth: 67.71 usage: 65.21 residual: 10.31
mrth: 63.5 cth: 45.03 usage: 58.02 residual: 5.48
mrth: 90.14 cth: 69.14 usage: 68.91 residual: 21.23
mrth: 53.57 cth: 40.27 usage: 45.35 residual: 8.22
mrth: 117.8 cth: 85.48 usage: 87.94 residual: 29.86
mrth: 106.45 cth: 84.77 usage: 101.76 residual: 4.69
mrth: 59.25 cth: 48.08 usage: 37.1 residual: 22.15
mrth: 47.16 cth: 37.4 usage: 34.99 residual: 12.17
mrth: 116.52 cth: 101.91 usage: 62.85 residual: 53.67
mrth: 97.74 cth: 69.03 usage: 81.14 residual: 16.6
mrth: 213.03 cth: 155.42 usage: 118.4 residual: 94.63
mrth: 100.16 cth: 75.59 usage: 89.77 residual: 10.39
mrth: 21.62 cth: 19.28 usage: 20.53 residual: 1.09
mrth: 98.18 cth: 76.13 usage: 70.35 residual: 27.83
mrth: 88.49 cth: 72.88 usage: 72.37 residual: 16.12
mrth: 153.98 cth: 113.26 usage: 118.12 residual: 35.86
mrth: 39.14 cth: 35.0 usage: 31.06 residual: 8.08
mrth: 89.63 cth: 73.44 usage: 76.08 residual: 13.55
mrth: 67.56 cth: 50.02 usage: 36.25 residual: 31.31
mrth: 79.36 cth: 64.64 usage: 75.86 residual: 3.5
mrth: 35.13 cth: 29.39 usage: 31.53 residual: 3.6
mrth: 58.03 cth: 44.28 usage: 46.67 residual: 11.36
mrth: 75.37 cth: 53.76 usage: 60.4 residual: 14.97
mrth: 255.23 cth: 226.11 usage: 172.94 residual: 82.29
mrth: 110.6 cth: 83.84 usage: 65.27 residual: 45.33
mrth: 149.19 cth: 128.54 usage: 121.73 residual: 27.46
mrth: 132.63 cth: 99.64 usage: 98.01 residual: 34.62
mrth: 67.17 cth: 55.22 usage: 49.6 residual: 17.57
mrth: 43.46 cth: 38.56 usage: 27.9 residual: 15.56
mrth: 184.33 cth: 152.54 usage: 174.2 residual: 10.13
mrth: 81.87 cth: 58.37 usage: 53.69 residual: 28.18
mrth: 35.42 cth: 31.13 usage: 30.24 residual: 5.18
mrth: 140.46 cth: 125.41 usage: 121.39 residual: 19.07
mrth: 75.76 cth: 61.2 usage: 69.3 residual: 6.46
mrth: 86.01 cth: 69.0 usage: 56.99 residual: 29.02
mrth: 51.83 cth: 38.1 usage: 27.5 residual: 24.33
mrth: 112.05 cth: 82.7 usage: 61.53 residual: 50.52
mrth: 71.91 cth: 52.08 usage: 62.87 residual: 9.04
mrth: 95.75 cth: 69.96 usage: 70.14 residual: 25.61
mrth: 127.78 cth: 90.89 usage: 93.8 residual: 33.98
mrth: 100.56 cth: 82.63 usage: 51.35 residual: 49.21
mrth: 178.53 cth: 152.54 usage: 147.72 residual: 30.81
mrth: 106.79 cth: 89.21 usage: 87.34 residual: 19.45
mrth: 125.55 cth: 111.32 usage: 91.42 residual: 34.13
mrth: 98.4 cth: 77.99 usage: 50.8 residual: 47.6
mrth: 230.61 cth: 200.24 usage: 167.35 residual: 63.26
mrth: 7.56 cth: 6.48 usage: 5.81 residual: 1.75
mrth: 2.96 cth: 2.48 usage: 2.9 residual: 0.06
mrth: 85.99 cth: 68.13 usage: 73.98 residual: 12.01
mrth: 88.81 cth: 63.76 usage: 62.76 residual: 26.05
mrth: 97.22 cth: 72.55 usage: 54.03 residual: 43.19
mrth: 120.12 cth: 102.05 usage: 69.35 residual: 50.77
mrth: 93.58 cth: 78.55 usage: 89.89 residual: 3.69
mrth: 80.34 cth: 63.24 usage: 43.18 residual: 37.16
mrth: 72.08 cth: 54.41 usage: 49.88 residual: 22.2
mrth: 97.07 cth: 80.16 usage: 69.06 residual: 28.01
mrth: 30.94 cth: 23.32 usage: 27.8 residual: 3.14
mrth: 113.62 cth: 98.79 usage: 85.33 residual: 28.29
mrth: 90.11 cth: 72.2 usage: 51.93 residual: 38.18
mrth: 35.71 cth: 30.69 usage: 26.98 residual: 8.73
mrth: 150.7 cth: 123.76 usage: 117.4 residual: 33.3
mrth: 84.21 cth: 71.78 usage: 75.24 residual: 8.97
mrth: 145.84 cth: 106.09 usage: 93.42 residual: 52.42
mrth: 142.65 cth: 104.79 usage: 103.85 residual: 38.8
mrth: 149.92 cth: 117.21 usage: 139.55 residual: 10.37
mrth: 22.4 cth: 19.3 usage: 20.54 residual: 1.86
mrth: 158.84 cth: 123.12 usage: 153.07 residual: 5.77
mrth: 152.42 cth: 132.21 usage: 151.71 residual: 0.71
mrth: 63.55 cth: 52.18 usage: 36.7 residual: 26.85
mrth: 7.52 cth: 6.17 usage: 4.2 residual: 3.32
mrth: 34.36 cth: 26.38 usage: 22.4 residual: 11.96
mrth: 77.18 cth: 60.82 usage: 41.85 residual: 35.33
mrth: 125.59 cth: 106.46 usage: 63.48 residual: 62.11
mrth: 107.85 cth: 88.76 usage: 58.74 residual: 49.11
mrth: 124.9 cth: 105.55 usage: 121.96 residual: 2.94
mrth: 116.23 cth: 92.56 usage: 88.79 residual: 27.44
mrth: 119.11 cth: 91.28 usage: 79.94 residual: 39.17
mrth: 55.17 cth: 47.58 usage: 46.33 residual: 8.84
mrth: 208.34 cth: 150.08 usage: 162.48 residual: 45.86
mrth: 114.9 cth: 87.17 usage: 96.86 residual: 18.04
mrth: 17.11 cth: 15.32 usage: 12.2 residual: 4.91
mrth: 121.92 cth: 94.19 usage: 117.81 residual: 4.11
mrth: 148.72 cth: 123.07 usage: 129.46 residual: 19.26
mrth: 138.6 cth: 101.8 usage: 137.85 residual: 0.75
mrth: 173.81 cth: 132.85 usage: 124.68 residual: 49.13
mrth: 51.29 cth: 45.76 usage: 49.62 residual: 1.67
mrth: 81.86 cth: 68.87 usage: 52.87 residual: 28.99
mrth: 57.94 cth: 51.94 usage: 32.03 residual: 25.91
mrth: 121.35 cth: 90.39 usage: 75.55 residual: 45.8
mrth: 151.25 cth: 115.56 usage: 129.07 residual: 22.18
mrth: 39.78 cth: 29.0 usage: 21.52 residual: 18.26
mrth: 40.5 cth: 29.18 usage: 24.3 residual: 16.2
mrth: 44.11 cth: 33.76 usage: 38.07 residual: 6.04
mrth: 154.7 cth: 120.07 usage: 138.33 residual: 16.37
mrth: 134.99 cth: 110.41 usage: 110.72 residual: 24.27
mrth: 102.98 cth: 82.29 usage: 98.95 residual: 4.03
mrth: 37.06 cth: 26.53 usage: 30.58 residual: 6.48
mrth: 179.21 cth: 157.23 usage: 152.46 residual: 26.75
mrth: 58.47 cth: 41.8 usage: 58.46 residual: 0.01
mrth: 64.8 cth: 53.57 usage: 32.58 residual: 32.22
mrth: 85.96 cth: 65.11 usage: 69.93 residual: 16.03
mrth: 81.23 cth: 63.79 usage: 79.53 residual: 1.7
mrth: 20.73 cth: 18.36 usage: 13.17 residual: 7.56
mrth: 102.27 cth: 74.8 usage: 66.29 residual: 35.98
mrth: 136.04 cth: 111.02 usage: 114.2 residual: 21.84
mrth: 40.83 cth: 29.82 usage: 37.27 residual: 3.56
mrth: 91.93 cth: 71.62 usage: 50.1 residual: 41.83
mrth: 116.01 cth: 101.22 usage: 71.64 residual: 44.37
mrth: 105.72 cth: 94.06 usage: 56.17 residual: 49.55
mrth: 201.46 cth: 176.84 usage: 145.49 residual: 55.97
mrth: 15.42 cth: 12.0 usage: 15.3 residual: 0.12
mrth: 54.21 cth: 45.97 usage: 46.95 residual: 7.26
mrth: 150.38 cth: 106.81 usage: 87.06 residual: 63.32
mrth: 55.75 cth: 48.88 usage: 49.43 residual: 6.32
mrth: 196.56 cth: 171.52 usage: 138.57 residual: 57.99
mrth: 53.04 cth: 45.16 usage: 39.83 residual: 13.21
mrth: 4.84 cth: 4.03 usage: 2.67 residual: 2.17
mrth: 126.11 cth: 97.42 usage: 89.33 residual: 36.78
mrth: 56.44 cth: 39.71 usage: 33.7 residual: 22.74
mrth: 80.88 cth: 60.68 usage: 55.87 residual: 25.01
mrth: 123.77 cth: 90.16 usage: 86.52 residual: 37.25
mrth: 98.21 cth: 77.8 usage: 72.79 residual: 25.42
mrth: 57.61 cth: 49.39 usage: 30.55 residual: 27.06
mrth: 13.45 cth: 9.58 usage: 13.18 residual: 0.27
mrth: 70.51 cth: 60.51 usage: 60.89 residual: 9.62
mrth: 94.12 cth: 77.59 usage: 57.48 residual: 36.64
mrth: 175.46 cth: 131.33 usage: 151.15 residual: 24.31
mrth: 94.0 cth: 73.49 usage: 49.24 residual: 44.76
mrth: 36.04 cth: 28.35 usage: 18.86 residual: 17.18
mrth: 136.18 cth: 97.31 usage: 117.71 residual: 18.47
mrth: 81.89 cth: 63.98 usage: 44.06 residual: 37.83
mrth: 55.74 cth: 42.69 usage: 35.66 residual: 20.08
mrth: 124.36 cth: 87.92 usage: 115.74 residual: 8.62
mrth: 69.46 cth: 52.29 usage: 41.52 residual: 27.94
mrth: 67.83 cth: 50.63 usage: 39.18 residual: 28.65
mrth: 37.9 cth: 29.47 usage: 31.78 residual: 6.12
mrth: 203.92 cth: 182.88 usage: 203.45 residual: 0.47
mrth: 225.37 cth: 193.66 usage: 222.88 residual: 2.49
mrth: 74.18 cth: 62.54 usage: 47.23 residual: 26.95
mrth: 71.49 cth: 62.7 usage: 40.26 residual: 31.23
mrth: 69.69 cth: 55.17 usage: 58.13 residual: 11.56
mrth: 94.83 cth: 66.81 usage: 83.58 residual: 11.25
mrth: 183.53 cth: 143.86 usage: 131.72 residual: 51.81
mrth: 43.42 cth: 32.08 usage: 30.2 residual: 13.22
mrth: 56.33 cth: 45.35 usage: 37.61 residual: 18.72
mrth: 124.18 cth: 95.02 usage: 113.55 residual: 10.63
mrth: 245.97 cth: 192.46 usage: 198.32 residual: 47.65
mrth: 165.1 cth: 131.12 usage: 97.97 residual: 67.13
mrth: 16.99 cth: 14.63 usage: 13.53 residual: 3.46
mrth: 170.85 cth: 142.62 usage: 146.15 residual: 24.7
mrth: 91.82 cth: 69.77 usage: 48.59 residual: 43.23
mrth: 185.56 cth: 139.44 usage: 153.94 residual: 31.62
mrth: 147.55 cth: 113.01 usage: 111.19 residual: 36.36
mrth: 28.3 cth: 20.77 usage: 23.86 residual: 4.44
mrth: 129.45 cth: 92.58 usage: 115.23 residual: 14.22
mrth: 134.22 cth: 112.3 usage: 103.49 residual: 30.73
mrth: 66.37 cth: 48.03 usage: 48.33 residual: 18.04
mrth: 26.85 cth: 23.73 usage: 16.43 residual: 10.42
mrth: 67.32 cth: 52.48 usage: 65.97 residual: 1.35
mrth: 59.86 cth: 46.16 usage: 41.93 residual: 17.93
mrth: 97.23 cth: 79.02 usage: 62.26 residual: 34.97
mrth: 182.95 cth: 128.46 usage: 172.08 residual: 10.87
mrth: 90.28 cth: 67.72 usage: 87.08 residual: 3.2
mrth: 72.15 cth: 61.19 usage: 49.32 residual: 22.83
mrth: 171.62 cth: 123.69 usage: 152.19 residual: 19.43
mrth: 52.17 cth: 46.88 usage: 35.39 residual: 16.78
mrth: 91.19 cth: 66.37 usage: 57.36 residual: 33.83
mrth: 41.03 cth: 28.9 usage: 26.98 residual: 14.05
mrth: 95.99 cth: 84.21 usage: 50.86 residual: 45.13
mrth: 87.32 cth: 62.98 usage: 77.46 residual: 9.86
mrth: 88.56 cth: 74.33 usage: 82.18 residual: 6.38
mrth: 85.17 cth: 76.29 usage: 82.07 residual: 3.1
mrth: 90.71 cth: 74.18 usage: 47.54 residual: 43.17
mrth: 22.87 cth: 16.09 usage: 12.08 residual: 10.79
mrth: 163.36 cth: 127.5 usage: 144.85 residual: 18.51
mrth: 59.28 cth: 48.13 usage: 52.53 residual: 6.75
