mrth: 68.29 cth: 59.92 usage: 40.49 residual: 27.8
mrth: 105.18 cth: 82.61 usage: 65.96 residual: 39.22
mrth: 117.51 cth: 83.01 usage: 117.0 residual: 0.51
mrth: 84.48 cth: 72.3 usage: 76.22 residual: 8.26
mrth: 120.65 cth: 95.23 usage: 99.99 residual: 20.66
mrth: 171.62 cth: 132.2 usage: 106.81 residual: 64.81
mrth: 169.13 cth: 123.82 usage: 119.8 residual: 49.33
mrth: 137.38 cth: 123.22 usage: 102.51 residual: 34.87
mrth: 82.9 cth: 68.57 usage: 70.04 residual: 12.86
mrth: 50.62 cth: 44.07 usage: 35.12 residual: 15.5
mrth: 24.2 cth: 17.32 usage: 16.27 residual: 7.93
mrth: 138.87 cth: 99.28 usage: 137.5 residual: 1.37
mrth: 117.92 cth: 97.88 usage: 85.49 residual: 32.43
mrth: 24.33 cth: 19.83 usage: 22.62 residual: 1.71
mrth: 113.59 cth: 88.34 usage: 76.57 residual: 37.02
mrth: 24.03 cth: 20.55 usage: 22.88 residual: 1.15
mrth: 184.04 cth: 134.6 usage: 174.72 residual: 9.32
mrth: 62.35 cth: 43.86 usage: 39.89 residual: 22.46
mrth: 64.87 cth: 55.28 usage: 59.44 residual: 5.43
mrth: 58.9 cth: 43.68 usage: 35.47 residual: 23.43
mrth: 149.41 cth: 116.89 usage: 109.79 residual: 39.62
mrth: 102.26 cth: 86.1 usage: 81.83 residual: 20.43
mrth: 36.05 cth: 29.28 usage: 21.34 residual: 14.71
mrth: 98.83 cth: 70.09 usage: 84.63 residual: 14.2
mrth: 105.1 cth: 76.02 usage: 91.61 residual: 13.49
mrth: 55.03 cth: 42.42 usage: 31.62 residual: 23.41
mrth: 41.24 cth: 30.33 usage: 26.75 residual: 14.49
mrth: 142.95 cth: 119.76 usage: 134.02 residual: 8.93
mrth: 62.82 cth: 45.49 usage: 48.4 residual: 14.42
mrth: 66.24 cth: 47.96 usage: 45.49 residual: 20.75
mrth: 106.36 cth: 85.22 usage: 65.51 residual: 40.85
mrth: 69.06 cth: 56.57 usage: 54.93 residual: 14.13
mrth: 117.91 cth: 101.4 usage: 68.5 residual: 49.41
mrth: 65.19 cth: 57.14 usage: 57.44 residual: 7.75
mrth: 43.28 cth: 36.21 usage: 22.57 residual: 20.71
mrth: 88.42 cth: 69.14 usage: 46.76 residual: 41.66
mrth: 184.57 cth: 152.6 usage: 149.56 residual: 35.01
mrth: 146.81 cth: 120.48 usage: 127.6 residual: 19.21
mrth: 39.58 cth: 33.34 usage: 30.72 residual: 8.86
mrth: 99.54 cth: 88.26 usage: 89.44 residual: 10.1
mrth: 172.25 cth: 134.05 usage: 170.53 residual: 1.72
mrth: 186.92 cth: 157.07 usage: 166.4 residual: 20.52
mrth: 54.13 cth: 47.88 usage: 52.44 residual: 1.69
mrth: 24.64 cth: 20.29 usage: 13.47 residual: 11.17
mrth: 183.49 cth: 132.79 usage: 108.8 residual: 74.69
mrth: 119.83 cth: 87.19 usage: 94.5 residual: 25.33
mrth: 43.76 cth: 33.01 usage: 34.06 residual: 9.7
mrth: 5.22 cth: 3.76 usage: 3.93 residual: 1.29
mrth: 71.02 cth: 50.77 usage: 44.74 residual: 26.28
mrth: 95.67 cth: 82.0 usage: 86.0 residual: 9.67
mrth: 71.29 cth: 64.13 usage: 65.25 residual: 6.04
mrth: 111.95 cth: 79.29 usage: 90.88 residual: 21.07
mrth: 94.58 cth: 66.33 usage: 72.98 residual: 21.6
mrth: 113.91 cth: 94.98 usage: 83.21 residual: 30.7
mrth: 99.49 cth: 72.22 usage: 61.92 residual: 37.57
mrth: 143.96 cth: 115.3 usage: 89.59 residual: 54.37
mrth: 104.3 cth: 78.12 usage: 98.44 residual: 5.86
mrth: 187.22 cth: 164.49 usage: 148.74 residual: 38.48
mrth: 36.96 cth: 32.97 usage: 22.38 residual: 14.58
mrth: 32.75 cth: 24.51 usage: 25.58 residual: 7.17
mrth: 96.51 cth: 69.32 usage: 74.5 residual: 22.01
mrth: 84.01 cth: 72.13 usage: 78.09 residual: 5.92
mrth: 48.13 cth: 34.0 usage: 29.34 residual: 18.79
mrth: 72.07 cth: 54.03 usage: 52.58 residual: 19.49
mrth: 80.06 cth: 56.17 usage: 48.56 residual: 31.5
mrth: 55.1 cth: 39.7 usage: 45.47 residual: 9.63
mrth: 11.73 cth: 8.28 usage: 9.52 residual: 2.21
mrth: 228.57 cth: 173.56 usage: 169.47 residual: 59.1
mrth: 19.1 cth: 14.53 usage: 11.08 residual: 8.02
mrth: 29.29 cth: 25.47 usage: 25.34 residual: 3.95
mrth: 106.96 cth: 78.85 usage: 85.93 residual: 21.03
mrth: 77.38 cth: 67.33 usage: 58.93 residual: 18.45
mrth: 110.02 cth: 96.85 usage: 103.02 residual: 7.0
mrth: 119.44 cth: 102.33 usage: 99.15 residual: 20.29
mrth: 130.24 cth: 106.46 usage: 84.17 residual: 46.07
mrth: 115.84 cth: 95.95 usage: 105.29 residual: 10.55
mrth: 139.34 cth: 98.81 usage: 98.42 residual: 40.92
mrth: 75.22 cth: 64.41 usage: 39.51 residual: 35.71
mrth: 124.66 cth: 93.67 usage: 108.63 residual: 16.03
mrth: 88.76 cth: 62.2 usage: 47.03 residual: 41.73
mrth: 97.65 cth: 77.37 usage: 50.6 residual: 47.05
mrth: 77.57 cth: 58.22 usage: 45.38 residual: 32.19
mrth: 33.96 cth: 24.05 usage: 32.69 residual: 1.27
mrth: 111.9 cth: 94.01 usage: 108.83 residual: 3.07
mrth: 112.67 cth: 99.15 usage: 61.6 residual: 51.07
mrth: 100.63 cth: 79.57 usage: 61.89 residual: 38.74
mrth: 201.89 cth: 160.73 usage: 191.97 residual: 9.92
mrth: 46.5 cth: 36.63 usage: 35.22 residual: 11.28
mrth: 160.72 cth: 126.77 usage: 153.56 residual: 7.16
mrth: 62.39 cth: 44.94 usage: 55.17 residual: 7.22
mrth: 59.93 cth: 52.67 usage: 40.03 residual: 19.9
mrth: 138.8 cth: 102.24 usage: 76.52 residual: 62.28
mrth: 78.39 cth: 58.51 usage: 44.24 residual: 34.15
mrth: 73.98 cth: 59.42 usage: 69.48 residual: 4.5
mrth: 100.0 cth: 83.96 usage: 70.62 residual: 29.38
mrth: 71.66 cth: 55.0 usage: 65.26 residual: 6.4
mrth: 164.32 cth: 130.39 usage: 126.9 residual: 37.42
mrth: 97.79 cth: 74.53 usage: 63.85 residual: 33.94
mrth: 62.91 cth: 44.52 usage: 61.85 residual: 1.06
mrth: 68.91 cth: 48.82 usage: 50.68 residual: 18.23
mrth: 84.73 cth: 62.77 usage: 45.54 residual: 39.19
mrth: 97.16 cth: 68.51 usage: 92.03 residual: 5.13
mrth: 150.0 cth: 107.7 usage: 107.27 residual: 42.73
mrth: 66.6 cth: 47.08 usage: 52.16 residual: 14.44
mrth: 132.3 cth: 119.06 usage: 125.06 residual: 7.24
mrth: 104.13 cth: 93.31 usage: 85.47 residual: 18.66
mrth: 32.0 cth: 28.39 usage: 29.78 residual: 2.22
mrth: 189.4 cth: 147.18 usage: 120.32 residual: 69.08
mrth: 96.17 cth: 70.28 usage: 54.93 residual: 41.24
mrth: 176.64 cth: 126.54 usage: 124.03 residual: 52.61
mrth: 122.35 cth: 109.73 usage: 94.1 residual: 28.25
mrth: 159.03 cth: 134.47 usage: 105.82 residual: 53.21
mrth: 22.11 cth: 16.63 usage: 18.59 residual: 3.52
mrth: 79.38 cth: 64.81 usage: 57.07 residual: 22.31
mrth: 185.69 cth: 157.64 usage: 113.7 residual: 71.99
mrth: 178.5 cth: 131.22 usage: 98.71 residual: 79.79
mrth: 128.51 cth: 92.64 usage: 120.87 residual: 7.64
mrth: 152.62 cth: 129.57 usage: 108.82 residual: 43.8
mrth: 74.03 cth: 57.6 usage: 68.55 residual: 5.48
mrth: 29.63 cth: 24.13 usage: 17.43 residual: 12.2
mrth: 101.46 cth: 77.03 usage: 68.85 residual: 32.61
mrth: 163.32 cth: 142.85 usage: 138.13 residual: 25.19
mrth: 29.97 cth: 21.99 usage: 19.97 residual: 10.0
mrth: 80.66 cth: 67.09 usage: 56.18 residual: 24.48
mrth: 61.93 cth: 51.59 usage: 47.81 residual: 14.12
mrth: 143.45 cth: 101.5 usage: 73.37 residual: 70.08
mrth: 47.72 cth: 39.18 usage: 30.97 residual: 16.75
mrth: 128.95 cth: 92.5 usage: 95.82 residual: 33.13
mrth: 66.01 cth: 52.93 usage: 50.52 residual: 15.49
mrth: 18.53 cth: 14.72 usage: 14.37 residual: 4.16
mrth: 108.95 cth: 76.52 usage: 88.62 residual: 20.33
mrth: 143.52 cth: 126.8 usage: 106.11 residual: 37.41
mrth: 233.22 cth: 178.45 usage: 225.23 residual: 7.99
mrth: 93.89 cth: 82.28 usage: 74.78 residual: 19.11
mrth: 65.02 cth: 56.7 usage: 35.05 residual: 29.97
mrth: 255.57 cth: 184.86 usage: 188.69 residual: 66.88
mrth: 83.0 cth: 70.58 usage: 82.56 residual: 0.44
mrth: 86.68 cth: 73.55 usage: 69.84 residual: 16.84
mrth: 127.52 cth: 92.61 usage: 82.01 residual: 45.51
mrth: 37.45 cth: 31.47 usage: 35.18 residual: 2.27
mrth: 67.08 cth: 53.48 usage: 34.99 residual: 32.09
mrth: 25.2 cth: 18.97 usage: 22.11 residual: 3.09
mrth: 44.3 cth: 35.96 usage: 25.2 residual: 19.1
mrth: 139.66 cth: 105.92 usage: 122.26 residual: 17.4
mrth: 150.82 cth: 126.03 usage: 136.79 residual: 14.03
mrth: 104.19 cth: 89.8 usage: 54.29 residual: 49.9
mrth: 151.24 cth: 118.19 usage: 128.64 residual: 22.6
mrth: 60.21 cth: 43.73 usage: 38.12 residual: 22.09
mrth: 164.24 cth: 136.81 usage: 121.16 residual: 43.08
mrth: 148.66 cth: 133.68 usage: 78.04 residual: 70.62
mrth: 48.66 cth: 42.79 usage: 37.35 residual: 11.31
mrth: 160.03 cth: 119.24 usage: 113.84 residual: 46.19
mrth: 29.83 cth: 24.95 usage: 29.82 residual: 0.01
mrth: 25.56 cth: 20.95 usage: 14.46 residual: 11.1
mrth: 36.22 cth: 31.54 usage: 23.0 residual: 13.22
mrth: 104.0 cth: 83.84 usage: 59.15 residual: 44.85
mrth: 74.3 cth: 59.55 usage: 63.44 residual: 10.86
mrth: 126.23 cth: 95.23 usage: 92.04 residual: 34.19
mrth: 114.32 cth: 101.0 usage: 100.62 residual: 13.7
mrth: 33.47 cth: 27.45 usage: 33.36 residual: 0.11
mrth: 49.55 cth: 39.34 usage: 25.21 residual: 24.34
mrth: 69.96 cth: 51.48 usage: 35.84 residual: 34.12
mrth: 72.36 cth: 60.98 usage: 40.9 residual: 31.46
mrth: 40.15 cth: 35.0 usage: 25.41 residual: 14.74
mrth: 96.07 cth: 71.05 usage: 49.23 residual: 46.84
mrth: 50.24 cth: 43.33 usage: 41.39 residual: 8.85
mrth: 150.66 cth: 122.03 usage: 99.8 residual: 50.86
mrth: 243.21 cth: 213.96 usage: 234.48 residual: 8.73
mrth: 13.69 cth: 11.96 usage: 9.99 residual: 3.7
mrth: 34.08 cth: 25.35 usage: 27.29 residual: 6.79
mrth: 75.07 cth: 56.3 usage: 41.07 residual: 34.0
mrth: 92.07 cth: 76.13 usage: 68.94 residual: 23.13
mrth: 129.08 cth: 106.25 usage: 116.2 residual: 12.88
mrth: 91.78 cth: 70.8 usage: 79.22 residual: 12.56
mrth: 121.39 cth: 95.31 usage: 98.04 residual: 23.35
mrth: 185.63 cth: 165.3 usage: 127.83 residual: 57.8
mrth: 31.86 cth: 24.17 usage: 21.49 residual: 10.37
mrth: 67.73 cth: 58.48 usage: 55.64 residual: 12.09
mrth: 254.42 cth: 178.14 usage: 173.47 residual: 80.95
mrth: 42.13 cth: 33.37 usage: 21.81 residual: 20.32
mrth: 67.54 cth: 51.21 usage: 61.31 residual: 6.23
mrth: 95.41 cth: 79.73 usage: 91.43 residual: 3.98
mrth: 138.5 cth: 112.77 usage: 85.87 residual: 52.63
mrth: 160.84 cth: 130.4 usage: 93.32 residual: 67.52
mrth: 189.27 cth: 137.39 usage: 110.59 residual: 78.68
mrth: 50.0 cth: 43.01 usage: 30.77 residual: 19.23
mrth: 51.32 cth: 43.43 usage: 44.62 residual: 6.7
mrth: 95.43 cth: 68.95 usage: 70.04 residual: 25.39
mrth: 34.75 cth: 28.18 usage: 28.11 residual: 6.64
mrth: 88.9 cth: 75.51 usage: 72.68 residual: 16.22
mrth: 125.85 cth: 101.66 usage: 120.0 residual: 5.85
mrth: 47.5 cth: 40.18 usage: 24.19 residual: 23.31
mrth: 142.89 cth: 124.4 usage: 122.75 residual: 20.14
mrth: 99.23 cth: 74.43 usage: 81.39 residual: 17.84
mrth: 25.31 cth: 21.84 usage: 17.9 residual: 7.41
mrth: 127.43 cth: 113.48 usage: 124.1 residual: 3.33
mrth: 148.15 cth: 106.87 usage: 138.87 residual: 9.28
mrth: 185.08 cth: 143.07 usage: 109.81 residual: 75.27
mrth: 92.27 cth: 78.06 usage: 84.04 residual: 8.23
mrth: 151.43 cth: 107.76 usage: 97.66 residual: 53.77
mrth: 80.5 cth: 66.69 usage: 48.15 residual: 32.35
mrth: 275.13 cth: 222.28 usage: 273.59 residual: 1.54
mrth: 78.73 cth: 59.14 usage: 70.89 residual: 7.84
mrth: 63.16 cth: 45.1 usage: 52.26 residual: 10.9
mrth: 83.41 cth: 71.69 usage: 76.12 residual: 7.29
mrth: 47.39 cth: 36.17 usage: 27.94 residual: 19.45
mrth: 43.97 cth: 34.16 usage: 38.54 residual: 5.43
mrth: 51.36 cth: 42.17 usage: 35.34 residual: 16.02
mrth: 210.4 cth: 180.33 usage: 106.08 residual: 104.32
mrth: 79.31 cth: 68.18 usage: 48.59 residual: 30.72
mrth: 148.95 cth: 120.15 usage: 74.72 residual: 74.23
mrth: 42.29 cth: 36.28 usage: 34.53 residual: 7.76
mrth: 90.39 cth: 68.74 usage: 47.41 residual: 42.98
mrth: 41.17 cth: 33.54 usage: 28.81 residual: 12.36
mrth: 110.16 cth: 96.69 usage: 84.89 residual: 25.27
mrth: 96.42 cth: 73.8 usage: 86.17 residual: 10.25
mrth: 76.55 cth: 61.19 usage: 60.48 residual: 16.07
mrth: 108.56 cth: 89.72 usage: 66.83 residual: 41.73
mrth: 50.15 cth: 41.98 usage: 31.43 residual: 18.72
mrth: 141.77 cth: 107.49 usage: 84.36 residual: 57.41
mrth: 78.25 cth: 65.83 usage: 66.05 residual: 12.2
mrth: 107.19 cth: 83.96 usage: 56.74 residual: 50.45
mrth: 52.82 cth: 42.87 usage: 33.05 residual: 19.77
mrth: 150.1 cth: 108.99 usage: 130.57 residual: 19.53
mrth: 73.23 cth: 54.35 usage: 38.54 residual: 34.69
mrth: 156.52 cth: 112.22 usage: 150.78 residual: 5.74
mrth: 120.34 cth: 93.1 usage: 87.45 residual: 32.89
mrth: 63.47 cth: 49.64 usage: 40.2 residual: 23.27
mrth: 145.13 cth: 105.39 usage: 110.66 residual: 34.47
mrth: 78.7 cth: 64.29 usage: 56.5 residual: 22.2
mrth: 54.4 cth: 47.52 usage: 30.41 residual: 23.99
mrth: 152.59 cth: 125.21 usage: 149.61 residual: 2.98
mrth: 13.2 cth: 10.19 usage: 8.24 residual: 4.96
mrth: 2.79 cth: 2.11 usage: 2.45 residual: 0.34
mrth: 123.03 cth: 95.72 usage: 104.08 residual: 18.95
mrth: 53.64 cth: 47.53 usage: 44.55 residual: 9.09
mrth: 127.66 cth: 106.34 usage: 106.9 residual: 20.76
mrth: 132.1 cth: 94.92 usage: 77.25 residual: 54.85
mrth: 114.98 cth: 99.14 usage: 67.07 residual: 47.91
mrth: 153.04 cth: 110.41 usage: 89.14 residual: 63.9
mrth: 120.27 cth: 102.18 usage: 101.15 residual: 19.12
mrth: 148.18 cth: 114.09 usage: 107.22 residual: 40.96
mrth: 103.01 cth: 92.02 usage: 66.8 residual: 36.21
mrth: 99.19 cth: 74.5 usage: 98.15 residual: 1.04
mrth: 141.76 cth: 99.61 usage: 125.48 residual: 16.28
mrth: 62.72 cth: 52.24 usage: 33.87 residual: 28.85
mrth: 80.19 cth: 59.46 usage: 59.04 residual: 21.15
mrth: 56.98 cth: 43.93 usage: 37.16 residual: 19.82
mrth: 126.62 cth: 95.22 usage: 104.53 residual: 22.09
mrth: 3.18 cth: 2.72 usage: 2.4 residual: 0.78
mrth: 126.85 cth: 92.78 usage: 109.86 residual: 16.99
mrth: 94.62 cth: 81.6 usage: 75.21 residual: 19.41
mrth: 103.27 cth: 90.24 usage: 75.57 residual: 27.7
mrth: 82.61 cth: 58.05 usage: 54.71 residual: 27.9
mrth: 87.01 cth: 70.9 usage: 55.41 residual: 31.6
mrth: 200.21 cth: 159.21 usage: 164.88 residual: 35.33
mrth: 107.99 cth: 83.25 usage: 63.81 residual: 44.18
mrth: 89.28 cth: 71.69 usage: 83.66 residual: 5.62
mrth: 53.7 cth: 38.91 usage: 37.78 residual: 15.92
mrth: 73.0 cth: 55.7 usage: 38.68 residual: 34.32
mrth: 79.59 cth: 66.08 usage: 77.68 residual: 1.91
mrth: 75.76 cth: 63.55 usage: 46.59 residual: 29.17
mrth: 149.37 cth: 129.98 usage: 90.46 residual: 58.91
mrth: 147.67 cth: 104.81 usage: 81.58 residual: 66.09
mrth: 213.46 cth: 169.27 usage: 127.46 residual: 86.0
mrth: 79.6 cth: 69.73 usage: 59.28 residual: 20.32
mrth: 141.54 cth: 117.42 usage: 81.99 residual: 59.55
mrth: 32.67 cth: 25.12 usage: 21.33 residual: 11.34
mrth: 24.47 cth: 20.93 usage: 22.28 residual: 2.19
mrth: 90.32 cth: 68.21 usage: 75.44 residual: 14.88
mrth: 58.57 cth: 42.1 usage: 40.33 residual: 18.24
mrth: 200.59 cth: 175.52 usage: 101.42 residual: 99.17
mrth: 93.31 cth: 73.75 usage: 59.37 residual: 33.94
mrth: 62.8 cth: 51.42 usage: 50.31 residual: 12.49
mrth: 144.76 cth: 125.27 usage: 79.35 residual: 65.41
mrth: 33.3 cth: 26.47 usage: 17.22 residual: 16.08
mrth: 57.86 cth: 51.38 usage: 43.2 residual: 14.66
mrth: 100.75 cth: 80.97 usage: 81.13 residual: 19.62
mrth: 32.64 cth: 29.24 usage: 31.39 residual: 1.25
mrth: 102.64 cth: 88.95 usage: 72.48 residual: 30.16
mrth: 48.65 cth: 34.93 usage: 30.13 residual: 18.52
mrth: 21.17 cth: 18.49 usage: 13.21 residual: 7.96
mrth: 66.39 cth: 58.8 usage: 64.29 residual: 2.1
mrth: 64.55 cth: 46.59 usage: 53.89 residual: 10.66
mrth: 52.2 cth: 46.5 usage: 35.16 residual: 17.04
mrth: 123.97 cth: 96.22 usage: 82.09 residual: 41.88
mrth: 172.42 cth: 130.42 usage: 96.67 residual: 75.75
mrth: 133.76 cth: 118.22 usage: 75.09 residual: 58.67
mrth: 93.25 cth: 80.0 usage: 51.01 residual: 42.24
mrth: 103.73 cth: 84.45 usage: 65.61 residual: 38.12
mrth: 92.44 cth: 77.72 usage: 66.5 residual: 25.94
mrth: 207.5 cth: 167.02 usage: 198.84 residual: 8.66
mrth: 109.71 cth: 86.15 usage: 86.66 residual: 23.05
mrth: 78.56 cth: 62.89 usage: 60.53 residual: 18.03
mrth: 184.98 cth: 139.23 usage: 140.98 residual: 44.0
mrth: 125.77 cth: 93.68 usage: 64.89 residual: 60.88
mrth: 94.39 cth: 83.51 usage: 68.07 residual: 26.32
mrth: 30.0 cth: 22.19 usage: 19.7 residual: 10.3
mrth: 44.91 cth: 39.98 usage: 23.1 residual: 21.81
mrth: 16.05 cth: 12.59 usage: 14.86 residual: 1.19
mrth: 91.45 cth: 75.39 usage: 48.1 residual: 43.35
mrth: 133.01 cth: 110.66 usage: 115.99 residual: 17.02
mrth: 138.27 cth: 98.54 usage: 136.6 residual: 1.67
mrth: 215.85 cth: 188.07 usage: 166.32 residual: 49.53
mrth: 106.34 cth: 92.58 usage: 70.0 residual: 36.34
mrth: 82.05 cth: 73.71 usage: 53.95 residual: 28.1
mrth: 68.1 cth: 52.29 usage: 36.86 residual: 31.24
mrth: 62.09 cth: 49.22 usage: 36.46 residual: 25.63
mrth: 86.61 cth: 69.86 usage: 64.46 residual: 22.15
mrth: 141.39 cth: 110.05 usage: 84.99 residual: 56.4
mrth: 92.03 cth: 65.56 usage: 69.27 residual: 22.76
mrth: 97.95 cth: 69.03 usage: 95.03 residual: 2.92
mrth: 154.51 cth: 118.82 usage: 88.02 residual: 66.49
mrth: 113.44 cth: 90.32 usage: 72.72 residual: 40.72
mrth: 192.81 cth: 173.36 usage: 146.06 residual: 46.75
mrth: 18.33 cth: 13.48 usage: 13.65 residual: 4.68
mrth: 23.19 cth: 17.14 usage: 21.58 residual: 1.61
mrth: 17.2 cth: 15.47 usage: 10.81 residual: 6.39
mrth: 162.8 cth: 127.29 usage: 126.92 residual: 35.88
mrth: 175.32 cth: 125.22 usage: 109.13 residual: 66.19
mrth: 215.48 cth: 179.49 usage: 127.76 residual: 87.72
mrth: 119.88 cth: 100.75 usage: 68.28 residual: 51.6
mrth: 39.19 cth: 32.8 usage: 25.41 residual: 13.78
mrth: 59.57 cth: 50.06 usage: 52.68 residual: 6.89
mrth: 34.93 cth: 30.47 usage: 21.6 residual: 13.33
mrth: 123.5 cth: 94.75 usage: 66.59 residual: 56.91
mrth: 24.5 cth: 18.23 usage: 18.87 residual: 5.63
mrth: 44.3 cth: 36.11 usage: 30.84 residual: 13.46
mrth: 117.76 cth: 103.83 usage: 65.63 residual: 52.13
mrth: 36.98 cth: 32.4 usage: 29.81 residual: 7.17
mrth: 139.1 cth: 101.39 usage: 80.68 residual: 58.42
mrth: 54.41 cth: 42.38 usage: 52.18 residual: 2.23
mrth: 11.51 cth: 10.1 usage: 6.23 residual: 5.28
mrth: 95.7 cth: 68.76 usage: 76.98 residual: 18.72
mrth: 188.92 cth: 136.89 usage: 134.04 residual: 54.88
mrth: 44.42 cth: 37.2 usage: 42.85 residual: 1.57
mrth: 220.5 cth: 182.16 usage: 186.37 residual: 34.13
mrth: 66.52 cth: 47.61 usage: 54.98 residual: 11.54
mrth: 73.25 cth: 53.33 usage: 38.5 residual: 34.75
mrth: 63.34 cth: 51.51 usage: 55.08 residual: 8.26
mrth: 32.04 cth: 26.84 usage: 30.99 residual: 1.05
mrth: 111.93 cth: 91.68 usage: 87.02 residual: 24.91
mrth: 187.6 cth: 168.26 usage: 106.77 residual: 80.83
mrth: 87.03 cth: 65.41 usage: 67.4 residual: 19.63
mrth: 101.53 cth: 87.39 usage: 98.34 residual: 3.19
mrth: 220.69 cth: 188.01 usage: 158.52 residual: 62.17
mrth: 48.32 cth: 38.19 usage: 47.08 residual: 1.24
mrth: 186.22 cth: 146.62 usage: 144.71 residual: 41.51
mrth: 115.11 cth: 95.06 usage: 92.43 residual: 22.68
mrth: 64.86 cth: 55.54 usage: 37.99 residual: 26.87
mrth: 159.99 cth: 143.03 usage: 159.16 residual: 0.83
mrth: 22.98 cth: 17.13 usage: 15.11 residual: 7.87
mrth: 56.25 cth: 39.53 usage: 46.1 residual: 10.15
mrth: 118.1 cth: 96.16 usage: 110.36 residual: 7.74
mrth: 143.43 cth: 105.55 usage: 91.48 residual: 51.95
mrth: 52.97 cth: 46.74 usage: 31.55 residual: 21.42
mrth: 11.72 cth: 8.33 usage: 11.38 residual: 0.34
mrth: 147.38 cth: 109.89 usage: 104.44 residual: 42.94
mrth: 146.44 cth: 122.71 usage: 74.22 residual: 72.22
mrth: 157.2 cth: 112.05 usage: 142.45 residual: 14.75
mrth: 18.68 cth: 14.76 usage: 10.62 residual: 8.06
mrth: 55.92 cth: 46.96 usage: 49.15 residual: 6.77
mrth: 79.31 cth: 66.15 usage: 74.74 residual: 4.57
mrth: 145.63 cth: 115.19 usage: 111.32 residual: 34.31
mrth: 31.02 cth: 27.28 usage: 16.12 residual: 14.9
mrth: 73.19 cth: 58.26 usage: 56.56 residual: 16.63
mrth: 63.25 cth: 55.62 usage: 32.64 residual: 30.61
mrth: 129.68 cth: 104.62 usage: 74.3 residual: 55.38
mrth: 103.97 cth: 84.47 usage: 63.11 residual: 40.86
mrth: 57.64 cth: 42.65 usage: 56.2 residual: 1.44
mrth: 45.88 cth: 35.91 usage: 27.19 residual: 18.69
mrth: 162.51 cth: 130.04 usage: 100.75 residual: 61.76
mrth: 147.08 cth: 113.55 usage: 96.28 residual: 50.8
mrth: 71.8 cth: 50.82 usage: 66.35 residual: 5.45
mrth: 207.57 cth: 166.81 usage: 126.98 residual: 80.59
mrth: 113.47 cth: 96.22 usage: 68.58 residual: 44.89
mrth: 161.17 cth: 117.16 usage: 139.94 residual: 21.23
mrth: 78.93 cth: 64.3 usage: 76.03 residual: 2.9
mrth: 118.38 cth: 95.65 usage: 73.06 residual: 45.32
mrth: 108.01 cth: 85.33 usage: 66.72 residual: 41.29
mrth: 54.28 cth: 47.83 usage: 39.29 residual: 14.99
mrth: 50.87 cth: 38.35 usage: 45.08 residual: 5.79
mrth: 57.51 cth: 43.51 usage: 56.13 residual: 1.38
mrth: 79.6 cth: 61.38 usage: 62.3 residual: 17.3
mrth: 271.98 cth: 222.71 usage: 245.32 residual: 26.66
mrth: 155.66 cth: 123.07 usage: 139.17 residual: 16.49
mrth: 153.27 cth: 118.07 usage: 88.86 residual: 64.41
mrth: 65.41 cth: 47.47 usage: 40.02 residual: 25.39
mrth: 90.36 cth: 66.21 usage: 54.34 residual: 36.02
mrth: 75.66 cth: 66.4 usage: 56.3 residual: 19.36
mrth: 45.16 cth: 38.58 usage: 41.24 residual: 3.92
mrth: 153.68 cth: 132.28 usage: 99.3 residual: 54.38
mrth: 57.19 cth: 49.55 usage: 49.64 residual: 7.55
mrth: 100.72 cth: 88.64 usage: 84.35 residual: 16.37
mrth: 46.47 cth: 37.63 usage: 33.39 residual: 13.08
mrth: 215.81 cth: 154.16 usage: 215.05 residual: 0.76
mrth: 56.4 cth: 48.53 usage: 44.76 residual: 11.64
mrth: 97.55 cth: 71.28 usage: 56.07 residual: 41.48
mrth: 109.56 cth: 87.19 usage: 78.23 residual: 31.33
mrth: 149.23 cth: 114.01 usage: 85.28 residual: 63.95
mrth: 108.44 cth: 87.03 usage: 74.53 residual: 33.91
mrth: 33.53 cth: 28.51 usage: 21.06 residual: 12.47
mrth: 25.77 cth: 19.12 usage: 21.7 residual: 4.07
mrth: 82.26 cth: 73.32 usage: 45.11 residual: 37.15
mrth: 181.14 cth: 129.39 usage: 130.75 residual: 50.39
mrth: 100.47 cth: 83.34 usage: 54.3 residual: 46.17
mrth: 70.01 cth: 58.02 usage: 51.2 residual: 18.81
mrth: 35.6 cth: 27.51 usage: 30.73 residual: 4.87
mrth: 28.38 cth: 23.89 usage: 23.7 residual: 4.68
mrth: 31.0 cth: 26.69 usage: 16.58 residual: 14.42
mrth: 133.68 cth: 100.61 usage: 72.06 residual: 61.62
mrth: 8.82 cth: 7.37 usage: 6.91 residual: 1.91
mrth: 134.49 cth: 117.03 usage: 121.51 residual: 12.98
mrth: 172.12 cth: 142.64 usage: 144.92 residual: 27.2
mrth: 18.91 cth: 15.89 usage: 14.09 residual: 4.82
mrth: 111.87 cth: 96.55 usage: 59.22 residual: 52.65
mrth: 157.81 cth: 114.6 usage: 81.83 residual: 75.98
mrth: 35.74 cth: 26.45 usage: 25.96 residual: 9.78
mrth: 88.78 cth: 62.88 usage: 86.2 residual: 2.58
mrth: 246.32 cth: 193.39 usage: 126.26 residual: 120.06
mrth: 15.98 cth: 11.43 usage: 10.16 residual: 5.82
mrth: 43.32 cth: 37.67 usage: 37.12 residual: 6.2
mrth: 59.31 cth: 52.65 usage: 51.23 residual: 8.08
mrth: 56.84 cth: 46.39 usage: 51.46 residual: 5.38
mrth: 236.2 cth: 179.53 usage: 179.01 residual: 57.19
mrth: 20.7 cth: 15.31 usage: 12.02 residual: 8.68
mrth: 96.11 cth: 72.44 usage: 50.93 residual: 45.18
mrth: 47.4 cth: 40.91 usage: 38.1 residual: 9.3
mrth: 164.79 cth: 142.05 usage: 116.14 residual: 48.65
mrth: 55.18 cth: 49.43 usage: 51.32 residual: 3.86
mrth: 167.42 cth: 131.94 usage: 148.11 residual: 19.31
mrth: 188.75 cth: 142.57 usage: 188.73 residual: 0.02
mrth: 86.33 cth: 60.72 usage: 66.14 residual: 20.19
mrth: 77.87 cth: 62.64 usage: 66.94 residual: 10.93
mrth: 88.45 cth: 76.43 usage: 48.06 residual: 40.39
mrth: 179.8 cth: 150.61 usage: 160.42 residual: 19.38
mrth: 113.87 cth: 85.15 usage: 63.29 residual: 50.58
mrth: 158.97 cth: 112.04 usage: 100.21 residual: 58.76
mrth: 195.36 cth: 161.94 usage: 151.71 residual: 43.65
mrth: 101.03 cth: 74.98 usage: 71.96 residual: 29.07
mrth: 132.89 cth: 93.22 usage: 70.78 residual: 62.11
mrth: 60.74 cth: 54.16 usage: 49.82 residual: 10.92
mrth: 43.21 cth: 36.93 usage: 29.16 residual: 14.05
mrth: 117.78 cth: 101.19 usage: 96.88 residual: 20.9
mrth: 60.12 cth: 53.16 usage: 39.14 residual: 20.98
mrth: 110.66 cth: 94.25 usage: 78.7 residual: 31.96
mrth: 108.5 cth: 93.73 usage: 59.15 residual: 49.35
mrth: 19.07 cth: 14.66 usage: 14.58 residual: 4.49
mrth: 97.79 cth: 83.01 usage: 96.37 residual: 1.42
mrth: 98.66 cth: 79.0 usage: 51.04 residual: 47.62
mrth: 53.23 cth: 38.5 usage: 26.69 residual: 26.54
mrth: 127.81 cth: 113.64 usage: 95.46 residual: 32.35
mrth: 190.16 cth: 146.66 usage: 156.58 residual: 33.58
mrth: 134.48 cth: 99.92 usage: 86.75 residual: 47.73
mrth: 123.85 cth: 92.19 usage: 108.41 residual: 15.44
mrth: 153.93 cth: 135.15 usage: 129.09 residual: 24.84
mrth: 80.23 cth: 58.4 usage: 62.98 residual: 17.25
mrth: 84.35 cth: 73.59 usage: 63.4 residual: 20.95
mrth: 46.6 cth: 36.59 usage: 40.21 residual: 6.39
mrth: 192.25 cth: 143.7 usage: 143.68 residual: 48.57
mrth: 56.66 cth: 40.14 usage: 53.95 residual: 2.71
mrth: 146.74 cth: 107.88 usage: 76.13 residual: 70.61
mrth: 68.84 cth: 49.51 usage: 48.9 residual: 19.94
mrth: 129.13 cth: 94.0 usage: 77.83 residual: 51.3
mrth: 70.84 cth: 53.97 usage: 67.03 residual: 3.81
mrth: 66.67 cth: 55.55 usage: 59.59 residual: 7.08
mrth: 69.54 cth: 59.17 usage: 52.21 residual: 17.33
mrth: 85.96 cth: 75.46 usage: 66.74 residual: 19.22
mrth: 61.53 cth: 51.67 usage: 43.14 residual: 18.39
mrth: 118.14 cth: 88.38 usage: 118.12 residual: 0.02
mrth: 45.08 cth: 37.42 usage: 45.04 residual: 0.04
mrth: 46.95 cth: 34.5 usage: 38.64 residual: 8.31
mrth: 32.61 cth: 28.52 usage: 21.24 residual: 11.37
mrth: 61.43 cth: 51.2 usage: 54.14 residual: 7.29
mrth: 140.22 cth: 100.94 usage: 118.23 residual: 21.99
mrth: 179.8 cth: 132.79 usage: 158.78 residual: 21.02
mrth: 69.39 cth: 54.86 usage: 44.01 residual: 25.38
mrth: 152.14 cth: 135.77 usage: 98.43 residual: 53.71
mrth: 99.03 cth: 81.25 usage: 93.76 residual: 5.27
mrth: 80.36 cth: 62.1 usage: 53.83 residual: 26.53
mrth: 210.01 cth: 171.75 usage: 186.12 residual: 23.89
mrth: 111.58 cth: 98.18 usage: 94.36 residual: 17.22
mrth: 121.64 cth: 90.04 usage: 110.89 residual: 10.75
mrth: 53.47 cth: 39.81 usage: 45.96 residual: 7.51
mrth: 122.52 cth: 89.28 usage: 110.69 residual: 11.83
mrth: 42.96 cth: 30.31 usage: 29.52 residual: 13.44
mrth: 106.53 cth: 79.65 usage: 91.33 residual: 15.2
mrth: 24.0 cth: 17.73 usage: 16.43 residual: 7.57
mrth: 128.01 cth: 112.04 usage: 92.23 residual: 35.78
mrth: 127.31 cth: 100.3 usage: 88.6 residual: 38.71
mrth: 80.85 cth: 57.8 usage: 70.15 residual: 10.7
mrth: 12.0 cth: 10.24 usage: 10.51 residual: 1.49
mrth: 63.06 cth: 46.66 usage: 47.65 residual: 15.41
mrth: 97.77 cth: 84.26 usage: 88.91 residual: 8.86
mrth: 81.41 cth: 70.8 usage: 68.73 residual: 12.68
mrth: 78.24 cth: 63.31 usage: 41.89 residual: 36.35
mrth: 35.01 cth: 30.32 usage: 24.3 residual: 10.71
mrth: 59.26 cth: 47.17 usage: 55.42 residual: 3.84
mrth: 51.96 cth: 45.56 usage: 28.05 residual: 23.91
mrth: 66.44 cth: 47.26 usage: 50.1 residual: 16.34
mrth: 36.91 cth: 31.58 usage: 28.4 residual: 8.51
mrth: 83.28 cth: 63.09 usage: 67.62 residual: 15.66
mrth: 164.54 cth: 134.15 usage: 139.11 residual: 25.43
mrth: 117.93 cth: 96.46 usage: 92.52 residual: 25.41
mrth: 119.19 cth: 103.32 usage: 110.61 residual: 8.58
mrth: 136.51 cth: 105.69 usage: 106.66 residual: 29.85
mrth: 169.88 cth: 149.13 usage: 118.66 residual: 51.22
mrth: 14.38 cth: 10.27 usage: 13.03 residual: 1.35
mrth: 125.27 cth: 97.2 usage: 104.35 residual: 20.92
mrth: 40.76 cth: 34.42 usage: 38.31 residual: 2.45
mrth: 115.01 cth: 93.56 usage: 113.53 residual: 1.48
mrth: 115.28 cth: 91.0 usage: 65.11 residual: 50.17
mrth: 8.63 cth: 6.93 usage: 5.91 residual: 2.72
mrth: 62.03 cth: 51.63 usage: 38.94 residual: 23.09
mrth: 76.14 cth: 63.26 usage: 56.1 residual: 20.04
mrth: 141.05 cth: 107.76 usage: 111.42 residual: 29.63
mrth: 87.91 cth: 71.64 usage: 87.85 residual: 0.06
mrth: 124.01 cth: 106.51 usage: 68.51 residual: 55.5
mrth: 62.19 cth: 50.77 usage: 42.58 residual: 19.61
mrth: 23.92 cth: 18.44 usage: 23.57 residual: 0.35
mrth: 159.6 cth: 112.66 usage: 102.63 residual: 56.97
mrth: 132.87 cth: 109.05 usage: 76.1 residual: 56.77
mrth: 69.35 cth: 48.7 usage: 66.03 residual: 3.32
mrth: 144.13 cth: 114.77 usage: 110.57 residual: 33.56
mrth: 139.28 cth: 116.05 usage: 91.69 residual: 47.59
mrth: 106.14 cth: 83.18 usage: 55.18 residual: 50.96
mrth: 71.61 cth: 61.66 usage: 63.32 residual: 8.29
mrth: 149.55 cth: 125.24 usage: 92.9 residual: 56.65
mrth: 75.42 cth: 67.78 usage: 51.68 residual: 23.74
mrth: 26.12 cth: 20.58 usage: 19.05 residual: 7.07
mrth: 71.66 cth: 54.73 usage: 39.83 residual: 31.83
mrth: 105.3 cth: 90.45 usage: 53.18 residual: 52.12
mrth: 54.51 cth: 39.51 usage: 33.25 residual: 21.26
mrth: 198.05 cth: 169.16 usage: 160.73 residual: 37.32
mrth: 61.58 cth: 43.56 usage: 46.06 residual: 15.52
mrth: 153.83 cth: 117.07 usage: 124.9 residual: 28.93
mrth: 122.7 cth: 94.87 usage: 117.91 residual: 4.79
mrth: 92.5 cth: 73.2 usage: 68.14 residual: 24.36
mrth: 50.62 cth: 38.27 usage: 27.53 residual: 23.09
mrth: 81.59 cth: 61.63 usage: 48.26 residual: 33.33
mrth: 52.47 cth: 41.44 usage: 37.3 residual: 15.17
mrth: 41.73 cth: 31.93 usage: 33.11 residual: 8.62
mrth: 123.64 cth: 107.11 usage: 72.56 residual: 51.08
mrth: 70.1 cth: 58.14 usage: 44.34 residual: 25.76
mrth: 233.22 cth: 172.34 usage: 229.17 residual: 4.05
mrth: 90.99 cth: 78.57 usage: 87.03 residual: 3.96
mrth: 161.47 cth: 139.11 usage: 95.88 residual: 65.59
mrth: 28.85 cth: 21.83 usage: 20.56 residual: 8.29
mrth: 44.23 cth: 34.32 usage: 26.29 residual: 17.94
mrth: 78.57 cth: 58.72 usage: 40.14 residual: 38.43
mrth: 99.52 cth: 77.68 usage: 95.5 residual: 4.02
mrth: 150.23 cth: 108.63 usage: 99.5 residual: 50.73
mrth: 118.28 cth: 92.04 usage: 59.95 residual: 58.33
mrth: 81.4 cth: 59.05 usage: 51.25 residual: 30.15
mrth: 114.65 cth: 94.01 usage: 80.61 residual: 34.04
mrth: 32.73 cth: 28.96 usage: 18.0 residual: 14.73
mrth: 49.48 cth: 36.97 usage: 26.56 residual: 22.92
mrth: 59.72 cth: 48.42 usage: 39.53 residual: 20.19
mrth: 99.98 cth: 88.9 usage: 82.37 residual: 17.61
mrth: 63.96 cth: 56.41 usage: 36.52 residual: 27.44
mrth: 120.05 cth: 95.03 usage: 72.85 residual: 47.2
mrth: 63.48 cth: 53.6 usage: 56.08 residual: 7.4
mrth: 53.85 cth: 37.78 usage: 51.56 residual: 2.29
mrth: 27.85 cth: 23.98 usage: 23.74 residual: 4.11
mrth: 62.05 cth: 51.95 usage: 31.82 residual: 30.23
mrth: 179.08 cth: 140.66 usage: 178.55 residual: 0.53
mrth: 124.44 cth: 111.86 usage: 108.94 residual: 15.5
mrth: 85.32 cth: 75.28 usage: 66.3 residual: 19.02
mrth: 69.38 cth: 55.83 usage: 58.84 residual: 10.54
mrth: 184.43 cth: 164.87 usage: 176.53 residual: 7.9
mrth: 57.25 cth: 40.36 usage: 42.98 residual: 14.27
mrth: 80.71 cth: 60.68 usage: 49.64 residual: 31.07
mrth: 167.67 cth: 125.79 usage: 103.19 residual: 64.48
mrth: 45.59 cth: 37.7 usage: 33.22 residual: 12.37
mrth: 96.29 cth: 86.57 usage: 70.91 residual: 25.38
mrth: 103.79 cth: 75.77 usage: 64.81 residual: 38.98
mrth: 174.29 cth: 151.49 usage: 155.76 residual: 18.53
mrth: 100.87 cth: 77.17 usage: 85.26 residual: 15.61
mrth: 152.75 cth: 116.77 usage: 105.12 residual: 47.63
mrth: 92.1 cth: 67.89 usage: 61.67 residual: 30.43
mrth: 101.62 cth: 71.28 usage: 60.25 residual: 41.37
mrth: 35.3 cth: 29.54 usage: 29.16 residual: 6.14
mrth: 134.45 cth: 113.01 usage: 108.98 residual: 25.47
mrth: 60.35 cth: 44.31 usage: 60.18 residual: 0.17
mrth: 23.38 cth: 16.82 usage: 14.98 residual: 8.4
mrth: 84.81 cth: 72.37 usage: 62.3 residual: 22.51
mrth: 152.72 cth: 110.44 usage: 147.13 residual: 5.59
mrth: 167.06 cth: 147.31 usage: 136.28 residual: 30.78
mrth: 90.88 cth: 77.96 usage: 52.52 residual: 38.36
mrth: 20.31 cth: 16.7 usage: 10.88 residual: 9.43
mrth: 97.15 cth: 76.6 usage: 61.21 residual: 35.94
mrth: 147.72 cth: 128.91 usage: 87.64 residual: 60.08
mrth: 77.37 cth: 57.24 usage: 48.85 residual: 28.52
mrth: 88.24 cth: 65.49 usage: 55.46 residual: 32.78
mrth: 75.99 cth: 65.14 usage: 40.57 residual: 35.42
mrth: 137.05 cth: 104.88 usage: 87.55 residual: 49.5
mrth: 57.41 cth: 42.82 usage: 54.72 residual: 2.69
mrth: 75.69 cth: 53.71 usage: 46.67 residual: 29.02
mrth: 93.5 cth: 79.81 usage: 49.43 residual: 44.07
mrth: 85.5 cth: 69.38 usage: 72.47 residual: 13.03
mrth: 80.6 cth: 62.38 usage: 54.68 residual: 25.92
mrth: 61.18 cth: 43.1 usage: 52.11 residual: 9.07
mrth: 111.76 cth: 99.08 usage: 103.9 residual: 7.86
mrth: 23.05 cth: 18.46 usage: 15.0 residual: 8.05
mrth: 96.63 cth: 81.05 usage: 92.01 residual: 4.62
mrth: 140.54 cth: 118.11 usage: 101.6 residual: 38.94
mrth: 66.26 cth: 59.17 usage: 54.97 residual: 11.29
mrth: 22.42 cth: 16.25 usage: 19.02 residual: 3.4
mrth: 54.81 cth: 48.72 usage: 42.69 residual: 12.12
mrth: 70.27 cth: 52.93 usage: 42.52 residual: 27.75
mrth: 93.2 cth: 77.54 usage: 49.69 residual: 43.51
mrth: 37.31 cth: 26.12 usage: 22.29 residual: 15.02
mrth: 70.07 cth: 49.1 usage: 68.42 residual: 1.65
mrth: 58.62 cth: 43.16 usage: 48.15 residual: 10.47
mrth: 143.36 cth: 100.79 usage: 93.78 residual: 49.58
mrth: 84.2 cth: 74.06 usage: 65.21 residual: 18.99
mrth: 36.49 cth: 28.61 usage: 22.48 residual: 14.01
mrth: 155.77 cth: 110.78 usage: 137.72 residual: 18.05
mrth: 34.94 cth: 26.87 usage: 18.31 residual: 16.63
mrth: 62.46 cth: 44.05 usage: 38.35 residual: 24.11
mrth: 154.71 cth: 131.86 usage: 108.46 residual: 46.25
mrth: 54.56 cth: 38.78 usage: 43.36 residual: 11.2
mrth: 98.01 cth: 86.7 usage: 81.75 residual: 16.26
mrth: 67.11 cth: 56.01 usage: 43.86 residual: 23.25
mrth: 93.7 cth: 76.66 usage: 51.34 residual: 42.36
mrth: 139.04 cth: 123.44 usage: 117.83 residual: 21.21
mrth: 170.63 cth: 130.88 usage: 154.39 residual: 16.24
mrth: 59.98 cth: 49.92 usage: 59.86 residual: 0.12
mrth: 116.83 cth: 91.67 usage: 73.98 residual: 42.85
mrth: 67.4 cth: 53.1 usage: 34.25 residual: 33.15
mrth: 85.54 cth: 66.37 usage: 77.41 residual: 8.13
mrth: 24.61 cth: 20.48 usage: 21.14 residual: 3.47
mrth: 72.01 cth: 59.95 usage: 53.88 residual: 18.13
mrth: 63.72 cth: 53.2 usage: 52.0 residual: 11.72
mrth: 31.46 cth: 23.59 usage: 30.52 residual: 0.94
mrth: 82.22 cth: 64.81 usage: 64.94 residual: 17.28
mrth: 51.97 cth: 41.14 usage: 27.19 residual: 24.78
mrth: 15.21 cth: 12.92 usage: 11.39 residual: 3.82
mrth: 101.73 cth: 80.79 usage: 101.41 residual: 0.32
mrth: 98.07 cth: 75.96 usage: 54.88 residual: 43.19
mrth: 27.53 cth: 19.86 usage: 20.96 residual: 6.57
mrth: 111.11 cth: 80.08 usage: 72.95 residual: 38.16
mrth: 52.26 cth: 37.42 usage: 42.03 residual: 10.23
mrth: 27.51 cth: 19.42 usage: 21.67 residual: 5.84
mrth: 148.79 cth: 113.23 usage: 138.14 residual: 10.65
mrth: 102.36 cth: 85.26 usage: 92.66 residual: 9.7
mrth: 101.33 cth: 90.8 usage: 52.4 residual: 48.93
mrth: 68.98 cth: 61.93 usage: 48.02 residual: 20.96
mrth: 59.29 cth: 41.73 usage: 30.32 residual: 28.97
mrth: 158.99 cth: 130.05 usage: 129.39 residual: 29.6
mrth: 123.68 cth: 88.84 usage: 101.07 residual: 22.61
mrth: 79.63 cth: 58.44 usage: 71.19 residual: 8.44
mrth: 48.37 cth: 35.5 usage: 38.71 residual: 9.66
mrth: 194.82 cth: 152.58 usage: 131.41 residual: 63.41
mrth: 106.87 cth: 92.03 usage: 66.41 residual: 40.46
mrth: 144.75 cth: 115.02 usage: 111.94 residual: 32.81
mrth: 38.1 cth: 30.43 usage: 22.46 residual: 15.64
mrth: 78.48 cth: 59.72 usage: 59.18 residual: 19.3
mrth: 23.77 cth: 18.41 usage: 16.71 residual: 7.06
mrth: 127.58 cth: 114.36 usage: 87.41 residual: 40.17
mrth: 124.02 cth: 108.21 usage: 84.07 residual: 39.95
mrth: 172.63 cth: 150.39 usage: 147.83 residual: 24.8
mrth: 72.95 cth: 60.77 usage: 38.06 residual: 34.89
mrth: 101.43 cth: 73.46 usage: 92.56 residual: 8.87
mrth: 72.35 cth: 61.97 usage: 37.77 residual: 34.58
mrth: 61.86 cth: 47.04 usage: 40.87 residual: 20.99
mrth: 74.25 cth: 54.66 usage: 57.65 residual: 16.6
mrth: 118.3 cth: 104.39 usage: 97.09 residual: 21.21
mrth: 89.32 cth: 63.3 usage: 80.42 residual: 8.9
mrth: 75.01 cth: 64.61 usage: 40.31 residual: 34.7
mrth: 17.68 cth: 12.96 usage: 14.54 residual: 3.14
mrth: 40.97 cth: 33.47 usage: 39.24 residual: 1.73
mrth: 68.1 cth: 54.17 usage: 63.48 residual: 4.62
mrth: 79.04 cth: 67.02 usage: 72.27 residual: 6.77
mrth: 58.63 cth: 48.72 usage: 55.17 residual: 3.46
mrth: 43.61 cth: 38.35 usage: 26.84 residual: 16.77
mrth: 68.22 cth: 52.92 usage: 56.14 residual: 12.08
mrth: 187.12 cth: 157.12 usage: 149.93 residual: 37.19
mrth: 31.14 cth: 26.49 usage: 17.25 residual: 13.89
mrth: 202.68 cth: 162.83 usage: 130.6 residual: 72.08
mrth: 133.69 cth: 111.03 usage: 108.4 residual: 25.29
mrth: 120.4 cth: 106.33 usage: 81.29 residual: 39.11
mrth: 92.51 cth: 82.69 usage: 84.86 residual: 7.65
mrth: 116.63 cth: 97.13 usage: 77.48 residual: 39.15
mrth: 171.44 cth: 136.72 usage: 92.03 residual: 79.41
mrth: 73.75 cth: 54.11 usage: 50.48 residual: 23.27
mrth: 152.46 cth: 117.01 usage: 84.47 residual: 67.99
mrth: 82.72 cth: 64.47 usage: 70.57 residual: 12.15
mrth: 102.53 cth: 80.64 usage: 77.24 residual: 25.29
mrth: 14.29 cth: 11.21 usage: 10.78 residual: 3.51
mrth: 76.13 cth: 54.08 usage: 47.53 residual: 28.6
mrth: 115.41 cth: 93.57 usage: 110.18 residual: 5.23
mrth: 158.7 cth: 113.76 usage: 138.98 residual: 19.72
mrth: 144.84 cth: 117.85 usage: 122.32 residual: 22.52
mrth: 14.35 cth: 10.29 usage: 13.89 residual: 0.46
mrth: 253.11 cth: 225.77 usage: 195.86 residual: 57.25
mrth: 64.42 cth: 57.75 usage: 63.93 residual: 0.49
mrth: 108.93 cth: 86.84 usage: 56.92 residual: 52.01
mrth: 66.86 cth: 51.06 usage: 44.24 residual: 22.62
mrth: 165.18 cth: 139.81 usage: 158.13 residual: 7.05
mrth: 60.49 cth: 44.83 usage: 38.43 residual: 22.06
mrth: 88.65 cth: 66.62 usage: 48.31 residual: 40.34
mrth: 156.79 cth: 133.81 usage: 109.1 residual: 47.69
mrth: 16.95 cth: 14.21 usage: 11.54 residual: 5.41
mrth: 162.9 cth: 143.89 usage: 133.66 residual: 29.24
mrth: 103.1 cth: 72.49 usage: 88.38 residual: 14.72
mrth: 40.08 cth: 35.64 usage: 25.38 residual: 14.7
mrth: 23.95 cth: 17.47 usage: 20.06 residual: 3.89
mrth: 81.26 cth: 65.17 usage: 49.55 residual: 31.71
mrth: 166.28 cth: 121.53 usage: 147.53 residual: 18.75
mrth: 31.6 cth: 22.38 usage: 16.83 residual: 14.77
mrth: 66.66 cth: 48.13 usage: 57.15 residual: 9.51
mrth: 116.03 cth: 83.89 usage: 113.4 residual: 2.63
mrth: 70.76 cth: 53.72 usage: 49.42 residual: 21.34
mrth: 156.77 cth: 140.93 usage: 106.44 residual: 50.33
mrth: 118.05 cth: 91.36 usage: 95.69 residual: 22.36
mrth: 176.21 cth: 140.7 usage: 110.43 residual: 65.78
mrth: 146.06 cth: 123.32 usage: 103.1 residual: 42.96
mrth: 17.43 cth: 13.01 usage: 10.11 residual: 7.32
mrth: 100.39 cth: 89.94 usage: 82.74 residual: 17.65
mrth: 65.98 cth: 49.74 usage: 55.58 residual: 10.4
mrth: 131.11 cth: 93.54 usage: 105.04 residual: 26.07
mrth: 90.24 cth: 63.24 usage: 64.09 residual: 26.15
mrth: 99.5 cth: 81.93 usage: 90.43 residual: 9.07
mrth: 137.36 cth: 116.37 usage: 91.27 residual: 46.09
mrth: 192.96 cth: 137.18 usage: 134.26 residual: 58.7
mrth: 64.1 cth: 48.34 usage: 49.45 residual: 14.65
mrth: 209.91 cth: 166.3 usage: 108.2 residual: 101.71
mrth: 78.96 cth: 71.06 usage: 62.34 residual: 16.62
mrth: 41.68 cth: 36.59 usage: 25.04 residual: 16.64
mrth: 59.18 cth: 51.7 usage: 58.51 residual: 0.67
mrth: 26.46 cth: 19.03 usage: 25.81 residual: 0.65
mrth: 85.4 cth: 76.73 usage: 64.09 residual: 21.31
mrth: 47.92 cth: 41.48 usage: 25.52 residual: 22.4
mrth: 58.74 cth: 52.57 usage: 54.86 residual: 3.88
mrth: 53.49 cth: 45.36 usage: 36.18 residual: 17.31
mrth: 75.29 cth: 64.41 usage: 51.91 residual: 23.38
mrth: 78.35 cth: 68.83 usage: 46.94 residual: 31.41
mrth: 138.07 cth: 97.68 usage: 91.67 residual: 46.4
mrth: 139.41 cth: 120.64 usage: 106.41 residual: 33.0
mrth: 49.1 cth: 39.11 usage: 43.06 residual: 6.04
mrth: 131.14 cth: 117.25 usage: 83.44 residual: 47.7
mrth: 13.24 cth: 10.33 usage: 12.22 residual: 1.02
mrth: 60.96 cth: 52.02 usage: 37.76 residual: 23.2
mrth: 41.93 cth: 30.09 usage: 26.41 residual: 15.52
mrth: 110.97 cth: 97.64 usage: 89.95 residual: 21.02
mrth: 133.67 cth: 115.38 usage: 118.09 residual: 15.58
mrth: 112.63 cth: 89.96 usage: 102.23 residual: 10.4
mrth: 112.9 cth: 95.98 usage: 104.92 residual: 7.98
mrth: 69.51 cth: 48.91 usage: 41.45 residual: 28.06
mrth: 116.91 cth: 81.86 usage: 84.15 residual: 32.76
mrth: 116.69 cth: 87.77 usage: 92.84 residual: 23.85
mrth: 115.5 cth: 102.39 usage: 108.61 residual: 6.89
mrth: 130.81 cth: 102.5 usage: 108.02 residual: 22.79
mrth: 85.2 cth: 64.71 usage: 58.56 residual: 26.64
mrth: 112.35 cth: 80.59 usage: 76.37 residual: 35.98
mrth: 37.82 cth: 27.62 usage: 31.47 residual: 6.35
mrth: 51.35 cth: 41.52 usage: 45.24 residual: 6.11
mrth: 26.46 cth: 22.64 usage: 21.42 residual: 5.04
mrth: 77.99 cth: 62.36 usage: 67.89 residual: 10.1
mrth: 155.45 cth: 111.89 usage: 143.53 residual: 11.92
mrth: 78.2 cth: 61.81 usage: 62.09 residual: 16.11
mrth: 181.68 cth: 145.43 usage: 123.88 residual: 57.8
mrth: 47.49 cth: 38.2 usage: 42.99 residual: 4.5
mrth: 120.39 cth: 99.69 usage: 117.74 residual: 2.65
mrth: 141.38 cth: 116.09 usage: 108.52 residual: 32.86
mrth: 133.5 cth: 101.64 usage: 126.45 residual: 7.05
mrth: 63.08 cth: 55.35 usage: 33.09 residual: 29.99
mrth: 130.75 cth: 96.69 usage: 107.94 residual: 22.81
mrth: 149.76 cth: 120.51 usage: 85.49 residual: 64.27
mrth: 21.88 cth: 16.3 usage: 16.06 residual: 5.82
mrth: 35.54 cth: 31.11 usage: 27.28 residual: 8.26
mrth: 26.84 cth: 20.89 usage: 17.95 residual: 8.89
mrth: 190.18 cth: 136.43 usage: 162.97 residual: 27.21
mrth: 94.61 cth: 75.72 usage: 85.42 residual: 9.19
mrth: 97.84 cth: 68.61 usage: 87.7 residual: 10.14
mrth: 113.2 cth: 101.87 usage: 57.33 residual: 55.87
mrth: 43.72 cth: 37.3 usage: 33.95 residual: 9.77
mrth: 95.7 cth: 78.89 usage: 61.51 residual: 34.19
mrth: 100.54 cth: 70.46 usage: 67.97 residual: 32.57
mrth: 61.07 cth: 50.98 usage: 33.97 residual: 27.1
mrth: 100.23 cth: 82.48 usage: 86.73 residual: 13.5
mrth: 58.08 cth: 44.61 usage: 35.29 residual: 22.79
mrth: 141.84 cth: 114.99 usage: 106.14 residual: 35.7
mrth: 12.91 cth: 9.31 usage: 7.08 residual: 5.83
mrth: 135.95 cth: 120.6 usage: 124.81 residual: 11.14
mrth: 71.92 cth: 55.96 usage: 40.56 residual: 31.36
mrth: 103.77 cth: 91.23 usage: 89.43 residual: 14.34
mrth: 175.72 cth: 145.7 usage: 122.01 residual: 53.71
mrth: 101.37 cth: 83.35 usage: 81.01 residual: 20.36
mrth: 88.24 cth: 71.06 usage: 67.62 residual: 20.62
mrth: 102.78 cth: 81.83 usage: 78.33 residual: 24.45
mrth: 141.38 cth: 127.19 usage: 123.53 residual: 17.85
mrth: 129.79 cth: 107.39 usage: 73.64 residual: 56.15
mrth: 108.35 cth: 83.64 usage: 80.57 residual: 27.78
mrth: 190.18 cth: 152.02 usage: 188.57 residual: 1.61
mrth: 113.76 cth: 101.42 usage: 108.34 residual: 5.42
mrth: 27.56 cth: 23.78 usage: 24.94 residual: 2.62
mrth: 72.42 cth: 59.85 usage: 37.9 residual: 34.52
mrth: 95.74 cth: 68.97 usage: 82.65 residual: 13.09
mrth: 158.76 cth: 126.65 usage: 101.75 residual: 57.01
mrth: 98.92 cth: 77.0 usage: 70.8 residual: 28.12
mrth: 66.25 cth: 55.97 usage: 56.56 residual: 9.69
mrth: 86.65 cth: 74.86 usage: 58.76 residual: 27.89
mrth: 183.14 cth: 139.38 usage: 156.29 residual: 26.85
mrth: 160.92 cth: 125.24 usage: 124.25 residual: 36.67
mrth: 12.73 cth: 10.66 usage: 10.4 residual: 2.33
mrth: 44.15 cth: 36.55 usage: 42.95 residual: 1.2
mrth: 87.86 cth: 74.85 usage: 84.33 residual: 3.53
mrth: 67.73 cth: 48.95 usage: 62.84 residual: 4.89
mrth: 40.04 cth: 32.42 usage: 29.1 residual: 10.94
mrth: 70.4 cth: 58.51 usage: 65.67 residual: 4.73
mrth: 54.08 cth: 45.23 usage: 53.61 residual: 0.47
mrth: 104.38 cth: 79.81 usage: 96.84 residual: 7.54
mrth: 166.54 cth: 134.56 usage: 89.15 residual: 77.39
mrth: 64.74 cth: 50.99 usage: 45.69 residual: 19.05
mrth: 73.6 cth: 59.78 usage: 48.56 residual: 25.04
mrth: 20.93 cth: 17.26 usage: 11.5 residual: 9.43
mrth: 35.06 cth: 27.05 usage: 21.45 residual: 13.61
mrth: 105.04 cth: 93.37 usage: 101.31 residual: 3.73
mrth: 45.98 cth: 33.74 usage: 43.66 residual: 2.32
mrth: 116.16 cth: 100.35 usage: 66.27 residual: 49.89
mrth: 203.43 cth: 181.54 usage: 116.45 residual: 86.98
mrth: 141.25 cth: 119.39 usage: 76.94 residual: 64.31
mrth: 36.77 cth: 30.81 usage: 19.94 residual: 16.83
mrth: 192.0 cth: 171.48 usage: 190.35 residual: 1.65
mrth: 197.71 cth: 177.6 usage: 184.79 residual: 12.92
mrth: 41.9 cth: 35.35 usage: 34.99 residual: 6.91
mrth: 148.31 cth: 107.26 usage: 98.69 residual: 49.62
mrth: 124.4 cth: 99.56 usage: 98.36 residual: 26.04
mrth: 191.33 cth: 168.08 usage: 126.41 residual: 64.92
mrth: 67.73 cth: 50.24 usage: 40.42 residual: 27.31
mrth: 162.31 cth: 136.34 usage: 120.2 residual: 42.11
mrth: 148.15 cth: 104.3 usage: 148.03 residual: 0.12
mrth: 23.42 cth: 19.79 usage: 23.26 residual: 0.16
mrth: 98.07 cth: 79.67 usage: 84.83 residual: 13.24
mrth: 158.16 cth: 111.25 usage: 80.9 residual: 77.26
mrth: 61.65 cth: 46.49 usage: 44.56 residual: 17.09
mrth: 97.54 cth: 86.04 usage: 90.33 residual: 7.21
mrth: 100.47 cth: 73.37 usage: 67.78 residual: 32.69
mrth: 28.63 cth: 25.7 usage: 21.71 residual: 6.92
mrth: 191.71 cth: 166.97 usage: 188.55 residual: 3.16
mrth: 105.23 cth: 84.9 usage: 61.0 residual: 44.23
mrth: 92.82 cth: 82.78 usage: 87.31 residual: 5.51
mrth: 68.36 cth: 59.09 usage: 43.88 residual: 24.48
mrth: 70.3 cth: 54.18 usage: 62.64 residual: 7.66
mrth: 112.79 cth: 82.36 usage: 92.54 residual: 20.25
mrth: 108.5 cth: 77.51 usage: 108.42 residual: 0.08
mrth: 42.67 cth: 36.7 usage: 41.22 residual: 1.45
mrth: 201.05 cth: 174.84 usage: 199.34 residual: 1.71
mrth: 172.32 cth: 140.01 usage: 168.96 residual: 3.36
mrth: 120.61 cth: 97.01 usage: 110.76 residual: 9.85
mrth: 149.91 cth: 112.36 usage: 146.16 residual: 3.75
mrth: 55.16 cth: 43.11 usage: 34.69 residual: 20.47
mrth: 128.38 cth: 95.44 usage: 113.95 residual: 14.43
mrth: 137.42 cth: 106.19 usage: 107.54 residual: 29.88
mrth: 187.98 cth: 157.03 usage: 109.92 residual: 78.06
mrth: 24.15 cth: 17.55 usage: 16.79 residual: 7.36
mrth: 67.83 cth: 58.16 usage: 49.14 residual: 18.69
mrth: 179.6 cth: 155.22 usage: 143.2 residual: 36.4
mrth: 75.59 cth: 67.27 usage: 66.24 residual: 9.35
mrth: 66.76 cth: 54.5 usage: 55.75 residual: 11.01
mrth: 183.82 cth: 142.92 usage: 97.56 residual: 86.26
mrth: 157.44 cth: 115.92 usage: 80.71 residual: 76.73
mrth: 45.52 cth: 35.32 usage: 26.3 residual: 19.22
mrth: 86.05 cth: 62.26 usage: 75.23 residual: 10.82
mrth: 121.24 cth: 100.82 usage: 61.62 residual: 59.62
mrth: 154.72 cth: 135.14 usage: 118.23 residual: 36.49
mrth: 237.07 cth: 200.77 usage: 135.35 residual: 101.72
mrth: 55.83 cth: 47.19 usage: 37.9 residual: 17.93
mrth: 67.03 cth: 57.21 usage: 47.29 residual: 19.74
mrth: 45.77 cth: 33.63 usage: 29.17 residual: 16.6
mrth: 152.66 cth: 120.56 usage: 79.88 residual: 72.78
mrth: 191.1 cth: 148.66 usage: 135.84 residual: 55.26
mrth: 137.32 cth: 97.55 usage: 120.45 residual: 16.87
mrth: 103.1 cth: 88.03 usage: 86.51 residual: 16.59
mrth: 59.18 cth: 49.58 usage: 50.75 residual: 8.43
mrth: 149.96 cth: 110.26 usage: 77.87 residual: 72.09
mrth: 32.68 cth: 23.7 usage: 26.04 residual: 6.64
mrth: 39.96 cth: 30.38 usage: 26.28 residual: 13.68
mrth: 69.94 cth: 54.95 usage: 42.25 residual: 27.69
mrth: 182.44 cth: 150.23 usage: 178.43 residual: 4.01
mrth: 151.54 cth: 109.57 usage: 121.6 residual: 29.94
mrth: 87.49 cth: 66.16 usage: 80.33 residual: 7.16
mrth: 67.43 cth: 58.48 usage: 43.83 residual: 23.6
mrth: 56.34 cth: 42.74 usage: 38.6 residual: 17.74
mrth: 42.87 cth: 36.6 usage: 29.54 residual: 13.33
mrth: 130.63 cth: 98.98 usage: 85.38 residual: 45.25
mrth: 108.44 cth: 95.73 usage: 68.4 residual: 40.04
mrth: 40.15 cth: 30.42 usage: 33.97 residual: 6.18
mrth: 175.71 cth: 143.46 usage: 101.34 residual: 74.37
mrth: 120.01 cth: 99.74 usage: 84.12 residual: 35.89
mrth: 112.09 cth: 92.8 usage: 76.22 residual: 35.87
mrth: 99.12 cth: 86.87 usage: 52.45 residual: 46.67
mrth: 115.09 cth: 95.89 usage: 77.42 residual: 37.67
mrth: 102.88 cth: 84.68 usage: 102.0 residual: 0.88
mrth: 121.79 cth: 90.62 usage: 120.11 residual: 1.68
mrth: 85.44 cth: 64.46 usage: 52.88 residual: 32.56
mrth: 36.96 cth: 31.63 usage: 28.57 residual: 8.39
mrth: 153.69 cth: 117.8 usage: 111.98 residual: 41.71
mrth: 66.91 cth: 56.18 usage: 34.74 residual: 32.17
mrth: 156.43 cth: 135.5 usage: 98.71 residual: 57.72
mrth: 41.92 cth: 33.79 usage: 35.58 residual: 6.34
mrth: 89.64 cth: 69.02 usage: 69.13 residual: 20.51
mrth: 115.08 cth: 82.24 usage: 66.14 residual: 48.94
mrth: 48.19 cth: 42.53 usage: 47.45 residual: 0.74
mrth: 111.84 cth: 100.13 usage: 57.88 residual: 53.96
mrth: 87.88 cth: 77.54 usage: 80.29 residual: 7.59
mrth: 63.08 cth: 44.68 usage: 44.61 residual: 18.47
mrth: 231.46 cth: 188.31 usage: 132.23 residual: 99.23
mrth: 120.12 cth: 104.84 usage: 72.51 residual: 47.61
mrth: 102.58 cth: 78.31 usage: 98.76 residual: 3.82
mrth: 176.52 cth: 139.69 usage: 133.23 residual: 43.29
mrth: 57.01 cth: 41.6 usage: 30.79 residual: 26.22
mrth: 135.7 cth: 104.26 usage: 105.99 residual: 29.71
mrth: 80.81 cth: 58.76 usage: 55.55 residual: 25.26
mrth: 39.76 cth: 31.96 usage: 24.1 residual: 15.66
mrth: 10.84 cth: 8.82 usage: 6.42 residual: 4.42
mrth: 115.91 cth: 100.76 usage: 62.31 residual: 53.6
mrth: 92.46 cth: 79.3 usage: 77.03 residual: 15.43
mrth: 93.6 cth: 84.17 usage: 67.83 residual: 25.77
mrth: 98.96 cth: 76.03 usage: 52.96 residual: 46.0
mrth: 156.4 cth: 123.9 usage: 110.95 residual: 45.45
mrth: 105.14 cth: 78.03 usage: 87.52 residual: 17.62
mrth: 135.9 cth: 109.92 usage: 113.13 residual: 22.77
mrth: 79.42 cth: 68.44 usage: 49.72 residual: 29.7
mrth: 63.4 cth: 51.74 usage: 52.14 residual: 11.26
mrth: 138.57 cth: 98.77 usage: 74.33 residual: 64.24
mrth: 25.93 cth: 18.5 usage: 14.53 residual: 11.4
mrth: 57.57 cth: 42.03 usage: 47.93 residual: 9.64
mrth: 56.47 cth: 44.46 usage: 37.37 residual: 19.1
mrth: 100.27 cth: 73.07 usage: 65.4 residual: 34.87
mrth: 66.56 cth: 58.18 usage: 52.35 residual: 14.21
mrth: 51.28 cth: 36.95 usage: 27.2 residual: 24.08
mrth: 159.34 cth: 135.57 usage: 113.91 residual: 45.43
mrth: 184.86 cth: 154.81 usage: 100.08 residual: 84.78
mrth: 179.58 cth: 144.26 usage: 118.78 residual: 60.8
mrth: 133.22 cth: 101.18 usage: 124.3 residual: 8.92
mrth: 48.24 cth: 34.92 usage: 37.72 residual: 10.52
mrth: 68.75 cth: 55.79 usage: 34.74 residual: 34.01
mrth: 112.5 cth: 89.47 usage: 60.71 residual: 51.79
mrth: 50.98 cth: 36.09 usage: 33.25 residual: 17.73
mrth: 178.06 cth: 125.98 usage: 111.9 residual: 66.16
mrth: 124.61 cth: 111.51 usage: 108.51 residual: 16.1
mrth: 93.8 cth: 65.69 usage: 65.04 residual: 28.76
mrth: 77.97 cth: 62.58 usage: 75.49 residual: 2.48
mrth: 61.97 cth: 46.62 usage: 45.19 residual: 16.78
mrth: 68.4 cth: 52.59 usage: 39.47 residual: 28.93
mrth: 187.67 cth: 134.73 usage: 164.55 residual: 23.12
mrth: 56.01 cth: 48.26 usage: 50.83 residual: 5.18
mrth: 184.97 cth: 140.21 usage: 151.76 residual: 33.21
mrth: 50.75 cth: 42.99 usage: 27.83 residual: 22.92
mrth: 99.89 cth: 75.4 usage: 72.63 residual: 27.26
mrth: 75.96 cth: 65.73 usage: 48.37 residual: 27.59
mrth: 161.52 cth: 134.84 usage: 130.93 residual: 30.59
mrth: 78.3 cth: 65.73 usage: 54.78 residual: 23.52
mrth: 89.88 cth: 71.98 usage: 73.29 residual: 16.59
mrth: 186.0 cth: 143.92 usage: 105.96 residual: 80.04
mrth: 135.32 cth: 98.31 usage: 127.87 residual: 7.45
mrth: 99.24 cth: 73.5 usage: 85.24 residual: 14.0
mrth: 56.13 cth: 39.83 usage: 28.47 residual: 27.66
mrth: 45.13 cth: 38.7 usage: 23.94 residual: 21.19
mrth: 127.1 cth: 96.45 usage: 85.24 residual: 41.86
mrth: 111.89 cth: 81.95 usage: 73.75 residual: 38.14
mrth: 40.46 cth: 35.77 usage: 26.55 residual: 13.91
mrth: 22.56 cth: 16.16 usage: 21.16 residual: 1.4
mrth: 89.62 cth: 66.19 usage: 60.08 residual: 29.54
mrth: 37.72 cth: 28.05 usage: 34.93 residual: 2.79
mrth: 72.65 cth: 64.63 usage: 64.68 residual: 7.97
mrth: 110.56 cth: 84.69 usage: 61.88 residual: 48.68
mrth: 186.11 cth: 160.4 usage: 95.87 residual: 90.24
mrth: 112.34 cth: 85.3 usage: 98.97 residual: 13.37
mrth: 25.6 cth: 21.69 usage: 14.66 residual: 10.94
mrth: 148.41 cth: 131.57 usage: 116.14 residual: 32.27
mrth: 108.98 cth: 95.1 usage: 82.73 residual: 26.25
mrth: 111.86 cth: 85.02 usage: 95.68 residual: 16.18
mrth: 120.21 cth: 93.99 usage: 64.03 residual: 56.18
mrth: 10.97 cth: 8.09 usage: 6.25 residual: 4.72
mrth: 35.36 cth: 25.15 usage: 34.23 residual: 1.13
mrth: 170.84 cth: 132.16 usage: 91.68 residual: 79.16
mrth: 99.56 cth: 74.9 usage: 92.57 residual: 6.99
mrth: 139.32 cth: 105.25 usage: 78.96 residual: 60.36
mrth: 131.75 cth: 92.31 usage: 95.87 residual: 35.88
mrth: 44.82 cth: 36.64 usage: 28.32 residual: 16.5
mrth: 105.89 cth: 76.99 usage: 93.54 residual: 12.35
mrth: 110.55 cth: 85.99 usage: 105.99 residual: 4.56
mrth: 57.24 cth: 50.36 usage: 53.15 residual: 4.09
mrth: 118.36 cth: 85.18 usage: 96.67 residual: 21.69
mrth: 118.09 cth: 92.3 usage: 67.93 residual: 50.16
mrth: 45.23 cth: 37.79 usage: 36.42 residual: 8.81
mrth: 33.64 cth: 23.85 usage: 26.71 residual: 6.93
mrth: 140.17 cth: 124.61 usage: 103.86 residual: 36.31
mrth: 34.48 cth: 27.93 usage: 30.53 residual: 3.95
mrth: 139.72 cth: 118.21 usage: 82.93 residual: 56.79
mrth: 103.32 cth: 88.66 usage: 98.36 residual: 4.96
mrth: 153.22 cth: 108.38 usage: 113.31 residual: 39.91
mrth: 178.49 cth: 137.38 usage: 94.07 residual: 84.42
mrth: 176.24 cth: 155.97 usage: 140.28 residual: 35.96
mrth: 129.38 cth: 103.27 usage: 73.45 residual: 55.93
mrth: 65.91 cth: 52.69 usage: 39.84 residual: 26.07
