mrth: 113.34 cth: 82.38 usage: 91.35 residual: 21.99
mrth: 102.35 cth: 72.62 usage: 73.87 residual: 28.48
mrth: 90.14 cth: 64.1 usage: 48.27 residual: 41.87
mrth: 230.55 cth: 164.25 usage: 144.48 residual: 86.07
mrth: 94.45 cth: 75.02 usage: 52.58 residual: 41.87
mrth: 50.56 cth: 42.74 usage: 37.9 residual: 12.66
mrth: 39.76 cth: 35.06 usage: 28.66 residual: 11.1
mrth: 90.77 cth: 67.4 usage: 82.21 residual: 8.56
mrth: 69.11 cth: 60.95 usage: 52.37 residual: 16.74
mrth: 84.07 cth: 69.66 usage: 42.33 residual: 41.74
mrth: 47.47 cth: 35.63 usage: 35.14 residual: 12.33
mrth: 220.01 cth: 166.58 usage: 212.27 residual: 7.74
mrth: 48.28 cth: 42.06 usage: 30.38 residual: 17.9
mrth: 122.95 cth: 105.14 usage: 120.3 residual: 2.65
mrth: 112.02 cth: 96.81 usage: 100.52 residual: 11.5
mrth: 32.47 cth: 22.83 usage: 20.38 residual: 12.09
mrth: 97.62 cth: 73.43 usage: 93.27 residual: 4.35
mrth: 23.29 cth: 19.96 usage: 19.92 residual: 3.37
mrth: 186.55 cth: 151.15 usage: 169.15 residual: 17.4
mrth: 232.66 cth: 202.78 usage: 180.4 residual: 52.26
mrth: 195.94 cth: 147.96 usage: 126.81 residual: 69.13
mrth: 32.65 cth: 23.63 usage: 30.38 residual: 2.27
mrth: 150.33 cth: 111.65 usage: 125.18 residual: 25.15
mrth: 61.81 cth: 46.2 usage: 32.81 residual: 29.0
mrth: 72.92 cth: 61.57 usage: 47.85 residual: 25.07
mrth: 85.88 cth: 62.34 usage: 81.49 residual: 4.39
mrth: 52.97 cth: 37.2 usage: 50.54 residual: 2.43
mrth: 63.23 cth: 50.99 usage: 58.78 residual: 4.45
mrth: 88.73 cth: 75.83 usage: 45.04 residual: 43.69
mrth: 119.37 cth: 101.75 usage: 100.23 residual: 19.14
mrth: 151.76 cth: 131.19 usage: 109.54 residual: 42.22
mrth: 67.41 cth: 57.36 usage: 39.72 residual: 27.69
mrth: 129.3 cth: 106.71 usage: 98.52 residual: 30.78
mrth: 146.3 cth: 110.43 usage: 141.65 residual: 4.65
mrth: 185.03 cth: 140.76 usage: 118.19 residual: 66.84
mrth: 122.41 cth: 101.55 usage: 85.31 residual: 37.1
mrth: 129.57 cth: 97.22 usage: 85.87 residual: 43.7
mrth: 92.36 cth: 75.44 usage: 78.67 residual: 13.69
mrth: 83.82 cth: 67.95 usage: 70.85 residual: 12.97
mrth: 112.0 cth: 90.62 usage: 97.64 residual: 14.36
mrth: 95.41 cth: 67.35 usage: 83.03 residual: 12.38
mrth: 185.35 cth: 161.51 usage: 93.23 residual: 92.12
mrth: 111.33 cth: 87.76 usage: 84.86 residual: 26.47
mrth: 177.78 cth: 154.03 usage: 169.74 residual: 8.04
mrth: 41.46 cth: 36.36 usage: 24.19 residual: 17.27
mrth: 96.23 cth: 80.64 usage: 85.74 residual: 10.49
mrth: 157.96 cth: 124.31 usage: 94.57 residual: 63.39
mrth: 89.95 cth: 73.05 usage: 58.5 residual: 31.45
mrth: 67.91 cth: 50.96 usage: 43.86 residual: 24.05
mrth: 91.84 cth: 73.69 usage: 47.09 residual: 44.75
mrth: 136.74 cth: 99.34 usage: 118.64 residual: 18.1
mrth: 35.17 cth: 30.82 usage: 18.55 residual: 16.62
mrth: 75.73 cth: 55.68 usage: 46.34 residual: 29.39
mrth: 100.94 cth: 84.76 usage: 52.15 residual: 48.79
mrth: 77.55 cth: 68.58 usage: 60.31 residual: 17.24
mrth: 228.84 cth: 176.87 usage: 220.43 residual: 8.41
mrth: 125.39 cth: 109.63 usage: 120.57 residual: 4.82
mrth: 55.09 cth: 44.97 usage: 50.91 residual: 4.18
mrth: 121.44 cth: 96.89 usage: 65.7 residual: 55.74
mrth: 24.1 cth: 19.71 usage: 22.52 residual: 1.58
mrth: 40.46 cth: 35.08 usage: 31.33 residual: 9.13
mrth: 69.63 cth: 60.53 usage: 56.55 residual: 13.08
mrth: 83.51 cth: 65.38 usage: 52.13 residual: 31.38
mrth: 117.81 cth: 101.42 usage: 73.52 residual: 44.29
mrth: 73.73 cth: 64.56 usage: 45.17 residual: 28.56
mrth: 148.75 cth: 133.49 usage: 147.72 residual: 1.03
mrth: 58.71 cth: 52.31 usage: 42.61 residual: 16.1
mrth: 91.05 cth: 69.91 usage: 83.8 residual: 7.25
mrth: 68.03 cth: 56.67 usage: 45.88 residual: 22.15
mrth: 176.17 cth: 145.69 usage: 99.75 residual: 76.42
mrth: 86.02 cth: 61.37 usage: 58.7 residual: 27.32
mrth: 86.39 cth: 69.45 usage: 73.86 residual: 12.53
mrth: 146.21 cth: 104.67 usage: 105.01 residual: 41.2
mrth: 10.76 cth: 8.18 usage: 8.39 residual: 2.37
mrth: 63.31 cth: 49.22 usage: 36.44 residual: 26.87
mrth: 97.45 cth: 77.05 usage: 95.61 residual: 1.84
mrth: 148.84 cth: 105.7 usage: 84.38 residual: 64.46
mrth: 73.98 cth: 64.78 usage: 56.37 residual: 17.61
mrth: 99.2 cth: 73.53 usage: 87.07 residual: 12.13
mrth: 99.17 cth: 85.36 usage: 76.57 residual: 22.6
mrth: 55.04 cth: 42.12 usage: 35.9 residual: 19.14
mrth: 201.6 cth: 148.52 usage: 182.54 residual: 19.06
mrth: 32.19 cth: 28.21 usage: 19.52 residual: 12.67
mrth: 94.83 cth: 79.77 usage: 62.46 residual: 32.37
mrth: 72.91 cth: 53.22 usage: 70.56 residual: 2.35
mrth: 38.9 cth: 33.33 usage: 30.31 residual: 8.59
mrth: 122.92 cth: 104.7 usage: 115.48 residual: 7.44
mrth: 40.53 cth: 32.75 usage: 27.42 residual: 13.11
mrth: 55.92 cth: 49.3 usage: 48.32 residual: 7.6
mrth: 131.78 cth: 114.32 usage: 70.94 residual: 60.84
mrth: 152.94 cth: 134.73 usage: 111.3 residual: 41.64
mrth: 40.92 cth: 32.26 usage: 37.87 residual: 3.05
mrth: 149.81 cth: 131.97 usage: 123.68 residual: 26.13
mrth: 75.2 cth: 54.66 usage: 58.0 residual: 17.2
mrth: 28.19 cth: 22.56 usage: 16.87 residual: 11.32
mrth: 78.19 cth: 70.26 usage: 60.59 residual: 17.6
mrth: 218.42 cth: 182.53 usage: 139.07 residual: 79.35
mrth: 81.82 cth: 66.73 usage: 65.59 residual: 16.23
mrth: 92.9 cth: 80.44 usage: 49.54 residual: 43.36
mrth: 69.62 cth: 49.84 usage: 54.4 residual: 15.22
mrth: 112.3 cth: 94.7 usage: 112.1 residual: 0.2
mrth: 125.9 cth: 104.68 usage: 76.29 residual: 49.61
mrth: 14.27 cth: 12.69 usage: 8.18 residual: 6.09
mrth: 26.43 cth: 22.55 usage: 24.57 residual: 1.86
mrth: 58.22 cth: 46.29 usage: 48.99 residual: 9.23
mrth: 146.92 cth: 114.67 usage: 124.39 residual: 22.53
mrth: 61.78 cth: 52.51 usage: 58.41 residual: 3.37
mrth: 95.82 cth: 85.79 usage: 87.96 residual: 7.86
mrth: 179.06 cth: 158.45 usage: 173.85 residual: 5.21
mrth: 107.82 cth: 90.01 usage: 66.13 residual: 41.69
mrth: 34.57 cth: 25.22 usage: 32.76 residual: 1.81
mrth: 127.95 cth: 112.41 usage: 65.64 residual: 62.31
mrth: 21.67 cth: 17.68 usage: 13.4 residual: 8.27
mrth: 177.99 cth: 140.84 usage: 157.08 residual: 20.91
mrth: 78.69 cth: 69.23 usage: 71.34 residual: 7.35
mrth: 66.6 cth: 53.25 usage: 44.87 residual: 21.73
mrth: 105.41 cth: 93.18 usage: 95.3 residual: 10.11
mrth: 98.96 cth: 70.91 usage: 93.39 residual: 5.57
mrth: 127.04 cth: 90.53 usage: 81.19 residual: 45.85
mrth: 166.2 cth: 142.35 usage: 141.07 residual: 25.13
mrth: 132.24 cth: 103.31 usage: 93.8 residual: 38.44
mrth: 160.25 cth: 114.53 usage: 103.89 residual: 56.36
mrth: 75.41 cth: 60.01 usage: 60.27 residual: 15.14
mrth: 44.26 cth: 35.38 usage: 39.1 residual: 5.16
mrth: 77.67 cth: 66.42 usage: 63.26 residual: 14.41
mrth: 127.43 cth: 89.63 usage: 88.25 residual: 39.18
mrth: 30.1 cth: 23.89 usage: 19.21 residual: 10.89
mrth: 43.12 cth: 36.65 usage: 26.32 residual: 16.8
mrth: 87.87 cth: 63.53 usage: 60.4 residual: 27.47
mrth: 109.49 cth: 95.12 usage: 72.33 residual: 37.16
mrth: 113.22 cth: 81.48 usage: 86.48 residual: 26.74
mrth: 106.9 cth: 75.27 usage: 66.21 residual: 40.69
mrth: 31.8 cth: 25.33 usage: 29.3 residual: 2.5
mrth: 77.82 cth: 55.11 usage: 47.88 residual: 29.94
mrth: 32.53 cth: 25.46 usage: 22.32 residual: 10.21
mrth: 55.87 cth: 47.59 usage: 47.39 residual: 8.48
mrth: 159.67 cth: 139.16 usage: 116.66 residual: 43.01
mrth: 98.31 cth: 87.69 usage: 97.26 residual: 1.05
mrth: 184.06 cth: 156.01 usage: 130.02 residual: 54.04
mrth: 78.9 cth: 58.13 usage: 78.75 residual: 0.15
mrth: 84.38 cth: 73.3 usage: 49.83 residual: 34.55
mrth: 61.34 cth: 46.66 usage: 38.94 residual: 22.4
mrth: 61.58 cth: 52.75 usage: 53.72 residual: 7.86
mrth: 67.46 cth: 48.8 usage: 46.27 residual: 21.19
mrth: 116.1 cth: 97.27 usage: 115.76 residual: 0.34
mrth: 33.37 cth: 29.03 usage: 33.3 residual: 0.07
mrth: 50.21 cth: 38.39 usage: 33.67 residual: 16.54
mrth: 25.81 cth: 18.86 usage: 17.64 residual: 8.17
mrth: 127.73 cth: 102.95 usage: 102.61 residual: 25.12
mrth: 104.1 cth: 80.33 usage: 82.95 residual: 21.15
mrth: 56.91 cth: 45.97 usage: 45.34 residual: 11.57
mrth: 47.17 cth: 36.05 usage: 44.58 residual: 2.59
mrth: 79.93 cth: 71.92 usage: 64.31 residual: 15.62
mrth: 91.27 cth: 71.6 usage: 57.31 residual: 33.96
mrth: 176.74 cth: 137.0 usage: 94.45 residual: 82.29
mrth: 123.39 cth: 97.34 usage: 74.49 residual: 48.9
mrth: 116.42 cth: 98.02 usage: 107.57 residual: 8.85
mrth: 128.32 cth: 115.38 usage: 70.91 residual: 57.41
mrth: 94.46 cth: 71.78 usage: 75.37 residual: 19.09
mrth: 28.53 cth: 24.33 usage: 15.09 residual: 13.44
mrth: 152.3 cth: 116.21 usage: 125.09 residual: 27.21
mrth: 73.9 cth: 62.44 usage: 56.1 residual: 17.8
mrth: 76.91 cth: 64.12 usage: 73.48 residual: 3.43
mrth: 165.14 cth: 128.76 usage: 139.58 residual: 25.56
mrth: 143.58 cth: 103.79 usage: 73.36 residual: 70.22
mrth: 30.71 cth: 26.17 usage: 23.53 residual: 7.18
mrth: 221.7 cth: 194.78 usage: 190.13 residual: 31.57
mrth: 116.46 cth: 91.82 usage: 106.76 residual: 9.7
mrth: 136.36 cth: 95.84 usage: 119.69 residual: 16.67
mrth: 158.07 cth: 136.66 usage: 134.72 residual: 23.35
mrth: 126.02 cth: 111.78 usage: 118.82 residual: 7.2
mrth: 170.09 cth: 125.94 usage: 154.43 residual: 15.66
mrth: 50.56 cth: 35.73 usage: 37.99 residual: 12.57
mrth: 64.42 cth: 50.25 usage: 46.81 residual: 17.61
mrth: 79.36 cth: 68.35 usage: 58.65 residual: 20.71
mrth: 53.16 cth: 44.03 usage: 31.81 residual: 21.35
mrth: 40.82 cth: 36.16 usage: 30.3 residual: 10.52
mrth: 57.99 cth: 44.01 usage: 57.31 residual: 0.68
mrth: 126.79 cth: 105.2 usage: 65.51 residual: 61.28
mrth: 53.24 cth: 40.72 usage: 37.02 residual: 16.22
mrth: 80.17 cth: 69.81 usage: 40.59 residual: 39.58
mrth: 90.85 cth: 78.77 usage: 82.87 residual: 7.98
mrth: 19.4 cth: 14.64 usage: 15.5 residual: 3.9
mrth: 73.3 cth: 52.0 usage: 46.56 residual: 26.74
mrth: 143.96 cth: 119.2 usage: 115.75 residual: 28.21
mrth: 105.93 cth: 76.43 usage: 70.71 residual: 35.22
mrth: 69.15 cth: 61.9 usage: 68.91 residual: 0.24
mrth: 62.72 cth: 46.92 usage: 53.82 residual: 8.9
mrth: 42.51 cth: 37.37 usage: 34.73 residual: 7.78
mrth: 145.61 cth: 123.0 usage: 130.79 residual: 14.82
mrth: 148.97 cth: 121.6 usage: 142.11 residual: 6.86
mrth: 105.85 cth: 80.02 usage: 54.16 residual: 51.69
mrth: 147.67 cth: 122.33 usage: 90.5 residual: 57.17
mrth: 95.56 cth: 78.27 usage: 63.65 residual: 31.91
mrth: 91.9 cth: 76.29 usage: 89.87 residual: 2.03
mrth: 65.21 cth: 58.36 usage: 35.7 residual: 29.51
mrth: 166.5 cth: 149.82 usage: 162.88 residual: 3.62
mrth: 152.71 cth: 134.44 usage: 119.32 residual: 33.39
mrth: 25.97 cth: 20.19 usage: 25.82 residual: 0.15
mrth: 275.52 cth: 238.03 usage: 246.16 residual: 29.36
mrth: 48.39 cth: 34.95 usage: 24.4 residual: 23.99
mrth: 169.25 cth: 142.47 usage: 115.56 residual: 53.69
mrth: 30.06 cth: 24.82 usage: 29.3 residual: 0.76
mrth: 77.62 cth: 57.2 usage: 66.3 residual: 11.32
mrth: 33.53 cth: 29.69 usage: 26.04 residual: 7.49
mrth: 24.67 cth: 19.56 usage: 21.7 residual: 2.97
mrth: 57.47 cth: 47.44 usage: 43.04 residual: 14.43
mrth: 24.31 cth: 20.43 usage: 12.55 residual: 11.76
mrth: 75.36 cth: 66.51 usage: 68.02 residual: 7.34
mrth: 129.67 cth: 113.29 usage: 102.32 residual: 27.35
mrth: 103.92 cth: 87.64 usage: 75.94 residual: 27.98
mrth: 50.81 cth: 44.97 usage: 29.15 residual: 21.66
mrth: 146.44 cth: 126.0 usage: 113.33 residual: 33.11
mrth: 93.67 cth: 82.36 usage: 85.87 residual: 7.8
mrth: 126.75 cth: 96.12 usage: 104.66 residual: 22.09
mrth: 98.44 cth: 85.92 usage: 97.48 residual: 0.96
mrth: 140.73 cth: 125.6 usage: 104.2 residual: 36.53
mrth: 82.59 cth: 73.46 usage: 62.09 residual: 20.5
mrth: 286.44 cth: 245.71 usage: 244.71 residual: 41.73
mrth: 51.44 cth: 40.09 usage: 48.11 residual: 3.33
mrth: 89.32 cth: 78.97 usage: 45.17 residual: 44.15
mrth: 28.68 cth: 22.37 usage: 22.14 residual: 6.54
mrth: 92.0 cth: 71.28 usage: 65.14 residual: 26.86
mrth: 148.89 cth: 106.58 usage: 97.74 residual: 51.15
mrth: 33.6 cth: 24.71 usage: 28.36 residual: 5.24
mrth: 98.01 cth: 82.71 usage: 79.88 residual: 18.13
mrth: 123.54 cth: 91.97 usage: 91.76 residual: 31.78
mrth: 150.99 cth: 131.88 usage: 87.78 residual: 63.21
mrth: 78.91 cth: 61.47 usage: 66.89 residual: 12.02
mrth: 82.22 cth: 65.75 usage: 49.75 residual: 32.47
mrth: 12.41 cth: 9.58 usage: 7.41 residual: 5.0
mrth: 155.91 cth: 123.1 usage: 143.55 residual: 12.36
mrth: 185.58 cth: 154.94 usage: 116.29 residual: 69.29
mrth: 96.91 cth: 82.17 usage: 66.55 residual: 30.36
mrth: 146.81 cth: 131.63 usage: 112.98 residual: 33.83
mrth: 178.61 cth: 134.26 usage: 149.7 residual: 28.91
mrth: 201.48 cth: 150.98 usage: 171.51 residual: 29.97
mrth: 139.07 cth: 105.4 usage: 91.87 residual: 47.2
mrth: 158.83 cth: 111.52 usage: 129.13 residual: 29.7
mrth: 101.89 cth: 72.64 usage: 81.47 residual: 20.42
mrth: 125.28 cth: 93.32 usage: 113.33 residual: 11.95
mrth: 92.4 cth: 78.23 usage: 84.54 residual: 7.86
mrth: 35.0 cth: 24.8 usage: 18.85 residual: 16.15
mrth: 75.34 cth: 58.98 usage: 58.54 residual: 16.8
mrth: 49.86 cth: 39.24 usage: 45.12 residual: 4.74
mrth: 139.36 cth: 115.96 usage: 135.6 residual: 3.76
mrth: 76.43 cth: 60.6 usage: 60.78 residual: 15.65
mrth: 133.12 cth: 108.65 usage: 78.02 residual: 55.1
mrth: 50.98 cth: 39.84 usage: 49.15 residual: 1.83
mrth: 23.49 cth: 16.5 usage: 13.32 residual: 10.17
mrth: 177.37 cth: 157.75 usage: 115.44 residual: 61.93
mrth: 95.34 cth: 70.15 usage: 53.57 residual: 41.77
mrth: 103.63 cth: 90.0 usage: 65.02 residual: 38.61
mrth: 43.08 cth: 37.43 usage: 22.99 residual: 20.09
mrth: 79.3 cth: 59.11 usage: 49.99 residual: 29.31
mrth: 72.62 cth: 52.47 usage: 47.58 residual: 25.04
mrth: 167.35 cth: 129.99 usage: 85.4 residual: 81.95
mrth: 49.3 cth: 43.28 usage: 36.52 residual: 12.78
mrth: 217.9 cth: 195.77 usage: 161.99 residual: 55.91
mrth: 59.37 cth: 45.93 usage: 30.23 residual: 29.14
mrth: 79.25 cth: 56.41 usage: 63.23 residual: 16.02
mrth: 38.08 cth: 33.93 usage: 23.79 residual: 14.29
mrth: 179.27 cth: 144.7 usage: 151.62 residual: 27.65
mrth: 62.6 cth: 44.95 usage: 38.87 residual: 23.73
mrth: 104.87 cth: 92.53 usage: 70.39 residual: 34.48
mrth: 43.58 cth: 35.78 usage: 28.57 residual: 15.01
mrth: 105.51 cth: 92.95 usage: 89.98 residual: 15.53
mrth: 49.88 cth: 38.23 usage: 35.8 residual: 14.08
mrth: 138.47 cth: 111.03 usage: 130.39 residual: 8.08
mrth: 38.89 cth: 28.65 usage: 34.68 residual: 4.21
mrth: 43.64 cth: 38.0 usage: 25.31 residual: 18.33
mrth: 81.66 cth: 63.9 usage: 64.34 residual: 17.32
mrth: 42.82 cth: 33.2 usage: 25.37 residual: 17.45
mrth: 213.98 cth: 169.58 usage: 199.56 residual: 14.42
mrth: 84.35 cth: 64.59 usage: 78.76 residual: 5.59
mrth: 123.78 cth: 87.04 usage: 71.03 residual: 52.75
mrth: 95.09 cth: 68.07 usage: 68.64 residual: 26.45
mrth: 118.21 cth: 88.17 usage: 108.31 residual: 9.9
mrth: 132.35 cth: 92.91 usage: 120.99 residual: 11.36
mrth: 164.82 cth: 132.0 usage: 134.43 residual: 30.39
mrth: 83.72 cth: 64.71 usage: 61.24 residual: 22.48
mrth: 98.99 cth: 71.59 usage: 78.54 residual: 20.45
mrth: 71.49 cth: 51.81 usage: 38.67 residual: 32.82
mrth: 139.77 cth: 110.37 usage: 105.3 residual: 34.47
mrth: 82.65 cth: 60.82 usage: 80.58 residual: 2.07
mrth: 110.78 cth: 99.43 usage: 102.49 residual: 8.29
mrth: 72.51 cth: 54.6 usage: 36.65 residual: 35.86
mrth: 107.79 cth: 86.62 usage: 97.14 residual: 10.65
mrth: 49.47 cth: 38.87 usage: 37.35 residual: 12.12
mrth: 163.5 cth: 117.52 usage: 88.81 residual: 74.69
mrth: 33.02 cth: 24.28 usage: 17.52 residual: 15.5
mrth: 124.65 cth: 94.09 usage: 114.37 residual: 10.28
mrth: 53.54 cth: 43.37 usage: 46.51 residual: 7.03
mrth: 170.44 cth: 152.41 usage: 92.2 residual: 78.24
mrth: 152.68 cth: 111.87 usage: 90.15 residual: 62.53
mrth: 78.53 cth: 64.52 usage: 65.4 residual: 13.13
mrth: 80.78 cth: 70.77 usage: 44.36 residual: 36.42
mrth: 120.1 cth: 101.59 usage: 71.58 residual: 48.52
mrth: 68.0 cth: 53.57 usage: 36.9 residual: 31.1
mrth: 110.44 cth: 87.57 usage: 83.83 residual: 26.61
mrth: 34.84 cth: 28.88 usage: 20.54 residual: 14.3
mrth: 80.41 cth: 57.25 usage: 48.03 residual: 32.38
mrth: 88.14 cth: 72.83 usage: 51.83 residual: 36.31
mrth: 107.07 cth: 92.97 usage: 103.25 residual: 3.82
mrth: 32.15 cth: 23.04 usage: 21.06 residual: 11.09
mrth: 138.27 cth: 98.91 usage: 82.07 residual: 56.2
mrth: 116.4 cth: 93.29 usage: 92.12 residual: 24.28
mrth: 37.84 cth: 26.66 usage: 30.0 residual: 7.84
mrth: 155.75 cth: 136.15 usage: 93.84 residual: 61.91
mrth: 66.76 cth: 49.42 usage: 64.71 residual: 2.05
mrth: 15.55 cth: 11.68 usage: 15.48 residual: 0.07
mrth: 224.67 cth: 188.08 usage: 119.75 residual: 104.92
mrth: 100.04 cth: 76.27 usage: 99.49 residual: 0.55
mrth: 205.75 cth: 177.04 usage: 152.74 residual: 53.01
mrth: 180.49 cth: 140.81 usage: 142.71 residual: 37.78
mrth: 83.11 cth: 60.59 usage: 66.62 residual: 16.49
mrth: 100.08 cth: 81.69 usage: 86.3 residual: 13.78
mrth: 37.65 cth: 31.63 usage: 37.06 residual: 0.59
mrth: 71.13 cth: 61.39 usage: 58.45 residual: 12.68
mrth: 34.22 cth: 30.55 usage: 19.62 residual: 14.6
mrth: 103.7 cth: 79.97 usage: 69.94 residual: 33.76
mrth: 156.17 cth: 131.55 usage: 133.84 residual: 22.33
mrth: 57.84 cth: 51.55 usage: 43.56 residual: 14.28
mrth: 149.6 cth: 119.91 usage: 146.2 residual: 3.4
mrth: 83.78 cth: 58.66 usage: 64.18 residual: 19.6
mrth: 111.32 cth: 78.68 usage: 57.58 residual: 53.74
mrth: 52.43 cth: 44.45 usage: 48.13 residual: 4.3
mrth: 85.18 cth: 71.22 usage: 50.12 residual: 35.06
mrth: 107.17 cth: 76.49 usage: 61.36 residual: 45.81
mrth: 187.91 cth: 162.1 usage: 110.82 residual: 77.09
mrth: 117.41 cth: 88.21 usage: 60.97 residual: 56.44
mrth: 207.77 cth: 172.69 usage: 109.96 residual: 97.81
mrth: 117.83 cth: 89.25 usage: 114.85 residual: 2.98
mrth: 39.41 cth: 34.96 usage: 25.72 residual: 13.69
mrth: 39.6 cth: 32.07 usage: 32.56 residual: 7.04
mrth: 68.75 cth: 52.57 usage: 54.75 residual: 14.0
mrth: 93.31 cth: 67.86 usage: 55.45 residual: 37.86
mrth: 84.34 cth: 60.61 usage: 45.55 residual: 38.79
mrth: 4.86 cth: 4.13 usage: 4.25 residual: 0.61
mrth: 39.05 cth: 27.73 usage: 30.83 residual: 8.22
mrth: 43.39 cth: 30.39 usage: 28.57 residual: 14.82
mrth: 35.29 cth: 25.16 usage: 18.5 residual: 16.79
mrth: 151.16 cth: 114.75 usage: 119.99 residual: 31.17
mrth: 91.41 cth: 80.79 usage: 69.25 residual: 22.16
mrth: 27.71 cth: 22.18 usage: 15.54 residual: 12.17
mrth: 70.88 cth: 50.14 usage: 59.51 residual: 11.37
mrth: 113.32 cth: 84.3 usage: 61.35 residual: 51.97
mrth: 22.79 cth: 20.48 usage: 13.57 residual: 9.22
mrth: 55.63 cth: 43.39 usage: 53.3 residual: 2.33
mrth: 109.33 cth: 78.11 usage: 99.54 residual: 9.79
mrth: 69.34 cth: 60.53 usage: 61.36 residual: 7.98
mrth: 90.75 cth: 78.01 usage: 65.27 residual: 25.48
mrth: 110.1 cth: 78.05 usage: 82.06 residual: 28.04
mrth: 56.69 cth: 42.16 usage: 54.35 residual: 2.34
mrth: 50.75 cth: 36.58 usage: 38.69 residual: 12.06
mrth: 177.59 cth: 150.44 usage: 137.66 residual: 39.93
mrth: 83.08 cth: 73.74 usage: 63.53 residual: 19.55
mrth: 73.63 cth: 54.86 usage: 37.78 residual: 35.85
mrth: 165.26 cth: 117.46 usage: 162.45 residual: 2.81
mrth: 51.86 cth: 46.5 usage: 34.87 residual: 16.99
mrth: 120.42 cth: 88.34 usage: 81.49 residual: 38.93
mrth: 87.13 cth: 72.82 usage: 86.05 residual: 1.08
mrth: 98.47 cth: 77.4 usage: 81.26 residual: 17.21
mrth: 148.6 cth: 110.13 usage: 139.77 residual: 8.83
mrth: 36.83 cth: 32.99 usage: 20.39 residual: 16.44
mrth: 127.55 cth: 113.87 usage: 120.73 residual: 6.82
mrth: 51.02 cth: 43.65 usage: 36.57 residual: 14.45
mrth: 181.05 cth: 162.74 usage: 118.61 residual: 62.44
mrth: 74.59 cth: 55.95 usage: 70.18 residual: 4.41
mrth: 93.43 cth: 79.13 usage: 76.75 residual: 16.68
mrth: 100.62 cth: 71.7 usage: 52.93 residual: 47.69
mrth: 126.42 cth: 94.52 usage: 79.91 residual: 46.51
mrth: 7.33 cth: 6.43 usage: 5.21 residual: 2.12
mrth: 141.56 cth: 103.39 usage: 135.16 residual: 6.4
mrth: 85.19 cth: 75.18 usage: 65.13 residual: 20.06
mrth: 85.27 cth: 71.35 usage: 84.87 residual: 0.4
mrth: 186.0 cth: 165.51 usage: 177.91 residual: 8.09
mrth: 82.84 cth: 63.45 usage: 77.74 residual: 5.1
mrth: 66.85 cth: 54.89 usage: 45.55 residual: 21.3
mrth: 73.11 cth: 57.59 usage: 63.86 residual: 9.25
mrth: 110.52 cth: 80.02 usage: 68.3 residual: 42.22
mrth: 24.27 cth: 17.65 usage: 15.13 residual: 9.14
mrth: 181.77 cth: 136.03 usage: 152.12 residual: 29.65
mrth: 84.84 cth: 63.94 usage: 70.96 residual: 13.88
mrth: 166.95 cth: 150.02 usage: 93.03 residual: 73.92
mrth: 106.62 cth: 83.26 usage: 104.64 residual: 1.98
mrth: 101.45 cth: 90.91 usage: 85.94 residual: 15.51
mrth: 14.24 cth: 10.24 usage: 8.62 residual: 5.62
mrth: 104.22 cth: 74.01 usage: 55.48 residual: 48.74
mrth: 74.06 cth: 60.57 usage: 46.29 residual: 27.77
mrth: 213.4 cth: 191.26 usage: 173.89 residual: 39.51
mrth: 198.48 cth: 168.5 usage: 136.52 residual: 61.96
mrth: 26.71 cth: 21.52 usage: 16.62 residual: 10.09
mrth: 92.92 cth: 72.43 usage: 48.16 residual: 44.76
mrth: 186.75 cth: 154.24 usage: 120.3 residual: 66.45
mrth: 68.5 cth: 51.18 usage: 43.64 residual: 24.86
mrth: 54.01 cth: 39.45 usage: 31.98 residual: 22.03
mrth: 118.38 cth: 86.85 usage: 111.42 residual: 6.96
mrth: 130.32 cth: 98.07 usage: 68.43 residual: 61.89
mrth: 85.44 cth: 74.02 usage: 75.86 residual: 9.58
mrth: 139.19 cth: 101.73 usage: 107.87 residual: 31.32
mrth: 83.53 cth: 73.07 usage: 53.85 residual: 29.68
mrth: 116.35 cth: 103.76 usage: 61.93 residual: 54.42
mrth: 53.03 cth: 38.95 usage: 39.37 residual: 13.66
mrth: 104.48 cth: 93.27 usage: 98.36 residual: 6.12
mrth: 130.71 cth: 92.09 usage: 96.71 residual: 34.0
mrth: 101.94 cth: 81.54 usage: 88.03 residual: 13.91
mrth: 44.36 cth: 32.04 usage: 30.48 residual: 13.88
mrth: 94.32 cth: 76.93 usage: 48.29 residual: 46.03
mrth: 120.88 cth: 89.97 usage: 91.12 residual: 29.76
mrth: 34.03 cth: 26.46 usage: 33.83 residual: 0.2
mrth: 102.96 cth: 91.71 usage: 54.54 residual: 48.42
mrth: 18.72 cth: 16.32 usage: 16.1 residual: 2.62
mrth: 47.78 cth: 41.97 usage: 38.77 residual: 9.01
mrth: 149.57 cth: 113.62 usage: 113.23 residual: 36.34
mrth: 51.73 cth: 44.63 usage: 30.32 residual: 21.41
mrth: 106.45 cth: 91.17 usage: 61.28 residual: 45.17
mrth: 121.4 cth: 100.08 usage: 121.24 residual: 0.16
mrth: 112.02 cth: 89.62 usage: 91.8 residual: 20.22
mrth: 58.99 cth: 52.74 usage: 30.01 residual: 28.98
mrth: 27.35 cth: 24.32 usage: 25.79 residual: 1.56
mrth: 35.77 cth: 28.04 usage: 28.56 residual: 7.21
mrth: 66.01 cth: 48.53 usage: 50.56 residual: 15.45
mrth: 136.88 cth: 112.59 usage: 78.0 residual: 58.88
mrth: 57.78 cth: 40.53 usage: 49.67 residual: 8.11
mrth: 45.77 cth: 40.27 usage: 43.69 residual: 2.08
mrth: 53.31 cth: 45.54 usage: 35.57 residual: 17.74
mrth: 69.99 cth: 54.81 usage: 63.19 residual: 6.8
mrth: 6.4 cth: 4.88 usage: 3.57 residual: 2.83
mrth: 70.38 cth: 61.01 usage: 69.96 residual: 0.42
mrth: 52.8 cth: 47.41 usage: 34.44 residual: 18.36
mrth: 115.74 cth: 88.4 usage: 113.7 residual: 2.04
mrth: 72.57 cth: 58.92 usage: 53.79 residual: 18.78
mrth: 58.65 cth: 52.31 usage: 56.16 residual: 2.49
mrth: 200.14 cth: 143.57 usage: 118.0 residual: 82.14
mrth: 25.63 cth: 21.02 usage: 13.74 residual: 11.89
mrth: 52.21 cth: 46.17 usage: 44.07 residual: 8.14
mrth: 80.52 cth: 65.51 usage: 55.27 residual: 25.25
mrth: 99.78 cth: 84.96 usage: 58.56 residual: 41.22
mrth: 130.89 cth: 100.35 usage: 95.55 residual: 35.34
mrth: 112.84 cth: 93.91 usage: 111.2 residual: 1.64
mrth: 120.07 cth: 94.27 usage: 64.14 residual: 55.93
mrth: 76.68 cth: 63.14 usage: 75.39 residual: 1.29
mrth: 52.47 cth: 40.32 usage: 42.03 residual: 10.44
mrth: 246.53 cth: 221.5 usage: 207.58 residual: 38.95
mrth: 38.29 cth: 28.26 usage: 24.17 residual: 14.12
mrth: 99.83 cth: 80.05 usage: 93.92 residual: 5.91
mrth: 112.0 cth: 81.24 usage: 106.1 residual: 5.9
mrth: 125.3 cth: 96.84 usage: 89.89 residual: 35.41
mrth: 81.35 cth: 63.11 usage: 54.97 residual: 26.38
mrth: 127.33 cth: 89.14 usage: 126.97 residual: 0.36
mrth: 25.66 cth: 20.2 usage: 25.12 residual: 0.54
mrth: 123.84 cth: 87.69 usage: 92.05 residual: 31.79
mrth: 99.25 cth: 70.54 usage: 71.94 residual: 27.31
mrth: 163.6 cth: 132.07 usage: 149.07 residual: 14.53
mrth: 109.16 cth: 82.17 usage: 87.93 residual: 21.23
mrth: 32.26 cth: 22.62 usage: 25.89 residual: 6.37
mrth: 118.31 cth: 96.26 usage: 77.66 residual: 40.65
mrth: 101.62 cth: 73.26 usage: 82.62 residual: 19.0
mrth: 104.66 cth: 93.08 usage: 99.42 residual: 5.24
mrth: 33.66 cth: 25.89 usage: 23.53 residual: 10.13
mrth: 84.53 cth: 75.6 usage: 83.88 residual: 0.65
mrth: 87.58 cth: 61.87 usage: 68.06 residual: 19.52
mrth: 34.69 cth: 30.91 usage: 26.32 residual: 8.37
mrth: 88.69 cth: 71.23 usage: 82.7 residual: 5.99
mrth: 12.72 cth: 11.26 usage: 9.89 residual: 2.83
mrth: 20.16 cth: 18.0 usage: 19.94 residual: 0.22
mrth: 52.74 cth: 45.12 usage: 48.97 residual: 3.77
mrth: 36.7 cth: 28.57 usage: 36.4 residual: 0.3
mrth: 28.89 cth: 22.36 usage: 15.14 residual: 13.75
mrth: 74.85 cth: 65.16 usage: 60.06 residual: 14.79
mrth: 59.79 cth: 48.52 usage: 46.41 residual: 13.38
mrth: 51.33 cth: 36.78 usage: 28.45 residual: 22.88
mrth: 62.1 cth: 53.24 usage: 41.49 residual: 20.61
mrth: 186.38 cth: 145.04 usage: 164.36 residual: 22.02
mrth: 86.29 cth: 72.17 usage: 85.12 residual: 1.17
mrth: 85.93 cth: 75.15 usage: 60.29 residual: 25.64
mrth: 166.59 cth: 117.66 usage: 137.23 residual: 29.36
mrth: 148.05 cth: 122.29 usage: 75.56 residual: 72.49
mrth: 71.54 cth: 57.48 usage: 45.08 residual: 26.46
mrth: 37.93 cth: 33.59 usage: 30.14 residual: 7.79
mrth: 59.34 cth: 42.32 usage: 32.88 residual: 26.46
mrth: 87.2 cth: 68.64 usage: 71.15 residual: 16.05
mrth: 4.59 cth: 3.68 usage: 3.26 residual: 1.33
mrth: 110.42 cth: 97.56 usage: 68.74 residual: 41.68
mrth: 127.06 cth: 98.87 usage: 103.84 residual: 23.22
mrth: 141.03 cth: 116.14 usage: 76.69 residual: 64.34
mrth: 27.45 cth: 22.93 usage: 25.26 residual: 2.19
mrth: 135.58 cth: 109.06 usage: 93.45 residual: 42.13
mrth: 105.78 cth: 90.44 usage: 72.02 residual: 33.76
mrth: 135.58 cth: 120.1 usage: 113.75 residual: 21.83
mrth: 142.75 cth: 106.16 usage: 117.78 residual: 24.97
mrth: 122.69 cth: 86.04 usage: 85.88 residual: 36.81
mrth: 92.88 cth: 82.13 usage: 59.46 residual: 33.42
mrth: 31.7 cth: 24.55 usage: 28.5 residual: 3.2
mrth: 102.71 cth: 91.26 usage: 63.43 residual: 39.28
mrth: 156.74 cth: 127.68 usage: 97.12 residual: 59.62
mrth: 121.82 cth: 106.59 usage: 95.43 residual: 26.39
mrth: 65.87 cth: 54.23 usage: 44.97 residual: 20.9
mrth: 85.48 cth: 64.82 usage: 70.91 residual: 14.57
mrth: 61.76 cth: 43.73 usage: 49.87 residual: 11.89
mrth: 64.77 cth: 55.92 usage: 51.13 residual: 13.64
mrth: 135.89 cth: 95.27 usage: 103.03 residual: 32.86
mrth: 199.81 cth: 163.81 usage: 183.52 residual: 16.29
mrth: 57.22 cth: 40.67 usage: 31.07 residual: 26.15
mrth: 82.25 cth: 62.55 usage: 81.92 residual: 0.33
mrth: 150.52 cth: 107.14 usage: 130.48 residual: 20.04
mrth: 88.32 cth: 72.9 usage: 58.46 residual: 29.86
mrth: 141.08 cth: 98.79 usage: 115.67 residual: 25.41
mrth: 54.28 cth: 43.9 usage: 28.88 residual: 25.4
mrth: 35.6 cth: 27.93 usage: 24.71 residual: 10.89
mrth: 165.13 cth: 117.42 usage: 140.32 residual: 24.81
mrth: 95.28 cth: 79.66 usage: 66.54 residual: 28.74
mrth: 68.21 cth: 57.94 usage: 48.21 residual: 20.0
mrth: 28.82 cth: 23.68 usage: 28.6 residual: 0.22
mrth: 68.41 cth: 56.96 usage: 39.38 residual: 29.03
mrth: 166.25 cth: 122.42 usage: 84.02 residual: 82.23
mrth: 121.5 cth: 88.96 usage: 118.23 residual: 3.27
mrth: 48.42 cth: 35.75 usage: 44.35 residual: 4.07
mrth: 197.62 cth: 165.24 usage: 110.59 residual: 87.03
mrth: 109.05 cth: 79.58 usage: 66.13 residual: 42.92
mrth: 21.7 cth: 16.61 usage: 19.45 residual: 2.25
mrth: 115.38 cth: 95.5 usage: 84.83 residual: 30.55
mrth: 12.23 cth: 8.78 usage: 10.71 residual: 1.52
mrth: 24.28 cth: 19.41 usage: 20.29 residual: 3.99
mrth: 85.36 cth: 60.43 usage: 53.9 residual: 31.46
mrth: 232.59 cth: 202.89 usage: 154.83 residual: 77.76
mrth: 94.33 cth: 80.85 usage: 88.78 residual: 5.55
mrth: 31.63 cth: 23.4 usage: 22.45 residual: 9.18
mrth: 30.95 cth: 26.68 usage: 25.64 residual: 5.31
mrth: 129.5 cth: 113.54 usage: 83.1 residual: 46.4
mrth: 33.89 cth: 24.0 usage: 31.07 residual: 2.82
mrth: 62.64 cth: 52.7 usage: 36.39 residual: 26.25
mrth: 79.25 cth: 66.07 usage: 64.7 residual: 14.55
mrth: 30.57 cth: 22.73 usage: 17.43 residual: 13.14
mrth: 136.21 cth: 114.16 usage: 112.15 residual: 24.06
mrth: 132.89 cth: 104.3 usage: 130.85 residual: 2.04
mrth: 37.4 cth: 28.21 usage: 27.92 residual: 9.48
mrth: 69.7 cth: 62.17 usage: 64.53 residual: 5.17
mrth: 105.67 cth: 77.82 usage: 78.73 residual: 26.94
mrth: 120.59 cth: 91.6 usage: 119.62 residual: 0.97
mrth: 101.23 cth: 81.9 usage: 57.78 residual: 43.45
mrth: 98.88 cth: 88.26 usage: 94.47 residual: 4.41
mrth: 101.05 cth: 70.98 usage: 71.71 residual: 29.34
mrth: 152.72 cth: 130.25 usage: 89.0 residual: 63.72
mrth: 96.35 cth: 85.88 usage: 73.26 residual: 23.09
mrth: 124.12 cth: 111.14 usage: 75.83 residual: 48.29
mrth: 88.45 cth: 75.2 usage: 59.55 residual: 28.9
mrth: 75.26 cth: 65.68 usage: 64.33 residual: 10.93
mrth: 22.15 cth: 17.41 usage: 21.22 residual: 0.93
mrth: 23.66 cth: 19.82 usage: 13.69 residual: 9.97
mrth: 105.05 cth: 86.41 usage: 94.74 residual: 10.31
mrth: 100.13 cth: 71.11 usage: 82.58 residual: 17.55
mrth: 49.48 cth: 42.33 usage: 44.85 residual: 4.63
mrth: 135.97 cth: 106.51 usage: 71.82 residual: 64.15
mrth: 172.48 cth: 151.71 usage: 129.68 residual: 42.8
mrth: 82.47 cth: 68.79 usage: 42.94 residual: 39.53
mrth: 56.15 cth: 41.02 usage: 46.25 residual: 9.9
mrth: 104.98 cth: 86.56 usage: 90.48 residual: 14.5
mrth: 166.2 cth: 127.99 usage: 120.3 residual: 45.9
mrth: 152.87 cth: 117.83 usage: 102.31 residual: 50.56
mrth: 139.1 cth: 112.33 usage: 73.79 residual: 65.31
mrth: 47.72 cth: 38.59 usage: 35.3 residual: 12.42
mrth: 66.59 cth: 49.93 usage: 42.14 residual: 24.45
mrth: 145.4 cth: 121.48 usage: 126.63 residual: 18.77
mrth: 59.4 cth: 52.9 usage: 29.85 residual: 29.55
mrth: 127.73 cth: 95.52 usage: 93.1 residual: 34.63
mrth: 100.52 cth: 86.13 usage: 98.68 residual: 1.84
mrth: 31.93 cth: 23.36 usage: 18.3 residual: 13.63
mrth: 48.06 cth: 38.39 usage: 42.41 residual: 5.65
mrth: 139.91 cth: 117.02 usage: 79.15 residual: 60.76
mrth: 33.17 cth: 29.79 usage: 20.32 residual: 12.85
mrth: 138.8 cth: 98.25 usage: 87.8 residual: 51.0
mrth: 77.07 cth: 57.75 usage: 49.91 residual: 27.16
mrth: 25.89 cth: 18.42 usage: 20.68 residual: 5.21
mrth: 91.75 cth: 70.37 usage: 84.83 residual: 6.92
mrth: 115.2 cth: 90.7 usage: 83.64 residual: 31.56
mrth: 68.55 cth: 61.02 usage: 57.6 residual: 10.95
mrth: 72.14 cth: 59.53 usage: 57.2 residual: 14.94
mrth: 86.47 cth: 71.74 usage: 81.77 residual: 4.7
mrth: 49.61 cth: 35.16 usage: 49.27 residual: 0.34
mrth: 119.56 cth: 86.77 usage: 68.13 residual: 51.43
mrth: 71.17 cth: 53.14 usage: 47.25 residual: 23.92
mrth: 15.32 cth: 11.16 usage: 10.93 residual: 4.39
mrth: 174.68 cth: 136.59 usage: 144.58 residual: 30.1
mrth: 96.89 cth: 78.81 usage: 84.65 residual: 12.24
mrth: 128.62 cth: 114.49 usage: 123.35 residual: 5.27
mrth: 44.21 cth: 31.77 usage: 34.86 residual: 9.35
mrth: 58.14 cth: 51.51 usage: 37.06 residual: 21.08
mrth: 11.56 cth: 9.56 usage: 8.57 residual: 2.99
mrth: 97.31 cth: 70.78 usage: 91.43 residual: 5.88
mrth: 21.55 cth: 16.64 usage: 19.31 residual: 2.24
mrth: 26.95 cth: 23.19 usage: 23.62 residual: 3.33
mrth: 172.83 cth: 127.41 usage: 91.19 residual: 81.64
mrth: 71.01 cth: 53.08 usage: 62.22 residual: 8.79
mrth: 109.66 cth: 85.67 usage: 76.08 residual: 33.58
mrth: 123.59 cth: 109.15 usage: 99.32 residual: 24.27
mrth: 11.49 cth: 8.45 usage: 10.26 residual: 1.23
mrth: 169.5 cth: 150.23 usage: 160.51 residual: 8.99
mrth: 56.88 cth: 46.72 usage: 35.66 residual: 21.22
mrth: 144.81 cth: 105.33 usage: 130.16 residual: 14.65
mrth: 69.92 cth: 58.69 usage: 43.03 residual: 26.89
mrth: 22.3 cth: 18.81 usage: 15.91 residual: 6.39
mrth: 23.4 cth: 20.56 usage: 18.64 residual: 4.76
mrth: 140.76 cth: 105.55 usage: 139.91 residual: 0.85
mrth: 113.23 cth: 94.95 usage: 95.71 residual: 17.52
mrth: 148.91 cth: 127.22 usage: 121.04 residual: 27.87
mrth: 135.39 cth: 102.48 usage: 69.35 residual: 66.04
mrth: 93.76 cth: 68.62 usage: 93.04 residual: 0.72
mrth: 195.49 cth: 145.2 usage: 135.73 residual: 59.76
mrth: 121.59 cth: 96.38 usage: 115.68 residual: 5.91
mrth: 22.94 cth: 17.92 usage: 20.6 residual: 2.34
mrth: 85.98 cth: 60.39 usage: 85.62 residual: 0.36
mrth: 112.18 cth: 80.18 usage: 61.55 residual: 50.63
mrth: 61.72 cth: 44.73 usage: 44.94 residual: 16.78
mrth: 66.22 cth: 48.58 usage: 46.71 residual: 19.51
mrth: 43.48 cth: 33.96 usage: 43.25 residual: 0.23
mrth: 58.28 cth: 43.65 usage: 38.52 residual: 19.76
mrth: 129.39 cth: 109.49 usage: 92.8 residual: 36.59
mrth: 38.11 cth: 32.83 usage: 33.91 residual: 4.2
mrth: 66.35 cth: 57.69 usage: 58.52 residual: 7.83
mrth: 166.11 cth: 120.21 usage: 152.49 residual: 13.62
mrth: 76.43 cth: 68.64 usage: 74.8 residual: 1.63
mrth: 143.02 cth: 118.0 usage: 94.41 residual: 48.61
mrth: 51.66 cth: 39.89 usage: 45.78 residual: 5.88
mrth: 75.29 cth: 67.38 usage: 45.09 residual: 30.2
mrth: 206.61 cth: 157.98 usage: 118.75 residual: 87.86
mrth: 155.62 cth: 116.77 usage: 147.99 residual: 7.63
mrth: 37.83 cth: 32.6 usage: 26.68 residual: 11.15
mrth: 69.77 cth: 54.65 usage: 52.04 residual: 17.73
mrth: 58.01 cth: 49.34 usage: 55.13 residual: 2.88
mrth: 38.29 cth: 31.13 usage: 22.15 residual: 16.14
mrth: 23.1 cth: 17.8 usage: 17.32 residual: 5.78
mrth: 87.43 cth: 72.85 usage: 58.86 residual: 28.57
mrth: 168.68 cth: 134.34 usage: 85.1 residual: 83.58
mrth: 101.59 cth: 72.58 usage: 66.16 residual: 35.43
mrth: 112.33 cth: 85.66 usage: 95.36 residual: 16.97
mrth: 184.01 cth: 148.67 usage: 108.97 residual: 75.04
mrth: 149.2 cth: 108.04 usage: 76.05 residual: 73.15
mrth: 43.71 cth: 31.64 usage: 26.62 residual: 17.09
mrth: 40.31 cth: 29.47 usage: 25.11 residual: 15.2
mrth: 162.28 cth: 144.69 usage: 156.8 residual: 5.48
mrth: 53.35 cth: 37.72 usage: 49.76 residual: 3.59
mrth: 175.13 cth: 147.06 usage: 93.38 residual: 81.75
mrth: 46.8 cth: 33.39 usage: 39.97 residual: 6.83
mrth: 26.16 cth: 20.21 usage: 21.11 residual: 5.05
mrth: 237.01 cth: 203.27 usage: 142.98 residual: 94.03
mrth: 88.97 cth: 75.94 usage: 49.88 residual: 39.09
mrth: 125.63 cth: 109.49 usage: 82.97 residual: 42.66
mrth: 155.35 cth: 118.17 usage: 144.75 residual: 10.6
mrth: 94.72 cth: 72.91 usage: 87.42 residual: 7.3
mrth: 143.81 cth: 118.98 usage: 142.02 residual: 1.79
mrth: 125.66 cth: 104.27 usage: 109.24 residual: 16.42
mrth: 79.23 cth: 58.65 usage: 64.78 residual: 14.45
mrth: 123.54 cth: 98.82 usage: 102.71 residual: 20.83
mrth: 173.63 cth: 125.16 usage: 125.8 residual: 47.83
mrth: 126.78 cth: 92.44 usage: 78.71 residual: 48.07
mrth: 70.34 cth: 51.88 usage: 57.13 residual: 13.21
mrth: 168.06 cth: 120.08 usage: 123.03 residual: 45.03
mrth: 95.53 cth: 78.55 usage: 81.34 residual: 14.19
mrth: 148.11 cth: 114.73 usage: 91.72 residual: 56.39
mrth: 81.51 cth: 73.32 usage: 74.42 residual: 7.09
mrth: 244.54 cth: 176.12 usage: 177.81 residual: 66.73
mrth: 173.29 cth: 125.87 usage: 131.42 residual: 41.87
mrth: 164.5 cth: 139.55 usage: 127.74 residual: 36.76
mrth: 3.75 cth: 3.25 usage: 2.11 residual: 1.64
mrth: 176.55 cth: 128.0 usage: 155.34 residual: 21.21
mrth: 6.5 cth: 5.72 usage: 4.12 residual: 2.38
mrth: 98.68 cth: 69.17 usage: 78.2 residual: 20.48
mrth: 135.03 cth: 112.14 usage: 72.96 residual: 62.07
mrth: 132.46 cth: 108.68 usage: 132.04 residual: 0.42
mrth: 117.2 cth: 98.15 usage: 101.64 residual: 15.56
mrth: 61.07 cth: 47.44 usage: 42.98 residual: 18.09
mrth: 77.9 cth: 55.96 usage: 76.11 residual: 1.79
mrth: 39.07 cth: 27.86 usage: 35.94 residual: 3.13
mrth: 140.31 cth: 113.11 usage: 119.54 residual: 20.77
mrth: 19.7 cth: 17.13 usage: 16.75 residual: 2.95
mrth: 50.15 cth: 37.83 usage: 43.19 residual: 6.96
mrth: 108.77 cth: 80.6 usage: 81.47 residual: 27.3
mrth: 60.64 cth: 52.22 usage: 47.94 residual: 12.7
mrth: 101.47 cth: 82.94 usage: 80.1 residual: 21.37
mrth: 100.42 cth: 73.38 usage: 73.82 residual: 26.6
mrth: 48.95 cth: 41.04 usage: 42.28 residual: 6.67
mrth: 120.96 cth: 93.09 usage: 92.84 residual: 28.12
mrth: 117.76 cth: 99.89 usage: 97.83 residual: 19.93
mrth: 89.23 cth: 78.48 usage: 60.17 residual: 29.06
mrth: 106.22 cth: 91.76 usage: 54.98 residual: 51.24
mrth: 85.22 cth: 73.91 usage: 52.19 residual: 33.03
mrth: 162.0 cth: 118.65 usage: 107.39 residual: 54.61
mrth: 90.23 cth: 74.88 usage: 50.1 residual: 40.13
mrth: 142.57 cth: 126.18 usage: 128.77 residual: 13.8
mrth: 23.64 cth: 18.35 usage: 19.72 residual: 3.92
mrth: 95.82 cth: 76.11 usage: 69.63 residual: 26.19
mrth: 70.62 cth: 54.79 usage: 60.07 residual: 10.55
mrth: 126.47 cth: 98.83 usage: 94.82 residual: 31.65
mrth: 65.19 cth: 52.02 usage: 39.32 residual: 25.87
mrth: 101.26 cth: 74.46 usage: 84.33 residual: 16.93
mrth: 119.87 cth: 104.34 usage: 88.43 residual: 31.44
mrth: 110.54 cth: 87.55 usage: 105.6 residual: 4.94
mrth: 178.1 cth: 129.89 usage: 101.6 residual: 76.5
mrth: 150.69 cth: 122.71 usage: 100.22 residual: 50.47
mrth: 190.14 cth: 155.74 usage: 110.4 residual: 79.74
mrth: 78.39 cth: 56.66 usage: 54.52 residual: 23.87
mrth: 173.3 cth: 121.94 usage: 105.81 residual: 67.49
mrth: 75.22 cth: 62.34 usage: 65.21 residual: 10.01
mrth: 56.43 cth: 45.83 usage: 35.2 residual: 21.23
mrth: 156.42 cth: 130.99 usage: 107.73 residual: 48.69
mrth: 80.95 cth: 58.14 usage: 43.5 residual: 37.45
mrth: 64.3 cth: 53.22 usage: 55.25 residual: 9.05
mrth: 64.41 cth: 46.06 usage: 39.86 residual: 24.55
mrth: 60.58 cth: 50.99 usage: 55.51 residual: 5.07
mrth: 133.31 cth: 119.23 usage: 125.63 residual: 7.68
mrth: 180.6 cth: 157.34 usage: 131.08 residual: 49.52
mrth: 28.24 cth: 21.92 usage: 15.73 residual: 12.51
mrth: 158.58 cth: 137.9 usage: 101.13 residual: 57.45
mrth: 73.43 cth: 56.77 usage: 42.47 residual: 30.96
mrth: 36.29 cth: 27.87 usage: 32.61 residual: 3.68
mrth: 36.92 cth: 26.65 usage: 20.38 residual: 16.54
mrth: 185.37 cth: 133.43 usage: 142.66 residual: 42.71
mrth: 107.41 cth: 83.61 usage: 81.0 residual: 26.41
mrth: 36.59 cth: 28.4 usage: 28.61 residual: 7.98
mrth: 52.59 cth: 43.31 usage: 32.63 residual: 19.96
mrth: 43.26 cth: 34.51 usage: 33.03 residual: 10.23
mrth: 58.75 cth: 50.25 usage: 55.3 residual: 3.45
mrth: 85.39 cth: 72.36 usage: 84.87 residual: 0.52
mrth: 58.06 cth: 51.12 usage: 36.09 residual: 21.97
mrth: 223.61 cth: 174.55 usage: 175.03 residual: 48.58
mrth: 267.9 cth: 208.91 usage: 213.62 residual: 54.28
mrth: 59.78 cth: 44.41 usage: 43.8 residual: 15.98
mrth: 56.68 cth: 47.29 usage: 30.18 residual: 26.5
mrth: 85.11 cth: 71.28 usage: 78.72 residual: 6.39
mrth: 35.77 cth: 30.06 usage: 23.57 residual: 12.2
mrth: 129.02 cth: 107.11 usage: 84.69 residual: 44.33
mrth: 40.54 cth: 34.2 usage: 37.56 residual: 2.98
mrth: 53.65 cth: 45.87 usage: 47.84 residual: 5.81
mrth: 81.3 cth: 57.76 usage: 47.76 residual: 33.54
mrth: 152.95 cth: 126.54 usage: 84.95 residual: 68.0
mrth: 7.83 cth: 6.93 usage: 5.74 residual: 2.09
mrth: 145.67 cth: 112.51 usage: 97.61 residual: 48.06
mrth: 117.62 cth: 99.32 usage: 85.4 residual: 32.22
mrth: 71.0 cth: 62.07 usage: 70.34 residual: 0.66
mrth: 48.8 cth: 36.52 usage: 37.56 residual: 11.24
mrth: 87.91 cth: 71.08 usage: 68.82 residual: 19.09
mrth: 114.59 cth: 96.68 usage: 88.88 residual: 25.71
mrth: 94.0 cth: 76.5 usage: 55.24 residual: 38.76
mrth: 189.66 cth: 161.03 usage: 106.65 residual: 83.01
mrth: 90.87 cth: 67.03 usage: 81.61 residual: 9.26
mrth: 69.36 cth: 57.61 usage: 52.16 residual: 17.2
mrth: 112.62 cth: 79.44 usage: 72.14 residual: 40.48
mrth: 62.41 cth: 46.49 usage: 54.4 residual: 8.01
mrth: 75.29 cth: 53.18 usage: 61.59 residual: 13.7
mrth: 81.77 cth: 70.13 usage: 58.31 residual: 23.46
mrth: 54.17 cth: 46.72 usage: 53.36 residual: 0.81
mrth: 61.33 cth: 53.73 usage: 57.09 residual: 4.24
mrth: 62.35 cth: 44.95 usage: 44.28 residual: 18.07
mrth: 143.33 cth: 102.55 usage: 104.48 residual: 38.85
mrth: 79.09 cth: 62.76 usage: 76.2 residual: 2.89
mrth: 22.55 cth: 20.13 usage: 15.23 residual: 7.32
mrth: 74.7 cth: 67.0 usage: 60.52 residual: 14.18
mrth: 18.77 cth: 13.43 usage: 17.87 residual: 0.9
mrth: 91.73 cth: 72.13 usage: 59.31 residual: 32.42
mrth: 164.27 cth: 143.76 usage: 127.77 residual: 36.5
mrth: 19.35 cth: 16.71 usage: 13.38 residual: 5.97
mrth: 74.83 cth: 62.99 usage: 72.21 residual: 2.62
mrth: 100.17 cth: 79.72 usage: 91.13 residual: 9.04
mrth: 17.52 cth: 15.6 usage: 16.38 residual: 1.14
mrth: 82.05 cth: 69.25 usage: 66.14 residual: 15.91
mrth: 26.65 cth: 20.49 usage: 20.4 residual: 6.25
mrth: 5.87 cth: 4.5 usage: 5.32 residual: 0.55
mrth: 126.84 cth: 105.8 usage: 104.75 residual: 22.09
mrth: 64.98 cth: 48.48 usage: 63.37 residual: 1.61
mrth: 186.92 cth: 163.5 usage: 139.46 residual: 47.46
mrth: 89.93 cth: 73.25 usage: 88.14 residual: 1.79
mrth: 72.77 cth: 57.41 usage: 59.13 residual: 13.64
mrth: 161.55 cth: 144.17 usage: 132.1 residual: 29.45
mrth: 108.78 cth: 90.29 usage: 101.47 residual: 7.31
mrth: 33.2 cth: 27.23 usage: 26.38 residual: 6.82
mrth: 38.66 cth: 28.83 usage: 30.98 residual: 7.68
mrth: 60.92 cth: 48.9 usage: 57.73 residual: 3.19
mrth: 110.48 cth: 84.98 usage: 69.69 residual: 40.79
mrth: 88.28 cth: 75.82 usage: 60.26 residual: 28.02
mrth: 52.62 cth: 38.59 usage: 28.05 residual: 24.57
mrth: 96.36 cth: 79.33 usage: 75.61 residual: 20.75
mrth: 154.25 cth: 118.06 usage: 96.54 residual: 57.71
mrth: 42.92 cth: 36.18 usage: 29.91 residual: 13.01
mrth: 38.78 cth: 30.82 usage: 32.21 residual: 6.57
mrth: 38.69 cth: 31.12 usage: 29.44 residual: 9.25
mrth: 85.3 cth: 68.61 usage: 48.7 residual: 36.6
mrth: 63.36 cth: 56.62 usage: 41.06 residual: 22.3
mrth: 61.71 cth: 47.5 usage: 47.34 residual: 14.37
mrth: 58.57 cth: 44.23 usage: 52.89 residual: 5.68
mrth: 92.57 cth: 75.94 usage: 60.93 residual: 31.64
mrth: 75.08 cth: 67.4 usage: 72.56 residual: 2.52
mrth: 110.8 cth: 94.67 usage: 100.43 residual: 10.37
mrth: 109.06 cth: 89.58 usage: 99.04 residual: 10.02
mrth: 138.94 cth: 118.33 usage: 107.04 residual: 31.9
mrth: 207.87 cth: 185.49 usage: 192.75 residual: 15.12
mrth: 130.86 cth: 92.48 usage: 76.14 residual: 54.72
mrth: 112.91 cth: 96.05 usage: 98.8 residual: 14.11
mrth: 138.46 cth: 117.79 usage: 130.14 residual: 8.32
mrth: 167.21 cth: 144.29 usage: 135.89 residual: 31.32
mrth: 75.51 cth: 53.22 usage: 46.33 residual: 29.18
mrth: 69.24 cth: 61.83 usage: 56.71 residual: 12.53
mrth: 246.85 cth: 198.76 usage: 218.2 residual: 28.65
mrth: 28.03 cth: 22.71 usage: 16.46 residual: 11.57
mrth: 153.88 cth: 108.74 usage: 143.85 residual: 10.03
mrth: 94.38 cth: 79.77 usage: 76.95 residual: 17.43
mrth: 114.86 cth: 86.72 usage: 100.03 residual: 14.83
mrth: 87.62 cth: 67.27 usage: 63.82 residual: 23.8
mrth: 48.15 cth: 36.49 usage: 24.99 residual: 23.16
mrth: 45.93 cth: 38.17 usage: 33.58 residual: 12.35
mrth: 91.74 cth: 70.3 usage: 76.5 residual: 15.24
mrth: 85.84 cth: 64.75 usage: 73.89 residual: 11.95
mrth: 209.69 cth: 174.19 usage: 177.27 residual: 32.42
mrth: 125.62 cth: 101.84 usage: 124.86 residual: 0.76
mrth: 58.82 cth: 42.09 usage: 44.88 residual: 13.94
mrth: 57.01 cth: 46.68 usage: 44.66 residual: 12.35
mrth: 233.47 cth: 191.46 usage: 153.92 residual: 79.55
mrth: 18.83 cth: 15.88 usage: 11.19 residual: 7.64
mrth: 145.87 cth: 121.28 usage: 126.43 residual: 19.44
mrth: 88.84 cth: 68.39 usage: 73.5 residual: 15.34
mrth: 12.29 cth: 10.56 usage: 11.4 residual: 0.89
mrth: 80.19 cth: 70.34 usage: 56.05 residual: 24.14
mrth: 116.26 cth: 94.89 usage: 66.05 residual: 50.21
mrth: 84.43 cth: 65.52 usage: 78.56 residual: 5.87
mrth: 97.89 cth: 72.11 usage: 60.97 residual: 36.92
mrth: 68.19 cth: 56.45 usage: 60.58 residual: 7.61
mrth: 25.16 cth: 19.74 usage: 13.25 residual: 11.91
mrth: 167.73 cth: 143.34 usage: 91.49 residual: 76.24
mrth: 68.38 cth: 54.48 usage: 52.81 residual: 15.57
mrth: 207.21 cth: 164.39 usage: 133.68 residual: 73.53
mrth: 89.01 cth: 72.73 usage: 46.9 residual: 42.11
mrth: 68.84 cth: 58.02 usage: 64.4 residual: 4.44
mrth: 181.16 cth: 145.9 usage: 134.51 residual: 46.65
mrth: 83.44 cth: 70.11 usage: 80.63 residual: 2.81
mrth: 98.58 cth: 86.73 usage: 50.2 residual: 48.38
mrth: 93.33 cth: 69.26 usage: 80.58 residual: 12.75
mrth: 105.53 cth: 79.98 usage: 72.66 residual: 32.87
mrth: 157.83 cth: 131.0 usage: 111.57 residual: 46.26
mrth: 205.72 cth: 145.44 usage: 104.4 residual: 101.32
mrth: 100.47 cth: 80.71 usage: 55.85 residual: 44.62
mrth: 103.16 cth: 79.81 usage: 90.88 residual: 12.28
mrth: 69.32 cth: 54.75 usage: 36.47 residual: 32.85
mrth: 123.98 cth: 96.3 usage: 118.85 residual: 5.13
mrth: 24.29 cth: 17.03 usage: 12.63 residual: 11.66
mrth: 207.19 cth: 155.14 usage: 139.41 residual: 67.78
mrth: 53.32 cth: 39.14 usage: 44.07 residual: 9.25
mrth: 156.95 cth: 113.47 usage: 137.84 residual: 19.11
mrth: 114.31 cth: 83.37 usage: 112.59 residual: 1.72
mrth: 60.19 cth: 44.91 usage: 50.0 residual: 10.19
mrth: 113.96 cth: 90.56 usage: 103.64 residual: 10.32
mrth: 136.02 cth: 120.99 usage: 87.66 residual: 48.36
mrth: 97.5 cth: 69.37 usage: 66.32 residual: 31.18
mrth: 95.73 cth: 72.78 usage: 91.19 residual: 4.54
mrth: 84.82 cth: 68.04 usage: 43.84 residual: 40.98
mrth: 43.16 cth: 38.49 usage: 33.61 residual: 9.55
mrth: 65.78 cth: 53.79 usage: 36.07 residual: 29.71
mrth: 163.06 cth: 118.08 usage: 111.75 residual: 51.31
mrth: 88.17 cth: 64.62 usage: 85.9 residual: 2.27
mrth: 85.44 cth: 71.71 usage: 62.78 residual: 22.66
mrth: 145.56 cth: 114.01 usage: 125.1 residual: 20.46
mrth: 91.52 cth: 68.23 usage: 65.38 residual: 26.14
mrth: 63.32 cth: 52.03 usage: 34.93 residual: 28.39
mrth: 49.98 cth: 36.67 usage: 45.03 residual: 4.95
mrth: 168.05 cth: 131.55 usage: 93.26 residual: 74.79
mrth: 43.12 cth: 35.24 usage: 34.44 residual: 8.68
mrth: 102.12 cth: 90.85 usage: 68.18 residual: 33.94
mrth: 106.92 cth: 91.01 usage: 98.26 residual: 8.66
mrth: 45.53 cth: 34.67 usage: 44.51 residual: 1.02
mrth: 89.92 cth: 64.79 usage: 61.36 residual: 28.56
mrth: 24.43 cth: 17.61 usage: 20.52 residual: 3.91
mrth: 81.66 cth: 72.63 usage: 47.24 residual: 34.42
mrth: 114.85 cth: 93.69 usage: 76.98 residual: 37.87
mrth: 38.09 cth: 28.73 usage: 30.99 residual: 7.1
mrth: 35.56 cth: 28.47 usage: 17.91 residual: 17.65
mrth: 122.59 cth: 109.57 usage: 63.42 residual: 59.17
mrth: 170.74 cth: 132.7 usage: 92.44 residual: 78.3
mrth: 98.61 cth: 74.06 usage: 93.89 residual: 4.72
mrth: 52.72 cth: 46.6 usage: 27.84 residual: 24.88
mrth: 41.13 cth: 30.96 usage: 33.04 residual: 8.09
mrth: 119.0 cth: 104.46 usage: 90.71 residual: 28.29
mrth: 125.58 cth: 111.14 usage: 118.84 residual: 6.74
mrth: 187.8 cth: 154.51 usage: 172.07 residual: 15.73
mrth: 115.88 cth: 98.3 usage: 76.34 residual: 39.54
mrth: 145.17 cth: 112.47 usage: 83.12 residual: 62.05
mrth: 17.24 cth: 12.23 usage: 14.2 residual: 3.04
mrth: 57.62 cth: 49.34 usage: 29.8 residual: 27.82
mrth: 175.71 cth: 138.48 usage: 118.93 residual: 56.78
mrth: 138.2 cth: 107.0 usage: 127.47 residual: 10.73
mrth: 164.73 cth: 128.56 usage: 97.71 residual: 67.02
mrth: 52.33 cth: 44.98 usage: 34.9 residual: 17.43
mrth: 27.98 cth: 22.64 usage: 23.39 residual: 4.59
mrth: 76.6 cth: 54.02 usage: 53.17 residual: 23.43
mrth: 183.77 cth: 154.06 usage: 92.78 residual: 90.99
mrth: 88.52 cth: 64.22 usage: 76.12 residual: 12.4
mrth: 147.91 cth: 109.5 usage: 92.24 residual: 55.67
mrth: 34.35 cth: 28.94 usage: 28.02 residual: 6.33
mrth: 144.05 cth: 120.23 usage: 74.69 residual: 69.36
mrth: 121.45 cth: 92.24 usage: 96.75 residual: 24.7
mrth: 220.59 cth: 181.77 usage: 203.89 residual: 16.7
mrth: 36.74 cth: 29.7 usage: 23.49 residual: 13.25
mrth: 22.69 cth: 17.67 usage: 12.34 residual: 10.35
mrth: 178.38 cth: 136.49 usage: 132.03 residual: 46.35
mrth: 101.76 cth: 80.85 usage: 99.0 residual: 2.76
mrth: 93.44 cth: 66.16 usage: 74.12 residual: 19.32
mrth: 135.07 cth: 120.37 usage: 100.3 residual: 34.77
mrth: 113.7 cth: 86.71 usage: 109.45 residual: 4.25
mrth: 176.09 cth: 124.72 usage: 128.11 residual: 47.98
mrth: 84.77 cth: 75.3 usage: 67.04 residual: 17.73
mrth: 128.68 cth: 113.8 usage: 122.89 residual: 5.79
mrth: 45.68 cth: 32.08 usage: 35.41 residual: 10.27
mrth: 87.79 cth: 69.07 usage: 77.8 residual: 9.99
mrth: 25.62 cth: 22.03 usage: 25.59 residual: 0.03
mrth: 23.75 cth: 19.99 usage: 15.11 residual: 8.64
mrth: 39.44 cth: 30.76 usage: 34.99 residual: 4.45
mrth: 182.33 cth: 134.68 usage: 129.31 residual: 53.02
mrth: 35.78 cth: 28.15 usage: 31.94 residual: 3.84
mrth: 176.43 cth: 152.5 usage: 128.65 residual: 47.78
mrth: 31.4 cth: 22.85 usage: 28.73 residual: 2.67
mrth: 104.69 cth: 87.61 usage: 97.51 residual: 7.18
mrth: 68.66 cth: 55.45 usage: 41.81 residual: 26.85
mrth: 60.24 cth: 47.99 usage: 40.74 residual: 19.5
mrth: 65.09 cth: 49.22 usage: 63.26 residual: 1.83
mrth: 58.18 cth: 52.17 usage: 34.52 residual: 23.66
mrth: 90.61 cth: 80.01 usage: 54.95 residual: 35.66
mrth: 163.76 cth: 123.49 usage: 128.04 residual: 35.72
mrth: 118.49 cth: 93.22 usage: 74.7 residual: 43.79
mrth: 93.67 cth: 67.01 usage: 48.58 residual: 45.09
mrth: 43.23 cth: 33.67 usage: 25.17 residual: 18.06
mrth: 104.75 cth: 86.97 usage: 97.6 residual: 7.15
mrth: 185.85 cth: 161.31 usage: 101.96 residual: 83.89
mrth: 49.54 cth: 41.44 usage: 28.84 residual: 20.7
mrth: 180.32 cth: 147.75 usage: 126.58 residual: 53.74
mrth: 25.43 cth: 21.58 usage: 18.71 residual: 6.72
mrth: 29.1 cth: 22.51 usage: 28.61 residual: 0.49
mrth: 121.9 cth: 98.73 usage: 71.37 residual: 50.53
mrth: 56.23 cth: 49.57 usage: 32.69 residual: 23.54
mrth: 68.02 cth: 57.61 usage: 65.39 residual: 2.63
mrth: 87.19 cth: 66.62 usage: 69.2 residual: 17.99
mrth: 114.65 cth: 87.79 usage: 111.52 residual: 3.13
mrth: 71.78 cth: 55.75 usage: 57.09 residual: 14.69
mrth: 125.18 cth: 91.49 usage: 103.99 residual: 21.19
mrth: 109.63 cth: 87.83 usage: 73.76 residual: 35.87
mrth: 99.65 cth: 84.9 usage: 71.04 residual: 28.61
mrth: 165.0 cth: 128.29 usage: 159.85 residual: 5.15
mrth: 50.82 cth: 45.22 usage: 28.61 residual: 22.21
mrth: 99.89 cth: 80.01 usage: 95.16 residual: 4.73
mrth: 105.54 cth: 84.03 usage: 55.53 residual: 50.01
mrth: 137.31 cth: 105.99 usage: 109.95 residual: 27.36
mrth: 27.3 cth: 22.19 usage: 24.02 residual: 3.28
mrth: 99.94 cth: 73.02 usage: 87.77 residual: 12.17
mrth: 165.32 cth: 140.15 usage: 150.55 residual: 14.77
mrth: 155.21 cth: 129.78 usage: 142.8 residual: 12.41
mrth: 50.03 cth: 42.47 usage: 48.29 residual: 1.74
mrth: 285.52 cth: 228.84 usage: 197.03 residual: 88.49
mrth: 100.83 cth: 90.48 usage: 63.67 residual: 37.16
mrth: 128.91 cth: 105.51 usage: 116.07 residual: 12.84
mrth: 159.49 cth: 138.14 usage: 120.56 residual: 38.93
mrth: 47.86 cth: 33.63 usage: 36.64 residual: 11.22
mrth: 164.32 cth: 123.58 usage: 121.34 residual: 42.98
mrth: 102.92 cth: 83.35 usage: 67.69 residual: 35.23
mrth: 38.75 cth: 29.6 usage: 29.58 residual: 9.17
mrth: 77.87 cth: 61.4 usage: 45.65 residual: 32.22
mrth: 83.18 cth: 71.1 usage: 48.85 residual: 34.33
mrth: 105.95 cth: 92.26 usage: 70.26 residual: 35.69
mrth: 47.01 cth: 33.62 usage: 38.83 residual: 8.18
mrth: 113.55 cth: 84.28 usage: 68.92 residual: 44.63
mrth: 93.79 cth: 65.72 usage: 91.05 residual: 2.74
mrth: 76.23 cth: 54.56 usage: 70.13 residual: 6.1
mrth: 79.74 cth: 57.58 usage: 55.77 residual: 23.97
mrth: 57.64 cth: 51.41 usage: 45.82 residual: 11.82
mrth: 134.6 cth: 108.24 usage: 132.95 residual: 1.65
mrth: 25.74 cth: 22.69 usage: 21.38 residual: 4.36
mrth: 88.55 cth: 67.45 usage: 71.06 residual: 17.49
mrth: 119.55 cth: 92.72 usage: 96.52 residual: 23.03
mrth: 180.97 cth: 141.08 usage: 144.89 residual: 36.08
mrth: 18.54 cth: 14.02 usage: 11.74 residual: 6.8
mrth: 83.78 cth: 61.7 usage: 61.48 residual: 22.3
mrth: 72.2 cth: 51.43 usage: 49.49 residual: 22.71
mrth: 127.57 cth: 108.34 usage: 83.19 residual: 44.38
mrth: 36.1 cth: 30.7 usage: 28.17 residual: 7.93
mrth: 43.07 cth: 33.12 usage: 33.72 residual: 9.35
mrth: 87.9 cth: 74.48 usage: 71.02 residual: 16.88
mrth: 78.0 cth: 55.29 usage: 53.05 residual: 24.95
mrth: 19.2 cth: 16.58 usage: 18.92 residual: 0.28
mrth: 88.08 cth: 62.22 usage: 46.45 residual: 41.63
mrth: 20.37 cth: 18.01 usage: 10.67 residual: 9.7
mrth: 93.6 cth: 83.81 usage: 71.93 residual: 21.67
mrth: 84.74 cth: 71.49 usage: 71.59 residual: 13.15
mrth: 131.83 cth: 113.63 usage: 86.81 residual: 45.02
mrth: 50.21 cth: 40.77 usage: 34.16 residual: 16.05
mrth: 127.54 cth: 108.4 usage: 94.95 residual: 32.59
mrth: 23.8 cth: 17.38 usage: 17.9 residual: 5.9
mrth: 128.14 cth: 114.6 usage: 86.88 residual: 41.26
mrth: 97.19 cth: 82.69 usage: 55.56 residual: 41.63
mrth: 46.41 cth: 38.53 usage: 37.14 residual: 9.27
mrth: 90.38 cth: 75.35 usage: 66.6 residual: 23.78
mrth: 110.59 cth: 84.03 usage: 110.55 residual: 0.04
mrth: 185.61 cth: 162.26 usage: 110.78 residual: 74.83
mrth: 87.26 cth: 74.41 usage: 47.68 residual: 39.58
