mrth: 107.23 cth: 77.82 usage: 79.79 residual: 27.44
mrth: 16.05 cth: 14.34 usage: 10.18 residual: 5.87
mrth: 117.34 cth: 95.12 usage: 113.46 residual: 3.88
mrth: 140.51 cth: 122.65 usage: 93.74 residual: 46.77
mrth: 110.61 cth: 90.53 usage: 92.4 residual: 18.21
mrth: 97.48 cth: 80.05 usage: 60.97 residual: 36.51
mrth: 81.34 cth: 70.72 usage: 69.85 residual: 11.49
mrth: 111.99 cth: 95.02 usage: 84.96 residual: 27.03
mrth: 78.3 cth: 60.39 usage: 47.28 residual: 31.02
mrth: 128.84 cth: 105.55 usage: 122.0 residual: 6.84
mrth: 49.81 cth: 42.33 usage: 42.93 residual: 6.88
mrth: 62.76 cth: 47.21 usage: 35.34 residual: 27.42
mrth: 108.62 cth: 87.64 usage: 58.87 residual: 49.75
mrth: 50.27 cth: 44.22 usage: 39.22 residual: 11.05
mrth: 58.46 cth: 42.99 usage: 31.96 residual: 26.5
mrth: 164.89 cth: 146.1 usage: 135.35 residual: 29.54
mrth: 108.28 cth: 80.68 usage: 59.17 residual: 49.11
mrth: 79.92 cth: 57.04 usage: 74.09 residual: 5.83
mrth: 89.54 cth: 66.19 usage: 66.18 residual: 23.36
mrth: 199.23 cth: 173.09 usage: 133.45 residual: 65.78
mrth: 12.06 cth: 10.53 usage: 6.35 residual: 5.71
mrth: 51.15 cth: 43.12 usage: 42.27 residual: 8.88
mrth: 96.89 cth: 79.22 usage: 92.67 residual: 4.22
mrth: 166.28 cth: 121.27 usage: 101.4 residual: 64.88
mrth: 53.7 cth: 42.92 usage: 44.89 residual: 8.81
mrth: 136.55 cth: 96.21 usage: 118.89 residual: 17.66
mrth: 67.42 cth: 60.08 usage: 39.34 residual: 28.08
mrth: 112.02 cth: 83.85 usage: 90.03 residual: 21.99
mrth: 204.07 cth: 155.91 usage: 169.35 residual: 34.72
mrth: 94.08 cth: 69.24 usage: 59.71 residual: 34.37
mrth: 131.21 cth: 109.77 usage: 86.54 residual: 44.67
mrth: 88.05 cth: 69.34 usage: 46.6 residual: 41.45
mrth: 8.98 cth: 6.55 usage: 6.37 residual: 2.61
mrth: 139.55 cth: 109.88 usage: 114.56 residual: 24.99
mrth: 27.34 cth: 24.6 usage: 17.16 residual: 10.18
mrth: 25.97 cth: 19.12 usage: 18.65 residual: 7.32
mrth: 45.78 cth: 33.95 usage: 34.61 residual: 11.17
mrth: 71.34 cth: 52.84 usage: 53.33 residual: 18.01
mrth: 68.62 cth: 56.31 usage: 56.99 residual: 11.63
mrth: 160.89 cth: 135.48 usage: 140.53 residual: 20.36
mrth: 148.44 cth: 113.24 usage: 97.4 residual: 51.04
mrth: 156.7 cth: 140.26 usage: 92.52 residual: 64.18
mrth: 162.8 cth: 116.75 usage: 154.58 residual: 8.22
mrth: 69.93 cth: 49.79 usage: 46.48 residual: 23.45
mrth: 136.56 cth: 121.03 usage: 113.83 residual: 22.73
mrth: 117.11 cth: 99.06 usage: 60.21 residual: 56.9
mrth: 38.38 cth: 28.74 usage: 21.11 residual: 17.27
mrth: 30.37 cth: 25.78 usage: 20.32 residual: 10.05
mrth: 112.37 cth: 82.93 usage: 84.86 residual: 27.51
mrth: 50.2 cth: 35.94 usage: 42.46 residual: 7.74
mrth: 29.83 cth: 24.36 usage: 15.43 residual: 14.4
mrth: 92.58 cth: 82.89 usage: 52.69 residual: 39.89
mrth: 136.4 cth: 119.81 usage: 119.38 residual: 17.02
mrth: 182.32 cth: 142.58 usage: 170.09 residual: 12.23
mrth: 114.77 cth: 90.3 usage: 62.1 residual: 52.67
mrth: 244.23 cth: 171.2 usage: 129.31 residual: 114.92
mrth: 173.17 cth: 138.62 usage: 111.73 residual: 61.44
mrth: 159.0 cth: 111.54 usage: 103.96 residual: 55.04
mrth: 104.1 cth: 85.07 usage: 86.05 residual: 18.05
mrth: 32.03 cth: 22.47 usage: 25.2 residual: 6.83
mrth: 77.35 cth: 64.61 usage: 44.85 residual: 32.5
mrth: 54.08 cth: 47.1 usage: 50.32 residual: 3.76
mrth: 144.62 cth: 129.63 usage: 124.99 residual: 19.63
mrth: 163.62 cth: 125.27 usage: 83.99 residual: 79.63
mrth: 43.43 cth: 37.54 usage: 28.44 residual: 14.99
mrth: 114.53 cth: 94.05 usage: 69.22 residual: 45.31
mrth: 203.3 cth: 160.42 usage: 135.08 residual: 68.22
mrth: 122.58 cth: 93.98 usage: 66.84 residual: 55.74
mrth: 56.24 cth: 41.13 usage: 43.85 residual: 12.39
mrth: 43.84 cth: 37.22 usage: 30.8 residual: 13.04
mrth: 49.29 cth: 37.04 usage: 49.28 residual: 0.01
mrth: 148.58 cth: 121.11 usage: 96.09 residual: 52.49
mrth: 71.13 cth: 56.45 usage: 36.59 residual: 34.54
mrth: 112.67 cth: 97.15 usage: 78.1 residual: 34.57
mrth: 93.77 cth: 79.01 usage: 93.6 residual: 0.17
mrth: 101.19 cth: 77.88 usage: 84.95 residual: 16.24
mrth: 95.72 cth: 73.17 usage: 59.55 residual: 36.17
mrth: 135.93 cth: 113.57 usage: 128.36 residual: 7.57
mrth: 91.06 cth: 67.99 usage: 59.3 residual: 31.76
mrth: 104.95 cth: 76.34 usage: 57.03 residual: 47.92
mrth: 87.6 cth: 63.41 usage: 49.04 residual: 38.56
mrth: 127.62 cth: 102.86 usage: 109.86 residual: 17.76
mrth: 52.85 cth: 47.1 usage: 33.25 residual: 19.6
mrth: 97.17 cth: 87.42 usage: 84.24 residual: 12.93
mrth: 180.18 cth: 150.64 usage: 116.37 residual: 63.81
mrth: 77.05 cth: 54.35 usage: 66.43 residual: 10.62
mrth: 74.53 cth: 62.1 usage: 58.71 residual: 15.82
mrth: 138.59 cth: 112.06 usage: 89.9 residual: 48.69
mrth: 134.36 cth: 115.56 usage: 121.04 residual: 13.32
mrth: 92.84 cth: 83.08 usage: 60.96 residual: 31.88
mrth: 42.78 cth: 35.97 usage: 29.22 residual: 13.56
mrth: 21.33 cth: 17.01 usage: 13.4 residual: 7.93
mrth: 151.3 cth: 118.93 usage: 119.47 residual: 31.83
mrth: 60.83 cth: 49.69 usage: 46.24 residual: 14.59
mrth: 102.26 cth: 74.16 usage: 66.1 residual: 36.16
mrth: 121.98 cth: 108.26 usage: 97.49 residual: 24.49
mrth: 98.37 cth: 77.6 usage: 88.43 residual: 9.94
mrth: 212.03 cth: 187.71 usage: 124.2 residual: 87.83
mrth: 100.26 cth: 85.84 usage: 58.23 residual: 42.03
mrth: 182.33 cth: 127.86 usage: 148.74 residual: 33.59
mrth: 197.83 cth: 152.03 usage: 112.08 residual: 85.75
mrth: 104.05 cth: 92.18 usage: 98.96 residual: 5.09
mrth: 87.57 cth: 73.72 usage: 61.15 residual: 26.42
mrth: 95.73 cth: 83.13 usage: 57.27 residual: 38.46
mrth: 53.72 cth: 39.81 usage: 43.09 residual: 10.63
mrth: 201.24 cth: 173.13 usage: 104.91 residual: 96.33
mrth: 222.97 cth: 163.65 usage: 111.92 residual: 111.05
mrth: 100.6 cth: 79.04 usage: 83.51 residual: 17.09
mrth: 60.44 cth: 43.47 usage: 48.25 residual: 12.19
mrth: 152.04 cth: 106.7 usage: 137.51 residual: 14.53
mrth: 119.81 cth: 89.33 usage: 90.18 residual: 29.63
mrth: 122.04 cth: 105.02 usage: 84.25 residual: 37.79
mrth: 127.64 cth: 94.99 usage: 98.1 residual: 29.54
mrth: 89.81 cth: 66.68 usage: 74.58 residual: 15.23
mrth: 126.57 cth: 90.15 usage: 125.46 residual: 1.11
mrth: 44.49 cth: 36.7 usage: 43.42 residual: 1.07
mrth: 59.71 cth: 48.79 usage: 42.82 residual: 16.89
mrth: 102.29 cth: 89.09 usage: 85.47 residual: 16.82
mrth: 63.23 cth: 52.71 usage: 45.03 residual: 18.2
mrth: 16.55 cth: 12.03 usage: 13.99 residual: 2.56
mrth: 147.39 cth: 116.62 usage: 103.9 residual: 43.49
mrth: 128.26 cth: 99.77 usage: 124.62 residual: 3.64
mrth: 70.81 cth: 55.14 usage: 41.71 residual: 29.1
mrth: 181.8 cth: 129.43 usage: 115.59 residual: 66.21
mrth: 78.46 cth: 55.54 usage: 61.78 residual: 16.68
mrth: 12.54 cth: 10.93 usage: 8.82 residual: 3.72
mrth: 121.44 cth: 101.66 usage: 72.6 residual: 48.84
mrth: 38.29 cth: 29.96 usage: 37.47 residual: 0.82
mrth: 57.66 cth: 46.95 usage: 48.3 residual: 9.36
mrth: 68.72 cth: 51.94 usage: 63.88 residual: 4.84
mrth: 143.94 cth: 106.33 usage: 122.51 residual: 21.43
mrth: 71.21 cth: 57.8 usage: 46.37 residual: 24.84
mrth: 56.15 cth: 46.08 usage: 28.27 residual: 27.88
mrth: 146.48 cth: 105.16 usage: 138.11 residual: 8.37
mrth: 92.9 cth: 77.51 usage: 74.85 residual: 18.05
mrth: 21.29 cth: 15.81 usage: 20.95 residual: 0.34
mrth: 106.05 cth: 87.35 usage: 69.12 residual: 36.93
mrth: 105.2 cth: 83.53 usage: 79.99 residual: 25.21
mrth: 110.64 cth: 90.03 usage: 70.74 residual: 39.9
mrth: 46.93 cth: 40.97 usage: 23.62 residual: 23.31
mrth: 68.32 cth: 55.92 usage: 34.77 residual: 33.55
mrth: 99.12 cth: 86.38 usage: 96.04 residual: 3.08
mrth: 116.13 cth: 92.35 usage: 67.6 residual: 48.53
mrth: 2.5 cth: 1.9 usage: 1.5 residual: 1.0
mrth: 143.86 cth: 128.02 usage: 86.3 residual: 57.56
mrth: 95.44 cth: 75.66 usage: 81.64 residual: 13.8
mrth: 53.49 cth: 37.95 usage: 27.8 residual: 25.69
mrth: 3.24 cth: 2.55 usage: 2.4 residual: 0.84
mrth: 81.61 cth: 73.43 usage: 66.22 residual: 15.39
mrth: 80.28 cth: 69.42 usage: 41.47 residual: 38.81
mrth: 51.82 cth: 37.25 usage: 45.35 residual: 6.47
mrth: 146.37 cth: 128.25 usage: 91.11 residual: 55.26
mrth: 58.97 cth: 49.09 usage: 50.23 residual: 8.74
mrth: 56.77 cth: 46.38 usage: 45.6 residual: 11.17
mrth: 13.18 cth: 11.68 usage: 12.26 residual: 0.92
mrth: 68.5 cth: 49.18 usage: 44.05 residual: 24.45
mrth: 135.65 cth: 111.78 usage: 121.07 residual: 14.58
mrth: 64.22 cth: 53.98 usage: 37.93 residual: 26.29
mrth: 177.03 cth: 133.6 usage: 149.06 residual: 27.97
mrth: 168.87 cth: 137.36 usage: 120.22 residual: 48.65
mrth: 92.73 cth: 65.0 usage: 68.44 residual: 24.29
mrth: 105.91 cth: 80.68 usage: 57.77 residual: 48.14
mrth: 74.14 cth: 60.16 usage: 73.88 residual: 0.26
mrth: 193.1 cth: 138.06 usage: 122.15 residual: 70.95
mrth: 78.52 cth: 55.1 usage: 45.08 residual: 33.44
mrth: 179.5 cth: 134.31 usage: 106.24 residual: 73.26
mrth: 40.85 cth: 30.39 usage: 24.82 residual: 16.03
mrth: 113.29 cth: 97.21 usage: 81.12 residual: 32.17
mrth: 31.8 cth: 28.08 usage: 15.93 residual: 15.87
mrth: 105.28 cth: 93.53 usage: 101.6 residual: 3.68
mrth: 4.84 cth: 3.94 usage: 4.67 residual: 0.17
mrth: 96.32 cth: 81.85 usage: 93.63 residual: 2.69
mrth: 33.32 cth: 26.75 usage: 25.19 residual: 8.13
mrth: 101.13 cth: 81.02 usage: 84.06 residual: 17.07
mrth: 225.96 cth: 163.44 usage: 170.46 residual: 55.5
mrth: 126.77 cth: 99.4 usage: 88.95 residual: 37.82
mrth: 135.5 cth: 118.57 usage: 109.84 residual: 25.66
mrth: 186.38 cth: 152.35 usage: 93.85 residual: 92.53
mrth: 90.66 cth: 74.43 usage: 70.07 residual: 20.59
mrth: 120.46 cth: 85.23 usage: 115.89 residual: 4.57
mrth: 90.29 cth: 68.09 usage: 86.49 residual: 3.8
mrth: 130.62 cth: 106.47 usage: 88.35 residual: 42.27
mrth: 142.83 cth: 117.55 usage: 110.0 residual: 32.83
mrth: 125.31 cth: 110.64 usage: 92.6 residual: 32.71
mrth: 27.49 cth: 19.26 usage: 26.83 residual: 0.66
mrth: 109.12 cth: 94.73 usage: 81.33 residual: 27.79
mrth: 137.03 cth: 109.35 usage: 88.84 residual: 48.19
mrth: 109.38 cth: 80.03 usage: 79.13 residual: 30.25
mrth: 70.75 cth: 58.33 usage: 55.0 residual: 15.75
mrth: 146.36 cth: 121.36 usage: 117.0 residual: 29.36
mrth: 48.03 cth: 35.54 usage: 31.37 residual: 16.66
mrth: 52.95 cth: 43.47 usage: 49.42 residual: 3.53
mrth: 126.27 cth: 105.0 usage: 97.23 residual: 29.04
mrth: 42.78 cth: 38.08 usage: 33.4 residual: 9.38
mrth: 22.11 cth: 15.7 usage: 14.65 residual: 7.46
mrth: 73.44 cth: 65.67 usage: 41.18 residual: 32.26
mrth: 157.33 cth: 116.18 usage: 140.88 residual: 16.45
mrth: 66.53 cth: 53.39 usage: 53.66 residual: 12.87
mrth: 106.37 cth: 81.48 usage: 65.66 residual: 40.71
mrth: 46.47 cth: 40.28 usage: 26.61 residual: 19.86
mrth: 172.51 cth: 148.28 usage: 126.83 residual: 45.68
mrth: 27.55 cth: 22.85 usage: 15.34 residual: 12.21
mrth: 94.31 cth: 72.1 usage: 90.04 residual: 4.27
mrth: 63.65 cth: 56.66 usage: 44.77 residual: 18.88
mrth: 106.03 cth: 87.77 usage: 68.66 residual: 37.37
mrth: 128.06 cth: 105.4 usage: 74.42 residual: 53.64
mrth: 160.13 cth: 120.51 usage: 123.02 residual: 37.11
mrth: 114.23 cth: 99.9 usage: 100.48 residual: 13.75
mrth: 64.39 cth: 54.47 usage: 46.68 residual: 17.71
mrth: 47.67 cth: 37.23 usage: 34.99 residual: 12.68
mrth: 125.48 cth: 99.97 usage: 87.38 residual: 38.1
mrth: 134.72 cth: 101.59 usage: 132.86 residual: 1.86
mrth: 82.35 cth: 61.39 usage: 56.43 residual: 25.92
mrth: 77.4 cth: 68.41 usage: 72.33 residual: 5.07
mrth: 72.11 cth: 52.36 usage: 40.09 residual: 32.02
mrth: 172.29 cth: 152.78 usage: 141.41 residual: 30.88
mrth: 119.55 cth: 99.05 usage: 98.03 residual: 21.52
mrth: 65.96 cth: 56.09 usage: 59.96 residual: 6.0
mrth: 57.48 cth: 50.16 usage: 49.04 residual: 8.44
mrth: 71.31 cth: 55.47 usage: 39.04 residual: 32.27
mrth: 86.57 cth: 68.85 usage: 44.6 residual: 41.97
mrth: 124.94 cth: 90.69 usage: 67.5 residual: 57.44
mrth: 96.88 cth: 79.3 usage: 65.64 residual: 31.24
mrth: 223.97 cth: 199.92 usage: 219.48 residual: 4.49
mrth: 75.34 cth: 62.81 usage: 39.44 residual: 35.9
mrth: 116.33 cth: 98.53 usage: 99.44 residual: 16.89
mrth: 54.55 cth: 41.81 usage: 49.41 residual: 5.14
mrth: 102.52 cth: 91.89 usage: 65.04 residual: 37.48
mrth: 77.32 cth: 56.03 usage: 64.48 residual: 12.84
mrth: 57.62 cth: 50.78 usage: 30.02 residual: 27.6
mrth: 107.44 cth: 91.47 usage: 69.73 residual: 37.71
mrth: 54.6 cth: 42.2 usage: 40.77 residual: 13.83
mrth: 112.58 cth: 86.28 usage: 72.95 residual: 39.63
mrth: 15.51 cth: 13.42 usage: 8.78 residual: 6.73
mrth: 211.91 cth: 190.54 usage: 196.02 residual: 15.89
mrth: 63.63 cth: 49.88 usage: 34.89 residual: 28.74
mrth: 42.72 cth: 36.74 usage: 41.5 residual: 1.22
mrth: 139.8 cth: 103.04 usage: 80.08 residual: 59.72
mrth: 73.18 cth: 62.13 usage: 45.38 residual: 27.8
mrth: 94.95 cth: 83.09 usage: 69.66 residual: 25.29
mrth: 75.33 cth: 57.67 usage: 62.35 residual: 12.98
mrth: 14.61 cth: 11.82 usage: 8.56 residual: 6.05
mrth: 122.78 cth: 95.63 usage: 118.3 residual: 4.48
mrth: 52.53 cth: 44.43 usage: 51.31 residual: 1.22
mrth: 88.96 cth: 68.43 usage: 75.2 residual: 13.76
mrth: 69.29 cth: 59.39 usage: 53.52 residual: 15.77
mrth: 84.99 cth: 74.19 usage: 71.4 residual: 13.59
mrth: 130.97 cth: 114.84 usage: 116.21 residual: 14.76
mrth: 92.86 cth: 80.97 usage: 90.06 residual: 2.8
mrth: 156.84 cth: 140.95 usage: 152.84 residual: 4.0
mrth: 102.14 cth: 76.27 usage: 53.0 residual: 49.14
mrth: 69.43 cth: 55.71 usage: 52.64 residual: 16.79
mrth: 58.95 cth: 43.34 usage: 46.76 residual: 12.19
mrth: 192.45 cth: 152.85 usage: 142.52 residual: 49.93
mrth: 7.91 cth: 5.83 usage: 4.97 residual: 2.94
mrth: 68.93 cth: 52.06 usage: 63.19 residual: 5.74
mrth: 102.65 cth: 82.56 usage: 62.94 residual: 39.71
mrth: 91.49 cth: 75.94 usage: 84.03 residual: 7.46
mrth: 165.98 cth: 125.37 usage: 131.01 residual: 34.97
mrth: 62.91 cth: 49.78 usage: 41.18 residual: 21.73
mrth: 57.46 cth: 48.76 usage: 29.35 residual: 28.11
mrth: 185.19 cth: 150.09 usage: 149.64 residual: 35.55
mrth: 68.12 cth: 56.06 usage: 39.39 residual: 28.73
mrth: 72.84 cth: 59.79 usage: 61.01 residual: 11.83
mrth: 140.84 cth: 107.2 usage: 94.86 residual: 45.98
mrth: 12.2 cth: 9.43 usage: 10.46 residual: 1.74
mrth: 45.78 cth: 40.23 usage: 43.68 residual: 2.1
mrth: 64.52 cth: 46.14 usage: 39.01 residual: 25.51
mrth: 97.18 cth: 81.1 usage: 87.67 residual: 9.51
mrth: 79.33 cth: 69.12 usage: 73.72 residual: 5.61
mrth: 95.04 cth: 75.92 usage: 48.48 residual: 46.56
mrth: 83.3 cth: 73.53 usage: 82.56 residual: 0.74
mrth: 158.17 cth: 118.12 usage: 82.33 residual: 75.84
mrth: 183.55 cth: 161.32 usage: 173.35 residual: 10.2
mrth: 47.59 cth: 34.31 usage: 25.57 residual: 22.02
mrth: 90.83 cth: 68.43 usage: 57.86 residual: 32.97
mrth: 93.74 cth: 70.78 usage: 86.64 residual: 7.1
mrth: 55.28 cth: 41.72 usage: 29.78 residual: 25.5
mrth: 85.52 cth: 62.74 usage: 45.66 residual: 39.86
mrth: 122.41 cth: 86.3 usage: 64.07 residual: 58.34
mrth: 40.66 cth: 34.91 usage: 37.17 residual: 3.49
mrth: 144.53 cth: 105.82 usage: 132.44 residual: 12.09
mrth: 97.53 cth: 76.61 usage: 96.85 residual: 0.68
mrth: 96.14 cth: 83.33 usage: 82.69 residual: 13.45
mrth: 110.52 cth: 84.04 usage: 72.71 residual: 37.81
mrth: 96.58 cth: 78.08 usage: 70.25 residual: 26.33
mrth: 98.93 cth: 84.06 usage: 63.0 residual: 35.93
mrth: 29.85 cth: 22.78 usage: 21.88 residual: 7.97
mrth: 126.85 cth: 105.15 usage: 123.07 residual: 3.78
mrth: 131.51 cth: 101.61 usage: 128.29 residual: 3.22
mrth: 89.45 cth: 70.86 usage: 81.3 residual: 8.15
mrth: 36.45 cth: 29.5 usage: 34.94 residual: 1.51
mrth: 165.63 cth: 117.74 usage: 98.44 residual: 67.19
mrth: 117.04 cth: 91.0 usage: 105.29 residual: 11.75
mrth: 98.5 cth: 69.13 usage: 66.39 residual: 32.11
mrth: 146.55 cth: 104.42 usage: 124.94 residual: 21.61
mrth: 69.27 cth: 50.1 usage: 44.04 residual: 25.23
mrth: 122.91 cth: 104.86 usage: 74.04 residual: 48.87
mrth: 166.72 cth: 144.03 usage: 143.42 residual: 23.3
mrth: 92.68 cth: 71.72 usage: 66.24 residual: 26.44
mrth: 113.32 cth: 101.41 usage: 97.79 residual: 15.53
mrth: 132.67 cth: 105.85 usage: 105.48 residual: 27.19
mrth: 46.05 cth: 35.47 usage: 32.41 residual: 13.64
mrth: 86.92 cth: 62.83 usage: 68.21 residual: 18.71
mrth: 45.2 cth: 35.34 usage: 25.96 residual: 19.24
mrth: 158.55 cth: 135.17 usage: 139.82 residual: 18.73
mrth: 43.85 cth: 34.24 usage: 25.01 residual: 18.84
mrth: 54.36 cth: 47.19 usage: 27.46 residual: 26.9
mrth: 7.26 cth: 6.3 usage: 3.79 residual: 3.47
mrth: 60.97 cth: 53.49 usage: 53.24 residual: 7.73
mrth: 104.83 cth: 74.94 usage: 67.57 residual: 37.26
mrth: 63.38 cth: 47.95 usage: 47.12 residual: 16.26
mrth: 229.6 cth: 202.63 usage: 181.71 residual: 47.89
mrth: 129.53 cth: 111.93 usage: 127.97 residual: 1.56
mrth: 52.18 cth: 43.18 usage: 46.51 residual: 5.67
mrth: 101.18 cth: 79.94 usage: 75.46 residual: 25.72
mrth: 137.52 cth: 120.67 usage: 85.77 residual: 51.75
mrth: 60.23 cth: 44.75 usage: 57.3 residual: 2.93
mrth: 91.07 cth: 81.84 usage: 76.47 residual: 14.6
mrth: 98.0 cth: 83.85 usage: 60.94 residual: 37.06
mrth: 40.26 cth: 31.54 usage: 21.91 residual: 18.35
mrth: 66.36 cth: 51.97 usage: 55.62 residual: 10.74
mrth: 142.17 cth: 124.63 usage: 124.99 residual: 17.18
mrth: 49.73 cth: 42.87 usage: 28.52 residual: 21.21
mrth: 53.04 cth: 37.87 usage: 43.97 residual: 9.07
mrth: 64.52 cth: 58.04 usage: 34.61 residual: 29.91
mrth: 42.25 cth: 34.5 usage: 38.14 residual: 4.11
mrth: 99.01 cth: 86.51 usage: 55.06 residual: 43.95
mrth: 134.18 cth: 108.15 usage: 107.59 residual: 26.59
mrth: 90.12 cth: 72.3 usage: 66.62 residual: 23.5
mrth: 68.71 cth: 58.16 usage: 51.23 residual: 17.48
mrth: 124.82 cth: 109.9 usage: 74.82 residual: 50.0
mrth: 55.02 cth: 39.36 usage: 48.46 residual: 6.56
mrth: 37.2 cth: 32.42 usage: 19.49 residual: 17.71
mrth: 72.06 cth: 57.7 usage: 63.53 residual: 8.53
mrth: 111.25 cth: 95.54 usage: 83.86 residual: 27.39
mrth: 53.26 cth: 37.93 usage: 45.43 residual: 7.83
mrth: 123.78 cth: 99.82 usage: 66.53 residual: 57.25
mrth: 54.7 cth: 47.88 usage: 40.13 residual: 14.57
mrth: 59.14 cth: 52.61 usage: 39.12 residual: 20.02
mrth: 97.47 cth: 85.35 usage: 65.71 residual: 31.76
mrth: 122.78 cth: 102.62 usage: 77.83 residual: 44.95
mrth: 124.73 cth: 105.67 usage: 101.34 residual: 23.39
mrth: 121.82 cth: 105.3 usage: 80.61 residual: 41.21
mrth: 157.72 cth: 138.19 usage: 128.81 residual: 28.91
mrth: 47.86 cth: 35.54 usage: 30.21 residual: 17.65
mrth: 150.41 cth: 108.76 usage: 125.24 residual: 25.17
mrth: 88.16 cth: 64.9 usage: 74.57 residual: 13.59
mrth: 123.49 cth: 96.46 usage: 121.64 residual: 1.85
mrth: 199.5 cth: 175.54 usage: 180.59 residual: 18.91
mrth: 83.83 cth: 62.47 usage: 41.93 residual: 41.9
mrth: 96.72 cth: 70.48 usage: 88.75 residual: 7.97
mrth: 71.44 cth: 56.14 usage: 65.34 residual: 6.1
mrth: 168.63 cth: 127.25 usage: 126.72 residual: 41.91
mrth: 23.2 cth: 18.74 usage: 13.69 residual: 9.51
mrth: 98.21 cth: 71.55 usage: 95.58 residual: 2.63
mrth: 96.75 cth: 70.89 usage: 52.11 residual: 44.64
mrth: 168.83 cth: 131.78 usage: 101.08 residual: 67.75
mrth: 189.35 cth: 137.07 usage: 160.89 residual: 28.46
mrth: 10.57 cth: 8.91 usage: 7.88 residual: 2.69
mrth: 22.11 cth: 16.36 usage: 20.81 residual: 1.3
mrth: 63.65 cth: 54.59 usage: 32.12 residual: 31.53
mrth: 29.95 cth: 22.62 usage: 18.99 residual: 10.96
mrth: 168.11 cth: 128.67 usage: 86.41 residual: 81.7
mrth: 103.62 cth: 77.53 usage: 64.28 residual: 39.34
mrth: 69.27 cth: 59.07 usage: 46.42 residual: 22.85
mrth: 71.62 cth: 52.12 usage: 64.66 residual: 6.96
mrth: 106.62 cth: 93.54 usage: 58.02 residual: 48.6
mrth: 73.23 cth: 56.71 usage: 62.38 residual: 10.85
mrth: 41.33 cth: 36.42 usage: 34.07 residual: 7.26
mrth: 83.46 cth: 72.5 usage: 55.8 residual: 27.66
mrth: 118.88 cth: 88.76 usage: 91.69 residual: 27.19
mrth: 78.75 cth: 68.02 usage: 76.47 residual: 2.28
mrth: 85.79 cth: 73.28 usage: 77.92 residual: 7.87
mrth: 75.52 cth: 59.3 usage: 64.16 residual: 11.36
mrth: 231.78 cth: 172.19 usage: 186.56 residual: 45.22
mrth: 78.52 cth: 65.31 usage: 57.46 residual: 21.06
mrth: 27.27 cth: 23.85 usage: 26.21 residual: 1.06
mrth: 70.97 cth: 49.87 usage: 64.3 residual: 6.67
mrth: 87.93 cth: 63.01 usage: 75.44 residual: 12.49
mrth: 33.08 cth: 27.96 usage: 26.46 residual: 6.62
mrth: 23.55 cth: 19.93 usage: 17.92 residual: 5.63
mrth: 144.66 cth: 104.67 usage: 72.48 residual: 72.18
mrth: 109.56 cth: 76.72 usage: 72.77 residual: 36.79
mrth: 101.35 cth: 85.56 usage: 55.85 residual: 45.5
mrth: 92.89 cth: 67.55 usage: 49.78 residual: 43.11
mrth: 115.29 cth: 94.54 usage: 114.32 residual: 0.97
mrth: 82.57 cth: 68.62 usage: 49.72 residual: 32.85
mrth: 59.15 cth: 48.93 usage: 43.95 residual: 15.2
mrth: 42.61 cth: 37.31 usage: 27.32 residual: 15.29
mrth: 66.74 cth: 54.03 usage: 66.01 residual: 0.73
mrth: 16.9 cth: 15.03 usage: 9.79 residual: 7.11
mrth: 177.08 cth: 127.53 usage: 171.85 residual: 5.23
mrth: 164.57 cth: 118.66 usage: 114.22 residual: 50.35
mrth: 118.8 cth: 85.26 usage: 80.74 residual: 38.06
mrth: 73.61 cth: 62.57 usage: 57.43 residual: 16.18
mrth: 62.36 cth: 53.46 usage: 34.67 residual: 27.69
mrth: 173.8 cth: 139.5 usage: 154.16 residual: 19.64
mrth: 74.15 cth: 59.82 usage: 48.65 residual: 25.5
mrth: 71.67 cth: 55.2 usage: 53.84 residual: 17.83
mrth: 176.64 cth: 126.5 usage: 170.1 residual: 6.54
mrth: 193.84 cth: 158.54 usage: 120.6 residual: 73.24
mrth: 48.97 cth: 43.08 usage: 37.4 residual: 11.57
mrth: 25.73 cth: 22.5 usage: 22.22 residual: 3.51
mrth: 110.39 cth: 99.22 usage: 60.0 residual: 50.39
mrth: 96.63 cth: 86.71 usage: 59.17 residual: 37.46
mrth: 131.96 cth: 105.36 usage: 118.68 residual: 13.28
mrth: 146.89 cth: 110.98 usage: 126.36 residual: 20.53
mrth: 38.77 cth: 32.34 usage: 24.08 residual: 14.69
mrth: 34.76 cth: 27.48 usage: 23.82 residual: 10.94
mrth: 190.02 cth: 157.74 usage: 106.84 residual: 83.18
mrth: 74.47 cth: 61.03 usage: 37.24 residual: 37.23
mrth: 97.74 cth: 75.29 usage: 82.24 residual: 15.5
mrth: 114.26 cth: 101.89 usage: 93.45 residual: 20.81
mrth: 114.95 cth: 98.53 usage: 89.55 residual: 25.4
mrth: 72.47 cth: 53.24 usage: 59.08 residual: 13.39
mrth: 38.27 cth: 30.1 usage: 23.28 residual: 14.99
mrth: 107.42 cth: 83.92 usage: 99.14 residual: 8.28
mrth: 157.01 cth: 117.08 usage: 143.7 residual: 13.31
mrth: 24.2 cth: 21.04 usage: 20.36 residual: 3.84
mrth: 117.44 cth: 90.31 usage: 73.52 residual: 43.92
mrth: 203.61 cth: 146.88 usage: 138.95 residual: 64.66
mrth: 21.31 cth: 18.37 usage: 17.63 residual: 3.68
mrth: 73.03 cth: 62.8 usage: 45.5 residual: 27.53
mrth: 163.09 cth: 145.71 usage: 103.85 residual: 59.24
mrth: 176.14 cth: 131.87 usage: 111.34 residual: 64.8
mrth: 137.9 cth: 106.6 usage: 118.49 residual: 19.41
mrth: 143.99 cth: 102.87 usage: 123.72 residual: 20.27
mrth: 95.5 cth: 82.81 usage: 86.12 residual: 9.38
mrth: 171.19 cth: 149.97 usage: 126.66 residual: 44.53
mrth: 76.45 cth: 67.61 usage: 45.27 residual: 31.18
mrth: 100.36 cth: 71.01 usage: 66.47 residual: 33.89
mrth: 109.27 cth: 87.36 usage: 63.02 residual: 46.25
mrth: 59.97 cth: 43.68 usage: 34.35 residual: 25.62
mrth: 56.27 cth: 44.19 usage: 40.24 residual: 16.03
mrth: 79.34 cth: 63.92 usage: 79.06 residual: 0.28
mrth: 37.62 cth: 31.13 usage: 23.93 residual: 13.69
mrth: 162.51 cth: 114.67 usage: 101.1 residual: 61.41
mrth: 73.11 cth: 65.23 usage: 64.58 residual: 8.53
mrth: 89.12 cth: 78.56 usage: 82.2 residual: 6.92
mrth: 77.03 cth: 59.57 usage: 52.92 residual: 24.11
mrth: 119.42 cth: 89.63 usage: 73.69 residual: 45.73
mrth: 130.44 cth: 115.76 usage: 118.99 residual: 11.45
mrth: 123.68 cth: 89.63 usage: 69.97 residual: 53.71
mrth: 116.85 cth: 93.51 usage: 98.07 residual: 18.78
mrth: 101.38 cth: 72.84 usage: 87.42 residual: 13.96
mrth: 45.22 cth: 39.69 usage: 26.67 residual: 18.55
mrth: 111.62 cth: 89.23 usage: 79.01 residual: 32.61
mrth: 115.54 cth: 88.74 usage: 101.84 residual: 13.7
mrth: 30.19 cth: 24.98 usage: 25.76 residual: 4.43
mrth: 115.86 cth: 94.3 usage: 67.54 residual: 48.32
mrth: 47.98 cth: 42.57 usage: 44.36 residual: 3.62
mrth: 145.16 cth: 125.52 usage: 84.87 residual: 60.29
mrth: 93.73 cth: 79.84 usage: 82.51 residual: 11.22
mrth: 101.44 cth: 90.04 usage: 86.92 residual: 14.52
mrth: 112.35 cth: 79.19 usage: 71.8 residual: 40.55
mrth: 155.24 cth: 123.84 usage: 135.24 residual: 20.0
mrth: 30.16 cth: 25.19 usage: 22.65 residual: 7.51
mrth: 122.4 cth: 101.23 usage: 83.41 residual: 38.99
mrth: 132.65 cth: 103.02 usage: 99.62 residual: 33.03
mrth: 25.99 cth: 18.22 usage: 14.99 residual: 11.0
mrth: 181.65 cth: 131.64 usage: 115.37 residual: 66.28
mrth: 57.19 cth: 47.01 usage: 35.55 residual: 21.64
mrth: 55.15 cth: 48.7 usage: 53.29 residual: 1.86
mrth: 47.54 cth: 35.8 usage: 45.18 residual: 2.36
mrth: 45.91 cth: 37.26 usage: 40.66 residual: 5.25
mrth: 104.67 cth: 85.57 usage: 57.7 residual: 46.97
mrth: 152.54 cth: 126.36 usage: 118.13 residual: 34.41
mrth: 98.1 cth: 74.77 usage: 62.45 residual: 35.65
mrth: 36.72 cth: 32.29 usage: 21.41 residual: 15.31
mrth: 89.96 cth: 73.85 usage: 82.98 residual: 6.98
mrth: 6.6 cth: 4.95 usage: 6.39 residual: 0.21
mrth: 97.81 cth: 79.62 usage: 75.4 residual: 22.41
mrth: 86.42 cth: 70.35 usage: 82.21 residual: 4.21
mrth: 108.23 cth: 95.61 usage: 81.86 residual: 26.37
mrth: 214.75 cth: 177.52 usage: 135.21 residual: 79.54
mrth: 219.3 cth: 172.22 usage: 163.91 residual: 55.39
mrth: 163.88 cth: 125.68 usage: 102.77 residual: 61.11
mrth: 35.18 cth: 29.39 usage: 26.92 residual: 8.26
mrth: 85.15 cth: 76.05 usage: 85.11 residual: 0.04
mrth: 85.91 cth: 69.88 usage: 69.0 residual: 16.91
mrth: 54.22 cth: 43.38 usage: 35.49 residual: 18.73
mrth: 127.57 cth: 91.73 usage: 86.54 residual: 41.03
mrth: 117.43 cth: 103.84 usage: 98.43 residual: 19.0
mrth: 112.51 cth: 94.18 usage: 61.01 residual: 51.5
mrth: 121.55 cth: 91.76 usage: 65.87 residual: 55.68
mrth: 146.45 cth: 118.88 usage: 109.57 residual: 36.88
mrth: 137.19 cth: 98.91 usage: 113.67 residual: 23.52
mrth: 130.95 cth: 105.48 usage: 94.22 residual: 36.73
mrth: 97.45 cth: 78.54 usage: 68.49 residual: 28.96
mrth: 75.75 cth: 66.03 usage: 45.88 residual: 29.87
mrth: 64.4 cth: 55.82 usage: 54.92 residual: 9.48
mrth: 104.38 cth: 73.47 usage: 71.4 residual: 32.98
mrth: 140.9 cth: 117.71 usage: 138.64 residual: 2.26
mrth: 119.2 cth: 105.96 usage: 71.42 residual: 47.78
mrth: 108.93 cth: 95.85 usage: 95.86 residual: 13.07
mrth: 126.97 cth: 112.54 usage: 122.49 residual: 4.48
mrth: 214.66 cth: 151.64 usage: 187.07 residual: 27.59
mrth: 55.07 cth: 44.64 usage: 52.87 residual: 2.2
mrth: 104.17 cth: 86.69 usage: 95.4 residual: 8.77
mrth: 79.01 cth: 63.9 usage: 43.3 residual: 35.71
mrth: 89.33 cth: 76.2 usage: 88.16 residual: 1.17
mrth: 35.08 cth: 26.06 usage: 33.21 residual: 1.87
mrth: 241.8 cth: 180.11 usage: 222.43 residual: 19.37
mrth: 101.16 cth: 82.6 usage: 89.0 residual: 12.16
mrth: 99.11 cth: 69.72 usage: 94.7 residual: 4.41
mrth: 132.63 cth: 104.71 usage: 70.92 residual: 61.71
mrth: 230.2 cth: 186.1 usage: 205.99 residual: 24.21
mrth: 37.54 cth: 30.0 usage: 23.13 residual: 14.41
mrth: 83.62 cth: 65.12 usage: 48.62 residual: 35.0
mrth: 207.74 cth: 169.59 usage: 207.04 residual: 0.7
mrth: 42.68 cth: 38.17 usage: 39.86 residual: 2.82
mrth: 120.68 cth: 97.2 usage: 84.91 residual: 35.77
mrth: 21.89 cth: 17.26 usage: 13.95 residual: 7.94
mrth: 56.69 cth: 45.54 usage: 50.84 residual: 5.85
mrth: 165.59 cth: 142.32 usage: 125.57 residual: 40.02
mrth: 141.45 cth: 119.73 usage: 116.5 residual: 24.95
mrth: 58.61 cth: 47.81 usage: 48.16 residual: 10.45
mrth: 98.68 cth: 71.93 usage: 70.76 residual: 27.92
mrth: 56.08 cth: 41.94 usage: 36.53 residual: 19.55
mrth: 87.23 cth: 64.13 usage: 58.45 residual: 28.78
mrth: 76.49 cth: 54.62 usage: 65.5 residual: 10.99
mrth: 111.62 cth: 89.93 usage: 92.81 residual: 18.81
mrth: 78.93 cth: 66.55 usage: 43.39 residual: 35.54
mrth: 20.15 cth: 15.69 usage: 11.53 residual: 8.62
mrth: 56.67 cth: 47.99 usage: 49.35 residual: 7.32
mrth: 148.88 cth: 119.7 usage: 115.08 residual: 33.8
mrth: 111.69 cth: 81.81 usage: 83.32 residual: 28.37
mrth: 151.55 cth: 133.94 usage: 143.13 residual: 8.42
mrth: 58.88 cth: 48.38 usage: 34.81 residual: 24.07
mrth: 130.39 cth: 99.96 usage: 115.56 residual: 14.83
mrth: 29.58 cth: 21.41 usage: 25.4 residual: 4.18
mrth: 173.23 cth: 155.86 usage: 90.96 residual: 82.27
mrth: 59.09 cth: 44.16 usage: 33.5 residual: 25.59
mrth: 87.93 cth: 62.28 usage: 57.35 residual: 30.58
mrth: 58.97 cth: 44.58 usage: 39.53 residual: 19.44
mrth: 199.67 cth: 179.5 usage: 180.22 residual: 19.45
mrth: 104.16 cth: 88.96 usage: 100.99 residual: 3.17
mrth: 104.54 cth: 74.73 usage: 93.45 residual: 11.09
mrth: 77.45 cth: 54.99 usage: 59.86 residual: 17.59
mrth: 146.35 cth: 122.87 usage: 90.81 residual: 55.54
mrth: 113.61 cth: 99.62 usage: 59.38 residual: 54.23
mrth: 91.58 cth: 64.24 usage: 77.64 residual: 13.94
mrth: 64.26 cth: 49.78 usage: 49.7 residual: 14.56
mrth: 113.35 cth: 85.2 usage: 109.9 residual: 3.45
mrth: 70.47 cth: 57.08 usage: 47.59 residual: 22.88
mrth: 77.99 cth: 58.91 usage: 41.35 residual: 36.64
mrth: 12.89 cth: 11.07 usage: 8.18 residual: 4.71
mrth: 23.28 cth: 20.77 usage: 12.86 residual: 10.42
mrth: 53.45 cth: 46.77 usage: 37.66 residual: 15.79
mrth: 96.47 cth: 85.87 usage: 58.21 residual: 38.26
mrth: 45.48 cth: 37.93 usage: 30.49 residual: 14.99
mrth: 68.3 cth: 57.85 usage: 36.19 residual: 32.11
mrth: 31.28 cth: 26.71 usage: 27.66 residual: 3.62
mrth: 73.21 cth: 58.96 usage: 61.06 residual: 12.15
mrth: 215.09 cth: 174.81 usage: 176.45 residual: 38.64
mrth: 62.39 cth: 54.6 usage: 60.62 residual: 1.77
mrth: 148.36 cth: 133.16 usage: 104.18 residual: 44.18
mrth: 59.67 cth: 45.67 usage: 32.27 residual: 27.4
mrth: 40.7 cth: 32.57 usage: 33.1 residual: 7.6
mrth: 75.16 cth: 55.78 usage: 65.42 residual: 9.74
mrth: 9.79 cth: 7.95 usage: 8.91 residual: 0.88
mrth: 40.0 cth: 33.18 usage: 22.47 residual: 17.53
mrth: 80.63 cth: 68.31 usage: 43.98 residual: 36.65
mrth: 98.96 cth: 83.21 usage: 68.45 residual: 30.51
mrth: 125.02 cth: 94.04 usage: 75.23 residual: 49.79
mrth: 95.28 cth: 81.5 usage: 91.35 residual: 3.93
mrth: 73.15 cth: 59.52 usage: 63.99 residual: 9.16
mrth: 80.58 cth: 57.42 usage: 69.84 residual: 10.74
mrth: 33.99 cth: 29.98 usage: 17.33 residual: 16.66
mrth: 63.28 cth: 56.78 usage: 33.01 residual: 30.27
mrth: 89.62 cth: 80.5 usage: 46.03 residual: 43.59
mrth: 162.46 cth: 127.43 usage: 153.16 residual: 9.3
mrth: 158.98 cth: 140.22 usage: 144.42 residual: 14.56
mrth: 212.13 cth: 177.19 usage: 192.77 residual: 19.36
mrth: 123.22 cth: 88.0 usage: 102.67 residual: 20.55
mrth: 17.88 cth: 13.72 usage: 16.8 residual: 1.08
mrth: 55.8 cth: 45.93 usage: 53.82 residual: 1.98
mrth: 122.27 cth: 108.43 usage: 80.47 residual: 41.8
mrth: 124.07 cth: 90.35 usage: 85.95 residual: 38.12
mrth: 161.43 cth: 145.02 usage: 130.57 residual: 30.86
mrth: 19.27 cth: 15.8 usage: 16.79 residual: 2.48
mrth: 128.93 cth: 113.58 usage: 119.16 residual: 9.77
mrth: 54.15 cth: 46.45 usage: 44.49 residual: 9.66
mrth: 86.69 cth: 76.81 usage: 79.65 residual: 7.04
mrth: 139.31 cth: 121.3 usage: 84.85 residual: 54.46
mrth: 37.28 cth: 27.32 usage: 18.76 residual: 18.52
mrth: 19.29 cth: 13.73 usage: 12.36 residual: 6.93
mrth: 53.12 cth: 45.34 usage: 48.65 residual: 4.47
mrth: 79.89 cth: 60.29 usage: 62.24 residual: 17.65
mrth: 9.9 cth: 8.47 usage: 6.23 residual: 3.67
mrth: 171.82 cth: 146.46 usage: 101.94 residual: 69.88
mrth: 196.49 cth: 149.6 usage: 108.43 residual: 88.06
mrth: 24.43 cth: 17.48 usage: 13.08 residual: 11.35
mrth: 54.27 cth: 38.01 usage: 38.35 residual: 15.92
mrth: 17.14 cth: 15.35 usage: 16.99 residual: 0.15
mrth: 98.25 cth: 69.45 usage: 94.08 residual: 4.17
mrth: 74.19 cth: 64.17 usage: 63.19 residual: 11.0
mrth: 146.59 cth: 107.73 usage: 131.02 residual: 15.57
mrth: 89.09 cth: 77.07 usage: 45.69 residual: 43.4
mrth: 188.91 cth: 150.88 usage: 139.16 residual: 49.75
mrth: 137.01 cth: 104.19 usage: 91.02 residual: 45.99
mrth: 216.88 cth: 187.95 usage: 173.44 residual: 43.44
mrth: 110.44 cth: 87.43 usage: 109.36 residual: 1.08
mrth: 75.85 cth: 62.04 usage: 57.17 residual: 18.68
mrth: 117.36 cth: 102.96 usage: 63.24 residual: 54.12
mrth: 85.3 cth: 68.16 usage: 49.56 residual: 35.74
mrth: 49.73 cth: 37.52 usage: 37.52 residual: 12.21
mrth: 200.96 cth: 154.42 usage: 191.04 residual: 9.92
mrth: 112.73 cth: 90.83 usage: 96.37 residual: 16.36
mrth: 70.69 cth: 61.51 usage: 52.32 residual: 18.37
mrth: 49.45 cth: 44.02 usage: 28.19 residual: 21.26
mrth: 79.04 cth: 61.21 usage: 42.72 residual: 36.32
mrth: 92.87 cth: 77.38 usage: 63.45 residual: 29.42
mrth: 104.05 cth: 85.24 usage: 56.12 residual: 47.93
mrth: 140.06 cth: 115.16 usage: 134.42 residual: 5.64
mrth: 166.84 cth: 129.63 usage: 115.5 residual: 51.34
mrth: 40.71 cth: 32.83 usage: 20.76 residual: 19.95
mrth: 166.66 cth: 124.57 usage: 141.34 residual: 25.32
mrth: 87.75 cth: 66.04 usage: 70.33 residual: 17.42
mrth: 124.91 cth: 106.39 usage: 84.7 residual: 40.21
mrth: 17.14 cth: 13.02 usage: 14.32 residual: 2.82
mrth: 38.53 cth: 32.16 usage: 26.7 residual: 11.83
mrth: 111.17 cth: 98.4 usage: 105.28 residual: 5.89
mrth: 75.9 cth: 66.39 usage: 67.83 residual: 8.07
mrth: 93.03 cth: 70.29 usage: 90.71 residual: 2.32
mrth: 121.09 cth: 107.49 usage: 75.37 residual: 45.72
mrth: 92.88 cth: 70.22 usage: 52.92 residual: 39.96
mrth: 101.83 cth: 75.35 usage: 94.52 residual: 7.31
mrth: 35.34 cth: 30.65 usage: 27.43 residual: 7.91
mrth: 115.02 cth: 80.59 usage: 92.1 residual: 22.92
mrth: 154.76 cth: 119.16 usage: 136.43 residual: 18.33
mrth: 42.62 cth: 36.77 usage: 25.39 residual: 17.23
mrth: 98.37 cth: 85.32 usage: 76.19 residual: 22.18
mrth: 139.6 cth: 103.58 usage: 83.08 residual: 56.52
mrth: 147.12 cth: 114.06 usage: 121.17 residual: 25.95
mrth: 108.72 cth: 86.88 usage: 59.94 residual: 48.78
mrth: 256.91 cth: 193.17 usage: 244.33 residual: 12.58
mrth: 73.15 cth: 59.34 usage: 43.51 residual: 29.64
mrth: 141.51 cth: 125.58 usage: 113.91 residual: 27.6
mrth: 136.8 cth: 117.64 usage: 104.58 residual: 32.22
mrth: 26.88 cth: 20.18 usage: 16.61 residual: 10.27
mrth: 57.01 cth: 44.17 usage: 35.34 residual: 21.67
mrth: 61.68 cth: 52.25 usage: 36.48 residual: 25.2
mrth: 66.08 cth: 55.41 usage: 64.75 residual: 1.33
mrth: 63.44 cth: 49.99 usage: 59.6 residual: 3.84
mrth: 70.64 cth: 52.83 usage: 59.61 residual: 11.03
mrth: 106.22 cth: 80.17 usage: 103.74 residual: 2.48
mrth: 14.95 cth: 12.45 usage: 9.16 residual: 5.79
mrth: 77.47 cth: 63.19 usage: 59.78 residual: 17.69
mrth: 61.65 cth: 45.14 usage: 49.29 residual: 12.36
mrth: 85.55 cth: 69.44 usage: 74.36 residual: 11.19
mrth: 120.23 cth: 90.85 usage: 118.1 residual: 2.13
mrth: 124.17 cth: 89.01 usage: 65.6 residual: 58.57
mrth: 160.57 cth: 140.64 usage: 83.84 residual: 76.73
mrth: 41.44 cth: 35.39 usage: 31.92 residual: 9.52
mrth: 42.36 cth: 33.28 usage: 39.06 residual: 3.3
mrth: 69.15 cth: 54.39 usage: 55.71 residual: 13.44
mrth: 32.45 cth: 27.78 usage: 24.41 residual: 8.04
mrth: 23.31 cth: 20.29 usage: 18.36 residual: 4.95
mrth: 118.23 cth: 87.55 usage: 95.95 residual: 22.28
mrth: 162.83 cth: 120.5 usage: 121.55 residual: 41.28
mrth: 107.3 cth: 95.34 usage: 89.36 residual: 17.94
mrth: 57.08 cth: 49.17 usage: 36.93 residual: 20.15
mrth: 84.42 cth: 73.33 usage: 75.82 residual: 8.6
mrth: 196.92 cth: 140.51 usage: 158.82 residual: 38.1
mrth: 55.93 cth: 49.07 usage: 51.83 residual: 4.1
mrth: 63.13 cth: 51.7 usage: 46.84 residual: 16.29
mrth: 80.15 cth: 57.28 usage: 75.48 residual: 4.67
mrth: 67.44 cth: 56.04 usage: 52.06 residual: 15.38
mrth: 54.72 cth: 48.53 usage: 45.95 residual: 8.77
mrth: 55.93 cth: 47.64 usage: 39.0 residual: 16.93
mrth: 30.75 cth: 24.2 usage: 25.7 residual: 5.05
mrth: 104.91 cth: 78.34 usage: 67.99 residual: 36.92
mrth: 64.75 cth: 48.93 usage: 40.1 residual: 24.65
mrth: 14.6 cth: 12.78 usage: 9.47 residual: 5.13
mrth: 36.81 cth: 31.9 usage: 31.05 residual: 5.76
mrth: 86.14 cth: 73.74 usage: 67.56 residual: 18.58
mrth: 116.23 cth: 90.83 usage: 106.44 residual: 9.79
mrth: 52.8 cth: 40.24 usage: 46.93 residual: 5.87
mrth: 32.45 cth: 23.56 usage: 25.85 residual: 6.6
mrth: 64.28 cth: 52.24 usage: 37.21 residual: 27.07
mrth: 104.19 cth: 82.6 usage: 65.28 residual: 38.91
mrth: 156.76 cth: 118.53 usage: 143.7 residual: 13.06
mrth: 103.49 cth: 84.71 usage: 96.11 residual: 7.38
mrth: 78.27 cth: 61.51 usage: 40.68 residual: 37.59
mrth: 85.0 cth: 59.57 usage: 50.86 residual: 34.14
mrth: 145.6 cth: 113.46 usage: 96.63 residual: 48.97
mrth: 132.0 cth: 115.26 usage: 112.14 residual: 19.86
mrth: 69.97 cth: 58.49 usage: 61.53 residual: 8.44
mrth: 59.94 cth: 53.48 usage: 38.5 residual: 21.44
mrth: 232.68 cth: 193.82 usage: 195.27 residual: 37.41
mrth: 93.63 cth: 71.41 usage: 63.82 residual: 29.81
mrth: 136.62 cth: 114.43 usage: 91.43 residual: 45.19
mrth: 48.19 cth: 42.99 usage: 38.59 residual: 9.6
mrth: 113.23 cth: 84.42 usage: 56.95 residual: 56.28
mrth: 127.47 cth: 95.09 usage: 78.42 residual: 49.05
mrth: 73.66 cth: 60.6 usage: 53.59 residual: 20.07
mrth: 137.04 cth: 98.46 usage: 114.45 residual: 22.59
mrth: 62.2 cth: 47.3 usage: 36.64 residual: 25.56
mrth: 197.73 cth: 150.38 usage: 168.99 residual: 28.74
mrth: 36.14 cth: 30.29 usage: 24.18 residual: 11.96
mrth: 131.04 cth: 97.48 usage: 126.82 residual: 4.22
mrth: 83.46 cth: 65.12 usage: 68.83 residual: 14.63
mrth: 7.08 cth: 5.73 usage: 6.76 residual: 0.32
mrth: 141.4 cth: 119.56 usage: 110.06 residual: 31.34
mrth: 185.57 cth: 141.59 usage: 107.54 residual: 78.03
mrth: 164.88 cth: 131.66 usage: 123.63 residual: 41.25
mrth: 4.61 cth: 3.28 usage: 4.54 residual: 0.07
mrth: 203.63 cth: 155.68 usage: 128.42 residual: 75.21
mrth: 132.45 cth: 111.61 usage: 89.75 residual: 42.7
mrth: 50.11 cth: 36.42 usage: 40.25 residual: 9.86
mrth: 108.9 cth: 85.04 usage: 78.73 residual: 30.17
mrth: 153.9 cth: 113.16 usage: 149.75 residual: 4.15
mrth: 99.4 cth: 70.98 usage: 79.31 residual: 20.09
mrth: 151.91 cth: 127.31 usage: 100.98 residual: 50.93
mrth: 12.41 cth: 9.68 usage: 10.8 residual: 1.61
mrth: 36.83 cth: 28.6 usage: 28.11 residual: 8.72
mrth: 33.92 cth: 28.7 usage: 17.99 residual: 15.93
mrth: 42.57 cth: 37.73 usage: 23.05 residual: 19.52
mrth: 32.41 cth: 25.45 usage: 32.13 residual: 0.28
mrth: 63.77 cth: 56.22 usage: 50.62 residual: 13.15
mrth: 99.6 cth: 76.73 usage: 62.41 residual: 37.19
mrth: 59.75 cth: 49.87 usage: 48.25 residual: 11.5
mrth: 17.37 cth: 14.71 usage: 13.39 residual: 3.98
mrth: 126.49 cth: 110.43 usage: 125.38 residual: 1.11
mrth: 132.44 cth: 116.9 usage: 96.32 residual: 36.12
mrth: 73.83 cth: 54.82 usage: 48.17 residual: 25.66
mrth: 175.52 cth: 135.04 usage: 150.86 residual: 24.66
mrth: 93.66 cth: 67.04 usage: 50.3 residual: 43.36
mrth: 62.42 cth: 50.94 usage: 36.62 residual: 25.8
mrth: 53.48 cth: 45.94 usage: 52.63 residual: 0.85
mrth: 156.98 cth: 126.45 usage: 147.95 residual: 9.03
mrth: 49.36 cth: 42.3 usage: 32.07 residual: 17.29
mrth: 74.3 cth: 56.61 usage: 48.35 residual: 25.95
mrth: 136.36 cth: 122.71 usage: 100.44 residual: 35.92
mrth: 95.4 cth: 69.45 usage: 85.02 residual: 10.38
mrth: 122.79 cth: 92.76 usage: 62.29 residual: 60.5
mrth: 19.69 cth: 14.06 usage: 12.38 residual: 7.31
mrth: 70.51 cth: 60.71 usage: 51.89 residual: 18.62
mrth: 68.78 cth: 60.04 usage: 64.77 residual: 4.01
mrth: 29.8 cth: 25.86 usage: 18.26 residual: 11.54
mrth: 98.59 cth: 78.44 usage: 50.28 residual: 48.31
mrth: 43.53 cth: 38.73 usage: 34.1 residual: 9.43
mrth: 145.83 cth: 108.03 usage: 126.48 residual: 19.35
mrth: 129.09 cth: 100.54 usage: 112.63 residual: 16.46
mrth: 114.56 cth: 87.14 usage: 61.92 residual: 52.64
mrth: 196.3 cth: 161.24 usage: 182.01 residual: 14.29
mrth: 105.81 cth: 80.1 usage: 64.92 residual: 40.89
mrth: 125.02 cth: 98.14 usage: 120.61 residual: 4.41
mrth: 107.25 cth: 86.04 usage: 58.4 residual: 48.85
mrth: 69.61 cth: 49.16 usage: 37.16 residual: 32.45
mrth: 26.13 cth: 19.89 usage: 24.95 residual: 1.18
mrth: 63.1 cth: 52.84 usage: 50.43 residual: 12.67
mrth: 63.24 cth: 53.25 usage: 57.21 residual: 6.03
mrth: 18.28 cth: 15.52 usage: 9.43 residual: 8.85
mrth: 164.39 cth: 146.99 usage: 155.64 residual: 8.75
mrth: 104.75 cth: 81.06 usage: 73.28 residual: 31.47
mrth: 79.45 cth: 59.86 usage: 74.2 residual: 5.25
mrth: 133.11 cth: 114.8 usage: 122.45 residual: 10.66
mrth: 160.61 cth: 143.65 usage: 153.57 residual: 7.04
mrth: 89.06 cth: 74.96 usage: 58.42 residual: 30.64
mrth: 96.78 cth: 69.7 usage: 64.68 residual: 32.1
mrth: 96.94 cth: 79.26 usage: 82.57 residual: 14.37
mrth: 50.77 cth: 42.42 usage: 25.57 residual: 25.2
mrth: 109.89 cth: 79.93 usage: 77.22 residual: 32.67
mrth: 113.93 cth: 86.9 usage: 72.76 residual: 41.17
mrth: 79.37 cth: 69.81 usage: 63.33 residual: 16.04
mrth: 100.6 cth: 85.19 usage: 96.6 residual: 4.0
mrth: 38.87 cth: 33.88 usage: 28.46 residual: 10.41
mrth: 59.06 cth: 51.42 usage: 31.94 residual: 27.12
mrth: 39.56 cth: 32.45 usage: 24.18 residual: 15.38
mrth: 110.12 cth: 78.42 usage: 85.81 residual: 24.31
mrth: 116.25 cth: 103.78 usage: 88.85 residual: 27.4
mrth: 129.54 cth: 116.58 usage: 115.6 residual: 13.94
mrth: 135.34 cth: 110.63 usage: 82.52 residual: 52.82
mrth: 68.76 cth: 51.65 usage: 58.33 residual: 10.43
mrth: 77.34 cth: 57.88 usage: 76.65 residual: 0.69
mrth: 54.92 cth: 42.0 usage: 33.16 residual: 21.76
mrth: 113.27 cth: 86.74 usage: 111.28 residual: 1.99
mrth: 69.76 cth: 56.28 usage: 56.28 residual: 13.48
mrth: 29.88 cth: 22.85 usage: 20.02 residual: 9.86
mrth: 108.6 cth: 94.01 usage: 92.57 residual: 16.03
mrth: 45.32 cth: 38.68 usage: 44.41 residual: 0.91
mrth: 42.52 cth: 38.12 usage: 21.9 residual: 20.62
mrth: 16.64 cth: 12.41 usage: 8.43 residual: 8.21
mrth: 113.55 cth: 102.08 usage: 92.53 residual: 21.02
mrth: 61.09 cth: 45.41 usage: 46.31 residual: 14.78
mrth: 87.95 cth: 65.3 usage: 71.1 residual: 16.85
mrth: 95.21 cth: 76.24 usage: 58.07 residual: 37.14
mrth: 128.71 cth: 104.17 usage: 82.12 residual: 46.59
mrth: 203.75 cth: 163.35 usage: 169.66 residual: 34.09
mrth: 21.81 cth: 18.04 usage: 12.23 residual: 9.58
mrth: 186.04 cth: 148.35 usage: 127.03 residual: 59.01
mrth: 57.26 cth: 48.47 usage: 37.42 residual: 19.84
mrth: 100.49 cth: 78.11 usage: 77.14 residual: 23.35
mrth: 96.93 cth: 85.2 usage: 52.69 residual: 44.24
mrth: 97.96 cth: 69.98 usage: 94.11 residual: 3.85
mrth: 83.21 cth: 62.17 usage: 56.16 residual: 27.05
mrth: 204.16 cth: 175.07 usage: 152.25 residual: 51.91
mrth: 63.77 cth: 50.52 usage: 37.87 residual: 25.9
mrth: 76.59 cth: 68.01 usage: 49.95 residual: 26.64
mrth: 120.96 cth: 94.16 usage: 97.96 residual: 23.0
mrth: 103.38 cth: 82.8 usage: 84.19 residual: 19.19
mrth: 110.99 cth: 81.92 usage: 66.38 residual: 44.61
mrth: 47.33 cth: 38.73 usage: 44.39 residual: 2.94
mrth: 112.53 cth: 79.91 usage: 93.7 residual: 18.83
mrth: 182.84 cth: 136.59 usage: 179.05 residual: 3.79
mrth: 222.43 cth: 176.85 usage: 153.32 residual: 69.11
mrth: 140.79 cth: 100.53 usage: 84.08 residual: 56.71
mrth: 94.81 cth: 69.53 usage: 65.75 residual: 29.06
mrth: 41.02 cth: 33.06 usage: 20.82 residual: 20.2
mrth: 133.53 cth: 118.76 usage: 126.39 residual: 7.14
mrth: 105.09 cth: 90.43 usage: 86.5 residual: 18.59
mrth: 72.88 cth: 59.32 usage: 45.09 residual: 27.79
mrth: 172.36 cth: 152.05 usage: 131.99 residual: 40.37
mrth: 108.43 cth: 84.22 usage: 94.76 residual: 13.67
mrth: 135.96 cth: 116.62 usage: 105.37 residual: 30.59
mrth: 123.58 cth: 111.17 usage: 91.86 residual: 31.72
mrth: 93.27 cth: 77.43 usage: 52.41 residual: 40.86
mrth: 124.41 cth: 97.21 usage: 113.63 residual: 10.78
mrth: 90.49 cth: 74.43 usage: 46.47 residual: 44.02
mrth: 126.17 cth: 98.22 usage: 116.19 residual: 9.98
mrth: 103.7 cth: 75.85 usage: 90.94 residual: 12.76
mrth: 18.9 cth: 15.73 usage: 16.46 residual: 2.44
mrth: 131.62 cth: 95.91 usage: 108.05 residual: 23.57
mrth: 98.43 cth: 78.05 usage: 68.1 residual: 30.33
mrth: 100.33 cth: 86.68 usage: 91.25 residual: 9.08
mrth: 101.24 cth: 75.74 usage: 84.74 residual: 16.5
mrth: 70.73 cth: 51.13 usage: 57.11 residual: 13.62
mrth: 122.78 cth: 88.82 usage: 68.84 residual: 53.94
mrth: 102.76 cth: 77.29 usage: 78.2 residual: 24.56
mrth: 137.49 cth: 116.77 usage: 90.18 residual: 47.31
mrth: 54.95 cth: 42.11 usage: 36.66 residual: 18.29
mrth: 41.4 cth: 32.03 usage: 34.27 residual: 7.13
mrth: 63.03 cth: 51.65 usage: 47.72 residual: 15.31
mrth: 157.75 cth: 141.82 usage: 101.2 residual: 56.55
mrth: 113.37 cth: 90.31 usage: 79.26 residual: 34.11
mrth: 65.92 cth: 47.31 usage: 52.1 residual: 13.82
mrth: 6.68 cth: 5.51 usage: 6.11 residual: 0.57
mrth: 67.43 cth: 53.48 usage: 50.09 residual: 17.34
mrth: 0.94 cth: 0.84 usage: 0.7 residual: 0.24
mrth: 225.09 cth: 192.45 usage: 134.37 residual: 90.72
mrth: 74.36 cth: 62.97 usage: 66.19 residual: 8.17
mrth: 93.34 cth: 81.66 usage: 84.9 residual: 8.44
mrth: 96.21 cth: 75.01 usage: 78.68 residual: 17.53
mrth: 22.11 cth: 19.55 usage: 13.1 residual: 9.01
mrth: 108.4 cth: 92.72 usage: 60.89 residual: 47.51
mrth: 73.75 cth: 62.72 usage: 46.23 residual: 27.52
mrth: 57.38 cth: 49.55 usage: 31.47 residual: 25.91
mrth: 49.82 cth: 35.61 usage: 48.38 residual: 1.44
mrth: 65.27 cth: 48.31 usage: 44.64 residual: 20.63
mrth: 23.6 cth: 18.06 usage: 23.01 residual: 0.59
mrth: 84.06 cth: 65.16 usage: 48.67 residual: 35.39
mrth: 33.14 cth: 25.77 usage: 22.03 residual: 11.11
mrth: 73.41 cth: 56.19 usage: 65.71 residual: 7.7
mrth: 33.61 cth: 30.1 usage: 27.35 residual: 6.26
mrth: 56.1 cth: 44.73 usage: 37.29 residual: 18.81
mrth: 84.77 cth: 70.02 usage: 78.42 residual: 6.35
mrth: 77.83 cth: 65.55 usage: 66.37 residual: 11.46
mrth: 78.36 cth: 68.9 usage: 76.86 residual: 1.5
mrth: 53.4 cth: 46.47 usage: 48.53 residual: 4.87
mrth: 133.91 cth: 99.3 usage: 75.63 residual: 58.28
mrth: 73.5 cth: 57.71 usage: 56.31 residual: 17.19
mrth: 56.68 cth: 47.67 usage: 43.14 residual: 13.54
mrth: 81.6 cth: 58.95 usage: 47.02 residual: 34.58
mrth: 131.86 cth: 117.41 usage: 130.06 residual: 1.8
mrth: 197.78 cth: 139.47 usage: 155.37 residual: 42.41
mrth: 164.3 cth: 144.26 usage: 124.96 residual: 39.34
mrth: 88.24 cth: 77.91 usage: 49.33 residual: 38.91
mrth: 30.45 cth: 22.31 usage: 20.29 residual: 10.16
mrth: 50.56 cth: 43.37 usage: 42.37 residual: 8.19
mrth: 90.33 cth: 67.34 usage: 51.3 residual: 39.03
mrth: 63.67 cth: 49.56 usage: 59.03 residual: 4.64
mrth: 123.77 cth: 98.82 usage: 64.53 residual: 59.24
mrth: 110.55 cth: 78.41 usage: 74.1 residual: 36.45
mrth: 75.07 cth: 57.32 usage: 47.37 residual: 27.7
mrth: 77.87 cth: 60.76 usage: 47.93 residual: 29.94
mrth: 127.57 cth: 107.19 usage: 92.27 residual: 35.3
mrth: 156.92 cth: 136.76 usage: 122.87 residual: 34.05
mrth: 120.13 cth: 84.46 usage: 117.63 residual: 2.5
mrth: 34.47 cth: 25.38 usage: 28.24 residual: 6.23
mrth: 199.45 cth: 154.56 usage: 111.25 residual: 88.2
mrth: 157.78 cth: 128.44 usage: 92.84 residual: 64.94
mrth: 103.04 cth: 76.87 usage: 88.15 residual: 14.89
mrth: 31.57 cth: 26.97 usage: 25.18 residual: 6.39
mrth: 103.75 cth: 84.19 usage: 77.77 residual: 25.98
mrth: 263.47 cth: 216.4 usage: 152.49 residual: 110.98
mrth: 99.17 cth: 86.71 usage: 94.9 residual: 4.27
mrth: 95.77 cth: 72.34 usage: 85.11 residual: 10.66
mrth: 75.45 cth: 54.39 usage: 68.93 residual: 6.52
mrth: 61.55 cth: 49.2 usage: 55.27 residual: 6.28
mrth: 65.79 cth: 51.57 usage: 59.94 residual: 5.85
mrth: 97.79 cth: 87.0 usage: 71.92 residual: 25.87
mrth: 66.1 cth: 55.36 usage: 64.35 residual: 1.75
mrth: 76.76 cth: 64.65 usage: 62.24 residual: 14.52
mrth: 128.91 cth: 95.1 usage: 123.35 residual: 5.56
mrth: 81.04 cth: 66.4 usage: 60.79 residual: 20.25
mrth: 111.78 cth: 85.53 usage: 58.27 residual: 53.51
mrth: 107.16 cth: 80.45 usage: 69.66 residual: 37.5
mrth: 36.76 cth: 32.61 usage: 25.74 residual: 11.02
mrth: 66.93 cth: 60.03 usage: 42.55 residual: 24.38
mrth: 193.78 cth: 141.47 usage: 187.32 residual: 6.46
mrth: 45.41 cth: 37.36 usage: 31.26 residual: 14.15
mrth: 95.58 cth: 82.59 usage: 67.36 residual: 28.22
mrth: 181.2 cth: 131.2 usage: 111.24 residual: 69.96
mrth: 72.21 cth: 52.54 usage: 56.43 residual: 15.78
mrth: 218.4 cth: 186.06 usage: 194.56 residual: 23.84
mrth: 144.19 cth: 125.82 usage: 139.33 residual: 4.86
mrth: 105.03 cth: 74.44 usage: 76.25 residual: 28.78
mrth: 96.36 cth: 82.86 usage: 63.53 residual: 32.83
mrth: 69.75 cth: 54.2 usage: 46.73 residual: 23.02
mrth: 82.09 cth: 62.06 usage: 44.55 residual: 37.54
mrth: 70.42 cth: 60.6 usage: 36.6 residual: 33.82
mrth: 149.75 cth: 113.65 usage: 137.44 residual: 12.31
mrth: 33.42 cth: 27.89 usage: 25.91 residual: 7.51
mrth: 152.33 cth: 112.73 usage: 134.01 residual: 18.32
mrth: 141.05 cth: 104.6 usage: 79.17 residual: 61.88
mrth: 86.04 cth: 67.68 usage: 64.52 residual: 21.52
mrth: 18.49 cth: 15.46 usage: 12.45 residual: 6.04
mrth: 195.18 cth: 138.31 usage: 154.97 residual: 40.21
mrth: 86.9 cth: 76.52 usage: 58.61 residual: 28.29
mrth: 36.62 cth: 27.16 usage: 32.34 residual: 4.28
mrth: 99.44 cth: 77.13 usage: 89.95 residual: 9.49
mrth: 197.5 cth: 166.84 usage: 177.38 residual: 20.12
mrth: 134.59 cth: 119.55 usage: 70.93 residual: 63.66
mrth: 91.3 cth: 65.77 usage: 83.04 residual: 8.26
mrth: 37.94 cth: 33.49 usage: 34.91 residual: 3.03
mrth: 131.34 cth: 97.01 usage: 81.61 residual: 49.73
mrth: 121.09 cth: 107.59 usage: 72.44 residual: 48.65
mrth: 45.27 cth: 32.59 usage: 39.93 residual: 5.34
mrth: 58.02 cth: 44.78 usage: 46.3 residual: 11.72
mrth: 20.61 cth: 18.45 usage: 14.0 residual: 6.61
mrth: 81.07 cth: 59.31 usage: 50.05 residual: 31.02
mrth: 72.84 cth: 61.29 usage: 36.43 residual: 36.41
mrth: 43.36 cth: 34.38 usage: 39.56 residual: 3.8
mrth: 127.12 cth: 111.64 usage: 121.4 residual: 5.72
mrth: 62.5 cth: 55.39 usage: 53.94 residual: 8.56
mrth: 65.42 cth: 49.57 usage: 48.34 residual: 17.08
mrth: 41.25 cth: 34.48 usage: 39.89 residual: 1.36
mrth: 19.45 cth: 16.91 usage: 10.94 residual: 8.51
mrth: 94.72 cth: 76.87 usage: 88.52 residual: 6.2
mrth: 108.75 cth: 78.69 usage: 74.04 residual: 34.71
mrth: 173.31 cth: 149.68 usage: 137.94 residual: 35.37
mrth: 89.84 cth: 65.32 usage: 69.93 residual: 19.91
mrth: 36.4 cth: 26.83 usage: 23.39 residual: 13.01
mrth: 37.25 cth: 31.25 usage: 27.95 residual: 9.3
mrth: 110.38 cth: 98.82 usage: 102.05 residual: 8.33
mrth: 59.93 cth: 50.54 usage: 49.6 residual: 10.33
mrth: 131.3 cth: 97.61 usage: 86.43 residual: 44.87
mrth: 28.16 cth: 24.73 usage: 17.69 residual: 10.47
mrth: 69.31 cth: 56.66 usage: 40.04 residual: 29.27
mrth: 89.26 cth: 76.32 usage: 57.98 residual: 31.28
mrth: 108.85 cth: 88.61 usage: 98.32 residual: 10.53
mrth: 89.6 cth: 70.2 usage: 87.29 residual: 2.31
mrth: 166.41 cth: 124.72 usage: 111.8 residual: 54.61
mrth: 47.09 cth: 37.96 usage: 33.84 residual: 13.25
mrth: 110.43 cth: 99.02 usage: 61.6 residual: 48.83
mrth: 71.41 cth: 53.4 usage: 55.17 residual: 16.24
mrth: 65.6 cth: 54.3 usage: 54.51 residual: 11.09
mrth: 128.69 cth: 115.66 usage: 65.99 residual: 62.7
mrth: 53.85 cth: 43.05 usage: 38.56 residual: 15.29
mrth: 25.36 cth: 19.27 usage: 15.0 residual: 10.36
mrth: 142.74 cth: 123.96 usage: 74.2 residual: 68.54
mrth: 109.5 cth: 87.08 usage: 56.11 residual: 53.39
mrth: 130.78 cth: 107.93 usage: 95.31 residual: 35.47
mrth: 86.51 cth: 66.99 usage: 58.62 residual: 27.89
mrth: 108.6 cth: 81.9 usage: 77.7 residual: 30.9
mrth: 150.92 cth: 114.65 usage: 148.46 residual: 2.46
mrth: 140.9 cth: 110.49 usage: 136.18 residual: 4.72
mrth: 27.34 cth: 20.45 usage: 17.98 residual: 9.36
mrth: 33.88 cth: 25.91 usage: 31.82 residual: 2.06
mrth: 120.13 cth: 88.68 usage: 65.97 residual: 54.16
mrth: 42.13 cth: 31.92 usage: 31.34 residual: 10.79
mrth: 149.77 cth: 117.32 usage: 125.72 residual: 24.05
mrth: 49.67 cth: 44.21 usage: 27.54 residual: 22.13
mrth: 36.49 cth: 32.17 usage: 27.38 residual: 9.11
mrth: 71.11 cth: 51.67 usage: 50.67 residual: 20.44
mrth: 120.89 cth: 104.73 usage: 119.11 residual: 1.78
mrth: 53.65 cth: 44.91 usage: 39.67 residual: 13.98
mrth: 174.49 cth: 137.94 usage: 157.68 residual: 16.81
mrth: 37.4 cth: 27.92 usage: 33.08 residual: 4.32
mrth: 76.31 cth: 62.34 usage: 62.6 residual: 13.71
mrth: 152.89 cth: 117.37 usage: 81.5 residual: 71.39
mrth: 210.08 cth: 163.18 usage: 120.0 residual: 90.08
mrth: 34.66 cth: 28.44 usage: 21.47 residual: 13.19
mrth: 109.92 cth: 93.16 usage: 98.5 residual: 11.42
mrth: 118.19 cth: 104.31 usage: 99.51 residual: 18.68
mrth: 87.72 cth: 75.57 usage: 53.01 residual: 34.71
mrth: 77.0 cth: 59.05 usage: 46.38 residual: 30.62
mrth: 60.13 cth: 42.63 usage: 53.08 residual: 7.05
mrth: 122.88 cth: 106.74 usage: 62.37 residual: 60.51
mrth: 152.05 cth: 106.74 usage: 116.91 residual: 35.14
mrth: 173.7 cth: 151.8 usage: 90.95 residual: 82.75
mrth: 96.87 cth: 69.66 usage: 77.67 residual: 19.2
mrth: 49.38 cth: 36.51 usage: 44.82 residual: 4.56
mrth: 183.5 cth: 144.78 usage: 174.51 residual: 8.99
mrth: 46.45 cth: 36.77 usage: 34.04 residual: 12.41
mrth: 179.55 cth: 154.16 usage: 93.54 residual: 86.01
mrth: 173.53 cth: 136.12 usage: 123.73 residual: 49.8
