mrth: 85.77 cth: 72.54 usage: 60.85 residual: 24.92
mrth: 229.57 cth: 164.17 usage: 148.73 residual: 80.84
mrth: 60.2 cth: 49.27 usage: 52.68 residual: 7.52
mrth: 89.34 cth: 72.61 usage: 53.72 residual: 35.62
mrth: 84.35 cth: 61.9 usage: 81.62 residual: 2.73
mrth: 69.38 cth: 50.4 usage: 68.36 residual: 1.02
mrth: 4.9 cth: 3.78 usage: 4.78 residual: 0.12
mrth: 153.74 cth: 114.16 usage: 99.11 residual: 54.63
mrth: 162.17 cth: 137.46 usage: 106.82 residual: 55.35
mrth: 117.91 cth: 94.53 usage: 110.54 residual: 7.37
mrth: 97.4 cth: 79.74 usage: 60.62 residual: 36.78
mrth: 127.72 cth: 99.58 usage: 83.41 residual: 44.31
mrth: 89.5 cth: 77.81 usage: 86.27 residual: 3.23
mrth: 55.96 cth: 41.77 usage: 29.94 residual: 26.02
mrth: 236.72 cth: 184.8 usage: 137.8 residual: 98.92
mrth: 116.67 cth: 85.68 usage: 81.56 residual: 35.11
mrth: 70.53 cth: 53.3 usage: 57.2 residual: 13.33
mrth: 156.7 cth: 123.56 usage: 154.77 residual: 1.93
mrth: 139.1 cth: 100.94 usage: 123.24 residual: 15.86
mrth: 149.22 cth: 131.4 usage: 108.38 residual: 40.84
mrth: 84.43 cth: 71.75 usage: 49.87 residual: 34.56
mrth: 185.02 cth: 136.76 usage: 112.52 residual: 72.5
mrth: 179.46 cth: 151.55 usage: 123.41 residual: 56.05
mrth: 150.89 cth: 120.17 usage: 144.49 residual: 6.4
mrth: 41.49 cth: 31.32 usage: 36.53 residual: 4.96
mrth: 36.75 cth: 30.04 usage: 34.15 residual: 2.6
mrth: 72.71 cth: 57.5 usage: 36.37 residual: 36.34
mrth: 11.26 cth: 8.51 usage: 8.55 residual: 2.71
mrth: 97.6 cth: 80.62 usage: 52.41 residual: 45.19
mrth: 125.03 cth: 103.58 usage: 91.22 residual: 33.81
mrth: 180.85 cth: 130.56 usage: 167.31 residual: 13.54
mrth: 169.77 cth: 152.63 usage: 143.59 residual: 26.18
mrth: 27.62 cth: 24.55 usage: 15.34 residual: 12.28
mrth: 154.22 cth: 134.61 usage: 116.22 residual: 38.0
mrth: 3.58 cth: 2.7 usage: 2.12 residual: 1.46
mrth: 23.4 cth: 17.34 usage: 20.63 residual: 2.77
mrth: 168.33 cth: 138.04 usage: 89.33 residual: 79.0
mrth: 25.66 cth: 18.82 usage: 14.76 residual: 10.9
mrth: 86.49 cth: 74.19 usage: 50.64 residual: 35.85
mrth: 70.07 cth: 50.47 usage: 53.03 residual: 17.04
mrth: 211.73 cth: 189.72 usage: 169.2 residual: 42.53
mrth: 92.5 cth: 75.25 usage: 85.47 residual: 7.03
mrth: 167.0 cth: 124.79 usage: 145.02 residual: 21.98
mrth: 98.94 cth: 82.12 usage: 97.83 residual: 1.11
mrth: 76.55 cth: 62.38 usage: 60.28 residual: 16.27
mrth: 102.17 cth: 75.1 usage: 86.72 residual: 15.45
mrth: 171.03 cth: 122.89 usage: 110.53 residual: 60.5
mrth: 137.64 cth: 109.65 usage: 72.46 residual: 65.18
mrth: 76.05 cth: 62.55 usage: 74.43 residual: 1.62
mrth: 131.06 cth: 112.77 usage: 101.21 residual: 29.85
mrth: 137.45 cth: 120.52 usage: 113.62 residual: 23.83
mrth: 58.78 cth: 48.83 usage: 36.52 residual: 22.26
mrth: 81.36 cth: 59.4 usage: 74.21 residual: 7.15
mrth: 86.02 cth: 70.16 usage: 45.3 residual: 40.72
mrth: 134.11 cth: 99.95 usage: 88.56 residual: 45.55
mrth: 115.3 cth: 103.74 usage: 96.56 residual: 18.74
mrth: 51.69 cth: 44.05 usage: 26.06 residual: 25.63
mrth: 36.45 cth: 31.43 usage: 26.94 residual: 9.51
mrth: 56.3 cth: 48.05 usage: 44.33 residual: 11.97
mrth: 127.62 cth: 106.24 usage: 114.21 residual: 13.41
mrth: 128.68 cth: 105.47 usage: 83.61 residual: 45.07
mrth: 118.16 cth: 95.13 usage: 80.77 residual: 37.39
mrth: 187.62 cth: 147.52 usage: 98.24 residual: 89.38
mrth: 23.09 cth: 18.02 usage: 15.78 residual: 7.31
mrth: 81.46 cth: 60.45 usage: 55.13 residual: 26.33
mrth: 143.63 cth: 125.75 usage: 101.66 residual: 41.97
mrth: 63.27 cth: 45.77 usage: 55.27 residual: 8.0
mrth: 120.22 cth: 84.96 usage: 113.88 residual: 6.34
mrth: 51.89 cth: 39.36 usage: 34.61 residual: 17.28
mrth: 117.09 cth: 98.69 usage: 109.12 residual: 7.97
mrth: 131.79 cth: 93.22 usage: 91.83 residual: 39.96
mrth: 25.02 cth: 17.98 usage: 13.68 residual: 11.34
mrth: 107.48 cth: 88.44 usage: 85.15 residual: 22.33
mrth: 48.85 cth: 39.78 usage: 26.56 residual: 22.29
mrth: 15.78 cth: 13.97 usage: 9.66 residual: 6.12
mrth: 28.77 cth: 20.35 usage: 20.33 residual: 8.44
mrth: 24.35 cth: 18.95 usage: 19.94 residual: 4.41
mrth: 72.07 cth: 60.1 usage: 44.26 residual: 27.81
mrth: 85.4 cth: 71.4 usage: 62.24 residual: 23.16
mrth: 141.79 cth: 113.73 usage: 109.02 residual: 32.77
mrth: 101.63 cth: 73.27 usage: 77.1 residual: 24.53
mrth: 41.96 cth: 32.85 usage: 26.54 residual: 15.42
mrth: 25.42 cth: 20.52 usage: 24.78 residual: 0.64
mrth: 151.95 cth: 106.74 usage: 83.91 residual: 68.04
mrth: 81.29 cth: 64.68 usage: 61.83 residual: 19.46
mrth: 63.18 cth: 51.56 usage: 61.45 residual: 1.73
mrth: 34.61 cth: 27.69 usage: 18.56 residual: 16.05
mrth: 58.9 cth: 49.74 usage: 47.15 residual: 11.75
mrth: 54.82 cth: 44.69 usage: 51.53 residual: 3.29
mrth: 166.94 cth: 135.21 usage: 100.78 residual: 66.16
mrth: 153.12 cth: 121.79 usage: 90.49 residual: 62.63
mrth: 70.5 cth: 61.38 usage: 41.87 residual: 28.63
mrth: 84.74 cth: 71.9 usage: 55.53 residual: 29.21
mrth: 62.53 cth: 48.49 usage: 39.61 residual: 22.92
mrth: 124.77 cth: 104.33 usage: 92.36 residual: 32.41
mrth: 72.02 cth: 54.7 usage: 45.94 residual: 26.08
mrth: 59.87 cth: 44.12 usage: 48.96 residual: 10.91
mrth: 10.53 cth: 9.15 usage: 7.9 residual: 2.63
mrth: 141.23 cth: 104.95 usage: 119.41 residual: 21.82
mrth: 135.88 cth: 104.1 usage: 86.25 residual: 49.63
mrth: 51.29 cth: 45.6 usage: 50.15 residual: 1.14
mrth: 101.94 cth: 83.86 usage: 73.2 residual: 28.74
mrth: 144.6 cth: 113.05 usage: 81.71 residual: 62.89
mrth: 66.57 cth: 47.93 usage: 58.41 residual: 8.16
mrth: 82.41 cth: 73.07 usage: 56.14 residual: 26.27
mrth: 112.94 cth: 96.01 usage: 86.97 residual: 25.97
mrth: 49.9 cth: 35.39 usage: 34.49 residual: 15.41
mrth: 17.54 cth: 14.28 usage: 14.99 residual: 2.55
mrth: 57.55 cth: 43.97 usage: 46.8 residual: 10.75
mrth: 47.03 cth: 37.19 usage: 36.83 residual: 10.2
mrth: 27.45 cth: 24.25 usage: 24.56 residual: 2.89
mrth: 86.47 cth: 72.55 usage: 79.78 residual: 6.69
mrth: 174.15 cth: 127.28 usage: 99.77 residual: 74.38
mrth: 195.64 cth: 159.15 usage: 165.84 residual: 29.8
mrth: 90.68 cth: 69.45 usage: 89.9 residual: 0.78
mrth: 48.4 cth: 37.03 usage: 45.67 residual: 2.73
mrth: 14.56 cth: 12.7 usage: 11.89 residual: 2.67
mrth: 167.32 cth: 133.53 usage: 103.85 residual: 63.47
mrth: 85.93 cth: 70.59 usage: 44.76 residual: 41.17
mrth: 123.46 cth: 99.78 usage: 89.33 residual: 34.13
mrth: 104.84 cth: 81.76 usage: 95.59 residual: 9.25
mrth: 164.91 cth: 135.7 usage: 112.38 residual: 52.53
mrth: 98.08 cth: 82.98 usage: 82.28 residual: 15.8
mrth: 75.02 cth: 67.28 usage: 69.82 residual: 5.2
mrth: 81.18 cth: 58.13 usage: 65.88 residual: 15.3
mrth: 162.7 cth: 124.25 usage: 108.15 residual: 54.55
mrth: 149.42 cth: 106.34 usage: 125.74 residual: 23.68
mrth: 73.56 cth: 53.37 usage: 59.4 residual: 14.16
mrth: 15.73 cth: 14.02 usage: 14.63 residual: 1.1
mrth: 20.41 cth: 14.99 usage: 19.72 residual: 0.69
mrth: 55.94 cth: 40.74 usage: 35.51 residual: 20.43
mrth: 67.47 cth: 49.4 usage: 52.99 residual: 14.48
mrth: 59.29 cth: 48.74 usage: 33.31 residual: 25.98
mrth: 26.27 cth: 20.64 usage: 19.14 residual: 7.13
mrth: 83.36 cth: 62.24 usage: 62.5 residual: 20.86
mrth: 107.56 cth: 84.19 usage: 77.88 residual: 29.68
mrth: 66.18 cth: 51.33 usage: 65.55 residual: 0.63
mrth: 87.2 cth: 62.16 usage: 74.59 residual: 12.61
mrth: 121.96 cth: 103.75 usage: 83.8 residual: 38.16
mrth: 82.99 cth: 62.05 usage: 67.5 residual: 15.49
mrth: 96.98 cth: 83.68 usage: 90.64 residual: 6.34
mrth: 133.86 cth: 101.68 usage: 74.31 residual: 59.55
mrth: 128.23 cth: 111.18 usage: 69.67 residual: 58.56
mrth: 170.62 cth: 135.17 usage: 125.58 residual: 45.04
mrth: 105.18 cth: 92.07 usage: 82.33 residual: 22.85
mrth: 57.47 cth: 48.13 usage: 43.65 residual: 13.82
mrth: 121.9 cth: 88.42 usage: 120.28 residual: 1.62
mrth: 74.68 cth: 65.05 usage: 50.83 residual: 23.85
mrth: 260.99 cth: 192.75 usage: 210.37 residual: 50.62
mrth: 151.19 cth: 120.16 usage: 136.83 residual: 14.36
mrth: 30.71 cth: 24.36 usage: 25.54 residual: 5.17
mrth: 92.22 cth: 68.62 usage: 49.18 residual: 43.04
mrth: 106.77 cth: 82.65 usage: 60.23 residual: 46.54
mrth: 201.15 cth: 150.53 usage: 200.68 residual: 0.47
mrth: 66.75 cth: 51.43 usage: 55.98 residual: 10.77
mrth: 82.7 cth: 60.88 usage: 51.54 residual: 31.16
mrth: 116.98 cth: 89.49 usage: 93.98 residual: 23.0
mrth: 32.4 cth: 29.1 usage: 20.19 residual: 12.21
mrth: 135.51 cth: 108.25 usage: 110.38 residual: 25.13
mrth: 111.47 cth: 80.79 usage: 79.99 residual: 31.48
mrth: 103.74 cth: 92.74 usage: 54.74 residual: 49.0
mrth: 114.05 cth: 86.34 usage: 104.78 residual: 9.27
mrth: 86.85 cth: 73.41 usage: 54.94 residual: 31.91
mrth: 56.25 cth: 42.9 usage: 52.29 residual: 3.96
mrth: 42.29 cth: 33.07 usage: 22.82 residual: 19.47
mrth: 74.85 cth: 54.72 usage: 67.08 residual: 7.77
mrth: 31.61 cth: 23.66 usage: 26.54 residual: 5.07
mrth: 95.78 cth: 71.39 usage: 66.22 residual: 29.56
mrth: 57.02 cth: 49.21 usage: 42.32 residual: 14.7
mrth: 107.74 cth: 91.37 usage: 73.91 residual: 33.83
mrth: 77.71 cth: 61.96 usage: 42.3 residual: 35.41
mrth: 60.88 cth: 46.76 usage: 36.87 residual: 24.01
mrth: 48.67 cth: 40.57 usage: 40.62 residual: 8.05
mrth: 145.17 cth: 118.33 usage: 112.44 residual: 32.73
mrth: 31.8 cth: 25.04 usage: 29.62 residual: 2.18
mrth: 61.46 cth: 44.62 usage: 55.91 residual: 5.55
mrth: 67.51 cth: 53.25 usage: 52.17 residual: 15.34
mrth: 153.43 cth: 121.07 usage: 107.49 residual: 45.94
mrth: 92.6 cth: 69.71 usage: 79.36 residual: 13.24
mrth: 47.2 cth: 41.61 usage: 47.14 residual: 0.06
mrth: 98.85 cth: 69.51 usage: 60.69 residual: 38.16
mrth: 103.18 cth: 79.57 usage: 83.87 residual: 19.31
mrth: 79.82 cth: 57.1 usage: 44.26 residual: 35.56
mrth: 128.5 cth: 110.05 usage: 83.52 residual: 44.98
mrth: 227.41 cth: 195.69 usage: 197.85 residual: 29.56
mrth: 71.3 cth: 58.95 usage: 44.74 residual: 26.56
mrth: 177.89 cth: 157.21 usage: 115.88 residual: 62.01
mrth: 243.9 cth: 196.19 usage: 225.47 residual: 18.43
mrth: 97.17 cth: 81.09 usage: 49.01 residual: 48.16
mrth: 89.23 cth: 66.07 usage: 78.72 residual: 10.51
mrth: 85.59 cth: 68.25 usage: 58.98 residual: 26.61
mrth: 174.65 cth: 126.28 usage: 121.03 residual: 53.62
mrth: 114.29 cth: 95.4 usage: 99.61 residual: 14.68
mrth: 15.85 cth: 12.89 usage: 10.15 residual: 5.7
mrth: 51.16 cth: 42.92 usage: 30.01 residual: 21.15
mrth: 98.67 cth: 88.6 usage: 72.45 residual: 26.22
mrth: 29.32 cth: 22.05 usage: 17.63 residual: 11.69
mrth: 117.93 cth: 86.75 usage: 79.93 residual: 38.0
mrth: 88.25 cth: 62.12 usage: 78.28 residual: 9.97
mrth: 107.15 cth: 76.1 usage: 104.43 residual: 2.72
mrth: 95.04 cth: 73.79 usage: 53.49 residual: 41.55
mrth: 124.17 cth: 110.76 usage: 121.59 residual: 2.58
mrth: 45.78 cth: 32.75 usage: 27.63 residual: 18.15
mrth: 103.6 cth: 83.12 usage: 66.89 residual: 36.71
mrth: 175.74 cth: 136.15 usage: 135.61 residual: 40.13
mrth: 105.57 cth: 88.36 usage: 89.93 residual: 15.64
mrth: 60.92 cth: 44.42 usage: 50.65 residual: 10.27
mrth: 67.91 cth: 52.29 usage: 37.46 residual: 30.45
mrth: 181.61 cth: 161.3 usage: 166.14 residual: 15.47
mrth: 83.83 cth: 63.37 usage: 76.06 residual: 7.77
mrth: 165.66 cth: 140.74 usage: 86.55 residual: 79.11
mrth: 71.02 cth: 53.14 usage: 37.97 residual: 33.05
mrth: 52.43 cth: 40.32 usage: 41.38 residual: 11.05
mrth: 81.64 cth: 73.19 usage: 55.02 residual: 26.62
mrth: 87.26 cth: 66.41 usage: 49.8 residual: 37.46
mrth: 142.61 cth: 117.61 usage: 87.23 residual: 55.38
mrth: 87.63 cth: 64.12 usage: 63.06 residual: 24.57
mrth: 190.9 cth: 137.86 usage: 176.55 residual: 14.35
mrth: 100.53 cth: 88.43 usage: 68.3 residual: 32.23
mrth: 222.58 cth: 199.27 usage: 115.1 residual: 107.48
mrth: 35.4 cth: 27.8 usage: 35.11 residual: 0.29
mrth: 96.71 cth: 83.48 usage: 85.24 residual: 11.47
mrth: 100.68 cth: 86.45 usage: 85.66 residual: 15.02
mrth: 166.78 cth: 121.8 usage: 143.72 residual: 23.06
mrth: 87.23 cth: 62.3 usage: 69.19 residual: 18.04
mrth: 87.57 cth: 63.63 usage: 71.12 residual: 16.45
mrth: 155.79 cth: 129.15 usage: 87.69 residual: 68.1
mrth: 160.73 cth: 128.59 usage: 153.58 residual: 7.15
mrth: 72.57 cth: 56.48 usage: 59.99 residual: 12.58
mrth: 97.05 cth: 72.35 usage: 85.06 residual: 11.99
mrth: 91.53 cth: 75.52 usage: 77.95 residual: 13.58
mrth: 68.68 cth: 51.76 usage: 68.45 residual: 0.23
mrth: 115.75 cth: 84.61 usage: 80.56 residual: 35.19
mrth: 153.31 cth: 113.5 usage: 105.07 residual: 48.24
mrth: 97.23 cth: 75.08 usage: 73.44 residual: 23.79
mrth: 41.04 cth: 28.82 usage: 30.28 residual: 10.76
mrth: 95.5 cth: 84.36 usage: 48.89 residual: 46.61
mrth: 200.93 cth: 152.44 usage: 147.01 residual: 53.92
mrth: 171.12 cth: 131.17 usage: 97.11 residual: 74.01
mrth: 108.58 cth: 77.77 usage: 75.13 residual: 33.45
mrth: 41.95 cth: 36.76 usage: 36.91 residual: 5.04
mrth: 48.02 cth: 39.04 usage: 30.52 residual: 17.5
mrth: 107.37 cth: 76.8 usage: 95.51 residual: 11.86
mrth: 38.16 cth: 31.49 usage: 24.55 residual: 13.61
mrth: 32.19 cth: 25.31 usage: 28.16 residual: 4.03
mrth: 86.14 cth: 65.49 usage: 60.15 residual: 25.99
mrth: 71.91 cth: 62.84 usage: 51.19 residual: 20.72
mrth: 34.28 cth: 26.72 usage: 32.99 residual: 1.29
mrth: 43.92 cth: 35.52 usage: 33.41 residual: 10.51
mrth: 85.17 cth: 63.66 usage: 80.42 residual: 4.75
mrth: 123.49 cth: 103.16 usage: 82.81 residual: 40.68
mrth: 107.75 cth: 79.06 usage: 99.08 residual: 8.67
mrth: 60.49 cth: 51.52 usage: 36.22 residual: 24.27
mrth: 22.71 cth: 16.31 usage: 17.5 residual: 5.21
mrth: 217.33 cth: 165.12 usage: 148.84 residual: 68.49
mrth: 39.92 cth: 33.09 usage: 27.34 residual: 12.58
mrth: 44.84 cth: 32.45 usage: 44.79 residual: 0.05
mrth: 74.84 cth: 60.97 usage: 69.88 residual: 4.96
mrth: 28.87 cth: 25.63 usage: 28.63 residual: 0.24
mrth: 74.43 cth: 59.69 usage: 69.24 residual: 5.19
mrth: 78.58 cth: 60.69 usage: 71.27 residual: 7.31
mrth: 59.5 cth: 49.33 usage: 56.05 residual: 3.45
mrth: 157.58 cth: 122.22 usage: 82.13 residual: 75.45
mrth: 50.97 cth: 42.64 usage: 44.17 residual: 6.8
mrth: 65.46 cth: 55.73 usage: 59.89 residual: 5.57
mrth: 110.23 cth: 96.15 usage: 80.2 residual: 30.03
mrth: 166.33 cth: 124.62 usage: 153.67 residual: 12.66
mrth: 61.47 cth: 47.79 usage: 47.47 residual: 14.0
mrth: 76.6 cth: 60.51 usage: 76.13 residual: 0.47
mrth: 122.97 cth: 88.58 usage: 71.98 residual: 50.99
mrth: 122.77 cth: 92.41 usage: 121.15 residual: 1.62
mrth: 130.16 cth: 114.98 usage: 76.84 residual: 53.32
mrth: 187.1 cth: 149.87 usage: 131.46 residual: 55.64
mrth: 13.47 cth: 12.07 usage: 10.15 residual: 3.32
mrth: 168.45 cth: 148.25 usage: 129.51 residual: 38.94
mrth: 146.55 cth: 108.21 usage: 114.71 residual: 31.84
mrth: 302.88 cth: 242.91 usage: 236.05 residual: 66.83
mrth: 56.67 cth: 48.38 usage: 46.08 residual: 10.59
mrth: 175.11 cth: 149.06 usage: 128.99 residual: 46.12
mrth: 46.84 cth: 36.66 usage: 28.17 residual: 18.67
mrth: 113.0 cth: 81.27 usage: 58.17 residual: 54.83
mrth: 32.77 cth: 26.64 usage: 29.36 residual: 3.41
mrth: 66.77 cth: 57.63 usage: 59.95 residual: 6.82
mrth: 86.78 cth: 63.75 usage: 52.43 residual: 34.35
mrth: 119.35 cth: 90.44 usage: 67.44 residual: 51.91
mrth: 119.58 cth: 91.56 usage: 109.42 residual: 10.16
mrth: 69.65 cth: 52.63 usage: 57.89 residual: 11.76
mrth: 106.77 cth: 85.83 usage: 86.07 residual: 20.7
mrth: 90.96 cth: 73.38 usage: 48.9 residual: 42.06
mrth: 20.59 cth: 14.59 usage: 19.24 residual: 1.35
mrth: 95.81 cth: 75.68 usage: 52.05 residual: 43.76
mrth: 142.77 cth: 127.47 usage: 128.36 residual: 14.41
mrth: 94.51 cth: 81.7 usage: 54.35 residual: 40.16
mrth: 76.37 cth: 64.27 usage: 76.07 residual: 0.3
mrth: 85.0 cth: 69.56 usage: 51.98 residual: 33.02
mrth: 34.77 cth: 25.18 usage: 20.01 residual: 14.76
mrth: 107.18 cth: 95.1 usage: 102.29 residual: 4.89
mrth: 21.54 cth: 16.59 usage: 12.78 residual: 8.76
mrth: 103.1 cth: 74.59 usage: 64.71 residual: 38.39
mrth: 120.01 cth: 85.79 usage: 99.12 residual: 20.89
mrth: 104.4 cth: 75.84 usage: 101.85 residual: 2.55
mrth: 163.38 cth: 123.34 usage: 128.24 residual: 35.14
mrth: 211.31 cth: 160.11 usage: 144.24 residual: 67.07
mrth: 121.42 cth: 102.86 usage: 80.12 residual: 41.3
mrth: 104.79 cth: 73.41 usage: 62.87 residual: 41.92
mrth: 235.85 cth: 194.75 usage: 138.81 residual: 97.04
mrth: 103.1 cth: 82.88 usage: 55.43 residual: 47.67
mrth: 166.49 cth: 127.75 usage: 125.17 residual: 41.32
mrth: 111.52 cth: 98.76 usage: 103.38 residual: 8.14
mrth: 143.96 cth: 113.46 usage: 100.28 residual: 43.68
mrth: 85.6 cth: 69.07 usage: 58.94 residual: 26.66
mrth: 75.84 cth: 63.29 usage: 41.4 residual: 34.44
mrth: 65.39 cth: 53.46 usage: 47.3 residual: 18.09
mrth: 92.75 cth: 67.94 usage: 84.81 residual: 7.94
mrth: 88.36 cth: 78.73 usage: 67.91 residual: 20.45
mrth: 100.32 cth: 85.84 usage: 57.77 residual: 42.55
mrth: 36.35 cth: 27.83 usage: 19.34 residual: 17.01
mrth: 135.62 cth: 113.68 usage: 121.63 residual: 13.99
mrth: 86.65 cth: 75.69 usage: 78.32 residual: 8.33
mrth: 16.9 cth: 14.63 usage: 13.94 residual: 2.96
mrth: 52.19 cth: 37.69 usage: 38.58 residual: 13.61
mrth: 43.45 cth: 31.59 usage: 22.51 residual: 20.94
mrth: 118.04 cth: 82.98 usage: 90.71 residual: 27.33
mrth: 116.88 cth: 83.6 usage: 85.45 residual: 31.43
mrth: 74.67 cth: 58.11 usage: 60.3 residual: 14.37
mrth: 87.0 cth: 67.65 usage: 74.12 residual: 12.88
mrth: 173.27 cth: 145.03 usage: 144.62 residual: 28.65
mrth: 131.78 cth: 118.3 usage: 109.0 residual: 22.78
mrth: 118.55 cth: 93.12 usage: 70.05 residual: 48.5
mrth: 23.7 cth: 19.37 usage: 16.58 residual: 7.12
mrth: 119.25 cth: 86.56 usage: 90.8 residual: 28.45
mrth: 116.04 cth: 96.45 usage: 69.59 residual: 46.45
mrth: 73.64 cth: 53.11 usage: 70.73 residual: 2.91
mrth: 126.39 cth: 100.07 usage: 80.82 residual: 45.57
mrth: 129.52 cth: 114.89 usage: 113.29 residual: 16.23
mrth: 147.63 cth: 114.29 usage: 104.01 residual: 43.62
mrth: 137.09 cth: 108.31 usage: 111.55 residual: 25.54
mrth: 89.37 cth: 68.33 usage: 70.69 residual: 18.68
mrth: 122.27 cth: 109.04 usage: 87.01 residual: 35.26
mrth: 69.88 cth: 58.03 usage: 45.05 residual: 24.83
mrth: 86.63 cth: 77.53 usage: 80.57 residual: 6.06
mrth: 121.0 cth: 92.11 usage: 81.65 residual: 39.35
mrth: 71.48 cth: 53.91 usage: 59.58 residual: 11.9
mrth: 26.6 cth: 21.01 usage: 15.07 residual: 11.53
mrth: 114.21 cth: 99.47 usage: 113.88 residual: 0.33
mrth: 85.3 cth: 70.99 usage: 79.01 residual: 6.29
mrth: 42.69 cth: 37.56 usage: 29.78 residual: 12.91
mrth: 77.78 cth: 65.08 usage: 40.48 residual: 37.3
mrth: 35.11 cth: 28.44 usage: 24.3 residual: 10.81
mrth: 121.74 cth: 104.19 usage: 87.57 residual: 34.17
mrth: 131.43 cth: 100.67 usage: 120.82 residual: 10.61
mrth: 167.82 cth: 134.56 usage: 164.35 residual: 3.47
mrth: 91.28 cth: 78.58 usage: 65.49 residual: 25.79
mrth: 70.39 cth: 61.53 usage: 53.71 residual: 16.68
mrth: 38.78 cth: 33.5 usage: 32.16 residual: 6.62
mrth: 22.79 cth: 17.7 usage: 13.35 residual: 9.44
mrth: 91.34 cth: 79.74 usage: 73.79 residual: 17.55
mrth: 96.4 cth: 72.01 usage: 81.28 residual: 15.12
mrth: 146.87 cth: 123.69 usage: 128.58 residual: 18.29
mrth: 36.54 cth: 29.29 usage: 21.7 residual: 14.84
mrth: 105.82 cth: 85.99 usage: 54.93 residual: 50.89
mrth: 78.41 cth: 65.79 usage: 42.45 residual: 35.96
mrth: 10.76 cth: 8.73 usage: 7.39 residual: 3.37
mrth: 103.58 cth: 81.95 usage: 86.53 residual: 17.05
mrth: 47.71 cth: 38.32 usage: 30.51 residual: 17.2
mrth: 70.73 cth: 58.06 usage: 50.99 residual: 19.74
mrth: 71.72 cth: 53.34 usage: 59.9 residual: 11.82
mrth: 71.65 cth: 58.59 usage: 70.1 residual: 1.55
mrth: 78.2 cth: 57.99 usage: 77.86 residual: 0.34
mrth: 46.24 cth: 41.18 usage: 42.25 residual: 3.99
mrth: 25.63 cth: 23.0 usage: 15.86 residual: 9.77
mrth: 23.1 cth: 16.26 usage: 17.24 residual: 5.86
mrth: 111.56 cth: 84.14 usage: 63.81 residual: 47.75
mrth: 65.53 cth: 49.76 usage: 60.14 residual: 5.39
mrth: 36.14 cth: 25.34 usage: 28.53 residual: 7.61
mrth: 140.37 cth: 115.16 usage: 107.92 residual: 32.45
mrth: 51.64 cth: 44.8 usage: 38.54 residual: 13.1
mrth: 104.18 cth: 75.62 usage: 68.59 residual: 35.59
mrth: 24.26 cth: 21.63 usage: 14.38 residual: 9.88
mrth: 64.13 cth: 48.5 usage: 52.57 residual: 11.56
mrth: 99.34 cth: 87.85 usage: 76.15 residual: 23.19
mrth: 51.24 cth: 40.74 usage: 40.04 residual: 11.2
mrth: 56.54 cth: 40.7 usage: 52.96 residual: 3.58
mrth: 87.56 cth: 66.02 usage: 55.79 residual: 31.77
mrth: 34.32 cth: 25.38 usage: 28.11 residual: 6.21
mrth: 167.36 cth: 135.42 usage: 126.64 residual: 40.72
mrth: 79.84 cth: 64.36 usage: 65.89 residual: 13.95
mrth: 46.89 cth: 37.81 usage: 34.56 residual: 12.33
mrth: 55.77 cth: 44.15 usage: 53.89 residual: 1.88
mrth: 56.92 cth: 43.04 usage: 56.21 residual: 0.71
mrth: 98.62 cth: 79.06 usage: 70.19 residual: 28.43
mrth: 176.88 cth: 125.15 usage: 151.17 residual: 25.71
mrth: 78.1 cth: 55.15 usage: 63.99 residual: 14.11
mrth: 118.39 cth: 106.29 usage: 111.97 residual: 6.42
mrth: 147.3 cth: 112.16 usage: 125.52 residual: 21.78
mrth: 144.03 cth: 122.3 usage: 138.17 residual: 5.86
mrth: 80.86 cth: 65.51 usage: 76.25 residual: 4.61
mrth: 21.32 cth: 15.23 usage: 11.04 residual: 10.28
mrth: 63.79 cth: 47.75 usage: 39.83 residual: 23.96
mrth: 33.62 cth: 24.91 usage: 21.72 residual: 11.9
mrth: 91.36 cth: 79.76 usage: 76.54 residual: 14.82
mrth: 36.92 cth: 28.2 usage: 30.93 residual: 5.99
mrth: 187.23 cth: 158.94 usage: 156.54 residual: 30.69
mrth: 55.16 cth: 47.28 usage: 38.29 residual: 16.87
mrth: 76.62 cth: 59.31 usage: 63.29 residual: 13.33
mrth: 168.6 cth: 136.1 usage: 121.45 residual: 47.15
mrth: 82.1 cth: 67.48 usage: 62.34 residual: 19.76
mrth: 150.72 cth: 111.37 usage: 103.14 residual: 47.58
mrth: 93.42 cth: 79.07 usage: 64.93 residual: 28.49
mrth: 12.56 cth: 8.81 usage: 9.6 residual: 2.96
mrth: 58.89 cth: 41.32 usage: 43.84 residual: 15.05
mrth: 77.07 cth: 61.21 usage: 39.99 residual: 37.08
mrth: 72.44 cth: 52.78 usage: 69.61 residual: 2.83
mrth: 14.01 cth: 12.13 usage: 11.43 residual: 2.58
mrth: 93.27 cth: 66.39 usage: 48.65 residual: 44.62
mrth: 75.48 cth: 58.84 usage: 55.13 residual: 20.35
mrth: 201.32 cth: 168.19 usage: 187.31 residual: 14.01
mrth: 95.2 cth: 85.23 usage: 56.51 residual: 38.69
mrth: 61.78 cth: 50.32 usage: 33.4 residual: 28.38
mrth: 68.13 cth: 48.54 usage: 44.68 residual: 23.45
mrth: 176.17 cth: 150.89 usage: 138.39 residual: 37.78
mrth: 174.29 cth: 156.33 usage: 122.79 residual: 51.5
mrth: 120.24 cth: 103.59 usage: 107.31 residual: 12.93
mrth: 109.46 cth: 80.71 usage: 58.36 residual: 51.1
mrth: 123.42 cth: 92.76 usage: 74.99 residual: 48.43
mrth: 117.65 cth: 93.52 usage: 71.45 residual: 46.2
mrth: 218.32 cth: 169.1 usage: 159.02 residual: 59.3
mrth: 208.52 cth: 151.19 usage: 132.01 residual: 76.51
mrth: 223.82 cth: 182.24 usage: 121.5 residual: 102.32
mrth: 65.55 cth: 58.67 usage: 45.83 residual: 19.72
mrth: 151.03 cth: 122.3 usage: 115.41 residual: 35.62
mrth: 143.91 cth: 122.21 usage: 137.27 residual: 6.64
mrth: 66.28 cth: 49.41 usage: 34.34 residual: 31.94
mrth: 33.73 cth: 27.01 usage: 18.09 residual: 15.64
mrth: 113.24 cth: 94.38 usage: 107.96 residual: 5.28
mrth: 94.09 cth: 71.89 usage: 65.01 residual: 29.08
mrth: 54.97 cth: 40.06 usage: 46.34 residual: 8.63
mrth: 108.48 cth: 88.48 usage: 104.88 residual: 3.6
mrth: 90.45 cth: 70.15 usage: 84.85 residual: 5.6
mrth: 104.5 cth: 88.62 usage: 85.95 residual: 18.55
mrth: 38.29 cth: 28.0 usage: 20.18 residual: 18.11
mrth: 141.13 cth: 103.58 usage: 92.57 residual: 48.56
mrth: 76.11 cth: 59.44 usage: 40.82 residual: 35.29
mrth: 90.28 cth: 71.04 usage: 78.75 residual: 11.53
mrth: 53.76 cth: 40.81 usage: 49.29 residual: 4.47
mrth: 74.63 cth: 56.06 usage: 56.45 residual: 18.18
mrth: 143.51 cth: 105.53 usage: 97.62 residual: 45.89
mrth: 67.87 cth: 59.37 usage: 66.43 residual: 1.44
mrth: 169.84 cth: 136.8 usage: 141.45 residual: 28.39
mrth: 80.08 cth: 62.9 usage: 54.64 residual: 25.44
mrth: 222.21 cth: 181.22 usage: 213.38 residual: 8.83
mrth: 191.39 cth: 141.44 usage: 137.74 residual: 53.65
mrth: 153.52 cth: 124.6 usage: 79.05 residual: 74.47
mrth: 36.33 cth: 29.72 usage: 19.3 residual: 17.03
mrth: 166.76 cth: 125.77 usage: 124.81 residual: 41.95
mrth: 47.8 cth: 36.87 usage: 42.01 residual: 5.79
mrth: 100.16 cth: 76.34 usage: 66.87 residual: 33.29
mrth: 56.72 cth: 44.09 usage: 39.56 residual: 17.16
mrth: 108.49 cth: 96.17 usage: 81.23 residual: 27.26
mrth: 45.59 cth: 33.21 usage: 35.07 residual: 10.52
mrth: 157.62 cth: 128.45 usage: 100.37 residual: 57.25
mrth: 94.33 cth: 78.75 usage: 52.5 residual: 41.83
mrth: 64.4 cth: 52.94 usage: 45.39 residual: 19.01
mrth: 57.94 cth: 43.89 usage: 47.62 residual: 10.32
mrth: 76.83 cth: 67.79 usage: 57.91 residual: 18.92
mrth: 75.7 cth: 59.04 usage: 39.86 residual: 35.84
mrth: 77.92 cth: 61.58 usage: 75.78 residual: 2.14
mrth: 94.15 cth: 75.76 usage: 55.2 residual: 38.95
mrth: 186.87 cth: 146.74 usage: 159.47 residual: 27.4
mrth: 49.78 cth: 37.26 usage: 26.39 residual: 23.39
mrth: 115.73 cth: 93.8 usage: 97.1 residual: 18.63
mrth: 172.85 cth: 138.2 usage: 129.87 residual: 42.98
mrth: 47.44 cth: 41.3 usage: 25.99 residual: 21.45
mrth: 180.61 cth: 138.89 usage: 115.19 residual: 65.42
mrth: 144.85 cth: 123.9 usage: 74.03 residual: 70.82
mrth: 51.0 cth: 42.46 usage: 37.77 residual: 13.23
mrth: 34.23 cth: 25.79 usage: 20.66 residual: 13.57
mrth: 70.68 cth: 49.77 usage: 46.12 residual: 24.56
mrth: 45.21 cth: 37.93 usage: 31.24 residual: 13.97
mrth: 182.58 cth: 148.54 usage: 132.86 residual: 49.72
mrth: 43.93 cth: 36.04 usage: 34.09 residual: 9.84
mrth: 101.05 cth: 90.22 usage: 75.21 residual: 25.84
mrth: 190.57 cth: 164.46 usage: 133.07 residual: 57.5
mrth: 50.38 cth: 37.31 usage: 48.61 residual: 1.77
mrth: 133.79 cth: 105.41 usage: 109.94 residual: 23.85
mrth: 53.65 cth: 47.62 usage: 45.98 residual: 7.67
mrth: 136.58 cth: 111.18 usage: 82.03 residual: 54.55
mrth: 118.45 cth: 103.17 usage: 106.79 residual: 11.66
mrth: 77.59 cth: 57.94 usage: 53.27 residual: 24.32
mrth: 112.76 cth: 85.18 usage: 98.81 residual: 13.95
mrth: 149.76 cth: 130.19 usage: 128.81 residual: 20.95
mrth: 73.37 cth: 65.04 usage: 66.03 residual: 7.34
mrth: 76.94 cth: 54.84 usage: 39.98 residual: 36.96
mrth: 64.6 cth: 46.25 usage: 42.97 residual: 21.63
mrth: 38.8 cth: 32.48 usage: 24.38 residual: 14.42
mrth: 20.18 cth: 17.36 usage: 16.53 residual: 3.65
mrth: 18.49 cth: 12.99 usage: 16.07 residual: 2.42
mrth: 43.13 cth: 33.61 usage: 23.72 residual: 19.41
mrth: 96.44 cth: 70.96 usage: 60.62 residual: 35.82
mrth: 34.37 cth: 24.9 usage: 29.53 residual: 4.84
mrth: 127.1 cth: 102.05 usage: 89.84 residual: 37.26
mrth: 157.27 cth: 115.99 usage: 102.33 residual: 54.94
mrth: 162.08 cth: 139.41 usage: 147.6 residual: 14.48
mrth: 133.76 cth: 98.38 usage: 132.78 residual: 0.98
mrth: 67.77 cth: 51.63 usage: 48.58 residual: 19.19
mrth: 79.48 cth: 68.79 usage: 50.57 residual: 28.91
mrth: 113.12 cth: 95.97 usage: 97.19 residual: 15.93
mrth: 80.84 cth: 68.7 usage: 60.72 residual: 20.12
mrth: 103.11 cth: 91.45 usage: 70.05 residual: 33.06
mrth: 51.08 cth: 36.84 usage: 27.2 residual: 23.88
mrth: 77.58 cth: 63.39 usage: 61.37 residual: 16.21
mrth: 41.93 cth: 34.0 usage: 22.03 residual: 19.9
mrth: 63.8 cth: 48.67 usage: 47.63 residual: 16.17
mrth: 106.56 cth: 81.92 usage: 63.69 residual: 42.87
mrth: 56.06 cth: 47.18 usage: 37.14 residual: 18.92
mrth: 198.36 cth: 175.38 usage: 171.38 residual: 26.98
mrth: 47.27 cth: 37.32 usage: 31.0 residual: 16.27
mrth: 217.08 cth: 164.95 usage: 159.21 residual: 57.87
mrth: 75.69 cth: 63.9 usage: 70.41 residual: 5.28
mrth: 160.34 cth: 138.33 usage: 115.67 residual: 44.67
mrth: 38.8 cth: 28.93 usage: 29.41 residual: 9.39
mrth: 75.08 cth: 66.3 usage: 48.15 residual: 26.93
mrth: 56.56 cth: 47.27 usage: 55.84 residual: 0.72
mrth: 136.24 cth: 108.92 usage: 71.41 residual: 64.83
mrth: 87.82 cth: 76.14 usage: 83.08 residual: 4.74
mrth: 86.25 cth: 65.54 usage: 60.89 residual: 25.36
mrth: 84.06 cth: 69.03 usage: 56.91 residual: 27.15
mrth: 197.64 cth: 139.49 usage: 102.6 residual: 95.04
mrth: 181.99 cth: 144.31 usage: 128.25 residual: 53.74
mrth: 78.86 cth: 64.86 usage: 50.26 residual: 28.6
mrth: 63.96 cth: 45.72 usage: 45.27 residual: 18.69
mrth: 33.34 cth: 29.38 usage: 22.31 residual: 11.03
mrth: 126.02 cth: 109.09 usage: 123.4 residual: 2.62
mrth: 114.92 cth: 95.5 usage: 80.27 residual: 34.65
mrth: 128.98 cth: 106.81 usage: 117.54 residual: 11.44
mrth: 147.12 cth: 111.03 usage: 119.74 residual: 27.38
mrth: 72.41 cth: 59.96 usage: 44.47 residual: 27.94
mrth: 131.97 cth: 92.49 usage: 101.22 residual: 30.75
mrth: 88.32 cth: 69.07 usage: 75.06 residual: 13.26
mrth: 232.02 cth: 164.22 usage: 121.48 residual: 110.54
mrth: 65.74 cth: 57.98 usage: 54.66 residual: 11.08
mrth: 103.88 cth: 80.14 usage: 88.62 residual: 15.26
mrth: 34.01 cth: 30.05 usage: 18.4 residual: 15.61
mrth: 15.64 cth: 13.3 usage: 13.85 residual: 1.79
mrth: 62.05 cth: 47.7 usage: 40.42 residual: 21.63
mrth: 137.1 cth: 96.62 usage: 81.42 residual: 55.68
mrth: 67.7 cth: 48.29 usage: 47.83 residual: 19.87
mrth: 67.28 cth: 56.39 usage: 48.64 residual: 18.64
mrth: 108.44 cth: 80.51 usage: 58.74 residual: 49.7
mrth: 173.78 cth: 143.92 usage: 144.74 residual: 29.04
mrth: 93.29 cth: 75.02 usage: 49.74 residual: 43.55
mrth: 61.45 cth: 54.85 usage: 56.02 residual: 5.43
mrth: 139.5 cth: 117.89 usage: 72.98 residual: 66.52
mrth: 95.88 cth: 70.49 usage: 69.15 residual: 26.73
mrth: 136.37 cth: 100.08 usage: 130.62 residual: 5.75
mrth: 29.3 cth: 21.57 usage: 19.89 residual: 9.41
mrth: 143.36 cth: 115.65 usage: 74.18 residual: 69.18
mrth: 88.53 cth: 62.17 usage: 60.23 residual: 28.3
mrth: 90.14 cth: 72.74 usage: 79.93 residual: 10.21
mrth: 159.0 cth: 115.53 usage: 103.08 residual: 55.92
mrth: 58.48 cth: 50.57 usage: 34.84 residual: 23.64
mrth: 104.12 cth: 86.6 usage: 58.3 residual: 45.82
mrth: 152.51 cth: 112.7 usage: 126.96 residual: 25.55
mrth: 161.0 cth: 132.3 usage: 114.39 residual: 46.61
mrth: 159.38 cth: 130.8 usage: 136.29 residual: 23.09
mrth: 54.7 cth: 48.92 usage: 50.68 residual: 4.02
mrth: 27.97 cth: 23.38 usage: 23.39 residual: 4.58
mrth: 157.76 cth: 139.09 usage: 134.19 residual: 23.57
mrth: 216.16 cth: 182.41 usage: 210.33 residual: 5.83
mrth: 45.18 cth: 38.64 usage: 38.5 residual: 6.68
mrth: 134.76 cth: 111.06 usage: 78.15 residual: 56.61
mrth: 101.15 cth: 73.44 usage: 66.9 residual: 34.25
mrth: 138.13 cth: 121.97 usage: 115.54 residual: 22.59
mrth: 21.77 cth: 18.78 usage: 10.9 residual: 10.87
mrth: 69.74 cth: 53.11 usage: 37.76 residual: 31.98
mrth: 70.57 cth: 56.13 usage: 40.16 residual: 30.41
mrth: 70.63 cth: 59.86 usage: 47.01 residual: 23.62
mrth: 121.9 cth: 96.67 usage: 109.19 residual: 12.71
mrth: 196.87 cth: 172.69 usage: 144.35 residual: 52.52
mrth: 165.74 cth: 125.97 usage: 129.7 residual: 36.04
mrth: 107.21 cth: 84.91 usage: 66.3 residual: 40.91
mrth: 198.53 cth: 170.27 usage: 113.76 residual: 84.77
mrth: 47.54 cth: 36.29 usage: 33.86 residual: 13.68
mrth: 8.11 cth: 6.67 usage: 7.91 residual: 0.2
mrth: 53.69 cth: 41.45 usage: 31.38 residual: 22.31
mrth: 104.15 cth: 76.67 usage: 72.75 residual: 31.4
mrth: 118.55 cth: 94.8 usage: 86.44 residual: 32.11
mrth: 22.61 cth: 20.07 usage: 15.02 residual: 7.59
mrth: 200.26 cth: 157.21 usage: 125.65 residual: 74.61
mrth: 58.5 cth: 48.62 usage: 31.09 residual: 27.41
mrth: 135.04 cth: 103.34 usage: 134.95 residual: 0.09
mrth: 86.33 cth: 66.13 usage: 77.99 residual: 8.34
mrth: 93.54 cth: 68.21 usage: 86.15 residual: 7.39
mrth: 63.62 cth: 47.18 usage: 50.4 residual: 13.22
mrth: 134.95 cth: 113.97 usage: 87.47 residual: 47.48
mrth: 107.32 cth: 76.9 usage: 81.77 residual: 25.55
mrth: 118.24 cth: 96.01 usage: 76.74 residual: 41.5
mrth: 119.54 cth: 90.75 usage: 84.82 residual: 34.72
mrth: 70.12 cth: 52.36 usage: 54.43 residual: 15.69
mrth: 181.74 cth: 155.27 usage: 119.48 residual: 62.26
mrth: 12.03 cth: 10.44 usage: 10.7 residual: 1.33
mrth: 162.34 cth: 119.38 usage: 109.66 residual: 52.68
mrth: 160.92 cth: 143.09 usage: 104.95 residual: 55.97
mrth: 95.32 cth: 81.61 usage: 80.52 residual: 14.8
mrth: 127.36 cth: 112.67 usage: 84.42 residual: 42.94
mrth: 40.97 cth: 29.52 usage: 22.7 residual: 18.27
mrth: 178.64 cth: 144.85 usage: 175.5 residual: 3.14
mrth: 39.15 cth: 30.58 usage: 26.82 residual: 12.33
mrth: 57.04 cth: 44.21 usage: 32.54 residual: 24.5
mrth: 82.55 cth: 58.16 usage: 70.44 residual: 12.11
mrth: 79.76 cth: 55.85 usage: 72.57 residual: 7.19
mrth: 17.01 cth: 11.94 usage: 14.42 residual: 2.59
mrth: 78.12 cth: 68.23 usage: 74.35 residual: 3.77
mrth: 52.46 cth: 45.43 usage: 34.56 residual: 17.9
mrth: 78.5 cth: 60.38 usage: 54.83 residual: 23.67
mrth: 106.71 cth: 79.25 usage: 98.52 residual: 8.19
mrth: 217.79 cth: 184.2 usage: 137.57 residual: 80.22
mrth: 184.71 cth: 154.58 usage: 153.98 residual: 30.73
mrth: 73.93 cth: 61.94 usage: 68.76 residual: 5.17
mrth: 120.24 cth: 100.09 usage: 80.65 residual: 39.59
mrth: 80.29 cth: 59.87 usage: 52.33 residual: 27.96
mrth: 39.06 cth: 31.48 usage: 19.8 residual: 19.26
mrth: 96.39 cth: 85.3 usage: 86.92 residual: 9.47
mrth: 37.51 cth: 26.8 usage: 23.42 residual: 14.09
mrth: 61.94 cth: 53.63 usage: 59.75 residual: 2.19
mrth: 31.41 cth: 22.07 usage: 28.47 residual: 2.94
mrth: 133.83 cth: 96.38 usage: 92.88 residual: 40.95
mrth: 140.83 cth: 108.02 usage: 131.96 residual: 8.87
mrth: 95.6 cth: 75.7 usage: 94.93 residual: 0.67
mrth: 145.85 cth: 111.64 usage: 122.95 residual: 22.9
mrth: 144.04 cth: 127.76 usage: 75.53 residual: 68.51
mrth: 190.3 cth: 150.32 usage: 145.9 residual: 44.4
mrth: 78.04 cth: 68.65 usage: 48.75 residual: 29.29
mrth: 128.47 cth: 105.2 usage: 102.29 residual: 26.18
mrth: 64.03 cth: 47.39 usage: 49.78 residual: 14.25
mrth: 95.26 cth: 73.79 usage: 61.64 residual: 33.62
mrth: 104.81 cth: 88.39 usage: 90.1 residual: 14.71
mrth: 60.31 cth: 43.12 usage: 54.79 residual: 5.52
mrth: 48.71 cth: 35.08 usage: 41.97 residual: 6.74
mrth: 21.64 cth: 16.45 usage: 17.89 residual: 3.75
mrth: 188.86 cth: 133.18 usage: 164.78 residual: 24.08
mrth: 128.85 cth: 95.27 usage: 108.99 residual: 19.86
mrth: 86.0 cth: 69.2 usage: 73.51 residual: 12.49
mrth: 62.34 cth: 54.07 usage: 47.82 residual: 14.52
mrth: 70.31 cth: 55.81 usage: 49.37 residual: 20.94
mrth: 35.81 cth: 31.09 usage: 35.05 residual: 0.76
mrth: 111.15 cth: 88.32 usage: 75.44 residual: 35.71
mrth: 122.98 cth: 104.4 usage: 106.84 residual: 16.14
mrth: 134.32 cth: 107.02 usage: 129.84 residual: 4.48
mrth: 70.67 cth: 57.78 usage: 43.11 residual: 27.56
mrth: 73.82 cth: 60.77 usage: 44.15 residual: 29.67
mrth: 78.94 cth: 66.66 usage: 76.76 residual: 2.18
mrth: 58.14 cth: 41.0 usage: 57.56 residual: 0.58
mrth: 102.75 cth: 72.95 usage: 78.17 residual: 24.58
mrth: 164.44 cth: 144.85 usage: 125.91 residual: 38.53
mrth: 66.61 cth: 51.57 usage: 61.81 residual: 4.8
mrth: 58.69 cth: 52.4 usage: 45.1 residual: 13.59
mrth: 27.38 cth: 21.7 usage: 17.22 residual: 10.16
mrth: 163.24 cth: 123.31 usage: 158.2 residual: 5.04
mrth: 95.47 cth: 78.42 usage: 80.12 residual: 15.35
mrth: 60.86 cth: 49.57 usage: 33.75 residual: 27.11
mrth: 30.0 cth: 25.46 usage: 28.61 residual: 1.39
mrth: 105.15 cth: 92.65 usage: 86.85 residual: 18.3
mrth: 151.59 cth: 114.64 usage: 121.21 residual: 30.38
mrth: 135.28 cth: 113.46 usage: 113.5 residual: 21.78
mrth: 63.05 cth: 49.42 usage: 61.16 residual: 1.89
mrth: 145.21 cth: 102.82 usage: 81.84 residual: 63.37
mrth: 29.94 cth: 23.88 usage: 26.66 residual: 3.28
mrth: 173.64 cth: 133.43 usage: 116.49 residual: 57.15
mrth: 87.43 cth: 70.21 usage: 45.34 residual: 42.09
mrth: 130.02 cth: 95.31 usage: 99.95 residual: 30.07
mrth: 53.93 cth: 47.3 usage: 37.53 residual: 16.4
mrth: 23.54 cth: 19.09 usage: 23.02 residual: 0.52
mrth: 90.87 cth: 69.26 usage: 75.31 residual: 15.56
mrth: 97.87 cth: 87.92 usage: 67.58 residual: 30.29
mrth: 137.78 cth: 118.07 usage: 89.34 residual: 48.44
mrth: 37.26 cth: 26.79 usage: 19.54 residual: 17.72
mrth: 83.66 cth: 59.73 usage: 76.75 residual: 6.91
mrth: 121.09 cth: 87.96 usage: 69.31 residual: 51.78
mrth: 34.41 cth: 25.13 usage: 23.82 residual: 10.59
mrth: 76.79 cth: 55.16 usage: 50.55 residual: 26.24
mrth: 75.78 cth: 55.65 usage: 65.64 residual: 10.14
mrth: 133.72 cth: 115.81 usage: 101.04 residual: 32.68
mrth: 165.25 cth: 127.22 usage: 147.97 residual: 17.28
mrth: 185.58 cth: 135.68 usage: 137.33 residual: 48.25
mrth: 156.11 cth: 120.54 usage: 144.7 residual: 11.41
mrth: 69.65 cth: 54.28 usage: 53.73 residual: 15.92
mrth: 97.98 cth: 80.6 usage: 62.33 residual: 35.65
mrth: 58.38 cth: 47.58 usage: 45.67 residual: 12.71
mrth: 34.65 cth: 25.11 usage: 22.91 residual: 11.74
mrth: 190.64 cth: 144.58 usage: 159.99 residual: 30.65
mrth: 121.63 cth: 106.21 usage: 85.03 residual: 36.6
mrth: 140.89 cth: 117.77 usage: 79.89 residual: 61.0
mrth: 26.41 cth: 18.99 usage: 25.19 residual: 1.22
mrth: 82.74 cth: 70.88 usage: 65.12 residual: 17.62
mrth: 79.16 cth: 64.64 usage: 51.08 residual: 28.08
mrth: 85.66 cth: 60.39 usage: 68.55 residual: 17.11
mrth: 97.51 cth: 80.93 usage: 91.35 residual: 6.16
mrth: 219.85 cth: 180.66 usage: 117.19 residual: 102.66
mrth: 81.23 cth: 58.85 usage: 72.7 residual: 8.53
mrth: 86.16 cth: 67.11 usage: 81.2 residual: 4.96
mrth: 68.93 cth: 50.97 usage: 42.62 residual: 26.31
mrth: 122.58 cth: 97.22 usage: 82.68 residual: 39.9
mrth: 81.09 cth: 62.88 usage: 62.13 residual: 18.96
mrth: 106.91 cth: 75.19 usage: 71.37 residual: 35.54
mrth: 71.99 cth: 53.47 usage: 71.59 residual: 0.4
mrth: 223.98 cth: 179.64 usage: 180.72 residual: 43.26
mrth: 162.39 cth: 128.15 usage: 134.87 residual: 27.52
mrth: 126.33 cth: 98.15 usage: 73.91 residual: 52.42
mrth: 129.86 cth: 96.09 usage: 116.0 residual: 13.86
mrth: 89.48 cth: 77.39 usage: 65.0 residual: 24.48
mrth: 29.7 cth: 22.99 usage: 15.93 residual: 13.77
mrth: 209.84 cth: 182.65 usage: 187.99 residual: 21.85
mrth: 72.82 cth: 58.09 usage: 39.71 residual: 33.11
mrth: 119.43 cth: 83.92 usage: 108.26 residual: 11.17
mrth: 169.83 cth: 142.61 usage: 141.65 residual: 28.18
mrth: 31.06 cth: 27.71 usage: 18.95 residual: 12.11
mrth: 43.98 cth: 38.09 usage: 35.28 residual: 8.7
mrth: 77.06 cth: 58.91 usage: 71.35 residual: 5.71
mrth: 76.87 cth: 65.63 usage: 46.97 residual: 29.9
mrth: 169.72 cth: 119.7 usage: 103.31 residual: 66.41
mrth: 129.63 cth: 106.36 usage: 125.67 residual: 3.96
mrth: 72.06 cth: 58.82 usage: 61.55 residual: 10.51
mrth: 70.15 cth: 49.65 usage: 66.8 residual: 3.35
mrth: 147.06 cth: 115.1 usage: 127.44 residual: 19.62
mrth: 200.83 cth: 171.79 usage: 170.71 residual: 30.12
mrth: 46.56 cth: 40.56 usage: 28.01 residual: 18.55
mrth: 152.18 cth: 113.99 usage: 131.81 residual: 20.37
mrth: 104.37 cth: 89.86 usage: 78.61 residual: 25.76
mrth: 58.18 cth: 48.16 usage: 46.47 residual: 11.71
mrth: 28.15 cth: 21.77 usage: 25.16 residual: 2.99
mrth: 87.58 cth: 75.4 usage: 51.21 residual: 36.37
mrth: 26.42 cth: 21.59 usage: 18.31 residual: 8.11
mrth: 101.24 cth: 71.95 usage: 54.5 residual: 46.74
mrth: 19.23 cth: 17.3 usage: 14.87 residual: 4.36
mrth: 113.2 cth: 91.01 usage: 103.41 residual: 9.79
mrth: 46.73 cth: 34.87 usage: 43.27 residual: 3.46
mrth: 50.64 cth: 39.43 usage: 41.97 residual: 8.67
mrth: 86.33 cth: 70.08 usage: 66.6 residual: 19.73
mrth: 44.92 cth: 38.2 usage: 23.43 residual: 21.49
mrth: 104.39 cth: 92.49 usage: 79.04 residual: 25.35
mrth: 160.99 cth: 129.82 usage: 142.71 residual: 18.28
mrth: 45.47 cth: 39.02 usage: 43.77 residual: 1.7
mrth: 175.51 cth: 152.93 usage: 105.37 residual: 70.14
mrth: 87.44 cth: 61.69 usage: 66.74 residual: 20.7
mrth: 80.93 cth: 67.93 usage: 69.95 residual: 10.98
mrth: 148.61 cth: 132.76 usage: 107.32 residual: 41.29
mrth: 36.22 cth: 26.58 usage: 34.38 residual: 1.84
mrth: 68.36 cth: 53.89 usage: 60.85 residual: 7.51
mrth: 118.06 cth: 97.32 usage: 70.26 residual: 47.8
mrth: 95.75 cth: 68.75 usage: 54.78 residual: 40.97
mrth: 122.53 cth: 108.2 usage: 119.03 residual: 3.5
mrth: 76.73 cth: 68.88 usage: 56.09 residual: 20.64
mrth: 100.89 cth: 79.14 usage: 67.2 residual: 33.69
mrth: 124.84 cth: 94.59 usage: 79.98 residual: 44.86
mrth: 90.91 cth: 64.08 usage: 81.7 residual: 9.21
mrth: 59.95 cth: 52.61 usage: 49.46 residual: 10.49
mrth: 93.55 cth: 72.22 usage: 76.34 residual: 17.21
mrth: 156.25 cth: 133.91 usage: 88.93 residual: 67.32
mrth: 115.96 cth: 95.72 usage: 98.86 residual: 17.1
mrth: 53.2 cth: 37.44 usage: 35.31 residual: 17.89
mrth: 58.35 cth: 50.69 usage: 50.02 residual: 8.33
mrth: 164.2 cth: 142.67 usage: 84.56 residual: 79.64
mrth: 139.57 cth: 123.28 usage: 128.1 residual: 11.47
mrth: 54.01 cth: 43.95 usage: 39.04 residual: 14.97
mrth: 86.22 cth: 64.88 usage: 52.08 residual: 34.14
mrth: 40.48 cth: 30.11 usage: 33.13 residual: 7.35
mrth: 133.66 cth: 113.29 usage: 115.75 residual: 17.91
mrth: 96.3 cth: 67.78 usage: 68.79 residual: 27.51
mrth: 195.6 cth: 164.21 usage: 156.3 residual: 39.3
mrth: 55.23 cth: 47.64 usage: 40.89 residual: 14.34
mrth: 55.71 cth: 44.49 usage: 36.72 residual: 18.99
mrth: 30.34 cth: 26.14 usage: 21.2 residual: 9.14
mrth: 27.58 cth: 22.11 usage: 17.9 residual: 9.68
mrth: 98.23 cth: 81.09 usage: 68.71 residual: 29.52
mrth: 206.47 cth: 180.36 usage: 104.55 residual: 101.92
mrth: 168.35 cth: 143.17 usage: 133.5 residual: 34.85
mrth: 62.5 cth: 49.92 usage: 31.29 residual: 31.21
mrth: 71.7 cth: 51.92 usage: 58.73 residual: 12.97
mrth: 66.87 cth: 47.84 usage: 62.7 residual: 4.17
mrth: 105.91 cth: 76.4 usage: 72.82 residual: 33.09
mrth: 24.04 cth: 19.65 usage: 22.71 residual: 1.33
mrth: 148.32 cth: 126.67 usage: 114.52 residual: 33.8
mrth: 160.45 cth: 143.46 usage: 129.79 residual: 30.66
mrth: 101.43 cth: 80.29 usage: 99.8 residual: 1.63
mrth: 159.57 cth: 143.17 usage: 146.71 residual: 12.86
mrth: 99.94 cth: 88.72 usage: 66.48 residual: 33.46
mrth: 91.14 cth: 80.96 usage: 89.26 residual: 1.88
mrth: 15.75 cth: 12.35 usage: 14.09 residual: 1.66
mrth: 186.83 cth: 146.66 usage: 156.24 residual: 30.59
mrth: 72.57 cth: 64.12 usage: 60.72 residual: 11.85
mrth: 66.12 cth: 52.8 usage: 57.3 residual: 8.82
mrth: 49.93 cth: 42.66 usage: 31.08 residual: 18.85
mrth: 45.03 cth: 32.2 usage: 26.95 residual: 18.08
mrth: 153.25 cth: 136.63 usage: 120.65 residual: 32.6
mrth: 103.22 cth: 73.79 usage: 91.76 residual: 11.46
mrth: 43.67 cth: 35.76 usage: 31.67 residual: 12.0
mrth: 69.97 cth: 53.92 usage: 38.17 residual: 31.8
mrth: 18.56 cth: 15.23 usage: 15.15 residual: 3.41
mrth: 62.04 cth: 43.99 usage: 43.56 residual: 18.48
mrth: 113.61 cth: 98.08 usage: 86.3 residual: 27.31
mrth: 147.41 cth: 110.76 usage: 114.47 residual: 32.94
mrth: 71.87 cth: 57.06 usage: 60.86 residual: 11.01
mrth: 148.61 cth: 114.35 usage: 142.55 residual: 6.06
mrth: 213.19 cth: 168.71 usage: 172.65 residual: 40.54
mrth: 112.28 cth: 91.98 usage: 81.3 residual: 30.98
mrth: 177.58 cth: 143.56 usage: 101.12 residual: 76.46
mrth: 165.22 cth: 141.47 usage: 148.63 residual: 16.59
mrth: 95.35 cth: 76.5 usage: 64.01 residual: 31.34
mrth: 65.81 cth: 48.12 usage: 37.39 residual: 28.42
mrth: 141.31 cth: 115.13 usage: 98.71 residual: 42.6
mrth: 115.11 cth: 80.95 usage: 112.71 residual: 2.4
mrth: 95.15 cth: 74.13 usage: 69.4 residual: 25.75
mrth: 151.31 cth: 116.7 usage: 148.55 residual: 2.76
mrth: 124.65 cth: 100.54 usage: 97.27 residual: 27.38
mrth: 48.97 cth: 38.58 usage: 41.72 residual: 7.25
mrth: 140.0 cth: 98.62 usage: 91.34 residual: 48.66
mrth: 88.49 cth: 75.39 usage: 78.83 residual: 9.66
mrth: 146.87 cth: 118.99 usage: 119.58 residual: 27.29
mrth: 125.42 cth: 105.63 usage: 62.75 residual: 62.67
mrth: 48.82 cth: 43.24 usage: 43.37 residual: 5.45
mrth: 64.31 cth: 53.82 usage: 58.82 residual: 5.49
mrth: 97.45 cth: 84.18 usage: 93.03 residual: 4.42
mrth: 54.69 cth: 46.63 usage: 51.65 residual: 3.04
mrth: 113.51 cth: 99.1 usage: 73.5 residual: 40.01
mrth: 79.44 cth: 69.41 usage: 43.39 residual: 36.05
mrth: 90.85 cth: 66.04 usage: 67.81 residual: 23.04
mrth: 107.99 cth: 90.9 usage: 63.58 residual: 44.41
mrth: 139.65 cth: 117.51 usage: 106.02 residual: 33.63
mrth: 29.3 cth: 22.34 usage: 16.55 residual: 12.75
mrth: 82.57 cth: 62.16 usage: 75.11 residual: 7.46
mrth: 150.49 cth: 127.84 usage: 138.49 residual: 12.0
mrth: 36.74 cth: 26.82 usage: 24.89 residual: 11.85
mrth: 146.8 cth: 110.09 usage: 107.5 residual: 39.3
mrth: 81.32 cth: 70.25 usage: 60.87 residual: 20.45
mrth: 129.44 cth: 104.45 usage: 70.42 residual: 59.02
mrth: 130.24 cth: 107.51 usage: 93.53 residual: 36.71
mrth: 102.4 cth: 77.67 usage: 88.87 residual: 13.53
mrth: 84.16 cth: 74.76 usage: 77.87 residual: 6.29
mrth: 137.55 cth: 111.68 usage: 98.96 residual: 38.59
mrth: 133.56 cth: 113.5 usage: 104.75 residual: 28.81
mrth: 108.3 cth: 97.33 usage: 68.34 residual: 39.96
mrth: 41.7 cth: 30.75 usage: 39.28 residual: 2.42
mrth: 240.47 cth: 202.13 usage: 128.54 residual: 111.93
mrth: 32.9 cth: 27.97 usage: 31.31 residual: 1.59
mrth: 132.3 cth: 103.84 usage: 82.39 residual: 49.91
mrth: 187.23 cth: 133.82 usage: 113.78 residual: 73.45
mrth: 200.87 cth: 178.33 usage: 191.12 residual: 9.75
mrth: 100.24 cth: 76.07 usage: 57.23 residual: 43.01
mrth: 58.74 cth: 43.81 usage: 40.4 residual: 18.34
mrth: 195.0 cth: 138.34 usage: 145.32 residual: 49.68
mrth: 64.09 cth: 49.5 usage: 54.14 residual: 9.95
mrth: 61.74 cth: 49.07 usage: 36.06 residual: 25.68
mrth: 41.73 cth: 34.22 usage: 30.82 residual: 10.91
mrth: 101.55 cth: 84.98 usage: 67.54 residual: 34.01
mrth: 62.62 cth: 56.21 usage: 57.04 residual: 5.58
mrth: 121.75 cth: 99.56 usage: 84.23 residual: 37.52
mrth: 95.41 cth: 80.08 usage: 84.75 residual: 10.66
mrth: 145.55 cth: 117.25 usage: 92.61 residual: 52.94
mrth: 108.12 cth: 80.2 usage: 94.26 residual: 13.86
mrth: 173.36 cth: 154.51 usage: 153.69 residual: 19.67
mrth: 43.31 cth: 37.95 usage: 32.58 residual: 10.73
mrth: 37.82 cth: 29.6 usage: 23.43 residual: 14.39
mrth: 92.07 cth: 74.37 usage: 60.11 residual: 31.96
mrth: 33.36 cth: 28.13 usage: 26.11 residual: 7.25
mrth: 27.26 cth: 21.02 usage: 15.97 residual: 11.29
mrth: 51.81 cth: 40.74 usage: 33.06 residual: 18.75
mrth: 80.7 cth: 67.58 usage: 45.36 residual: 35.34
mrth: 67.05 cth: 55.77 usage: 40.16 residual: 26.89
mrth: 62.01 cth: 52.3 usage: 46.9 residual: 15.11
mrth: 19.52 cth: 14.06 usage: 15.22 residual: 4.3
mrth: 125.22 cth: 103.13 usage: 96.9 residual: 28.32
mrth: 103.13 cth: 80.56 usage: 72.88 residual: 30.25
mrth: 68.23 cth: 55.73 usage: 68.09 residual: 0.14
mrth: 29.32 cth: 21.98 usage: 16.23 residual: 13.09
mrth: 122.26 cth: 95.33 usage: 83.74 residual: 38.52
mrth: 52.72 cth: 41.44 usage: 27.46 residual: 25.26
mrth: 117.21 cth: 87.64 usage: 90.99 residual: 26.22
mrth: 70.77 cth: 52.56 usage: 46.74 residual: 24.03
mrth: 42.99 cth: 31.44 usage: 41.41 residual: 1.58
mrth: 99.53 cth: 79.3 usage: 63.65 residual: 35.88
mrth: 156.02 cth: 110.13 usage: 112.51 residual: 43.51
mrth: 137.8 cth: 104.66 usage: 127.4 residual: 10.4
mrth: 43.8 cth: 31.36 usage: 40.3 residual: 3.5
mrth: 79.41 cth: 57.55 usage: 48.7 residual: 30.71
mrth: 15.53 cth: 12.51 usage: 9.1 residual: 6.43
mrth: 100.58 cth: 75.48 usage: 58.75 residual: 41.83
mrth: 85.87 cth: 72.62 usage: 52.59 residual: 33.28
mrth: 51.48 cth: 44.01 usage: 28.25 residual: 23.23
mrth: 38.71 cth: 29.97 usage: 24.29 residual: 14.42
mrth: 51.23 cth: 40.79 usage: 42.21 residual: 9.02
mrth: 186.28 cth: 144.99 usage: 182.42 residual: 3.86
mrth: 46.16 cth: 35.43 usage: 39.76 residual: 6.4
mrth: 61.28 cth: 47.72 usage: 50.96 residual: 10.32
mrth: 130.9 cth: 111.97 usage: 126.63 residual: 4.27
mrth: 147.33 cth: 118.18 usage: 130.72 residual: 16.61
mrth: 134.35 cth: 112.14 usage: 68.23 residual: 66.12
mrth: 112.26 cth: 96.9 usage: 75.59 residual: 36.67
mrth: 152.9 cth: 107.89 usage: 87.42 residual: 65.48
mrth: 124.04 cth: 105.16 usage: 71.19 residual: 52.85
mrth: 150.02 cth: 122.83 usage: 93.62 residual: 56.4
mrth: 177.74 cth: 148.09 usage: 97.3 residual: 80.44
mrth: 40.28 cth: 34.97 usage: 36.74 residual: 3.54
mrth: 72.34 cth: 64.91 usage: 67.32 residual: 5.02
mrth: 156.03 cth: 134.42 usage: 88.44 residual: 67.59
mrth: 193.98 cth: 172.43 usage: 113.02 residual: 80.96
mrth: 135.99 cth: 107.26 usage: 95.03 residual: 40.96
mrth: 118.68 cth: 98.19 usage: 62.62 residual: 56.06
mrth: 251.41 cth: 206.59 usage: 231.62 residual: 19.79
mrth: 86.14 cth: 68.42 usage: 45.81 residual: 40.33
mrth: 65.89 cth: 51.07 usage: 58.82 residual: 7.07
mrth: 107.71 cth: 96.66 usage: 54.1 residual: 53.61
mrth: 75.77 cth: 60.08 usage: 75.16 residual: 0.61
mrth: 264.45 cth: 185.15 usage: 224.16 residual: 40.29
mrth: 100.56 cth: 87.43 usage: 63.79 residual: 36.77
mrth: 123.3 cth: 94.47 usage: 93.02 residual: 30.28
mrth: 111.71 cth: 96.97 usage: 90.87 residual: 20.84
mrth: 197.58 cth: 144.05 usage: 156.61 residual: 40.97
mrth: 115.22 cth: 88.5 usage: 107.34 residual: 7.88
mrth: 108.81 cth: 76.24 usage: 94.46 residual: 14.35
mrth: 110.0 cth: 83.5 usage: 99.84 residual: 10.16
mrth: 120.5 cth: 87.43 usage: 97.6 residual: 22.9
mrth: 60.15 cth: 51.77 usage: 37.15 residual: 23.0
mrth: 62.42 cth: 54.55 usage: 45.24 residual: 17.18
mrth: 161.74 cth: 119.5 usage: 107.46 residual: 54.28
mrth: 82.69 cth: 66.29 usage: 75.4 residual: 7.29
mrth: 59.2 cth: 46.22 usage: 43.52 residual: 15.68
mrth: 165.15 cth: 137.34 usage: 93.66 residual: 71.49
mrth: 123.77 cth: 103.07 usage: 85.03 residual: 38.74
mrth: 32.17 cth: 28.77 usage: 29.06 residual: 3.11
mrth: 120.57 cth: 103.7 usage: 72.7 residual: 47.87
mrth: 102.38 cth: 75.95 usage: 55.54 residual: 46.84
mrth: 133.63 cth: 95.6 usage: 82.64 residual: 50.99
mrth: 43.2 cth: 33.29 usage: 41.94 residual: 1.26
mrth: 198.81 cth: 168.22 usage: 143.05 residual: 55.76
mrth: 145.48 cth: 106.41 usage: 140.84 residual: 4.64
mrth: 175.11 cth: 130.14 usage: 125.38 residual: 49.73
mrth: 110.76 cth: 80.03 usage: 93.94 residual: 16.82
mrth: 96.91 cth: 75.02 usage: 94.75 residual: 2.16
mrth: 85.09 cth: 66.19 usage: 44.77 residual: 40.32
mrth: 103.45 cth: 85.49 usage: 88.63 residual: 14.82
mrth: 84.06 cth: 66.91 usage: 67.79 residual: 16.27
mrth: 69.47 cth: 56.03 usage: 57.83 residual: 11.64
mrth: 49.64 cth: 43.21 usage: 28.99 residual: 20.65
mrth: 38.28 cth: 28.57 usage: 23.54 residual: 14.74
mrth: 137.36 cth: 114.77 usage: 93.63 residual: 43.73
mrth: 118.5 cth: 105.81 usage: 74.11 residual: 44.39
mrth: 110.28 cth: 83.19 usage: 66.67 residual: 43.61
mrth: 84.19 cth: 67.2 usage: 54.07 residual: 30.12
mrth: 63.15 cth: 45.74 usage: 46.1 residual: 17.05
mrth: 55.23 cth: 45.38 usage: 43.0 residual: 12.23
mrth: 119.98 cth: 86.53 usage: 86.21 residual: 33.77
mrth: 75.52 cth: 57.74 usage: 43.54 residual: 31.98
mrth: 50.63 cth: 37.05 usage: 33.07 residual: 17.56
mrth: 110.77 cth: 84.19 usage: 108.93 residual: 1.84
mrth: 43.84 cth: 31.51 usage: 41.99 residual: 1.85
mrth: 59.78 cth: 52.69 usage: 30.26 residual: 29.52
mrth: 58.8 cth: 49.4 usage: 50.52 residual: 8.28
mrth: 37.38 cth: 29.9 usage: 32.65 residual: 4.73
mrth: 141.41 cth: 119.31 usage: 85.71 residual: 55.7
mrth: 117.37 cth: 97.55 usage: 62.86 residual: 54.51
mrth: 111.13 cth: 86.82 usage: 72.76 residual: 38.37
mrth: 63.56 cth: 44.75 usage: 33.59 residual: 29.97
mrth: 255.09 cth: 182.56 usage: 210.71 residual: 44.38
mrth: 125.9 cth: 113.27 usage: 116.96 residual: 8.94
mrth: 106.86 cth: 83.09 usage: 74.57 residual: 32.29
mrth: 199.13 cth: 152.72 usage: 105.02 residual: 94.11
mrth: 97.79 cth: 83.22 usage: 67.87 residual: 29.92
mrth: 94.16 cth: 73.48 usage: 47.73 residual: 46.43
mrth: 84.89 cth: 71.71 usage: 77.43 residual: 7.46
mrth: 56.49 cth: 44.45 usage: 56.06 residual: 0.43
mrth: 19.62 cth: 16.67 usage: 12.12 residual: 7.5
mrth: 229.15 cth: 164.1 usage: 195.16 residual: 33.99
mrth: 94.16 cth: 81.88 usage: 53.94 residual: 40.22
mrth: 63.74 cth: 56.05 usage: 61.34 residual: 2.4
mrth: 47.41 cth: 36.27 usage: 41.98 residual: 5.43
mrth: 113.96 cth: 100.11 usage: 74.85 residual: 39.11
mrth: 104.24 cth: 81.01 usage: 67.89 residual: 36.35
mrth: 177.76 cth: 152.1 usage: 100.84 residual: 76.92
mrth: 36.22 cth: 25.57 usage: 32.46 residual: 3.76
mrth: 176.99 cth: 128.31 usage: 150.12 residual: 26.87
mrth: 50.99 cth: 37.79 usage: 30.99 residual: 20.0
mrth: 121.38 cth: 107.99 usage: 82.68 residual: 38.7
mrth: 186.82 cth: 160.89 usage: 115.56 residual: 71.26
mrth: 185.2 cth: 137.87 usage: 184.19 residual: 1.01
mrth: 161.4 cth: 132.97 usage: 159.77 residual: 1.63
mrth: 92.01 cth: 74.33 usage: 75.35 residual: 16.66
mrth: 69.51 cth: 52.86 usage: 34.91 residual: 34.6
mrth: 136.17 cth: 103.15 usage: 107.81 residual: 28.36
mrth: 51.84 cth: 45.61 usage: 36.33 residual: 15.51
mrth: 62.02 cth: 54.2 usage: 54.16 residual: 7.86
mrth: 142.95 cth: 122.56 usage: 108.69 residual: 34.26
mrth: 34.89 cth: 26.61 usage: 28.96 residual: 5.93
mrth: 71.73 cth: 51.2 usage: 59.65 residual: 12.08
mrth: 102.51 cth: 87.42 usage: 88.62 residual: 13.89
mrth: 204.56 cth: 155.67 usage: 148.04 residual: 56.52
mrth: 148.33 cth: 109.05 usage: 80.52 residual: 67.81
mrth: 35.96 cth: 29.56 usage: 23.57 residual: 12.39
mrth: 178.79 cth: 151.3 usage: 126.88 residual: 51.91
mrth: 122.26 cth: 92.75 usage: 67.53 residual: 54.73
