mrth: 83.22 cth: 63.62 usage: 62.53 residual: 20.69
mrth: 117.17 cth: 96.61 usage: 87.16 residual: 30.01
mrth: 60.31 cth: 51.15 usage: 34.71 residual: 25.6
mrth: 71.07 cth: 50.26 usage: 42.19 residual: 28.88
mrth: 82.05 cth: 64.11 usage: 48.15 residual: 33.9
mrth: 39.68 cth: 27.96 usage: 38.73 residual: 0.95
mrth: 169.18 cth: 120.59 usage: 98.0 residual: 71.18
mrth: 224.13 cth: 185.47 usage: 210.6 residual: 13.53
mrth: 22.24 cth: 17.49 usage: 19.59 residual: 2.65
mrth: 67.17 cth: 54.78 usage: 52.79 residual: 14.38
mrth: 87.84 cth: 69.07 usage: 82.24 residual: 5.6
mrth: 41.36 cth: 31.55 usage: 34.63 residual: 6.73
mrth: 77.79 cth: 64.72 usage: 58.7 residual: 19.09
mrth: 9.22 cth: 7.2 usage: 7.86 residual: 1.36
mrth: 161.53 cth: 119.03 usage: 158.75 residual: 2.78
mrth: 62.19 cth: 47.86 usage: 35.13 residual: 27.06
mrth: 35.73 cth: 25.56 usage: 20.0 residual: 15.73
mrth: 85.23 cth: 74.4 usage: 45.48 residual: 39.75
mrth: 28.53 cth: 24.7 usage: 23.75 residual: 4.78
mrth: 166.73 cth: 132.78 usage: 84.41 residual: 82.32
mrth: 176.89 cth: 157.24 usage: 126.22 residual: 50.67
mrth: 171.98 cth: 149.8 usage: 109.68 residual: 62.3
mrth: 30.63 cth: 24.31 usage: 24.11 residual: 6.52
mrth: 28.7 cth: 21.59 usage: 28.17 residual: 0.53
mrth: 100.02 cth: 75.81 usage: 67.86 residual: 32.16
mrth: 152.22 cth: 126.49 usage: 78.4 residual: 73.82
mrth: 23.07 cth: 20.15 usage: 15.33 residual: 7.74
mrth: 194.03 cth: 168.69 usage: 151.18 residual: 42.85
mrth: 71.78 cth: 56.64 usage: 43.97 residual: 27.81
mrth: 95.07 cth: 74.0 usage: 87.15 residual: 7.92
mrth: 61.72 cth: 52.28 usage: 39.08 residual: 22.64
mrth: 105.52 cth: 86.71 usage: 62.18 residual: 43.34
mrth: 95.7 cth: 73.5 usage: 88.69 residual: 7.01
mrth: 66.65 cth: 49.06 usage: 59.01 residual: 7.64
mrth: 111.29 cth: 91.83 usage: 80.6 residual: 30.69
mrth: 111.6 cth: 84.94 usage: 101.21 residual: 10.39
mrth: 108.35 cth: 87.54 usage: 59.7 residual: 48.65
mrth: 136.16 cth: 119.79 usage: 131.01 residual: 5.15
mrth: 110.22 cth: 80.81 usage: 107.93 residual: 2.29
mrth: 99.14 cth: 69.68 usage: 61.74 residual: 37.4
mrth: 150.83 cth: 133.54 usage: 75.98 residual: 74.85
mrth: 159.44 cth: 120.99 usage: 159.0 residual: 0.44
mrth: 62.65 cth: 48.25 usage: 44.89 residual: 17.76
mrth: 130.35 cth: 114.32 usage: 97.33 residual: 33.02
mrth: 106.86 cth: 78.27 usage: 77.47 residual: 29.39
mrth: 10.49 cth: 8.33 usage: 5.73 residual: 4.76
mrth: 92.49 cth: 78.72 usage: 82.5 residual: 9.99
mrth: 111.77 cth: 99.04 usage: 94.98 residual: 16.79
mrth: 121.23 cth: 85.17 usage: 77.96 residual: 43.27
mrth: 91.68 cth: 71.76 usage: 56.84 residual: 34.84
mrth: 31.39 cth: 22.38 usage: 18.2 residual: 13.19
mrth: 78.62 cth: 61.4 usage: 66.39 residual: 12.23
mrth: 128.59 cth: 112.0 usage: 102.43 residual: 26.16
mrth: 83.02 cth: 60.18 usage: 62.81 residual: 20.21
mrth: 81.03 cth: 59.36 usage: 76.46 residual: 4.57
mrth: 63.28 cth: 51.45 usage: 39.49 residual: 23.79
mrth: 42.98 cth: 34.1 usage: 42.18 residual: 0.8
mrth: 62.97 cth: 46.94 usage: 52.03 residual: 10.94
mrth: 107.52 cth: 80.71 usage: 77.77 residual: 29.75
mrth: 59.22 cth: 46.46 usage: 56.95 residual: 2.27
mrth: 88.43 cth: 78.98 usage: 75.12 residual: 13.31
mrth: 167.4 cth: 141.62 usage: 98.58 residual: 68.82
mrth: 66.83 cth: 52.26 usage: 58.63 residual: 8.2
mrth: 125.95 cth: 103.65 usage: 95.05 residual: 30.9
mrth: 13.55 cth: 11.33 usage: 11.02 residual: 2.53
mrth: 34.63 cth: 30.13 usage: 23.87 residual: 10.76
mrth: 150.66 cth: 108.44 usage: 104.5 residual: 46.16
mrth: 33.37 cth: 28.96 usage: 23.36 residual: 10.01
mrth: 71.99 cth: 62.2 usage: 52.26 residual: 19.73
mrth: 70.21 cth: 59.18 usage: 38.34 residual: 31.87
mrth: 27.62 cth: 23.18 usage: 25.51 residual: 2.11
mrth: 67.56 cth: 56.0 usage: 34.59 residual: 32.97
mrth: 125.76 cth: 104.56 usage: 89.18 residual: 36.58
mrth: 90.12 cth: 63.88 usage: 59.81 residual: 30.31
mrth: 100.87 cth: 80.05 usage: 57.99 residual: 42.88
mrth: 95.68 cth: 74.9 usage: 88.37 residual: 7.31
mrth: 207.9 cth: 169.31 usage: 200.92 residual: 6.98
mrth: 55.62 cth: 41.99 usage: 50.61 residual: 5.01
mrth: 143.88 cth: 125.43 usage: 141.98 residual: 1.9
mrth: 130.63 cth: 92.0 usage: 95.38 residual: 35.25
mrth: 148.56 cth: 108.29 usage: 102.15 residual: 46.41
mrth: 149.81 cth: 111.97 usage: 143.44 residual: 6.37
mrth: 80.88 cth: 62.9 usage: 72.55 residual: 8.33
mrth: 137.66 cth: 118.19 usage: 85.69 residual: 51.97
mrth: 109.89 cth: 76.96 usage: 83.49 residual: 26.4
mrth: 63.27 cth: 52.48 usage: 46.05 residual: 17.22
mrth: 102.13 cth: 86.59 usage: 73.03 residual: 29.1
mrth: 132.09 cth: 105.51 usage: 89.67 residual: 42.42
mrth: 100.98 cth: 77.51 usage: 95.06 residual: 5.92
mrth: 175.4 cth: 128.95 usage: 131.11 residual: 44.29
mrth: 89.8 cth: 65.74 usage: 49.07 residual: 40.73
mrth: 63.97 cth: 56.67 usage: 42.09 residual: 21.88
mrth: 60.76 cth: 49.72 usage: 53.39 residual: 7.37
mrth: 114.81 cth: 97.2 usage: 64.96 residual: 49.85
mrth: 16.81 cth: 11.93 usage: 15.31 residual: 1.5
mrth: 115.54 cth: 93.62 usage: 108.95 residual: 6.59
mrth: 56.57 cth: 47.79 usage: 44.91 residual: 11.66
mrth: 76.66 cth: 61.31 usage: 52.03 residual: 24.63
mrth: 62.97 cth: 56.63 usage: 56.08 residual: 6.89
mrth: 157.67 cth: 111.5 usage: 116.88 residual: 40.79
mrth: 72.74 cth: 51.67 usage: 72.54 residual: 0.2
mrth: 63.38 cth: 47.57 usage: 37.32 residual: 26.06
mrth: 133.24 cth: 118.24 usage: 110.17 residual: 23.07
mrth: 63.01 cth: 54.48 usage: 38.09 residual: 24.92
mrth: 106.27 cth: 95.09 usage: 81.44 residual: 24.83
mrth: 109.68 cth: 84.3 usage: 97.26 residual: 12.42
mrth: 121.16 cth: 104.83 usage: 69.81 residual: 51.35
mrth: 124.21 cth: 87.24 usage: 76.8 residual: 47.41
mrth: 124.51 cth: 108.6 usage: 72.79 residual: 51.72
mrth: 153.36 cth: 125.33 usage: 97.97 residual: 55.39
mrth: 111.91 cth: 98.72 usage: 105.45 residual: 6.46
mrth: 101.64 cth: 75.12 usage: 70.45 residual: 31.19
mrth: 114.98 cth: 90.73 usage: 61.72 residual: 53.26
mrth: 176.29 cth: 148.25 usage: 105.56 residual: 70.73
mrth: 71.5 cth: 50.16 usage: 46.02 residual: 25.48
mrth: 142.54 cth: 127.4 usage: 91.13 residual: 51.41
mrth: 60.7 cth: 43.74 usage: 57.78 residual: 2.92
mrth: 30.46 cth: 24.14 usage: 18.76 residual: 11.7
mrth: 142.6 cth: 117.26 usage: 131.52 residual: 11.08
mrth: 96.65 cth: 76.21 usage: 65.63 residual: 31.02
mrth: 50.77 cth: 44.59 usage: 46.05 residual: 4.72
mrth: 58.55 cth: 47.72 usage: 47.95 residual: 10.6
mrth: 148.61 cth: 114.54 usage: 115.52 residual: 33.09
mrth: 175.67 cth: 129.61 usage: 90.57 residual: 85.1
mrth: 51.48 cth: 36.08 usage: 37.54 residual: 13.94
mrth: 149.92 cth: 124.11 usage: 83.6 residual: 66.32
mrth: 79.29 cth: 67.94 usage: 55.64 residual: 23.65
mrth: 162.24 cth: 143.9 usage: 99.82 residual: 62.42
mrth: 37.33 cth: 28.89 usage: 25.86 residual: 11.47
mrth: 49.9 cth: 40.88 usage: 33.13 residual: 16.77
mrth: 45.14 cth: 33.64 usage: 32.59 residual: 12.55
mrth: 168.61 cth: 149.13 usage: 87.3 residual: 81.31
mrth: 86.84 cth: 71.9 usage: 43.85 residual: 42.99
mrth: 43.44 cth: 31.45 usage: 42.85 residual: 0.59
mrth: 84.24 cth: 65.26 usage: 66.65 residual: 17.59
mrth: 145.96 cth: 128.38 usage: 78.59 residual: 67.37
mrth: 49.35 cth: 41.34 usage: 39.06 residual: 10.29
mrth: 36.1 cth: 29.08 usage: 24.99 residual: 11.11
mrth: 71.69 cth: 61.79 usage: 61.1 residual: 10.59
mrth: 85.36 cth: 64.17 usage: 62.94 residual: 22.42
mrth: 89.69 cth: 75.83 usage: 88.59 residual: 1.1
mrth: 44.5 cth: 36.01 usage: 35.63 residual: 8.87
mrth: 92.87 cth: 78.25 usage: 72.71 residual: 20.16
mrth: 47.99 cth: 34.21 usage: 25.35 residual: 22.64
mrth: 99.74 cth: 88.18 usage: 64.71 residual: 35.03
mrth: 63.27 cth: 45.85 usage: 57.21 residual: 6.06
mrth: 104.21 cth: 93.02 usage: 71.81 residual: 32.4
mrth: 40.47 cth: 35.23 usage: 36.97 residual: 3.5
mrth: 108.4 cth: 87.06 usage: 107.92 residual: 0.48
mrth: 102.41 cth: 89.56 usage: 79.01 residual: 23.4
mrth: 89.42 cth: 74.67 usage: 77.19 residual: 12.23
mrth: 50.76 cth: 43.07 usage: 39.42 residual: 11.34
mrth: 74.08 cth: 62.2 usage: 61.23 residual: 12.85
mrth: 40.1 cth: 33.53 usage: 24.33 residual: 15.77
mrth: 107.16 cth: 88.72 usage: 80.11 residual: 27.05
mrth: 46.69 cth: 38.8 usage: 28.05 residual: 18.64
mrth: 97.93 cth: 82.66 usage: 80.94 residual: 16.99
mrth: 97.71 cth: 71.73 usage: 66.03 residual: 31.68
mrth: 143.05 cth: 100.61 usage: 75.36 residual: 67.69
mrth: 55.82 cth: 42.41 usage: 55.59 residual: 0.23
mrth: 77.26 cth: 63.49 usage: 50.41 residual: 26.85
mrth: 91.3 cth: 70.79 usage: 87.07 residual: 4.23
mrth: 118.7 cth: 102.04 usage: 118.3 residual: 0.4
mrth: 177.65 cth: 146.2 usage: 117.25 residual: 60.4
mrth: 154.43 cth: 120.16 usage: 121.22 residual: 33.21
mrth: 71.19 cth: 50.69 usage: 47.3 residual: 23.89
mrth: 120.42 cth: 105.61 usage: 100.23 residual: 20.19
mrth: 134.64 cth: 120.51 usage: 120.28 residual: 14.36
mrth: 114.34 cth: 97.06 usage: 71.72 residual: 42.62
mrth: 115.54 cth: 92.08 usage: 101.58 residual: 13.96
mrth: 26.87 cth: 21.78 usage: 21.19 residual: 5.68
mrth: 97.89 cth: 85.35 usage: 56.04 residual: 41.85
mrth: 202.43 cth: 179.84 usage: 159.28 residual: 43.15
mrth: 45.52 cth: 40.21 usage: 34.33 residual: 11.19
mrth: 69.02 cth: 55.63 usage: 66.01 residual: 3.01
mrth: 39.52 cth: 30.68 usage: 31.24 residual: 8.28
mrth: 89.74 cth: 78.94 usage: 68.58 residual: 21.16
mrth: 111.11 cth: 95.76 usage: 71.59 residual: 39.52
mrth: 51.23 cth: 36.52 usage: 47.75 residual: 3.48
mrth: 77.14 cth: 59.86 usage: 58.3 residual: 18.84
mrth: 138.67 cth: 113.09 usage: 95.83 residual: 42.84
mrth: 36.62 cth: 27.95 usage: 33.64 residual: 2.98
mrth: 149.2 cth: 109.33 usage: 132.65 residual: 16.55
mrth: 41.65 cth: 32.61 usage: 23.35 residual: 18.3
mrth: 104.87 cth: 73.7 usage: 79.36 residual: 25.51
mrth: 200.38 cth: 174.73 usage: 178.41 residual: 21.97
mrth: 6.49 cth: 5.31 usage: 4.22 residual: 2.27
mrth: 10.8 cth: 9.46 usage: 10.02 residual: 0.78
mrth: 147.77 cth: 110.06 usage: 126.03 residual: 21.74
mrth: 115.72 cth: 97.42 usage: 96.81 residual: 18.91
mrth: 134.22 cth: 104.83 usage: 122.13 residual: 12.09
mrth: 56.8 cth: 40.67 usage: 43.48 residual: 13.32
mrth: 9.5 cth: 8.09 usage: 7.51 residual: 1.99
mrth: 80.57 cth: 70.54 usage: 66.88 residual: 13.69
mrth: 46.3 cth: 39.62 usage: 41.14 residual: 5.16
mrth: 121.39 cth: 108.25 usage: 93.13 residual: 28.26
mrth: 60.76 cth: 49.7 usage: 43.31 residual: 17.45
mrth: 93.54 cth: 80.47 usage: 78.15 residual: 15.39
mrth: 91.35 cth: 73.7 usage: 62.53 residual: 28.82
mrth: 237.61 cth: 188.16 usage: 129.65 residual: 107.96
mrth: 217.52 cth: 166.11 usage: 146.58 residual: 70.94
mrth: 70.98 cth: 59.17 usage: 46.03 residual: 24.95
mrth: 82.74 cth: 69.6 usage: 75.92 residual: 6.82
mrth: 29.22 cth: 21.63 usage: 21.76 residual: 7.46
mrth: 201.68 cth: 148.4 usage: 148.54 residual: 53.14
mrth: 80.55 cth: 71.95 usage: 80.5 residual: 0.05
mrth: 204.18 cth: 162.28 usage: 144.38 residual: 59.8
mrth: 152.1 cth: 119.22 usage: 139.29 residual: 12.81
mrth: 126.41 cth: 106.75 usage: 105.22 residual: 21.19
mrth: 102.29 cth: 80.87 usage: 74.52 residual: 27.77
mrth: 81.02 cth: 62.78 usage: 67.92 residual: 13.1
mrth: 238.54 cth: 188.52 usage: 227.21 residual: 11.33
mrth: 123.9 cth: 96.68 usage: 100.66 residual: 23.24
mrth: 96.05 cth: 84.95 usage: 65.93 residual: 30.12
mrth: 4.14 cth: 3.28 usage: 3.88 residual: 0.26
mrth: 18.67 cth: 16.28 usage: 17.23 residual: 1.44
mrth: 74.35 cth: 59.51 usage: 48.53 residual: 25.82
mrth: 73.8 cth: 58.61 usage: 64.97 residual: 8.83
mrth: 118.32 cth: 90.39 usage: 61.2 residual: 57.12
mrth: 54.07 cth: 47.56 usage: 45.45 residual: 8.62
mrth: 72.74 cth: 63.95 usage: 56.73 residual: 16.01
mrth: 83.41 cth: 72.94 usage: 67.83 residual: 15.58
mrth: 74.59 cth: 63.56 usage: 46.5 residual: 28.09
mrth: 21.14 cth: 14.95 usage: 18.14 residual: 3.0
mrth: 77.67 cth: 54.98 usage: 66.86 residual: 10.81
mrth: 139.01 cth: 122.79 usage: 95.39 residual: 43.62
mrth: 88.24 cth: 63.72 usage: 84.24 residual: 4.0
mrth: 41.16 cth: 31.83 usage: 27.57 residual: 13.59
mrth: 198.04 cth: 146.95 usage: 146.76 residual: 51.28
mrth: 95.27 cth: 79.52 usage: 87.68 residual: 7.59
mrth: 111.84 cth: 98.08 usage: 80.26 residual: 31.58
mrth: 48.48 cth: 34.38 usage: 27.43 residual: 21.05
mrth: 2.41 cth: 2.1 usage: 1.61 residual: 0.8
mrth: 110.76 cth: 88.33 usage: 106.61 residual: 4.15
mrth: 101.19 cth: 80.62 usage: 56.13 residual: 45.06
mrth: 98.09 cth: 72.15 usage: 60.18 residual: 37.91
mrth: 187.98 cth: 159.71 usage: 187.75 residual: 0.23
mrth: 61.01 cth: 46.58 usage: 52.16 residual: 8.85
mrth: 191.71 cth: 165.01 usage: 122.07 residual: 69.64
mrth: 148.33 cth: 107.13 usage: 97.83 residual: 50.5
mrth: 65.17 cth: 57.42 usage: 43.61 residual: 21.56
mrth: 188.91 cth: 156.19 usage: 175.95 residual: 12.96
mrth: 158.96 cth: 134.99 usage: 100.72 residual: 58.24
mrth: 143.52 cth: 114.01 usage: 74.15 residual: 69.37
mrth: 167.41 cth: 142.42 usage: 153.45 residual: 13.96
mrth: 219.94 cth: 187.77 usage: 126.86 residual: 93.08
mrth: 94.72 cth: 72.47 usage: 56.52 residual: 38.2
mrth: 30.42 cth: 22.41 usage: 23.05 residual: 7.37
mrth: 106.12 cth: 89.45 usage: 54.02 residual: 52.1
mrth: 9.79 cth: 8.7 usage: 9.44 residual: 0.35
mrth: 67.58 cth: 59.58 usage: 45.04 residual: 22.54
mrth: 129.27 cth: 112.18 usage: 122.22 residual: 7.05
mrth: 45.17 cth: 40.58 usage: 42.69 residual: 2.48
mrth: 12.71 cth: 10.92 usage: 8.89 residual: 3.82
mrth: 38.81 cth: 31.0 usage: 21.6 residual: 17.21
mrth: 35.3 cth: 29.74 usage: 22.62 residual: 12.68
mrth: 63.85 cth: 49.5 usage: 57.62 residual: 6.23
mrth: 42.48 cth: 36.97 usage: 40.03 residual: 2.45
mrth: 108.89 cth: 87.21 usage: 106.2 residual: 2.69
mrth: 53.59 cth: 39.02 usage: 48.37 residual: 5.22
mrth: 137.9 cth: 108.62 usage: 88.9 residual: 49.0
mrth: 102.82 cth: 83.93 usage: 56.54 residual: 46.28
mrth: 107.46 cth: 80.93 usage: 106.13 residual: 1.33
mrth: 116.57 cth: 87.68 usage: 77.98 residual: 38.59
mrth: 100.28 cth: 81.19 usage: 65.07 residual: 35.21
mrth: 31.4 cth: 26.63 usage: 22.25 residual: 9.15
mrth: 103.88 cth: 93.16 usage: 90.57 residual: 13.31
mrth: 59.89 cth: 44.62 usage: 32.25 residual: 27.64
mrth: 97.92 cth: 84.0 usage: 78.99 residual: 18.93
mrth: 108.39 cth: 81.21 usage: 92.36 residual: 16.03
mrth: 82.96 cth: 65.24 usage: 79.47 residual: 3.49
mrth: 90.01 cth: 66.02 usage: 71.91 residual: 18.1
mrth: 37.95 cth: 30.64 usage: 24.46 residual: 13.49
mrth: 78.16 cth: 68.77 usage: 71.53 residual: 6.63
mrth: 33.47 cth: 26.55 usage: 28.12 residual: 5.35
mrth: 134.07 cth: 110.81 usage: 130.86 residual: 3.21
mrth: 165.33 cth: 127.51 usage: 140.65 residual: 24.68
mrth: 128.04 cth: 109.48 usage: 112.59 residual: 15.45
mrth: 105.75 cth: 92.48 usage: 89.94 residual: 15.81
mrth: 93.98 cth: 74.84 usage: 49.02 residual: 44.96
mrth: 148.41 cth: 116.83 usage: 102.3 residual: 46.11
mrth: 142.77 cth: 102.58 usage: 108.17 residual: 34.6
mrth: 116.34 cth: 84.97 usage: 98.61 residual: 17.73
mrth: 104.08 cth: 83.75 usage: 73.35 residual: 30.73
mrth: 96.57 cth: 85.05 usage: 59.99 residual: 36.58
mrth: 90.74 cth: 74.59 usage: 75.5 residual: 15.24
mrth: 37.08 cth: 28.62 usage: 24.49 residual: 12.59
mrth: 138.47 cth: 101.33 usage: 99.17 residual: 39.3
mrth: 18.19 cth: 13.67 usage: 18.1 residual: 0.09
mrth: 33.15 cth: 29.16 usage: 30.93 residual: 2.22
mrth: 63.92 cth: 51.95 usage: 33.25 residual: 30.67
mrth: 86.05 cth: 68.47 usage: 81.7 residual: 4.35
mrth: 127.12 cth: 102.42 usage: 126.72 residual: 0.4
mrth: 98.52 cth: 80.51 usage: 76.94 residual: 21.58
mrth: 96.85 cth: 79.8 usage: 87.54 residual: 9.31
mrth: 21.45 cth: 17.68 usage: 15.71 residual: 5.74
mrth: 87.52 cth: 68.82 usage: 85.77 residual: 1.75
mrth: 166.72 cth: 118.68 usage: 91.06 residual: 75.66
mrth: 147.52 cth: 118.6 usage: 105.54 residual: 41.98
mrth: 89.99 cth: 66.55 usage: 83.13 residual: 6.86
mrth: 35.73 cth: 26.62 usage: 30.98 residual: 4.75
mrth: 77.96 cth: 69.47 usage: 50.56 residual: 27.4
mrth: 156.48 cth: 139.24 usage: 122.3 residual: 34.18
mrth: 79.3 cth: 64.95 usage: 60.18 residual: 19.12
mrth: 14.78 cth: 11.29 usage: 14.51 residual: 0.27
mrth: 87.74 cth: 77.73 usage: 50.51 residual: 37.23
mrth: 133.37 cth: 119.94 usage: 92.42 residual: 40.95
mrth: 121.83 cth: 92.53 usage: 98.84 residual: 22.99
mrth: 133.15 cth: 101.53 usage: 88.8 residual: 44.35
mrth: 69.72 cth: 55.67 usage: 67.1 residual: 2.62
mrth: 28.87 cth: 22.46 usage: 26.17 residual: 2.7
mrth: 53.86 cth: 45.61 usage: 32.13 residual: 21.73
mrth: 36.62 cth: 27.48 usage: 33.74 residual: 2.88
mrth: 148.94 cth: 112.06 usage: 111.57 residual: 37.37
mrth: 80.73 cth: 65.29 usage: 47.75 residual: 32.98
mrth: 65.52 cth: 55.52 usage: 48.08 residual: 17.44
mrth: 153.79 cth: 137.4 usage: 146.56 residual: 7.23
mrth: 26.72 cth: 19.11 usage: 17.61 residual: 9.11
mrth: 29.14 cth: 25.2 usage: 17.39 residual: 11.75
mrth: 122.08 cth: 106.0 usage: 113.04 residual: 9.04
mrth: 131.56 cth: 117.64 usage: 111.06 residual: 20.5
mrth: 170.25 cth: 128.13 usage: 108.2 residual: 62.05
mrth: 168.48 cth: 147.63 usage: 100.72 residual: 67.76
mrth: 115.36 cth: 89.93 usage: 101.66 residual: 13.7
mrth: 86.52 cth: 70.55 usage: 76.32 residual: 10.2
mrth: 119.43 cth: 102.79 usage: 80.44 residual: 38.99
mrth: 41.65 cth: 30.55 usage: 35.29 residual: 6.36
mrth: 59.44 cth: 50.48 usage: 56.85 residual: 2.59
mrth: 115.06 cth: 94.31 usage: 67.35 residual: 47.71
mrth: 161.79 cth: 133.9 usage: 88.97 residual: 72.82
mrth: 78.81 cth: 64.9 usage: 52.33 residual: 26.48
mrth: 113.61 cth: 89.13 usage: 82.03 residual: 31.58
mrth: 90.13 cth: 78.05 usage: 78.64 residual: 11.49
mrth: 51.97 cth: 41.43 usage: 45.72 residual: 6.25
mrth: 169.13 cth: 123.45 usage: 119.83 residual: 49.3
mrth: 21.05 cth: 17.08 usage: 14.6 residual: 6.45
mrth: 102.39 cth: 87.3 usage: 95.34 residual: 7.05
mrth: 60.15 cth: 44.48 usage: 37.01 residual: 23.14
mrth: 108.27 cth: 80.86 usage: 101.3 residual: 6.97
mrth: 90.5 cth: 77.58 usage: 77.06 residual: 13.44
mrth: 43.76 cth: 37.13 usage: 43.02 residual: 0.74
mrth: 106.07 cth: 85.48 usage: 57.59 residual: 48.48
mrth: 101.31 cth: 72.17 usage: 51.51 residual: 49.8
mrth: 51.62 cth: 39.44 usage: 33.46 residual: 18.16
mrth: 32.61 cth: 26.66 usage: 23.26 residual: 9.35
mrth: 18.41 cth: 15.95 usage: 10.51 residual: 7.9
mrth: 117.62 cth: 90.43 usage: 86.19 residual: 31.43
mrth: 85.79 cth: 76.3 usage: 54.93 residual: 30.86
mrth: 124.52 cth: 94.75 usage: 80.21 residual: 44.31
mrth: 90.11 cth: 64.96 usage: 49.78 residual: 40.33
mrth: 86.53 cth: 63.63 usage: 61.15 residual: 25.38
mrth: 56.39 cth: 47.29 usage: 38.17 residual: 18.22
mrth: 46.48 cth: 39.72 usage: 30.38 residual: 16.1
mrth: 142.27 cth: 121.43 usage: 114.87 residual: 27.4
mrth: 138.23 cth: 102.88 usage: 107.73 residual: 30.5
mrth: 89.37 cth: 76.53 usage: 64.2 residual: 25.17
mrth: 60.65 cth: 51.71 usage: 57.28 residual: 3.37
mrth: 123.8 cth: 99.97 usage: 74.15 residual: 49.65
mrth: 63.4 cth: 51.81 usage: 62.89 residual: 0.51
mrth: 50.87 cth: 40.11 usage: 41.1 residual: 9.77
mrth: 82.97 cth: 67.05 usage: 74.97 residual: 8.0
mrth: 85.85 cth: 61.0 usage: 79.86 residual: 5.99
mrth: 77.43 cth: 68.0 usage: 60.04 residual: 17.39
mrth: 67.33 cth: 58.26 usage: 52.45 residual: 14.88
mrth: 76.95 cth: 62.08 usage: 76.55 residual: 0.4
mrth: 67.86 cth: 54.6 usage: 40.59 residual: 27.27
mrth: 28.36 cth: 22.39 usage: 19.42 residual: 8.94
mrth: 80.21 cth: 59.87 usage: 60.23 residual: 19.98
mrth: 112.34 cth: 82.71 usage: 73.27 residual: 39.07
mrth: 128.43 cth: 96.8 usage: 94.77 residual: 33.66
mrth: 116.37 cth: 84.59 usage: 105.32 residual: 11.05
mrth: 59.32 cth: 42.15 usage: 49.4 residual: 9.92
mrth: 68.63 cth: 56.01 usage: 65.97 residual: 2.66
mrth: 97.87 cth: 80.57 usage: 49.68 residual: 48.19
mrth: 46.49 cth: 38.7 usage: 27.54 residual: 18.95
mrth: 108.89 cth: 93.63 usage: 73.9 residual: 34.99
mrth: 47.96 cth: 37.79 usage: 43.95 residual: 4.01
mrth: 190.73 cth: 168.59 usage: 172.14 residual: 18.59
mrth: 208.6 cth: 155.79 usage: 148.79 residual: 59.81
mrth: 64.08 cth: 56.32 usage: 37.44 residual: 26.64
mrth: 6.15 cth: 5.44 usage: 4.69 residual: 1.46
mrth: 93.46 cth: 71.48 usage: 50.2 residual: 43.26
mrth: 111.76 cth: 85.1 usage: 73.33 residual: 38.43
mrth: 39.22 cth: 32.59 usage: 37.45 residual: 1.77
mrth: 97.15 cth: 70.84 usage: 55.23 residual: 41.92
mrth: 157.77 cth: 128.1 usage: 100.07 residual: 57.7
mrth: 118.72 cth: 85.9 usage: 78.19 residual: 40.53
mrth: 174.18 cth: 149.91 usage: 123.48 residual: 50.7
mrth: 41.29 cth: 34.61 usage: 25.7 residual: 15.59
mrth: 164.05 cth: 133.96 usage: 114.65 residual: 49.4
mrth: 54.59 cth: 42.72 usage: 47.97 residual: 6.62
mrth: 129.28 cth: 105.27 usage: 95.89 residual: 33.39
mrth: 151.83 cth: 131.81 usage: 123.6 residual: 28.23
mrth: 47.57 cth: 41.63 usage: 26.82 residual: 20.75
mrth: 168.05 cth: 139.25 usage: 142.75 residual: 25.3
mrth: 115.83 cth: 85.92 usage: 69.07 residual: 46.76
mrth: 31.2 cth: 22.11 usage: 29.31 residual: 1.89
mrth: 47.01 cth: 33.95 usage: 41.88 residual: 5.13
mrth: 48.27 cth: 37.39 usage: 38.87 residual: 9.4
mrth: 65.77 cth: 48.76 usage: 55.32 residual: 10.45
mrth: 91.2 cth: 64.13 usage: 57.36 residual: 33.84
mrth: 98.19 cth: 75.74 usage: 79.0 residual: 19.19
mrth: 40.43 cth: 32.25 usage: 37.82 residual: 2.61
mrth: 136.56 cth: 118.52 usage: 87.99 residual: 48.57
mrth: 137.48 cth: 111.38 usage: 116.93 residual: 20.55
mrth: 30.55 cth: 23.4 usage: 27.85 residual: 2.7
mrth: 27.56 cth: 22.91 usage: 25.66 residual: 1.9
mrth: 73.56 cth: 60.44 usage: 57.56 residual: 16.0
mrth: 78.87 cth: 61.63 usage: 42.65 residual: 36.22
mrth: 249.07 cth: 204.56 usage: 220.33 residual: 28.74
mrth: 73.7 cth: 58.67 usage: 41.86 residual: 31.84
mrth: 90.35 cth: 71.9 usage: 77.85 residual: 12.5
mrth: 122.81 cth: 93.15 usage: 93.34 residual: 29.47
mrth: 117.57 cth: 87.86 usage: 79.28 residual: 38.29
mrth: 65.48 cth: 56.36 usage: 50.52 residual: 14.96
mrth: 146.04 cth: 114.18 usage: 137.68 residual: 8.36
mrth: 157.41 cth: 137.19 usage: 101.98 residual: 55.43
mrth: 68.78 cth: 60.47 usage: 58.04 residual: 10.74
mrth: 91.7 cth: 64.39 usage: 62.36 residual: 29.34
mrth: 109.37 cth: 98.11 usage: 85.01 residual: 24.36
mrth: 76.54 cth: 57.23 usage: 61.3 residual: 15.24
mrth: 25.17 cth: 19.88 usage: 22.1 residual: 3.07
mrth: 62.03 cth: 44.86 usage: 50.08 residual: 11.95
mrth: 122.03 cth: 87.4 usage: 102.29 residual: 19.74
mrth: 245.03 cth: 186.47 usage: 220.78 residual: 24.25
mrth: 73.48 cth: 52.76 usage: 39.67 residual: 33.81
mrth: 48.12 cth: 35.17 usage: 27.31 residual: 20.81
mrth: 78.13 cth: 64.07 usage: 59.74 residual: 18.39
mrth: 130.01 cth: 105.56 usage: 110.04 residual: 19.97
mrth: 76.04 cth: 63.21 usage: 48.56 residual: 27.48
mrth: 60.88 cth: 42.67 usage: 38.62 residual: 22.26
mrth: 98.52 cth: 85.88 usage: 94.5 residual: 4.02
mrth: 239.97 cth: 209.89 usage: 230.26 residual: 9.71
mrth: 42.94 cth: 38.42 usage: 31.82 residual: 11.12
mrth: 182.65 cth: 137.72 usage: 117.54 residual: 65.11
mrth: 64.64 cth: 52.46 usage: 36.31 residual: 28.33
mrth: 61.43 cth: 50.63 usage: 32.36 residual: 29.07
mrth: 79.82 cth: 69.31 usage: 49.38 residual: 30.44
mrth: 115.14 cth: 101.83 usage: 65.46 residual: 49.68
mrth: 110.61 cth: 83.59 usage: 67.86 residual: 42.75
mrth: 250.47 cth: 204.45 usage: 234.02 residual: 16.45
mrth: 187.38 cth: 162.1 usage: 109.63 residual: 77.75
mrth: 86.09 cth: 60.99 usage: 77.84 residual: 8.25
mrth: 76.36 cth: 54.32 usage: 56.6 residual: 19.76
mrth: 214.16 cth: 166.72 usage: 147.43 residual: 66.73
mrth: 39.05 cth: 30.15 usage: 35.11 residual: 3.94
mrth: 17.97 cth: 15.84 usage: 10.6 residual: 7.37
mrth: 71.77 cth: 63.47 usage: 45.62 residual: 26.15
mrth: 36.25 cth: 32.44 usage: 29.28 residual: 6.97
mrth: 65.88 cth: 47.18 usage: 44.39 residual: 21.49
mrth: 190.96 cth: 137.92 usage: 124.78 residual: 66.18
mrth: 13.51 cth: 10.57 usage: 7.88 residual: 5.63
mrth: 66.26 cth: 59.49 usage: 46.06 residual: 20.2
mrth: 69.45 cth: 55.26 usage: 41.21 residual: 28.24
mrth: 159.14 cth: 115.12 usage: 155.23 residual: 3.91
mrth: 64.11 cth: 55.41 usage: 43.79 residual: 20.32
mrth: 132.85 cth: 118.54 usage: 108.73 residual: 24.12
mrth: 128.75 cth: 103.45 usage: 85.73 residual: 43.02
mrth: 69.54 cth: 59.7 usage: 34.83 residual: 34.71
mrth: 127.45 cth: 110.99 usage: 76.35 residual: 51.1
mrth: 132.87 cth: 106.27 usage: 110.66 residual: 22.21
mrth: 76.42 cth: 56.69 usage: 41.82 residual: 34.6
mrth: 61.57 cth: 48.83 usage: 60.34 residual: 1.23
mrth: 69.41 cth: 55.72 usage: 55.64 residual: 13.77
mrth: 79.58 cth: 61.27 usage: 52.65 residual: 26.93
mrth: 99.79 cth: 75.66 usage: 88.02 residual: 11.77
mrth: 94.83 cth: 75.46 usage: 88.88 residual: 5.95
mrth: 152.46 cth: 119.1 usage: 114.38 residual: 38.08
mrth: 90.42 cth: 72.29 usage: 67.31 residual: 23.11
mrth: 110.35 cth: 88.4 usage: 73.08 residual: 37.27
mrth: 95.67 cth: 80.58 usage: 82.62 residual: 13.05
mrth: 178.15 cth: 137.13 usage: 146.38 residual: 31.77
mrth: 208.6 cth: 178.0 usage: 113.2 residual: 95.4
mrth: 121.23 cth: 90.06 usage: 92.03 residual: 29.2
mrth: 134.05 cth: 106.53 usage: 102.16 residual: 31.89
mrth: 47.67 cth: 35.57 usage: 44.07 residual: 3.6
mrth: 59.05 cth: 47.94 usage: 45.8 residual: 13.25
mrth: 150.68 cth: 122.43 usage: 134.11 residual: 16.57
mrth: 39.1 cth: 33.84 usage: 28.11 residual: 10.99
mrth: 120.76 cth: 88.19 usage: 105.89 residual: 14.87
mrth: 100.53 cth: 87.39 usage: 86.35 residual: 14.18
mrth: 64.38 cth: 53.13 usage: 38.21 residual: 26.17
mrth: 250.68 cth: 187.68 usage: 143.83 residual: 106.85
mrth: 112.8 cth: 84.18 usage: 92.92 residual: 19.88
mrth: 72.93 cth: 58.2 usage: 52.46 residual: 20.47
mrth: 72.89 cth: 55.46 usage: 47.24 residual: 25.65
mrth: 173.18 cth: 138.31 usage: 160.51 residual: 12.67
mrth: 91.74 cth: 65.4 usage: 47.57 residual: 44.17
mrth: 79.0 cth: 56.95 usage: 50.5 residual: 28.5
mrth: 72.06 cth: 52.04 usage: 36.88 residual: 35.18
mrth: 31.67 cth: 24.95 usage: 28.26 residual: 3.41
mrth: 127.25 cth: 112.73 usage: 113.88 residual: 13.37
mrth: 40.61 cth: 28.52 usage: 34.3 residual: 6.31
mrth: 171.75 cth: 154.22 usage: 152.28 residual: 19.47
mrth: 121.54 cth: 91.61 usage: 84.43 residual: 37.11
mrth: 40.34 cth: 35.99 usage: 28.87 residual: 11.47
mrth: 75.41 cth: 66.38 usage: 40.59 residual: 34.82
mrth: 168.95 cth: 137.3 usage: 108.19 residual: 60.76
mrth: 74.73 cth: 60.86 usage: 43.38 residual: 31.35
mrth: 186.88 cth: 144.99 usage: 123.72 residual: 63.16
mrth: 62.33 cth: 54.49 usage: 59.56 residual: 2.77
mrth: 118.81 cth: 99.01 usage: 98.71 residual: 20.1
mrth: 142.17 cth: 117.14 usage: 141.52 residual: 0.65
mrth: 58.36 cth: 47.0 usage: 34.52 residual: 23.84
mrth: 71.55 cth: 63.14 usage: 36.63 residual: 34.92
mrth: 214.62 cth: 158.26 usage: 128.13 residual: 86.49
mrth: 49.03 cth: 36.9 usage: 41.17 residual: 7.86
mrth: 103.66 cth: 79.29 usage: 90.51 residual: 13.15
mrth: 30.84 cth: 26.47 usage: 27.76 residual: 3.08
mrth: 202.72 cth: 152.63 usage: 181.39 residual: 21.33
mrth: 54.6 cth: 46.31 usage: 34.25 residual: 20.35
mrth: 134.55 cth: 120.9 usage: 77.26 residual: 57.29
mrth: 85.79 cth: 62.25 usage: 85.39 residual: 0.4
mrth: 128.53 cth: 100.61 usage: 83.82 residual: 44.71
mrth: 46.09 cth: 41.22 usage: 36.6 residual: 9.49
mrth: 54.92 cth: 38.9 usage: 54.08 residual: 0.84
mrth: 112.83 cth: 89.93 usage: 82.21 residual: 30.62
mrth: 138.14 cth: 123.91 usage: 132.41 residual: 5.73
mrth: 76.84 cth: 67.93 usage: 42.09 residual: 34.75
mrth: 31.37 cth: 27.42 usage: 17.57 residual: 13.8
mrth: 123.9 cth: 95.32 usage: 71.03 residual: 52.87
mrth: 128.88 cth: 93.76 usage: 70.65 residual: 58.23
mrth: 100.34 cth: 88.65 usage: 64.71 residual: 35.63
mrth: 30.85 cth: 24.68 usage: 26.9 residual: 3.95
mrth: 175.63 cth: 156.05 usage: 137.26 residual: 38.37
mrth: 119.09 cth: 88.31 usage: 80.92 residual: 38.17
mrth: 175.24 cth: 135.99 usage: 99.63 residual: 75.61
mrth: 33.13 cth: 26.03 usage: 29.64 residual: 3.49
mrth: 94.57 cth: 82.12 usage: 52.91 residual: 41.66
mrth: 93.53 cth: 68.65 usage: 61.41 residual: 32.12
mrth: 50.7 cth: 41.86 usage: 29.89 residual: 20.81
mrth: 153.4 cth: 110.35 usage: 97.9 residual: 55.5
mrth: 139.49 cth: 119.44 usage: 129.59 residual: 9.9
mrth: 51.67 cth: 39.46 usage: 38.36 residual: 13.31
mrth: 130.85 cth: 100.37 usage: 105.36 residual: 25.49
mrth: 51.08 cth: 41.36 usage: 47.35 residual: 3.73
mrth: 69.24 cth: 53.86 usage: 38.96 residual: 30.28
mrth: 145.9 cth: 116.34 usage: 94.81 residual: 51.09
mrth: 85.62 cth: 67.37 usage: 54.94 residual: 30.68
mrth: 171.58 cth: 131.27 usage: 92.71 residual: 78.87
mrth: 50.63 cth: 37.77 usage: 35.87 residual: 14.76
mrth: 93.61 cth: 76.72 usage: 55.95 residual: 37.66
mrth: 109.46 cth: 79.78 usage: 69.6 residual: 39.86
mrth: 68.52 cth: 54.85 usage: 66.98 residual: 1.54
mrth: 45.04 cth: 33.26 usage: 41.83 residual: 3.21
mrth: 52.06 cth: 46.73 usage: 31.86 residual: 20.2
mrth: 38.14 cth: 26.99 usage: 22.7 residual: 15.44
mrth: 190.48 cth: 155.49 usage: 116.25 residual: 74.23
mrth: 77.92 cth: 61.79 usage: 66.36 residual: 11.56
mrth: 128.01 cth: 105.81 usage: 64.86 residual: 63.15
mrth: 59.37 cth: 46.18 usage: 57.89 residual: 1.48
mrth: 115.65 cth: 86.52 usage: 84.96 residual: 30.69
mrth: 43.11 cth: 36.9 usage: 33.45 residual: 9.66
mrth: 18.45 cth: 13.82 usage: 13.07 residual: 5.38
mrth: 220.74 cth: 186.74 usage: 182.9 residual: 37.84
mrth: 110.2 cth: 94.4 usage: 82.17 residual: 28.03
mrth: 133.03 cth: 117.89 usage: 67.94 residual: 65.09
mrth: 85.43 cth: 66.55 usage: 80.54 residual: 4.89
mrth: 70.32 cth: 58.29 usage: 51.1 residual: 19.22
mrth: 82.39 cth: 71.89 usage: 75.04 residual: 7.35
mrth: 92.52 cth: 66.27 usage: 75.15 residual: 17.37
mrth: 127.61 cth: 114.71 usage: 114.06 residual: 13.55
mrth: 195.46 cth: 164.07 usage: 165.82 residual: 29.64
mrth: 30.24 cth: 22.16 usage: 17.07 residual: 13.17
mrth: 68.3 cth: 54.87 usage: 51.95 residual: 16.35
mrth: 80.85 cth: 63.87 usage: 80.24 residual: 0.61
mrth: 51.63 cth: 40.79 usage: 43.67 residual: 7.96
mrth: 142.88 cth: 103.82 usage: 121.05 residual: 21.83
mrth: 138.73 cth: 116.22 usage: 106.57 residual: 32.16
mrth: 40.2 cth: 36.07 usage: 38.47 residual: 1.73
mrth: 106.14 cth: 81.01 usage: 67.88 residual: 38.26
mrth: 71.53 cth: 53.22 usage: 63.32 residual: 8.21
mrth: 167.53 cth: 139.67 usage: 108.28 residual: 59.25
mrth: 80.9 cth: 58.61 usage: 47.69 residual: 33.21
mrth: 32.56 cth: 29.2 usage: 24.43 residual: 8.13
mrth: 63.35 cth: 56.59 usage: 36.39 residual: 26.96
mrth: 108.1 cth: 76.73 usage: 75.11 residual: 32.99
mrth: 116.71 cth: 101.82 usage: 83.38 residual: 33.33
mrth: 117.73 cth: 97.03 usage: 114.85 residual: 2.88
mrth: 105.22 cth: 80.81 usage: 74.64 residual: 30.58
mrth: 117.03 cth: 85.81 usage: 89.25 residual: 27.78
mrth: 88.34 cth: 64.13 usage: 68.51 residual: 19.83
mrth: 143.99 cth: 126.44 usage: 114.65 residual: 29.34
mrth: 91.42 cth: 81.49 usage: 56.38 residual: 35.04
mrth: 63.82 cth: 55.2 usage: 61.29 residual: 2.53
mrth: 76.02 cth: 64.25 usage: 44.99 residual: 31.03
mrth: 40.29 cth: 31.6 usage: 35.06 residual: 5.23
mrth: 104.92 cth: 90.83 usage: 95.98 residual: 8.94
mrth: 29.15 cth: 24.26 usage: 21.41 residual: 7.74
mrth: 122.92 cth: 89.38 usage: 120.36 residual: 2.56
mrth: 132.57 cth: 119.01 usage: 118.89 residual: 13.68
mrth: 33.99 cth: 29.87 usage: 22.04 residual: 11.95
mrth: 43.32 cth: 36.5 usage: 33.58 residual: 9.74
mrth: 81.46 cth: 71.59 usage: 50.55 residual: 30.91
mrth: 31.18 cth: 24.21 usage: 19.12 residual: 12.06
mrth: 84.29 cth: 66.58 usage: 61.64 residual: 22.65
mrth: 108.18 cth: 89.52 usage: 61.7 residual: 46.48
mrth: 183.69 cth: 140.22 usage: 169.29 residual: 14.4
mrth: 121.67 cth: 92.77 usage: 73.01 residual: 48.66
mrth: 98.65 cth: 76.75 usage: 66.93 residual: 31.72
mrth: 107.09 cth: 76.25 usage: 64.7 residual: 42.39
mrth: 133.29 cth: 107.65 usage: 84.44 residual: 48.85
mrth: 79.62 cth: 69.43 usage: 74.49 residual: 5.13
mrth: 66.6 cth: 55.16 usage: 64.16 residual: 2.44
mrth: 68.54 cth: 58.98 usage: 52.99 residual: 15.55
mrth: 36.56 cth: 32.5 usage: 22.49 residual: 14.07
mrth: 107.56 cth: 87.43 usage: 105.26 residual: 2.3
mrth: 43.68 cth: 34.91 usage: 39.95 residual: 3.73
mrth: 136.19 cth: 111.75 usage: 88.88 residual: 47.31
mrth: 29.27 cth: 22.07 usage: 23.65 residual: 5.62
mrth: 39.42 cth: 29.34 usage: 35.58 residual: 3.84
mrth: 185.5 cth: 149.83 usage: 126.27 residual: 59.23
mrth: 59.23 cth: 47.64 usage: 49.41 residual: 9.82
mrth: 66.72 cth: 60.04 usage: 46.22 residual: 20.5
mrth: 143.7 cth: 120.86 usage: 108.25 residual: 35.45
mrth: 22.43 cth: 18.12 usage: 11.46 residual: 10.97
mrth: 158.97 cth: 116.53 usage: 130.77 residual: 28.2
mrth: 48.12 cth: 40.23 usage: 35.45 residual: 12.67
mrth: 150.01 cth: 127.46 usage: 84.37 residual: 65.64
mrth: 51.13 cth: 45.18 usage: 47.03 residual: 4.1
mrth: 35.01 cth: 27.86 usage: 28.02 residual: 6.99
mrth: 80.43 cth: 69.79 usage: 60.15 residual: 20.28
mrth: 186.74 cth: 148.23 usage: 181.78 residual: 4.96
mrth: 62.56 cth: 50.26 usage: 50.11 residual: 12.45
mrth: 151.13 cth: 134.34 usage: 77.44 residual: 73.69
mrth: 88.32 cth: 75.57 usage: 83.09 residual: 5.23
mrth: 49.99 cth: 40.69 usage: 30.19 residual: 19.8
mrth: 21.75 cth: 17.22 usage: 19.18 residual: 2.57
mrth: 66.92 cth: 59.04 usage: 39.9 residual: 27.02
mrth: 85.86 cth: 70.45 usage: 60.81 residual: 25.05
mrth: 109.97 cth: 89.33 usage: 105.32 residual: 4.65
mrth: 12.3 cth: 9.09 usage: 10.46 residual: 1.84
mrth: 9.32 cth: 7.67 usage: 9.12 residual: 0.2
mrth: 95.44 cth: 68.75 usage: 87.53 residual: 7.91
mrth: 118.49 cth: 87.7 usage: 116.26 residual: 2.23
mrth: 148.06 cth: 130.57 usage: 123.48 residual: 24.58
mrth: 169.88 cth: 143.32 usage: 154.35 residual: 15.53
mrth: 28.17 cth: 23.57 usage: 17.41 residual: 10.76
mrth: 73.43 cth: 64.26 usage: 40.62 residual: 32.81
mrth: 217.43 cth: 173.04 usage: 172.8 residual: 44.63
mrth: 133.49 cth: 108.3 usage: 97.81 residual: 35.68
mrth: 87.3 cth: 78.26 usage: 83.84 residual: 3.46
mrth: 96.88 cth: 80.37 usage: 73.13 residual: 23.75
mrth: 114.4 cth: 89.05 usage: 69.39 residual: 45.01
mrth: 144.98 cth: 120.27 usage: 105.42 residual: 39.56
mrth: 93.58 cth: 80.72 usage: 91.57 residual: 2.01
mrth: 8.06 cth: 5.83 usage: 7.08 residual: 0.98
mrth: 134.08 cth: 120.36 usage: 125.74 residual: 8.34
mrth: 67.31 cth: 53.73 usage: 53.27 residual: 14.04
mrth: 38.23 cth: 28.64 usage: 20.3 residual: 17.93
mrth: 44.74 cth: 37.74 usage: 36.98 residual: 7.76
mrth: 54.93 cth: 42.44 usage: 37.72 residual: 17.21
mrth: 125.83 cth: 102.24 usage: 95.95 residual: 29.88
mrth: 47.31 cth: 39.67 usage: 39.88 residual: 7.43
mrth: 66.49 cth: 58.7 usage: 42.85 residual: 23.64
mrth: 95.18 cth: 75.63 usage: 63.23 residual: 31.95
mrth: 240.73 cth: 188.64 usage: 206.77 residual: 33.96
mrth: 23.59 cth: 18.0 usage: 14.04 residual: 9.55
mrth: 41.08 cth: 28.85 usage: 36.99 residual: 4.09
mrth: 60.19 cth: 51.09 usage: 46.07 residual: 14.12
mrth: 5.14 cth: 4.43 usage: 2.67 residual: 2.47
mrth: 109.72 cth: 93.28 usage: 83.53 residual: 26.19
mrth: 56.31 cth: 44.08 usage: 28.44 residual: 27.87
mrth: 121.67 cth: 104.56 usage: 88.49 residual: 33.18
mrth: 152.89 cth: 108.65 usage: 103.35 residual: 49.54
mrth: 32.32 cth: 25.28 usage: 17.86 residual: 14.46
mrth: 99.88 cth: 78.93 usage: 78.27 residual: 21.61
mrth: 52.55 cth: 43.45 usage: 29.28 residual: 23.27
mrth: 45.2 cth: 36.82 usage: 42.09 residual: 3.11
mrth: 132.77 cth: 115.12 usage: 80.37 residual: 52.4
mrth: 13.74 cth: 10.09 usage: 10.35 residual: 3.39
mrth: 81.64 cth: 71.58 usage: 57.82 residual: 23.82
mrth: 44.88 cth: 31.42 usage: 27.95 residual: 16.93
mrth: 181.63 cth: 145.9 usage: 113.08 residual: 68.55
mrth: 68.58 cth: 48.38 usage: 56.11 residual: 12.47
mrth: 36.26 cth: 30.08 usage: 35.4 residual: 0.86
mrth: 11.7 cth: 10.1 usage: 6.53 residual: 5.17
mrth: 148.64 cth: 131.56 usage: 130.0 residual: 18.64
mrth: 165.08 cth: 143.34 usage: 102.47 residual: 62.61
mrth: 74.75 cth: 56.05 usage: 51.28 residual: 23.47
mrth: 110.38 cth: 82.3 usage: 69.47 residual: 40.91
mrth: 52.92 cth: 42.85 usage: 46.18 residual: 6.74
mrth: 165.6 cth: 121.25 usage: 149.24 residual: 16.36
mrth: 138.5 cth: 100.85 usage: 106.0 residual: 32.5
mrth: 91.71 cth: 71.55 usage: 79.24 residual: 12.47
mrth: 52.91 cth: 45.16 usage: 29.41 residual: 23.5
mrth: 69.42 cth: 60.53 usage: 58.46 residual: 10.96
mrth: 62.12 cth: 47.36 usage: 32.32 residual: 29.8
mrth: 139.97 cth: 115.08 usage: 114.96 residual: 25.01
mrth: 131.73 cth: 111.71 usage: 66.12 residual: 65.61
mrth: 115.29 cth: 84.82 usage: 110.21 residual: 5.08
mrth: 32.91 cth: 24.17 usage: 29.2 residual: 3.71
mrth: 115.99 cth: 103.54 usage: 114.06 residual: 1.93
mrth: 89.82 cth: 65.64 usage: 82.25 residual: 7.57
mrth: 115.49 cth: 100.25 usage: 71.82 residual: 43.67
mrth: 161.21 cth: 131.82 usage: 101.5 residual: 59.71
mrth: 93.49 cth: 83.27 usage: 53.68 residual: 39.81
mrth: 57.54 cth: 41.51 usage: 30.14 residual: 27.4
mrth: 46.87 cth: 36.19 usage: 39.59 residual: 7.28
mrth: 105.95 cth: 76.75 usage: 96.48 residual: 9.47
mrth: 129.95 cth: 106.04 usage: 115.0 residual: 14.95
mrth: 78.15 cth: 64.45 usage: 59.77 residual: 18.38
mrth: 146.72 cth: 122.6 usage: 105.08 residual: 41.64
mrth: 99.73 cth: 86.57 usage: 87.33 residual: 12.4
mrth: 135.95 cth: 99.45 usage: 95.41 residual: 40.54
mrth: 116.45 cth: 93.03 usage: 97.56 residual: 18.89
mrth: 131.75 cth: 95.17 usage: 90.82 residual: 40.93
mrth: 100.63 cth: 88.79 usage: 98.55 residual: 2.08
mrth: 72.05 cth: 51.0 usage: 52.32 residual: 19.73
mrth: 162.52 cth: 131.29 usage: 137.8 residual: 24.72
mrth: 134.5 cth: 101.29 usage: 114.93 residual: 19.57
mrth: 132.68 cth: 117.36 usage: 76.32 residual: 56.36
mrth: 160.98 cth: 141.64 usage: 89.92 residual: 71.06
mrth: 100.69 cth: 82.8 usage: 88.15 residual: 12.54
mrth: 64.21 cth: 47.24 usage: 50.49 residual: 13.72
mrth: 75.99 cth: 66.65 usage: 63.63 residual: 12.36
mrth: 167.64 cth: 124.52 usage: 85.77 residual: 81.87
mrth: 18.79 cth: 15.11 usage: 18.07 residual: 0.72
mrth: 133.27 cth: 115.46 usage: 78.9 residual: 54.37
mrth: 215.9 cth: 164.21 usage: 181.59 residual: 34.31
mrth: 99.52 cth: 87.93 usage: 91.12 residual: 8.4
mrth: 81.37 cth: 73.09 usage: 48.79 residual: 32.58
mrth: 94.35 cth: 73.85 usage: 50.61 residual: 43.74
mrth: 26.01 cth: 18.43 usage: 16.14 residual: 9.87
mrth: 124.3 cth: 103.67 usage: 97.11 residual: 27.19
mrth: 122.81 cth: 89.54 usage: 107.52 residual: 15.29
mrth: 92.28 cth: 65.75 usage: 79.44 residual: 12.84
mrth: 133.01 cth: 98.36 usage: 102.44 residual: 30.57
mrth: 120.22 cth: 107.62 usage: 118.83 residual: 1.39
mrth: 36.97 cth: 26.21 usage: 18.71 residual: 18.26
mrth: 137.14 cth: 120.14 usage: 121.31 residual: 15.83
mrth: 126.65 cth: 96.5 usage: 99.89 residual: 26.76
mrth: 112.88 cth: 79.99 usage: 66.45 residual: 46.43
mrth: 73.94 cth: 62.13 usage: 71.19 residual: 2.75
mrth: 63.24 cth: 47.15 usage: 46.93 residual: 16.31
mrth: 33.35 cth: 27.74 usage: 19.77 residual: 13.58
mrth: 71.66 cth: 55.44 usage: 64.47 residual: 7.19
mrth: 31.33 cth: 23.38 usage: 18.11 residual: 13.22
mrth: 140.72 cth: 115.68 usage: 106.49 residual: 34.23
mrth: 187.99 cth: 160.33 usage: 163.7 residual: 24.29
mrth: 164.25 cth: 129.39 usage: 126.56 residual: 37.69
mrth: 72.97 cth: 59.26 usage: 63.34 residual: 9.63
mrth: 130.1 cth: 114.06 usage: 120.68 residual: 9.42
mrth: 49.14 cth: 44.22 usage: 35.69 residual: 13.45
mrth: 6.69 cth: 5.14 usage: 5.21 residual: 1.48
mrth: 146.56 cth: 110.32 usage: 80.43 residual: 66.13
mrth: 67.27 cth: 53.81 usage: 51.08 residual: 16.19
mrth: 150.69 cth: 113.97 usage: 140.18 residual: 10.51
mrth: 86.89 cth: 68.36 usage: 67.08 residual: 19.81
mrth: 123.89 cth: 88.52 usage: 89.25 residual: 34.64
mrth: 34.6 cth: 29.21 usage: 19.74 residual: 14.86
mrth: 197.1 cth: 161.59 usage: 181.4 residual: 15.7
mrth: 127.99 cth: 96.29 usage: 116.56 residual: 11.43
mrth: 99.29 cth: 84.69 usage: 83.39 residual: 15.9
mrth: 59.06 cth: 50.45 usage: 51.67 residual: 7.39
mrth: 180.29 cth: 127.04 usage: 115.32 residual: 64.97
mrth: 36.32 cth: 27.22 usage: 23.82 residual: 12.5
mrth: 36.82 cth: 26.75 usage: 22.99 residual: 13.83
mrth: 16.18 cth: 11.72 usage: 10.57 residual: 5.61
mrth: 60.72 cth: 44.03 usage: 42.58 residual: 18.14
mrth: 143.31 cth: 117.22 usage: 111.4 residual: 31.91
mrth: 69.27 cth: 61.99 usage: 37.08 residual: 32.19
mrth: 141.41 cth: 119.43 usage: 141.05 residual: 0.36
mrth: 39.08 cth: 31.52 usage: 30.09 residual: 8.99
mrth: 217.3 cth: 167.95 usage: 134.8 residual: 82.5
mrth: 105.29 cth: 90.75 usage: 78.81 residual: 26.48
mrth: 20.37 cth: 17.84 usage: 16.52 residual: 3.85
mrth: 102.81 cth: 92.2 usage: 95.89 residual: 6.92
mrth: 100.68 cth: 76.04 usage: 89.18 residual: 11.5
mrth: 54.56 cth: 45.96 usage: 37.0 residual: 17.56
mrth: 91.38 cth: 81.29 usage: 49.38 residual: 42.0
mrth: 39.71 cth: 33.9 usage: 26.25 residual: 13.46
mrth: 42.49 cth: 34.42 usage: 26.47 residual: 16.02
mrth: 56.8 cth: 46.35 usage: 42.63 residual: 14.17
mrth: 165.63 cth: 119.55 usage: 147.7 residual: 17.93
mrth: 175.44 cth: 136.32 usage: 106.65 residual: 68.79
mrth: 147.49 cth: 123.13 usage: 74.19 residual: 73.3
mrth: 89.54 cth: 70.29 usage: 85.82 residual: 3.72
mrth: 145.74 cth: 102.06 usage: 119.93 residual: 25.81
mrth: 105.7 cth: 93.35 usage: 63.87 residual: 41.83
mrth: 159.56 cth: 120.82 usage: 98.28 residual: 61.28
mrth: 49.12 cth: 43.47 usage: 42.93 residual: 6.19
mrth: 64.6 cth: 47.95 usage: 51.86 residual: 12.74
mrth: 53.85 cth: 39.27 usage: 38.89 residual: 14.96
mrth: 130.92 cth: 108.82 usage: 99.44 residual: 31.48
mrth: 84.69 cth: 65.92 usage: 43.18 residual: 41.51
mrth: 18.08 cth: 13.33 usage: 15.38 residual: 2.7
mrth: 140.57 cth: 101.7 usage: 117.78 residual: 22.79
mrth: 184.77 cth: 137.39 usage: 160.61 residual: 24.16
mrth: 50.4 cth: 42.59 usage: 31.93 residual: 18.47
mrth: 62.1 cth: 55.45 usage: 59.2 residual: 2.9
mrth: 70.4 cth: 53.09 usage: 35.33 residual: 35.07
mrth: 98.5 cth: 70.65 usage: 71.81 residual: 26.69
mrth: 137.44 cth: 108.69 usage: 117.84 residual: 19.6
mrth: 79.63 cth: 56.82 usage: 65.25 residual: 14.38
mrth: 39.22 cth: 29.89 usage: 37.12 residual: 2.1
mrth: 116.73 cth: 81.9 usage: 66.15 residual: 50.58
mrth: 75.17 cth: 59.35 usage: 64.95 residual: 10.22
mrth: 132.8 cth: 97.18 usage: 130.13 residual: 2.67
mrth: 144.08 cth: 119.89 usage: 142.21 residual: 1.87
mrth: 173.13 cth: 128.63 usage: 96.17 residual: 76.96
mrth: 147.36 cth: 131.49 usage: 135.29 residual: 12.07
mrth: 67.13 cth: 50.7 usage: 56.36 residual: 10.77
mrth: 98.23 cth: 74.2 usage: 86.05 residual: 12.18
mrth: 50.42 cth: 41.69 usage: 26.72 residual: 23.7
mrth: 57.11 cth: 44.43 usage: 36.98 residual: 20.13
mrth: 63.03 cth: 47.61 usage: 48.38 residual: 14.65
mrth: 185.08 cth: 158.46 usage: 184.17 residual: 0.91
mrth: 30.41 cth: 23.34 usage: 27.53 residual: 2.88
mrth: 21.19 cth: 17.87 usage: 18.65 residual: 2.54
mrth: 48.34 cth: 40.34 usage: 34.36 residual: 13.98
mrth: 152.43 cth: 122.36 usage: 117.11 residual: 35.32
mrth: 113.66 cth: 83.6 usage: 93.74 residual: 19.92
mrth: 46.6 cth: 34.81 usage: 36.35 residual: 10.25
mrth: 75.39 cth: 67.35 usage: 61.76 residual: 13.63
mrth: 50.05 cth: 37.43 usage: 42.74 residual: 7.31
mrth: 10.35 cth: 8.79 usage: 5.58 residual: 4.77
mrth: 65.23 cth: 48.88 usage: 37.93 residual: 27.3
mrth: 235.82 cth: 198.49 usage: 161.62 residual: 74.2
mrth: 49.41 cth: 35.14 usage: 34.25 residual: 15.16
mrth: 32.67 cth: 27.87 usage: 17.47 residual: 15.2
mrth: 13.06 cth: 9.93 usage: 13.02 residual: 0.04
mrth: 63.63 cth: 55.78 usage: 61.07 residual: 2.56
mrth: 59.68 cth: 49.16 usage: 38.13 residual: 21.55
mrth: 81.71 cth: 69.73 usage: 61.74 residual: 19.97
mrth: 205.3 cth: 148.06 usage: 198.22 residual: 7.08
mrth: 49.77 cth: 43.62 usage: 38.24 residual: 11.53
mrth: 52.27 cth: 42.59 usage: 52.07 residual: 0.2
mrth: 104.35 cth: 81.72 usage: 65.56 residual: 38.79
mrth: 69.94 cth: 59.26 usage: 67.21 residual: 2.73
mrth: 66.62 cth: 51.39 usage: 44.93 residual: 21.69
mrth: 108.29 cth: 92.63 usage: 97.45 residual: 10.84
mrth: 50.83 cth: 42.41 usage: 35.25 residual: 15.58
mrth: 125.96 cth: 105.54 usage: 77.65 residual: 48.31
mrth: 111.01 cth: 82.93 usage: 68.37 residual: 42.64
mrth: 148.12 cth: 127.88 usage: 143.51 residual: 4.61
mrth: 167.49 cth: 142.71 usage: 110.6 residual: 56.89
mrth: 155.08 cth: 132.3 usage: 95.95 residual: 59.13
mrth: 85.4 cth: 75.2 usage: 44.99 residual: 40.41
mrth: 56.6 cth: 41.57 usage: 44.85 residual: 11.75
mrth: 106.26 cth: 85.22 usage: 83.55 residual: 22.71
mrth: 92.63 cth: 71.34 usage: 56.38 residual: 36.25
mrth: 29.13 cth: 23.42 usage: 24.61 residual: 4.52
mrth: 161.62 cth: 139.05 usage: 111.13 residual: 50.49
mrth: 35.6 cth: 29.26 usage: 31.52 residual: 4.08
mrth: 52.56 cth: 45.36 usage: 51.46 residual: 1.1
mrth: 84.62 cth: 63.14 usage: 67.29 residual: 17.33
mrth: 64.66 cth: 45.42 usage: 54.84 residual: 9.82
mrth: 35.94 cth: 30.8 usage: 33.01 residual: 2.93
mrth: 37.67 cth: 29.64 usage: 24.84 residual: 12.83
mrth: 126.24 cth: 110.73 usage: 124.64 residual: 1.6
mrth: 20.81 cth: 16.49 usage: 13.4 residual: 7.41
mrth: 45.43 cth: 34.23 usage: 39.04 residual: 6.39
mrth: 69.84 cth: 48.91 usage: 68.19 residual: 1.65
mrth: 82.79 cth: 58.81 usage: 62.99 residual: 19.8
mrth: 170.33 cth: 126.99 usage: 109.58 residual: 60.75
mrth: 72.05 cth: 50.73 usage: 67.77 residual: 4.28
mrth: 170.34 cth: 138.36 usage: 139.19 residual: 31.15
mrth: 33.3 cth: 24.23 usage: 20.61 residual: 12.69
mrth: 157.01 cth: 141.05 usage: 143.0 residual: 14.01
mrth: 98.67 cth: 72.97 usage: 50.91 residual: 47.76
mrth: 122.75 cth: 109.78 usage: 107.67 residual: 15.08
mrth: 43.54 cth: 32.83 usage: 37.89 residual: 5.65
mrth: 60.62 cth: 53.82 usage: 50.67 residual: 9.95
mrth: 136.83 cth: 100.26 usage: 77.67 residual: 59.16
mrth: 85.13 cth: 67.31 usage: 56.77 residual: 28.36
mrth: 95.23 cth: 77.74 usage: 80.11 residual: 15.12
mrth: 89.98 cth: 66.46 usage: 58.15 residual: 31.83
mrth: 35.09 cth: 30.91 usage: 28.81 residual: 6.28
mrth: 110.48 cth: 91.66 usage: 104.46 residual: 6.02
mrth: 98.78 cth: 86.72 usage: 59.06 residual: 39.72
mrth: 119.52 cth: 90.69 usage: 68.53 residual: 50.99
mrth: 221.69 cth: 198.99 usage: 116.54 residual: 105.15
mrth: 106.11 cth: 78.51 usage: 92.55 residual: 13.56
mrth: 27.08 cth: 22.72 usage: 13.89 residual: 13.19
mrth: 110.07 cth: 82.36 usage: 100.49 residual: 9.58
mrth: 92.69 cth: 64.95 usage: 68.41 residual: 24.28
mrth: 39.51 cth: 31.44 usage: 28.55 residual: 10.96
mrth: 64.91 cth: 54.19 usage: 39.1 residual: 25.81
mrth: 121.46 cth: 85.48 usage: 63.42 residual: 58.04
mrth: 60.31 cth: 44.12 usage: 46.73 residual: 13.58
mrth: 77.97 cth: 63.02 usage: 52.02 residual: 25.95
mrth: 102.22 cth: 79.17 usage: 85.26 residual: 16.96
mrth: 113.28 cth: 90.92 usage: 57.35 residual: 55.93
mrth: 59.66 cth: 50.13 usage: 56.42 residual: 3.24
mrth: 59.43 cth: 43.04 usage: 52.79 residual: 6.64
mrth: 95.45 cth: 73.94 usage: 92.73 residual: 2.72
mrth: 131.12 cth: 111.4 usage: 103.46 residual: 27.66
mrth: 49.33 cth: 38.19 usage: 39.96 residual: 9.37
mrth: 162.79 cth: 140.1 usage: 159.77 residual: 3.02
mrth: 106.55 cth: 89.17 usage: 53.7 residual: 52.85
mrth: 127.3 cth: 94.66 usage: 64.7 residual: 62.6
mrth: 73.21 cth: 56.63 usage: 47.44 residual: 25.77
mrth: 42.23 cth: 32.21 usage: 41.59 residual: 0.64
mrth: 69.59 cth: 51.23 usage: 58.43 residual: 11.16
mrth: 142.44 cth: 111.42 usage: 113.75 residual: 28.69
mrth: 152.72 cth: 126.95 usage: 105.07 residual: 47.65
mrth: 79.66 cth: 56.57 usage: 48.23 residual: 31.43
mrth: 21.12 cth: 18.93 usage: 11.58 residual: 9.54
mrth: 172.4 cth: 151.97 usage: 103.76 residual: 68.64
mrth: 32.13 cth: 27.55 usage: 30.41 residual: 1.72
mrth: 127.34 cth: 96.21 usage: 84.34 residual: 43.0
mrth: 25.67 cth: 22.63 usage: 24.31 residual: 1.36
mrth: 71.94 cth: 56.46 usage: 39.98 residual: 31.96
mrth: 15.02 cth: 11.97 usage: 10.68 residual: 4.34
mrth: 78.83 cth: 58.62 usage: 62.84 residual: 15.99
mrth: 307.11 cth: 257.43 usage: 260.3 residual: 46.81
mrth: 46.36 cth: 35.86 usage: 25.06 residual: 21.3
mrth: 91.42 cth: 68.5 usage: 82.42 residual: 9.0
mrth: 29.73 cth: 24.44 usage: 20.33 residual: 9.4
mrth: 90.26 cth: 69.38 usage: 73.96 residual: 16.3
mrth: 91.37 cth: 72.57 usage: 59.33 residual: 32.04
mrth: 118.85 cth: 86.76 usage: 104.82 residual: 14.03
mrth: 112.1 cth: 81.03 usage: 108.58 residual: 3.52
mrth: 81.52 cth: 59.36 usage: 77.11 residual: 4.41
mrth: 31.84 cth: 27.14 usage: 27.31 residual: 4.53
mrth: 136.52 cth: 95.57 usage: 126.64 residual: 9.88
mrth: 87.14 cth: 64.85 usage: 84.21 residual: 2.93
mrth: 47.9 cth: 39.56 usage: 43.41 residual: 4.49
mrth: 53.76 cth: 47.79 usage: 30.7 residual: 23.06
mrth: 11.52 cth: 9.28 usage: 10.9 residual: 0.62
mrth: 33.16 cth: 25.63 usage: 26.32 residual: 6.84
mrth: 51.72 cth: 36.64 usage: 29.74 residual: 21.98
mrth: 113.79 cth: 101.77 usage: 60.73 residual: 53.06
mrth: 93.16 cth: 70.53 usage: 87.57 residual: 5.59
mrth: 34.15 cth: 28.36 usage: 26.48 residual: 7.67
mrth: 112.74 cth: 85.05 usage: 64.03 residual: 48.71
mrth: 86.18 cth: 76.03 usage: 57.71 residual: 28.47
mrth: 120.39 cth: 91.22 usage: 93.53 residual: 26.86
mrth: 106.14 cth: 92.06 usage: 62.02 residual: 44.12
mrth: 166.12 cth: 118.42 usage: 116.97 residual: 49.15
mrth: 80.49 cth: 68.11 usage: 59.32 residual: 21.17
mrth: 268.64 cth: 233.38 usage: 241.5 residual: 27.14
mrth: 53.71 cth: 43.83 usage: 45.36 residual: 8.35
mrth: 30.45 cth: 25.51 usage: 16.4 residual: 14.05
mrth: 186.09 cth: 153.17 usage: 166.74 residual: 19.35
mrth: 139.89 cth: 105.08 usage: 81.85 residual: 58.04
mrth: 97.63 cth: 78.99 usage: 64.16 residual: 33.47
mrth: 26.7 cth: 21.08 usage: 25.5 residual: 1.2
mrth: 52.91 cth: 47.21 usage: 48.71 residual: 4.2
mrth: 36.56 cth: 31.14 usage: 31.52 residual: 5.04
mrth: 108.46 cth: 80.16 usage: 74.99 residual: 33.47
mrth: 88.94 cth: 73.54 usage: 70.45 residual: 18.49
mrth: 98.05 cth: 71.95 usage: 87.81 residual: 10.24
mrth: 107.73 cth: 87.03 usage: 85.61 residual: 22.12
mrth: 11.95 cth: 8.39 usage: 7.74 residual: 4.21
mrth: 104.88 cth: 77.26 usage: 65.21 residual: 39.67
mrth: 46.08 cth: 37.12 usage: 23.25 residual: 22.83
mrth: 92.22 cth: 71.23 usage: 91.29 residual: 0.93
mrth: 192.7 cth: 161.88 usage: 140.04 residual: 52.66
mrth: 183.81 cth: 160.46 usage: 179.38 residual: 4.43
mrth: 72.42 cth: 51.86 usage: 62.09 residual: 10.33
mrth: 42.91 cth: 30.12 usage: 36.78 residual: 6.13
mrth: 84.51 cth: 59.39 usage: 66.47 residual: 18.04
mrth: 202.61 cth: 153.16 usage: 111.67 residual: 90.94
mrth: 130.74 cth: 113.17 usage: 76.69 residual: 54.05
mrth: 20.36 cth: 18.28 usage: 14.66 residual: 5.7
mrth: 51.81 cth: 42.83 usage: 26.57 residual: 25.24
mrth: 21.27 cth: 16.26 usage: 19.13 residual: 2.14
mrth: 21.57 cth: 16.19 usage: 14.8 residual: 6.77
mrth: 15.05 cth: 11.46 usage: 8.63 residual: 6.42
mrth: 82.98 cth: 70.27 usage: 80.36 residual: 2.62
mrth: 20.63 cth: 15.95 usage: 16.66 residual: 3.97
mrth: 204.22 cth: 180.93 usage: 151.91 residual: 52.31
mrth: 105.61 cth: 94.56 usage: 88.69 residual: 16.92
mrth: 100.07 cth: 78.66 usage: 60.63 residual: 39.44
mrth: 75.18 cth: 65.06 usage: 48.4 residual: 26.78
mrth: 17.2 cth: 13.55 usage: 14.83 residual: 2.37
mrth: 23.04 cth: 18.01 usage: 13.33 residual: 9.71
mrth: 117.77 cth: 102.67 usage: 103.76 residual: 14.01
mrth: 42.35 cth: 29.72 usage: 35.22 residual: 7.13
mrth: 82.73 cth: 72.0 usage: 77.78 residual: 4.95
mrth: 51.65 cth: 44.47 usage: 40.2 residual: 11.45
mrth: 161.03 cth: 133.61 usage: 134.65 residual: 26.38
mrth: 72.16 cth: 63.92 usage: 59.91 residual: 12.25
mrth: 111.54 cth: 90.46 usage: 73.28 residual: 38.26
mrth: 76.9 cth: 68.6 usage: 68.13 residual: 8.77
mrth: 71.58 cth: 59.08 usage: 67.67 residual: 3.91
mrth: 102.6 cth: 90.18 usage: 97.92 residual: 4.68
mrth: 84.24 cth: 71.88 usage: 79.45 residual: 4.79
mrth: 91.72 cth: 67.21 usage: 56.68 residual: 35.04
mrth: 77.49 cth: 68.61 usage: 70.69 residual: 6.8
mrth: 268.4 cth: 216.47 usage: 256.66 residual: 11.74
mrth: 196.7 cth: 141.66 usage: 152.08 residual: 44.62
mrth: 126.22 cth: 91.34 usage: 78.75 residual: 47.47
mrth: 45.42 cth: 37.07 usage: 26.26 residual: 19.16
mrth: 146.56 cth: 110.89 usage: 137.41 residual: 9.15
mrth: 130.54 cth: 108.57 usage: 96.11 residual: 34.43
mrth: 80.0 cth: 61.06 usage: 62.27 residual: 17.73
mrth: 118.47 cth: 92.93 usage: 100.06 residual: 18.41
mrth: 78.57 cth: 55.33 usage: 59.37 residual: 19.2
mrth: 156.89 cth: 115.88 usage: 138.2 residual: 18.69
mrth: 192.16 cth: 147.04 usage: 132.76 residual: 59.4
mrth: 227.07 cth: 178.93 usage: 136.64 residual: 90.43
mrth: 191.16 cth: 162.64 usage: 135.78 residual: 55.38
mrth: 135.18 cth: 105.61 usage: 111.87 residual: 23.31
mrth: 104.46 cth: 82.39 usage: 59.57 residual: 44.89
mrth: 81.99 cth: 66.12 usage: 49.95 residual: 32.04
mrth: 34.57 cth: 29.81 usage: 20.38 residual: 14.19
mrth: 103.5 cth: 76.2 usage: 72.56 residual: 30.94
