mrth: 64.97 cth: 51.18 usage: 45.84 residual: 19.13
mrth: 78.23 cth: 64.51 usage: 60.3 residual: 17.93
mrth: 165.56 cth: 137.94 usage: 132.24 residual: 33.32
mrth: 73.46 cth: 65.2 usage: 56.94 residual: 16.52
mrth: 107.12 cth: 84.26 usage: 98.02 residual: 9.1
mrth: 85.65 cth: 67.42 usage: 61.62 residual: 24.03
mrth: 56.81 cth: 42.29 usage: 28.45 residual: 28.36
mrth: 2.26 cth: 1.92 usage: 1.53 residual: 0.73
mrth: 117.02 cth: 98.42 usage: 112.61 residual: 4.41
mrth: 97.55 cth: 83.66 usage: 57.59 residual: 39.96
mrth: 99.22 cth: 76.19 usage: 59.76 residual: 39.46
mrth: 172.58 cth: 146.68 usage: 127.79 residual: 44.79
mrth: 76.7 cth: 61.55 usage: 39.97 residual: 36.73
mrth: 98.6 cth: 77.21 usage: 83.26 residual: 15.34
mrth: 135.52 cth: 110.49 usage: 106.85 residual: 28.67
mrth: 165.9 cth: 130.94 usage: 95.8 residual: 70.1
mrth: 121.64 cth: 108.24 usage: 80.43 residual: 41.21
mrth: 107.96 cth: 80.85 usage: 64.35 residual: 43.61
mrth: 60.71 cth: 50.54 usage: 43.82 residual: 16.89
mrth: 105.44 cth: 84.34 usage: 75.71 residual: 29.73
mrth: 112.79 cth: 81.9 usage: 111.47 residual: 1.32
mrth: 71.41 cth: 52.62 usage: 65.3 residual: 6.11
mrth: 63.45 cth: 53.36 usage: 61.19 residual: 2.26
mrth: 140.25 cth: 124.9 usage: 111.21 residual: 29.04
mrth: 94.57 cth: 83.59 usage: 75.14 residual: 19.43
mrth: 76.83 cth: 58.52 usage: 57.94 residual: 18.89
mrth: 80.65 cth: 61.13 usage: 52.69 residual: 27.96
mrth: 123.72 cth: 99.23 usage: 120.85 residual: 2.87
mrth: 144.31 cth: 101.7 usage: 117.26 residual: 27.05
mrth: 41.91 cth: 36.73 usage: 28.67 residual: 13.24
mrth: 185.37 cth: 145.61 usage: 100.17 residual: 85.2
mrth: 51.46 cth: 43.41 usage: 35.91 residual: 15.55
mrth: 146.03 cth: 118.97 usage: 142.33 residual: 3.7
mrth: 85.25 cth: 65.07 usage: 47.48 residual: 37.77
mrth: 51.69 cth: 45.84 usage: 27.54 residual: 24.15
mrth: 71.63 cth: 54.96 usage: 42.77 residual: 28.86
mrth: 102.42 cth: 89.03 usage: 78.4 residual: 24.02
mrth: 101.77 cth: 80.31 usage: 89.6 residual: 12.17
mrth: 81.68 cth: 70.29 usage: 66.78 residual: 14.9
mrth: 66.65 cth: 59.78 usage: 64.25 residual: 2.4
mrth: 183.71 cth: 139.97 usage: 113.27 residual: 70.44
mrth: 25.88 cth: 19.57 usage: 23.0 residual: 2.88
mrth: 77.07 cth: 62.1 usage: 42.96 residual: 34.11
mrth: 63.37 cth: 55.56 usage: 47.07 residual: 16.3
mrth: 84.95 cth: 64.46 usage: 78.54 residual: 6.41
mrth: 95.69 cth: 79.65 usage: 77.79 residual: 17.9
mrth: 145.69 cth: 112.19 usage: 135.1 residual: 10.59
mrth: 63.11 cth: 55.72 usage: 34.07 residual: 29.04
mrth: 52.73 cth: 41.38 usage: 47.72 residual: 5.01
mrth: 78.91 cth: 61.84 usage: 63.79 residual: 15.12
mrth: 102.25 cth: 79.2 usage: 89.37 residual: 12.88
mrth: 179.28 cth: 126.39 usage: 112.27 residual: 67.01
mrth: 92.79 cth: 78.42 usage: 47.93 residual: 44.86
mrth: 110.09 cth: 97.91 usage: 81.92 residual: 28.17
mrth: 121.8 cth: 85.41 usage: 102.8 residual: 19.0
mrth: 24.79 cth: 19.05 usage: 19.13 residual: 5.66
mrth: 29.52 cth: 22.1 usage: 19.7 residual: 9.82
mrth: 102.0 cth: 75.29 usage: 51.16 residual: 50.84
mrth: 123.32 cth: 109.33 usage: 119.79 residual: 3.53
mrth: 58.16 cth: 43.19 usage: 47.23 residual: 10.93
mrth: 129.04 cth: 101.77 usage: 83.1 residual: 45.94
mrth: 60.21 cth: 48.14 usage: 42.83 residual: 17.38
mrth: 104.34 cth: 75.05 usage: 103.56 residual: 0.78
mrth: 80.16 cth: 56.49 usage: 77.01 residual: 3.15
mrth: 7.95 cth: 6.9 usage: 6.06 residual: 1.89
mrth: 104.09 cth: 89.09 usage: 91.31 residual: 12.78
mrth: 133.12 cth: 102.28 usage: 77.22 residual: 55.9
mrth: 86.25 cth: 77.5 usage: 68.57 residual: 17.68
mrth: 182.96 cth: 149.7 usage: 131.51 residual: 51.45
mrth: 81.99 cth: 63.87 usage: 53.7 residual: 28.29
mrth: 162.21 cth: 132.12 usage: 128.21 residual: 34.0
mrth: 60.9 cth: 45.51 usage: 38.34 residual: 22.56
mrth: 92.77 cth: 79.75 usage: 51.45 residual: 41.32
mrth: 79.42 cth: 55.71 usage: 49.82 residual: 29.6
mrth: 123.59 cth: 89.76 usage: 89.43 residual: 34.16
mrth: 61.72 cth: 53.72 usage: 48.56 residual: 13.16
mrth: 39.95 cth: 30.5 usage: 30.05 residual: 9.9
mrth: 180.78 cth: 149.23 usage: 168.52 residual: 12.26
mrth: 75.25 cth: 66.15 usage: 60.56 residual: 14.69
mrth: 55.28 cth: 45.6 usage: 43.36 residual: 11.92
mrth: 141.48 cth: 118.68 usage: 123.41 residual: 18.07
mrth: 49.23 cth: 35.64 usage: 48.37 residual: 0.86
mrth: 131.51 cth: 106.42 usage: 130.49 residual: 1.02
mrth: 128.0 cth: 89.78 usage: 120.88 residual: 7.12
mrth: 149.27 cth: 112.74 usage: 109.84 residual: 39.43
mrth: 136.58 cth: 103.09 usage: 94.09 residual: 42.49
mrth: 81.62 cth: 68.53 usage: 52.23 residual: 29.39
mrth: 107.56 cth: 94.1 usage: 71.91 residual: 35.65
mrth: 50.43 cth: 45.28 usage: 29.5 residual: 20.93
mrth: 50.55 cth: 37.53 usage: 28.77 residual: 21.78
mrth: 73.14 cth: 65.76 usage: 64.7 residual: 8.44
mrth: 63.42 cth: 50.58 usage: 42.28 residual: 21.14
mrth: 33.08 cth: 24.97 usage: 29.03 residual: 4.05
mrth: 143.57 cth: 103.62 usage: 132.89 residual: 10.68
mrth: 15.94 cth: 14.07 usage: 12.45 residual: 3.49
mrth: 106.8 cth: 82.03 usage: 91.44 residual: 15.36
mrth: 91.88 cth: 67.64 usage: 89.27 residual: 2.61
mrth: 10.33 cth: 7.93 usage: 5.96 residual: 4.37
mrth: 114.81 cth: 86.47 usage: 81.99 residual: 32.82
mrth: 123.34 cth: 100.6 usage: 88.23 residual: 35.11
mrth: 73.93 cth: 65.29 usage: 64.32 residual: 9.61
mrth: 103.43 cth: 85.92 usage: 86.54 residual: 16.89
mrth: 101.66 cth: 90.29 usage: 64.47 residual: 37.19
mrth: 94.24 cth: 66.6 usage: 51.58 residual: 42.66
mrth: 176.21 cth: 134.98 usage: 115.47 residual: 60.74
mrth: 63.75 cth: 52.27 usage: 54.31 residual: 9.44
mrth: 170.85 cth: 146.86 usage: 90.97 residual: 79.88
mrth: 111.73 cth: 93.59 usage: 88.33 residual: 23.4
mrth: 139.29 cth: 100.66 usage: 118.48 residual: 20.81
mrth: 142.63 cth: 120.2 usage: 134.88 residual: 7.75
mrth: 85.29 cth: 63.51 usage: 65.66 residual: 19.63
mrth: 48.6 cth: 35.37 usage: 31.7 residual: 16.9
mrth: 37.9 cth: 29.61 usage: 25.27 residual: 12.63
mrth: 101.19 cth: 71.75 usage: 95.01 residual: 6.18
mrth: 117.78 cth: 99.03 usage: 100.05 residual: 17.73
mrth: 94.73 cth: 72.49 usage: 74.61 residual: 20.12
mrth: 119.87 cth: 107.22 usage: 89.87 residual: 30.0
mrth: 46.45 cth: 32.83 usage: 38.13 residual: 8.32
mrth: 54.06 cth: 40.01 usage: 34.4 residual: 19.66
mrth: 22.2 cth: 16.5 usage: 18.11 residual: 4.09
mrth: 81.05 cth: 69.52 usage: 54.21 residual: 26.84
mrth: 40.49 cth: 34.13 usage: 23.9 residual: 16.59
mrth: 85.34 cth: 64.86 usage: 67.5 residual: 17.84
mrth: 69.05 cth: 58.56 usage: 39.07 residual: 29.98
mrth: 225.53 cth: 185.6 usage: 139.32 residual: 86.21
mrth: 36.26 cth: 25.41 usage: 21.73 residual: 14.53
mrth: 101.37 cth: 72.29 usage: 62.89 residual: 38.48
mrth: 24.66 cth: 19.67 usage: 14.39 residual: 10.27
mrth: 175.12 cth: 150.35 usage: 129.11 residual: 46.01
mrth: 80.12 cth: 67.53 usage: 73.41 residual: 6.71
mrth: 207.36 cth: 160.34 usage: 186.85 residual: 20.51
mrth: 162.83 cth: 125.34 usage: 97.52 residual: 65.31
mrth: 246.38 cth: 217.85 usage: 227.09 residual: 19.29
mrth: 44.53 cth: 35.1 usage: 29.07 residual: 15.46
mrth: 107.18 cth: 83.32 usage: 80.97 residual: 26.21
mrth: 58.24 cth: 45.49 usage: 38.36 residual: 19.88
mrth: 64.34 cth: 55.53 usage: 51.84 residual: 12.5
mrth: 180.26 cth: 146.64 usage: 118.64 residual: 61.62
mrth: 51.95 cth: 40.34 usage: 31.77 residual: 20.18
mrth: 107.9 cth: 79.51 usage: 72.88 residual: 35.02
mrth: 41.45 cth: 31.64 usage: 28.16 residual: 13.29
mrth: 108.22 cth: 88.46 usage: 97.87 residual: 10.35
mrth: 114.66 cth: 83.88 usage: 70.03 residual: 44.63
mrth: 92.92 cth: 79.82 usage: 69.21 residual: 23.71
mrth: 37.22 cth: 30.98 usage: 25.55 residual: 11.67
mrth: 58.42 cth: 48.63 usage: 31.75 residual: 26.67
mrth: 173.96 cth: 154.73 usage: 92.16 residual: 81.8
mrth: 187.65 cth: 168.57 usage: 172.09 residual: 15.56
mrth: 79.29 cth: 58.42 usage: 47.6 residual: 31.69
mrth: 166.1 cth: 144.1 usage: 93.82 residual: 72.28
mrth: 90.75 cth: 78.67 usage: 64.16 residual: 26.59
mrth: 190.89 cth: 154.21 usage: 163.99 residual: 26.9
mrth: 207.07 cth: 172.94 usage: 194.58 residual: 12.49
mrth: 96.26 cth: 68.74 usage: 63.65 residual: 32.61
mrth: 42.55 cth: 35.06 usage: 33.05 residual: 9.5
mrth: 57.29 cth: 51.17 usage: 29.24 residual: 28.05
mrth: 40.12 cth: 28.99 usage: 27.43 residual: 12.69
mrth: 127.94 cth: 105.49 usage: 82.95 residual: 44.99
mrth: 94.64 cth: 73.93 usage: 78.68 residual: 15.96
mrth: 55.48 cth: 46.64 usage: 41.49 residual: 13.99
mrth: 69.69 cth: 62.14 usage: 59.45 residual: 10.24
mrth: 120.98 cth: 105.82 usage: 62.86 residual: 58.12
mrth: 134.42 cth: 101.44 usage: 122.59 residual: 11.83
mrth: 174.17 cth: 136.66 usage: 122.89 residual: 51.28
mrth: 105.39 cth: 88.53 usage: 68.23 residual: 37.16
mrth: 180.34 cth: 142.37 usage: 144.35 residual: 35.99
mrth: 94.78 cth: 69.82 usage: 56.55 residual: 38.23
mrth: 184.66 cth: 150.38 usage: 123.84 residual: 60.82
mrth: 85.15 cth: 76.32 usage: 45.43 residual: 39.72
mrth: 76.46 cth: 54.03 usage: 52.5 residual: 23.96
mrth: 55.99 cth: 39.26 usage: 29.77 residual: 26.22
mrth: 84.84 cth: 69.94 usage: 60.32 residual: 24.52
mrth: 54.11 cth: 40.78 usage: 30.41 residual: 23.7
mrth: 48.46 cth: 37.19 usage: 40.37 residual: 8.09
mrth: 157.13 cth: 124.8 usage: 106.08 residual: 51.05
mrth: 104.48 cth: 77.68 usage: 89.74 residual: 14.74
mrth: 135.31 cth: 109.27 usage: 85.25 residual: 50.06
mrth: 142.52 cth: 121.04 usage: 139.24 residual: 3.28
mrth: 127.05 cth: 89.3 usage: 77.84 residual: 49.21
mrth: 71.01 cth: 58.0 usage: 56.6 residual: 14.41
mrth: 50.88 cth: 37.99 usage: 30.96 residual: 19.92
mrth: 256.46 cth: 191.41 usage: 235.02 residual: 21.44
mrth: 98.64 cth: 78.18 usage: 65.5 residual: 33.14
mrth: 127.58 cth: 95.68 usage: 124.27 residual: 3.31
mrth: 47.57 cth: 37.32 usage: 42.19 residual: 5.38
mrth: 52.98 cth: 39.92 usage: 34.4 residual: 18.58
mrth: 119.95 cth: 87.31 usage: 71.47 residual: 48.48
mrth: 75.27 cth: 67.39 usage: 67.94 residual: 7.33
mrth: 105.28 cth: 91.41 usage: 67.01 residual: 38.27
mrth: 135.76 cth: 96.79 usage: 131.9 residual: 3.86
mrth: 49.56 cth: 37.59 usage: 34.48 residual: 15.08
mrth: 59.16 cth: 42.27 usage: 43.26 residual: 15.9
mrth: 129.12 cth: 111.23 usage: 114.37 residual: 14.75
mrth: 11.64 cth: 8.58 usage: 8.97 residual: 2.67
mrth: 66.83 cth: 56.48 usage: 33.78 residual: 33.05
mrth: 103.55 cth: 73.26 usage: 90.38 residual: 13.17
mrth: 55.69 cth: 43.64 usage: 34.92 residual: 20.77
mrth: 134.86 cth: 121.02 usage: 133.96 residual: 0.9
mrth: 126.01 cth: 112.59 usage: 122.77 residual: 3.24
mrth: 61.13 cth: 46.24 usage: 34.09 residual: 27.04
mrth: 136.49 cth: 100.36 usage: 125.26 residual: 11.23
mrth: 181.24 cth: 154.12 usage: 132.96 residual: 48.28
mrth: 77.25 cth: 62.72 usage: 55.55 residual: 21.7
mrth: 65.63 cth: 56.16 usage: 50.07 residual: 15.56
mrth: 38.4 cth: 28.2 usage: 30.92 residual: 7.48
mrth: 123.11 cth: 104.2 usage: 68.48 residual: 54.63
mrth: 78.58 cth: 60.53 usage: 42.03 residual: 36.55
mrth: 97.71 cth: 76.09 usage: 68.34 residual: 29.37
mrth: 199.55 cth: 162.45 usage: 198.08 residual: 1.47
mrth: 61.49 cth: 51.97 usage: 46.41 residual: 15.08
mrth: 69.73 cth: 57.86 usage: 36.62 residual: 33.11
mrth: 49.76 cth: 35.17 usage: 31.41 residual: 18.35
mrth: 160.95 cth: 124.5 usage: 151.27 residual: 9.68
mrth: 229.96 cth: 197.86 usage: 116.89 residual: 113.07
mrth: 169.92 cth: 136.58 usage: 101.1 residual: 68.82
mrth: 24.66 cth: 20.82 usage: 21.51 residual: 3.15
mrth: 106.0 cth: 89.37 usage: 82.85 residual: 23.15
mrth: 22.44 cth: 18.87 usage: 15.85 residual: 6.59
mrth: 149.59 cth: 108.52 usage: 124.66 residual: 24.93
mrth: 49.95 cth: 37.1 usage: 40.91 residual: 9.04
mrth: 167.47 cth: 147.85 usage: 111.25 residual: 56.22
mrth: 106.95 cth: 80.06 usage: 67.95 residual: 39.0
mrth: 167.21 cth: 147.41 usage: 127.59 residual: 39.62
mrth: 81.66 cth: 61.75 usage: 69.1 residual: 12.56
mrth: 41.88 cth: 36.8 usage: 21.78 residual: 20.1
mrth: 74.51 cth: 60.29 usage: 38.49 residual: 36.02
mrth: 141.25 cth: 110.58 usage: 92.28 residual: 48.97
mrth: 170.25 cth: 143.6 usage: 163.48 residual: 6.77
mrth: 79.14 cth: 67.86 usage: 59.81 residual: 19.33
mrth: 46.97 cth: 35.01 usage: 41.6 residual: 5.37
mrth: 297.04 cth: 242.76 usage: 184.36 residual: 112.68
mrth: 107.32 cth: 84.02 usage: 72.39 residual: 34.93
mrth: 81.96 cth: 71.88 usage: 45.71 residual: 36.25
mrth: 150.44 cth: 130.71 usage: 145.6 residual: 4.84
mrth: 51.66 cth: 41.02 usage: 40.01 residual: 11.65
mrth: 30.03 cth: 26.56 usage: 28.54 residual: 1.49
mrth: 72.9 cth: 61.09 usage: 42.7 residual: 30.2
mrth: 133.87 cth: 97.19 usage: 114.19 residual: 19.68
mrth: 38.13 cth: 34.18 usage: 35.9 residual: 2.23
mrth: 95.09 cth: 69.24 usage: 54.13 residual: 40.96
mrth: 108.24 cth: 96.09 usage: 98.15 residual: 10.09
mrth: 12.15 cth: 10.39 usage: 9.76 residual: 2.39
mrth: 157.89 cth: 122.25 usage: 98.39 residual: 59.5
mrth: 139.31 cth: 122.39 usage: 93.58 residual: 45.73
mrth: 76.43 cth: 54.97 usage: 54.0 residual: 22.43
mrth: 123.26 cth: 89.18 usage: 77.69 residual: 45.57
mrth: 90.46 cth: 66.69 usage: 60.35 residual: 30.11
mrth: 101.16 cth: 81.62 usage: 52.52 residual: 48.64
mrth: 177.19 cth: 149.16 usage: 167.64 residual: 9.55
mrth: 127.38 cth: 97.03 usage: 112.44 residual: 14.94
mrth: 62.39 cth: 54.66 usage: 36.66 residual: 25.73
mrth: 106.99 cth: 76.52 usage: 54.6 residual: 52.39
mrth: 97.69 cth: 73.76 usage: 49.59 residual: 48.1
mrth: 116.42 cth: 98.41 usage: 77.16 residual: 39.26
mrth: 44.05 cth: 33.25 usage: 26.2 residual: 17.85
mrth: 113.59 cth: 83.91 usage: 109.98 residual: 3.61
mrth: 151.29 cth: 113.46 usage: 125.07 residual: 26.22
mrth: 114.64 cth: 87.43 usage: 108.47 residual: 6.17
mrth: 27.75 cth: 22.81 usage: 20.28 residual: 7.47
mrth: 36.66 cth: 26.72 usage: 30.31 residual: 6.35
mrth: 91.66 cth: 67.01 usage: 76.32 residual: 15.34
mrth: 79.59 cth: 70.93 usage: 46.29 residual: 33.3
mrth: 80.1 cth: 57.74 usage: 67.35 residual: 12.75
mrth: 112.92 cth: 98.55 usage: 80.53 residual: 32.39
mrth: 126.56 cth: 105.85 usage: 121.55 residual: 5.01
mrth: 86.04 cth: 68.34 usage: 76.09 residual: 9.95
mrth: 12.19 cth: 9.23 usage: 10.7 residual: 1.49
mrth: 190.88 cth: 157.34 usage: 170.03 residual: 20.85
mrth: 177.76 cth: 125.12 usage: 155.97 residual: 21.79
mrth: 46.5 cth: 34.08 usage: 30.32 residual: 16.18
mrth: 130.14 cth: 109.67 usage: 71.81 residual: 58.33
mrth: 203.96 cth: 163.98 usage: 127.1 residual: 76.86
mrth: 69.82 cth: 56.4 usage: 44.61 residual: 25.21
mrth: 55.92 cth: 48.42 usage: 32.27 residual: 23.65
mrth: 77.55 cth: 58.45 usage: 43.03 residual: 34.52
mrth: 57.38 cth: 47.76 usage: 56.27 residual: 1.11
mrth: 120.91 cth: 89.1 usage: 97.3 residual: 23.61
mrth: 98.78 cth: 69.82 usage: 96.98 residual: 1.8
mrth: 62.05 cth: 49.47 usage: 51.65 residual: 10.4
mrth: 184.54 cth: 141.25 usage: 152.02 residual: 32.52
mrth: 108.86 cth: 76.9 usage: 72.87 residual: 35.99
mrth: 47.95 cth: 39.94 usage: 41.02 residual: 6.93
mrth: 95.56 cth: 84.4 usage: 58.04 residual: 37.52
mrth: 75.83 cth: 56.85 usage: 52.74 residual: 23.09
mrth: 22.84 cth: 18.03 usage: 22.26 residual: 0.58
mrth: 100.66 cth: 80.1 usage: 63.45 residual: 37.21
mrth: 106.62 cth: 83.42 usage: 89.65 residual: 16.97
mrth: 86.74 cth: 65.72 usage: 45.46 residual: 41.28
mrth: 53.74 cth: 41.04 usage: 28.66 residual: 25.08
mrth: 54.48 cth: 38.52 usage: 39.97 residual: 14.51
mrth: 15.77 cth: 11.57 usage: 15.37 residual: 0.4
mrth: 54.98 cth: 48.85 usage: 46.1 residual: 8.88
mrth: 60.36 cth: 53.72 usage: 48.69 residual: 11.67
mrth: 74.91 cth: 59.94 usage: 60.23 residual: 14.68
mrth: 42.22 cth: 31.78 usage: 36.72 residual: 5.5
mrth: 78.49 cth: 55.2 usage: 40.78 residual: 37.71
mrth: 166.48 cth: 127.58 usage: 115.3 residual: 51.18
mrth: 30.33 cth: 22.16 usage: 25.49 residual: 4.84
mrth: 48.02 cth: 42.83 usage: 26.69 residual: 21.33
mrth: 71.36 cth: 61.1 usage: 42.93 residual: 28.43
mrth: 46.86 cth: 38.83 usage: 41.44 residual: 5.42
mrth: 81.18 cth: 58.15 usage: 56.18 residual: 25.0
mrth: 197.3 cth: 141.32 usage: 104.41 residual: 92.89
mrth: 103.0 cth: 79.12 usage: 63.29 residual: 39.71
mrth: 69.0 cth: 54.81 usage: 53.34 residual: 15.66
mrth: 182.64 cth: 149.21 usage: 107.49 residual: 75.15
mrth: 79.18 cth: 57.3 usage: 58.77 residual: 20.41
mrth: 43.68 cth: 36.47 usage: 39.98 residual: 3.7
mrth: 34.57 cth: 29.41 usage: 24.17 residual: 10.4
mrth: 113.42 cth: 90.41 usage: 93.9 residual: 19.52
mrth: 69.66 cth: 51.51 usage: 64.89 residual: 4.77
mrth: 100.36 cth: 81.21 usage: 80.58 residual: 19.78
mrth: 54.45 cth: 43.96 usage: 41.81 residual: 12.64
mrth: 27.38 cth: 23.35 usage: 22.99 residual: 4.39
mrth: 60.17 cth: 52.38 usage: 53.86 residual: 6.31
mrth: 33.54 cth: 23.9 usage: 23.91 residual: 9.63
mrth: 65.74 cth: 46.4 usage: 42.94 residual: 22.8
mrth: 164.67 cth: 117.75 usage: 153.25 residual: 11.42
mrth: 41.99 cth: 31.11 usage: 27.55 residual: 14.44
mrth: 245.64 cth: 186.78 usage: 159.75 residual: 85.89
mrth: 51.4 cth: 46.02 usage: 28.34 residual: 23.06
mrth: 80.54 cth: 58.15 usage: 44.61 residual: 35.93
mrth: 87.19 cth: 68.61 usage: 64.71 residual: 22.48
mrth: 163.55 cth: 136.58 usage: 155.54 residual: 8.01
mrth: 91.4 cth: 70.02 usage: 60.69 residual: 30.71
mrth: 44.73 cth: 35.05 usage: 41.6 residual: 3.13
mrth: 193.77 cth: 148.13 usage: 180.95 residual: 12.82
mrth: 139.37 cth: 124.74 usage: 98.77 residual: 40.6
mrth: 62.05 cth: 47.85 usage: 58.65 residual: 3.4
mrth: 88.91 cth: 71.01 usage: 86.41 residual: 2.5
mrth: 79.62 cth: 69.41 usage: 73.65 residual: 5.97
mrth: 144.3 cth: 120.78 usage: 75.94 residual: 68.36
mrth: 144.57 cth: 125.93 usage: 125.43 residual: 19.14
mrth: 131.53 cth: 113.72 usage: 87.67 residual: 43.86
mrth: 70.45 cth: 61.45 usage: 38.47 residual: 31.98
mrth: 143.5 cth: 118.3 usage: 94.9 residual: 48.6
mrth: 132.31 cth: 109.84 usage: 127.53 residual: 4.78
mrth: 66.02 cth: 56.37 usage: 53.99 residual: 12.03
mrth: 33.27 cth: 27.51 usage: 23.34 residual: 9.93
mrth: 7.87 cth: 5.92 usage: 4.16 residual: 3.71
mrth: 135.68 cth: 113.81 usage: 133.16 residual: 2.52
mrth: 168.82 cth: 129.64 usage: 84.45 residual: 84.37
mrth: 100.0 cth: 71.76 usage: 79.13 residual: 20.87
mrth: 146.72 cth: 129.76 usage: 103.96 residual: 42.76
mrth: 64.38 cth: 55.91 usage: 58.76 residual: 5.62
mrth: 71.79 cth: 58.69 usage: 55.61 residual: 16.18
mrth: 61.8 cth: 52.06 usage: 54.12 residual: 7.68
mrth: 80.66 cth: 68.2 usage: 58.71 residual: 21.95
mrth: 65.46 cth: 51.8 usage: 35.31 residual: 30.15
mrth: 81.54 cth: 64.28 usage: 55.23 residual: 26.31
mrth: 93.98 cth: 69.21 usage: 64.5 residual: 29.48
mrth: 71.77 cth: 52.75 usage: 66.73 residual: 5.04
mrth: 69.44 cth: 51.03 usage: 54.9 residual: 14.54
mrth: 192.97 cth: 170.62 usage: 115.77 residual: 77.2
mrth: 97.57 cth: 74.81 usage: 49.11 residual: 48.46
mrth: 23.64 cth: 18.04 usage: 18.25 residual: 5.39
mrth: 16.61 cth: 12.43 usage: 15.97 residual: 0.64
mrth: 83.39 cth: 64.98 usage: 42.79 residual: 40.6
mrth: 86.87 cth: 76.02 usage: 84.83 residual: 2.04
mrth: 37.9 cth: 33.84 usage: 19.25 residual: 18.65
mrth: 144.29 cth: 101.48 usage: 142.7 residual: 1.59
mrth: 139.56 cth: 113.78 usage: 132.49 residual: 7.07
mrth: 158.57 cth: 126.36 usage: 134.05 residual: 24.52
mrth: 101.65 cth: 75.09 usage: 68.07 residual: 33.58
mrth: 100.26 cth: 86.89 usage: 65.79 residual: 34.47
mrth: 58.12 cth: 44.03 usage: 57.38 residual: 0.74
mrth: 84.27 cth: 62.5 usage: 76.03 residual: 8.24
mrth: 107.98 cth: 96.36 usage: 95.45 residual: 12.53
mrth: 69.93 cth: 49.2 usage: 62.72 residual: 7.21
mrth: 57.62 cth: 51.38 usage: 33.56 residual: 24.06
mrth: 119.62 cth: 87.28 usage: 111.57 residual: 8.05
mrth: 84.81 cth: 61.31 usage: 48.1 residual: 36.71
mrth: 101.51 cth: 75.65 usage: 81.24 residual: 20.27
mrth: 196.76 cth: 168.54 usage: 162.24 residual: 34.52
mrth: 106.08 cth: 94.34 usage: 64.95 residual: 41.13
mrth: 118.54 cth: 95.63 usage: 67.84 residual: 50.7
mrth: 93.71 cth: 71.83 usage: 81.29 residual: 12.42
mrth: 172.96 cth: 131.06 usage: 97.31 residual: 75.65
mrth: 160.34 cth: 136.66 usage: 80.31 residual: 80.03
mrth: 97.86 cth: 73.33 usage: 97.35 residual: 0.51
mrth: 30.18 cth: 24.52 usage: 29.85 residual: 0.33
mrth: 177.74 cth: 153.71 usage: 118.58 residual: 59.16
mrth: 132.64 cth: 117.13 usage: 102.23 residual: 30.41
mrth: 45.02 cth: 38.17 usage: 44.48 residual: 0.54
mrth: 106.78 cth: 88.46 usage: 90.98 residual: 15.8
mrth: 57.92 cth: 50.74 usage: 47.82 residual: 10.1
mrth: 127.04 cth: 106.87 usage: 116.12 residual: 10.92
mrth: 79.12 cth: 60.59 usage: 67.78 residual: 11.34
mrth: 90.19 cth: 68.55 usage: 58.66 residual: 31.53
mrth: 152.76 cth: 129.07 usage: 137.16 residual: 15.6
mrth: 124.97 cth: 99.74 usage: 104.43 residual: 20.54
mrth: 66.97 cth: 50.98 usage: 58.59 residual: 8.38
mrth: 113.7 cth: 100.91 usage: 67.62 residual: 46.08
mrth: 19.59 cth: 16.77 usage: 10.59 residual: 9.0
mrth: 73.04 cth: 56.49 usage: 56.31 residual: 16.73
mrth: 34.91 cth: 26.17 usage: 19.38 residual: 15.53
mrth: 56.82 cth: 43.61 usage: 32.81 residual: 24.01
mrth: 137.93 cth: 108.16 usage: 113.27 residual: 24.66
mrth: 71.42 cth: 59.5 usage: 45.94 residual: 25.48
mrth: 107.76 cth: 76.55 usage: 60.32 residual: 47.44
mrth: 84.82 cth: 70.56 usage: 71.25 residual: 13.57
mrth: 139.03 cth: 101.95 usage: 92.55 residual: 46.48
mrth: 45.77 cth: 36.37 usage: 36.24 residual: 9.53
mrth: 39.36 cth: 33.5 usage: 34.49 residual: 4.87
mrth: 57.16 cth: 44.7 usage: 55.32 residual: 1.84
mrth: 58.69 cth: 45.32 usage: 30.44 residual: 28.25
mrth: 35.03 cth: 30.83 usage: 22.3 residual: 12.73
mrth: 129.02 cth: 104.33 usage: 73.38 residual: 55.64
mrth: 58.48 cth: 41.7 usage: 56.89 residual: 1.59
mrth: 70.15 cth: 62.54 usage: 56.45 residual: 13.7
mrth: 143.14 cth: 111.98 usage: 129.94 residual: 13.2
mrth: 49.94 cth: 39.9 usage: 48.73 residual: 1.21
mrth: 117.69 cth: 96.08 usage: 79.76 residual: 37.93
mrth: 79.97 cth: 68.88 usage: 42.1 residual: 37.87
mrth: 130.68 cth: 105.35 usage: 114.77 residual: 15.91
mrth: 170.85 cth: 142.66 usage: 141.87 residual: 28.98
mrth: 75.18 cth: 53.21 usage: 72.45 residual: 2.73
mrth: 76.78 cth: 57.92 usage: 44.13 residual: 32.65
mrth: 106.42 cth: 81.36 usage: 100.73 residual: 5.69
mrth: 17.93 cth: 15.4 usage: 12.78 residual: 5.15
mrth: 187.73 cth: 159.88 usage: 138.21 residual: 49.52
mrth: 57.92 cth: 49.59 usage: 49.76 residual: 8.16
mrth: 152.47 cth: 126.86 usage: 107.34 residual: 45.13
mrth: 11.03 cth: 9.4 usage: 10.05 residual: 0.98
mrth: 146.26 cth: 115.81 usage: 88.91 residual: 57.35
mrth: 53.88 cth: 39.48 usage: 29.73 residual: 24.15
mrth: 125.21 cth: 90.86 usage: 90.2 residual: 35.01
mrth: 49.39 cth: 42.45 usage: 31.41 residual: 17.98
mrth: 125.22 cth: 95.18 usage: 75.66 residual: 49.56
mrth: 124.68 cth: 111.48 usage: 102.95 residual: 21.73
mrth: 89.34 cth: 69.93 usage: 45.06 residual: 44.28
mrth: 84.78 cth: 61.1 usage: 55.03 residual: 29.75
mrth: 160.35 cth: 142.25 usage: 149.72 residual: 10.63
mrth: 80.62 cth: 63.17 usage: 78.8 residual: 1.82
mrth: 89.61 cth: 63.9 usage: 59.55 residual: 30.06
mrth: 202.16 cth: 159.15 usage: 173.19 residual: 28.97
mrth: 73.13 cth: 58.77 usage: 62.32 residual: 10.81
mrth: 103.34 cth: 88.17 usage: 60.92 residual: 42.42
mrth: 66.02 cth: 47.25 usage: 59.45 residual: 6.57
mrth: 135.87 cth: 113.86 usage: 81.76 residual: 54.11
mrth: 62.44 cth: 47.34 usage: 36.33 residual: 26.11
mrth: 83.59 cth: 61.58 usage: 78.07 residual: 5.52
mrth: 17.66 cth: 15.88 usage: 15.75 residual: 1.91
mrth: 122.24 cth: 90.73 usage: 121.81 residual: 0.43
mrth: 122.15 cth: 100.73 usage: 94.72 residual: 27.43
mrth: 55.68 cth: 49.04 usage: 39.77 residual: 15.91
mrth: 110.81 cth: 93.45 usage: 57.65 residual: 53.16
mrth: 189.47 cth: 134.55 usage: 134.56 residual: 54.91
mrth: 162.19 cth: 134.68 usage: 159.42 residual: 2.77
mrth: 36.88 cth: 30.03 usage: 25.59 residual: 11.29
mrth: 12.06 cth: 9.59 usage: 7.41 residual: 4.65
mrth: 100.11 cth: 77.55 usage: 62.04 residual: 38.07
mrth: 73.7 cth: 59.97 usage: 71.0 residual: 2.7
mrth: 189.58 cth: 134.73 usage: 121.45 residual: 68.13
mrth: 91.92 cth: 70.89 usage: 67.37 residual: 24.55
mrth: 145.45 cth: 126.85 usage: 145.11 residual: 0.34
mrth: 46.03 cth: 36.37 usage: 39.12 residual: 6.91
mrth: 66.53 cth: 47.07 usage: 44.97 residual: 21.56
mrth: 114.84 cth: 100.09 usage: 98.15 residual: 16.69
mrth: 45.63 cth: 34.52 usage: 44.08 residual: 1.55
mrth: 161.4 cth: 143.19 usage: 156.3 residual: 5.1
mrth: 115.65 cth: 102.55 usage: 74.74 residual: 40.91
mrth: 82.52 cth: 59.83 usage: 41.64 residual: 40.88
mrth: 58.63 cth: 41.45 usage: 50.85 residual: 7.78
mrth: 135.84 cth: 110.22 usage: 132.53 residual: 3.31
mrth: 134.95 cth: 94.69 usage: 97.08 residual: 37.87
mrth: 114.35 cth: 87.36 usage: 58.13 residual: 56.22
mrth: 87.19 cth: 78.4 usage: 65.28 residual: 21.91
mrth: 108.26 cth: 76.22 usage: 75.76 residual: 32.5
mrth: 122.44 cth: 107.11 usage: 111.39 residual: 11.05
mrth: 191.86 cth: 135.76 usage: 104.38 residual: 87.48
mrth: 77.71 cth: 59.9 usage: 67.93 residual: 9.78
mrth: 60.31 cth: 42.72 usage: 35.53 residual: 24.78
mrth: 81.93 cth: 72.08 usage: 66.94 residual: 14.99
mrth: 141.02 cth: 124.36 usage: 91.69 residual: 49.33
mrth: 160.65 cth: 124.7 usage: 111.08 residual: 49.57
mrth: 83.69 cth: 65.6 usage: 76.1 residual: 7.59
mrth: 48.42 cth: 42.77 usage: 39.91 residual: 8.51
mrth: 131.48 cth: 103.12 usage: 108.39 residual: 23.09
mrth: 26.83 cth: 23.87 usage: 17.44 residual: 9.39
mrth: 140.26 cth: 114.24 usage: 124.81 residual: 15.45
mrth: 97.67 cth: 70.44 usage: 73.89 residual: 23.78
mrth: 109.83 cth: 78.24 usage: 74.56 residual: 35.27
mrth: 119.02 cth: 89.03 usage: 109.68 residual: 9.34
mrth: 37.04 cth: 28.28 usage: 28.61 residual: 8.43
mrth: 41.52 cth: 36.68 usage: 30.05 residual: 11.47
mrth: 10.24 cth: 9.03 usage: 10.24 residual: 0.0
mrth: 126.36 cth: 90.69 usage: 81.85 residual: 44.51
mrth: 142.55 cth: 122.08 usage: 87.92 residual: 54.63
mrth: 52.08 cth: 44.94 usage: 47.93 residual: 4.15
mrth: 109.53 cth: 88.28 usage: 72.94 residual: 36.59
mrth: 39.5 cth: 29.72 usage: 38.33 residual: 1.17
mrth: 5.7 cth: 4.09 usage: 4.58 residual: 1.12
mrth: 20.72 cth: 18.29 usage: 11.29 residual: 9.43
mrth: 145.07 cth: 108.27 usage: 80.38 residual: 64.69
mrth: 175.35 cth: 124.11 usage: 122.57 residual: 52.78
mrth: 169.09 cth: 125.52 usage: 148.82 residual: 20.27
mrth: 37.68 cth: 27.06 usage: 26.3 residual: 11.38
mrth: 82.76 cth: 67.69 usage: 79.4 residual: 3.36
mrth: 161.19 cth: 114.38 usage: 85.68 residual: 75.51
mrth: 76.01 cth: 53.67 usage: 53.82 residual: 22.19
mrth: 125.42 cth: 106.84 usage: 82.21 residual: 43.21
mrth: 24.71 cth: 17.47 usage: 16.07 residual: 8.64
mrth: 86.42 cth: 73.22 usage: 79.56 residual: 6.86
mrth: 92.03 cth: 66.32 usage: 83.8 residual: 8.23
mrth: 55.01 cth: 41.24 usage: 54.5 residual: 0.51
mrth: 152.42 cth: 132.85 usage: 81.79 residual: 70.63
mrth: 92.17 cth: 80.38 usage: 77.18 residual: 14.99
mrth: 59.53 cth: 45.65 usage: 29.84 residual: 29.69
mrth: 66.25 cth: 56.52 usage: 59.91 residual: 6.34
mrth: 112.7 cth: 91.02 usage: 65.62 residual: 47.08
mrth: 70.89 cth: 49.9 usage: 61.28 residual: 9.61
mrth: 27.66 cth: 23.98 usage: 14.31 residual: 13.35
mrth: 87.42 cth: 64.13 usage: 67.8 residual: 19.62
mrth: 50.31 cth: 42.26 usage: 31.71 residual: 18.6
mrth: 27.28 cth: 24.41 usage: 14.44 residual: 12.84
mrth: 37.37 cth: 30.31 usage: 32.71 residual: 4.66
mrth: 79.24 cth: 60.7 usage: 54.25 residual: 24.99
mrth: 72.97 cth: 60.55 usage: 60.38 residual: 12.59
mrth: 188.81 cth: 154.88 usage: 172.16 residual: 16.65
mrth: 88.21 cth: 68.71 usage: 85.1 residual: 3.11
mrth: 72.05 cth: 56.77 usage: 63.07 residual: 8.98
mrth: 50.32 cth: 37.94 usage: 27.54 residual: 22.78
mrth: 59.57 cth: 41.84 usage: 44.5 residual: 15.07
mrth: 44.82 cth: 35.73 usage: 27.52 residual: 17.3
mrth: 157.84 cth: 141.36 usage: 95.71 residual: 62.13
mrth: 75.51 cth: 66.34 usage: 70.07 residual: 5.44
mrth: 95.11 cth: 78.02 usage: 76.14 residual: 18.97
mrth: 52.54 cth: 46.89 usage: 43.86 residual: 8.68
mrth: 31.36 cth: 22.14 usage: 19.43 residual: 11.93
mrth: 131.59 cth: 117.86 usage: 81.44 residual: 50.15
mrth: 205.5 cth: 154.66 usage: 121.56 residual: 83.94
mrth: 189.93 cth: 150.0 usage: 126.48 residual: 63.45
mrth: 106.86 cth: 82.19 usage: 82.87 residual: 23.99
mrth: 91.39 cth: 72.52 usage: 57.34 residual: 34.05
mrth: 124.57 cth: 93.53 usage: 93.3 residual: 31.27
mrth: 73.87 cth: 57.63 usage: 38.07 residual: 35.8
mrth: 135.74 cth: 109.18 usage: 127.23 residual: 8.51
mrth: 129.94 cth: 98.58 usage: 91.9 residual: 38.04
mrth: 62.35 cth: 45.17 usage: 61.8 residual: 0.55
mrth: 187.62 cth: 156.0 usage: 130.85 residual: 56.77
mrth: 79.94 cth: 60.31 usage: 57.81 residual: 22.13
mrth: 93.28 cth: 83.11 usage: 74.45 residual: 18.83
mrth: 71.92 cth: 56.74 usage: 70.96 residual: 0.96
mrth: 100.24 cth: 88.42 usage: 78.96 residual: 21.28
mrth: 170.29 cth: 151.34 usage: 169.04 residual: 1.25
mrth: 39.49 cth: 33.71 usage: 25.64 residual: 13.85
mrth: 228.44 cth: 183.13 usage: 222.78 residual: 5.66
mrth: 37.8 cth: 27.11 usage: 23.56 residual: 14.24
mrth: 130.46 cth: 112.31 usage: 72.45 residual: 58.01
mrth: 38.86 cth: 30.38 usage: 29.72 residual: 9.14
mrth: 87.74 cth: 61.49 usage: 62.4 residual: 25.34
mrth: 43.23 cth: 37.45 usage: 32.11 residual: 11.12
mrth: 144.09 cth: 127.28 usage: 88.65 residual: 55.44
mrth: 83.32 cth: 58.42 usage: 49.23 residual: 34.09
mrth: 80.29 cth: 71.27 usage: 45.9 residual: 34.39
mrth: 187.83 cth: 136.33 usage: 110.88 residual: 76.95
mrth: 23.85 cth: 17.31 usage: 14.62 residual: 9.23
mrth: 63.67 cth: 48.21 usage: 38.98 residual: 24.69
mrth: 65.45 cth: 50.3 usage: 43.28 residual: 22.17
mrth: 185.32 cth: 166.18 usage: 164.47 residual: 20.85
mrth: 83.52 cth: 61.92 usage: 54.88 residual: 28.64
mrth: 90.77 cth: 80.53 usage: 62.6 residual: 28.17
mrth: 42.73 cth: 32.32 usage: 32.06 residual: 10.67
mrth: 142.13 cth: 119.25 usage: 73.74 residual: 68.39
mrth: 177.82 cth: 147.53 usage: 171.09 residual: 6.73
mrth: 15.9 cth: 11.49 usage: 10.33 residual: 5.57
mrth: 119.33 cth: 88.37 usage: 71.1 residual: 48.23
mrth: 82.55 cth: 70.7 usage: 66.22 residual: 16.33
mrth: 99.39 cth: 70.9 usage: 78.52 residual: 20.87
mrth: 103.13 cth: 89.5 usage: 102.06 residual: 1.07
mrth: 100.46 cth: 83.95 usage: 53.99 residual: 46.47
mrth: 87.27 cth: 65.53 usage: 82.66 residual: 4.61
mrth: 171.05 cth: 128.49 usage: 118.1 residual: 52.95
mrth: 121.7 cth: 92.86 usage: 78.1 residual: 43.6
mrth: 68.37 cth: 47.88 usage: 66.17 residual: 2.2
mrth: 82.26 cth: 59.43 usage: 66.02 residual: 16.24
mrth: 93.63 cth: 78.79 usage: 62.18 residual: 31.45
mrth: 76.9 cth: 67.35 usage: 47.07 residual: 29.83
mrth: 138.74 cth: 108.49 usage: 115.43 residual: 23.31
mrth: 66.37 cth: 48.19 usage: 47.22 residual: 19.15
mrth: 118.45 cth: 101.58 usage: 73.17 residual: 45.28
mrth: 74.51 cth: 66.23 usage: 51.61 residual: 22.9
mrth: 269.12 cth: 227.76 usage: 257.66 residual: 11.46
mrth: 35.06 cth: 30.12 usage: 21.88 residual: 13.18
mrth: 105.32 cth: 79.52 usage: 100.09 residual: 5.23
mrth: 67.11 cth: 49.85 usage: 37.6 residual: 29.51
mrth: 94.64 cth: 66.37 usage: 68.41 residual: 26.23
mrth: 168.02 cth: 131.48 usage: 84.72 residual: 83.3
mrth: 102.11 cth: 91.61 usage: 62.39 residual: 39.72
mrth: 109.75 cth: 88.64 usage: 102.15 residual: 7.6
mrth: 143.68 cth: 118.86 usage: 102.85 residual: 40.83
mrth: 132.81 cth: 93.08 usage: 74.89 residual: 57.92
mrth: 120.66 cth: 92.55 usage: 84.56 residual: 36.1
mrth: 121.77 cth: 88.86 usage: 90.28 residual: 31.49
mrth: 155.11 cth: 126.57 usage: 109.38 residual: 45.73
mrth: 109.76 cth: 93.33 usage: 103.2 residual: 6.56
mrth: 149.29 cth: 132.09 usage: 116.79 residual: 32.5
mrth: 143.33 cth: 103.73 usage: 80.66 residual: 62.67
mrth: 18.42 cth: 14.74 usage: 13.32 residual: 5.1
mrth: 80.15 cth: 62.09 usage: 43.12 residual: 37.03
mrth: 136.72 cth: 107.29 usage: 121.73 residual: 14.99
mrth: 28.01 cth: 21.3 usage: 19.29 residual: 8.72
mrth: 37.11 cth: 29.32 usage: 24.15 residual: 12.96
mrth: 171.96 cth: 140.76 usage: 162.03 residual: 9.93
mrth: 49.83 cth: 36.44 usage: 29.06 residual: 20.77
mrth: 98.28 cth: 73.85 usage: 93.63 residual: 4.65
mrth: 102.1 cth: 88.09 usage: 89.38 residual: 12.72
mrth: 83.7 cth: 73.4 usage: 56.24 residual: 27.46
mrth: 49.35 cth: 38.7 usage: 48.5 residual: 0.85
mrth: 77.66 cth: 55.86 usage: 70.3 residual: 7.36
mrth: 96.12 cth: 68.62 usage: 68.84 residual: 27.28
mrth: 70.08 cth: 61.49 usage: 39.44 residual: 30.64
mrth: 194.93 cth: 139.27 usage: 107.87 residual: 87.06
mrth: 39.62 cth: 35.45 usage: 36.5 residual: 3.12
mrth: 176.18 cth: 138.25 usage: 118.28 residual: 57.9
mrth: 18.44 cth: 13.21 usage: 12.83 residual: 5.61
mrth: 124.52 cth: 91.14 usage: 84.72 residual: 39.8
mrth: 81.34 cth: 63.45 usage: 80.39 residual: 0.95
mrth: 55.46 cth: 44.5 usage: 53.7 residual: 1.76
mrth: 31.41 cth: 22.2 usage: 26.16 residual: 5.25
mrth: 85.99 cth: 66.69 usage: 43.24 residual: 42.75
mrth: 132.83 cth: 111.28 usage: 101.0 residual: 31.83
mrth: 66.41 cth: 51.38 usage: 42.19 residual: 24.22
mrth: 78.72 cth: 64.6 usage: 41.03 residual: 37.69
mrth: 95.31 cth: 68.38 usage: 86.76 residual: 8.55
mrth: 192.3 cth: 162.19 usage: 157.68 residual: 34.62
mrth: 145.96 cth: 130.5 usage: 80.22 residual: 65.74
mrth: 41.59 cth: 34.74 usage: 40.4 residual: 1.19
mrth: 30.75 cth: 24.89 usage: 18.19 residual: 12.56
mrth: 42.66 cth: 32.61 usage: 28.81 residual: 13.85
mrth: 185.46 cth: 140.7 usage: 152.09 residual: 33.37
mrth: 98.65 cth: 88.56 usage: 91.27 residual: 7.38
mrth: 139.94 cth: 113.29 usage: 98.86 residual: 41.08
mrth: 129.14 cth: 112.6 usage: 66.81 residual: 62.33
mrth: 94.43 cth: 70.52 usage: 64.96 residual: 29.47
mrth: 105.09 cth: 86.06 usage: 68.74 residual: 36.35
mrth: 73.2 cth: 64.76 usage: 51.72 residual: 21.48
mrth: 26.65 cth: 19.83 usage: 17.39 residual: 9.26
mrth: 65.2 cth: 51.85 usage: 42.15 residual: 23.05
mrth: 147.37 cth: 106.47 usage: 93.53 residual: 53.84
mrth: 124.55 cth: 108.87 usage: 111.62 residual: 12.93
mrth: 22.6 cth: 20.11 usage: 14.36 residual: 8.24
mrth: 42.66 cth: 32.3 usage: 26.55 residual: 16.11
mrth: 85.74 cth: 68.83 usage: 53.2 residual: 32.54
mrth: 121.8 cth: 104.26 usage: 66.06 residual: 55.74
mrth: 50.8 cth: 37.07 usage: 34.74 residual: 16.06
mrth: 119.03 cth: 88.27 usage: 67.68 residual: 51.35
mrth: 50.02 cth: 39.44 usage: 28.62 residual: 21.4
mrth: 19.37 cth: 15.5 usage: 17.62 residual: 1.75
mrth: 66.52 cth: 53.95 usage: 48.58 residual: 17.94
mrth: 139.94 cth: 98.49 usage: 78.45 residual: 61.49
mrth: 89.64 cth: 67.47 usage: 55.69 residual: 33.95
mrth: 179.72 cth: 157.66 usage: 104.12 residual: 75.6
mrth: 44.63 cth: 36.27 usage: 42.25 residual: 2.38
mrth: 68.17 cth: 54.81 usage: 49.5 residual: 18.67
mrth: 186.76 cth: 137.43 usage: 100.05 residual: 86.71
mrth: 59.54 cth: 42.59 usage: 56.71 residual: 2.83
mrth: 114.67 cth: 89.05 usage: 98.19 residual: 16.48
mrth: 100.82 cth: 83.32 usage: 76.1 residual: 24.72
mrth: 104.9 cth: 85.35 usage: 76.62 residual: 28.28
mrth: 38.91 cth: 32.99 usage: 32.05 residual: 6.86
mrth: 102.31 cth: 81.91 usage: 98.14 residual: 4.17
mrth: 44.66 cth: 38.17 usage: 27.52 residual: 17.14
mrth: 102.84 cth: 87.69 usage: 100.94 residual: 1.9
mrth: 55.83 cth: 44.93 usage: 30.36 residual: 25.47
mrth: 111.3 cth: 95.06 usage: 108.16 residual: 3.14
mrth: 44.15 cth: 32.15 usage: 26.19 residual: 17.96
mrth: 36.46 cth: 26.75 usage: 32.39 residual: 4.07
mrth: 52.13 cth: 39.05 usage: 34.37 residual: 17.76
mrth: 18.21 cth: 15.06 usage: 16.36 residual: 1.85
mrth: 151.34 cth: 135.93 usage: 148.79 residual: 2.55
mrth: 106.35 cth: 94.52 usage: 84.66 residual: 21.69
mrth: 135.24 cth: 118.22 usage: 123.89 residual: 11.35
mrth: 82.59 cth: 62.96 usage: 51.76 residual: 30.83
mrth: 69.26 cth: 51.28 usage: 55.96 residual: 13.3
mrth: 100.52 cth: 90.02 usage: 88.62 residual: 11.9
mrth: 18.37 cth: 14.47 usage: 17.57 residual: 0.8
mrth: 56.38 cth: 44.14 usage: 54.94 residual: 1.44
mrth: 67.42 cth: 53.27 usage: 56.72 residual: 10.7
mrth: 69.0 cth: 51.12 usage: 64.82 residual: 4.18
mrth: 197.42 cth: 165.14 usage: 143.51 residual: 53.91
mrth: 62.85 cth: 53.78 usage: 45.22 residual: 17.63
mrth: 38.53 cth: 31.14 usage: 27.77 residual: 10.76
mrth: 12.01 cth: 9.48 usage: 9.81 residual: 2.2
mrth: 179.06 cth: 137.94 usage: 160.14 residual: 18.92
mrth: 182.86 cth: 146.61 usage: 120.17 residual: 62.69
mrth: 241.06 cth: 182.04 usage: 184.76 residual: 56.3
mrth: 116.59 cth: 82.78 usage: 100.81 residual: 15.78
mrth: 74.5 cth: 62.0 usage: 71.46 residual: 3.04
mrth: 126.73 cth: 94.01 usage: 63.58 residual: 63.15
mrth: 32.03 cth: 23.79 usage: 17.13 residual: 14.9
mrth: 85.36 cth: 70.66 usage: 82.94 residual: 2.42
mrth: 155.14 cth: 135.43 usage: 117.9 residual: 37.24
mrth: 119.24 cth: 92.74 usage: 102.34 residual: 16.9
mrth: 92.96 cth: 68.16 usage: 46.6 residual: 46.36
mrth: 16.53 cth: 13.84 usage: 13.65 residual: 2.88
mrth: 36.02 cth: 30.82 usage: 28.74 residual: 7.28
mrth: 72.65 cth: 58.32 usage: 56.84 residual: 15.81
mrth: 40.76 cth: 29.11 usage: 29.08 residual: 11.68
mrth: 93.76 cth: 83.18 usage: 68.49 residual: 25.27
mrth: 82.91 cth: 67.38 usage: 72.97 residual: 9.94
mrth: 97.01 cth: 77.22 usage: 94.85 residual: 2.16
mrth: 183.21 cth: 143.43 usage: 147.41 residual: 35.8
mrth: 90.86 cth: 64.52 usage: 75.93 residual: 14.93
mrth: 145.93 cth: 114.72 usage: 121.47 residual: 24.46
mrth: 92.77 cth: 67.27 usage: 92.68 residual: 0.09
mrth: 63.31 cth: 54.55 usage: 50.91 residual: 12.4
mrth: 88.75 cth: 73.04 usage: 62.89 residual: 25.86
mrth: 125.82 cth: 97.58 usage: 68.9 residual: 56.92
mrth: 71.94 cth: 52.91 usage: 68.03 residual: 3.91
mrth: 212.84 cth: 164.32 usage: 116.63 residual: 96.21
mrth: 25.84 cth: 21.71 usage: 17.79 residual: 8.05
mrth: 166.87 cth: 131.33 usage: 159.26 residual: 7.61
mrth: 68.71 cth: 61.6 usage: 42.87 residual: 25.84
mrth: 147.1 cth: 129.05 usage: 87.98 residual: 59.12
mrth: 89.41 cth: 78.34 usage: 70.3 residual: 19.11
mrth: 78.9 cth: 70.88 usage: 76.71 residual: 2.19
mrth: 73.26 cth: 54.02 usage: 46.08 residual: 27.18
mrth: 65.73 cth: 51.27 usage: 40.77 residual: 24.96
mrth: 69.0 cth: 53.8 usage: 50.71 residual: 18.29
mrth: 56.25 cth: 50.34 usage: 32.58 residual: 23.67
mrth: 129.21 cth: 113.35 usage: 104.72 residual: 24.49
mrth: 78.9 cth: 66.44 usage: 75.33 residual: 3.57
mrth: 188.57 cth: 168.03 usage: 117.79 residual: 70.78
mrth: 65.28 cth: 55.74 usage: 46.26 residual: 19.02
mrth: 53.29 cth: 47.45 usage: 48.32 residual: 4.97
mrth: 38.95 cth: 33.78 usage: 27.72 residual: 11.23
mrth: 150.14 cth: 118.89 usage: 125.16 residual: 24.98
mrth: 81.61 cth: 57.69 usage: 78.57 residual: 3.04
mrth: 72.99 cth: 61.41 usage: 60.87 residual: 12.12
mrth: 71.47 cth: 53.68 usage: 58.44 residual: 13.03
mrth: 143.31 cth: 104.84 usage: 113.31 residual: 30.0
mrth: 188.7 cth: 153.97 usage: 187.42 residual: 1.28
mrth: 112.11 cth: 89.77 usage: 61.44 residual: 50.67
mrth: 106.18 cth: 78.66 usage: 84.64 residual: 21.54
mrth: 39.08 cth: 30.81 usage: 28.35 residual: 10.73
mrth: 179.33 cth: 145.77 usage: 168.78 residual: 10.55
mrth: 38.37 cth: 30.64 usage: 24.56 residual: 13.81
mrth: 54.55 cth: 43.27 usage: 48.09 residual: 6.46
mrth: 68.45 cth: 56.15 usage: 61.93 residual: 6.52
mrth: 114.24 cth: 101.86 usage: 97.2 residual: 17.04
mrth: 146.33 cth: 107.51 usage: 142.24 residual: 4.09
mrth: 155.72 cth: 133.21 usage: 151.8 residual: 3.92
mrth: 93.94 cth: 81.9 usage: 85.05 residual: 8.89
mrth: 76.51 cth: 57.89 usage: 58.21 residual: 18.3
mrth: 219.91 cth: 171.5 usage: 156.7 residual: 63.21
mrth: 161.52 cth: 124.46 usage: 108.72 residual: 52.8
mrth: 144.45 cth: 105.33 usage: 73.11 residual: 71.34
mrth: 13.79 cth: 11.42 usage: 8.12 residual: 5.67
mrth: 73.8 cth: 53.7 usage: 50.07 residual: 23.73
mrth: 52.08 cth: 43.91 usage: 48.28 residual: 3.8
mrth: 8.92 cth: 7.15 usage: 4.57 residual: 4.35
mrth: 73.4 cth: 57.01 usage: 39.53 residual: 33.87
mrth: 59.91 cth: 47.57 usage: 51.04 residual: 8.87
mrth: 89.9 cth: 68.32 usage: 49.3 residual: 40.6
mrth: 207.61 cth: 152.49 usage: 125.15 residual: 82.46
mrth: 194.71 cth: 174.88 usage: 108.74 residual: 85.97
mrth: 151.08 cth: 108.49 usage: 110.92 residual: 40.16
mrth: 30.47 cth: 24.25 usage: 20.84 residual: 9.63
mrth: 167.41 cth: 148.03 usage: 128.88 residual: 38.53
mrth: 17.96 cth: 15.17 usage: 13.78 residual: 4.18
mrth: 42.12 cth: 36.95 usage: 26.25 residual: 15.87
mrth: 111.57 cth: 85.72 usage: 84.44 residual: 27.13
mrth: 101.9 cth: 90.36 usage: 55.65 residual: 46.25
mrth: 46.47 cth: 41.27 usage: 37.72 residual: 8.75
mrth: 116.26 cth: 103.1 usage: 97.38 residual: 18.88
mrth: 153.08 cth: 108.17 usage: 89.88 residual: 63.2
mrth: 175.19 cth: 126.04 usage: 106.9 residual: 68.29
mrth: 82.93 cth: 59.99 usage: 70.78 residual: 12.15
mrth: 62.76 cth: 51.56 usage: 50.8 residual: 11.96
mrth: 129.93 cth: 92.45 usage: 69.88 residual: 60.05
mrth: 133.56 cth: 102.64 usage: 86.27 residual: 47.29
mrth: 73.18 cth: 53.19 usage: 45.8 residual: 27.38
mrth: 36.98 cth: 31.83 usage: 27.93 residual: 9.05
mrth: 168.19 cth: 138.71 usage: 110.32 residual: 57.87
mrth: 18.99 cth: 13.46 usage: 10.72 residual: 8.27
mrth: 56.15 cth: 40.23 usage: 40.12 residual: 16.03
mrth: 69.37 cth: 55.92 usage: 43.96 residual: 25.41
mrth: 129.41 cth: 106.06 usage: 115.16 residual: 14.25
mrth: 100.2 cth: 74.47 usage: 70.19 residual: 30.01
mrth: 90.83 cth: 77.64 usage: 76.52 residual: 14.31
mrth: 59.04 cth: 44.03 usage: 53.26 residual: 5.78
mrth: 144.07 cth: 103.26 usage: 90.7 residual: 53.37
mrth: 114.27 cth: 82.91 usage: 98.48 residual: 15.79
mrth: 57.94 cth: 42.22 usage: 36.78 residual: 21.16
mrth: 91.47 cth: 69.07 usage: 82.81 residual: 8.66
mrth: 50.12 cth: 40.86 usage: 44.6 residual: 5.52
mrth: 104.04 cth: 78.8 usage: 97.29 residual: 6.75
mrth: 124.53 cth: 97.99 usage: 90.01 residual: 34.52
mrth: 122.45 cth: 90.23 usage: 101.07 residual: 21.38
mrth: 160.07 cth: 117.25 usage: 152.45 residual: 7.62
mrth: 84.09 cth: 69.62 usage: 81.64 residual: 2.45
mrth: 112.22 cth: 84.09 usage: 60.39 residual: 51.83
mrth: 116.0 cth: 93.5 usage: 62.7 residual: 53.3
mrth: 79.43 cth: 58.62 usage: 53.2 residual: 26.23
mrth: 60.08 cth: 44.69 usage: 60.05 residual: 0.03
mrth: 107.4 cth: 76.36 usage: 59.53 residual: 47.87
mrth: 113.89 cth: 98.66 usage: 69.26 residual: 44.63
mrth: 53.46 cth: 39.67 usage: 36.56 residual: 16.9
mrth: 97.23 cth: 84.12 usage: 89.97 residual: 7.26
mrth: 163.87 cth: 127.32 usage: 110.4 residual: 53.47
mrth: 26.15 cth: 19.12 usage: 15.36 residual: 10.79
mrth: 69.41 cth: 58.68 usage: 45.85 residual: 23.56
mrth: 66.23 cth: 46.55 usage: 39.52 residual: 26.71
mrth: 55.6 cth: 48.26 usage: 33.36 residual: 22.24
mrth: 74.93 cth: 66.64 usage: 45.89 residual: 29.04
mrth: 75.98 cth: 62.76 usage: 58.81 residual: 17.17
mrth: 48.38 cth: 43.26 usage: 36.63 residual: 11.75
mrth: 52.21 cth: 40.65 usage: 37.82 residual: 14.39
mrth: 46.51 cth: 36.16 usage: 42.62 residual: 3.89
mrth: 46.97 cth: 34.85 usage: 29.29 residual: 17.68
mrth: 51.44 cth: 43.6 usage: 31.24 residual: 20.2
mrth: 186.39 cth: 159.91 usage: 166.1 residual: 20.29
mrth: 124.79 cth: 103.98 usage: 110.91 residual: 13.88
mrth: 90.27 cth: 67.05 usage: 66.18 residual: 24.09
mrth: 92.62 cth: 74.82 usage: 62.74 residual: 29.88
mrth: 126.48 cth: 110.33 usage: 96.82 residual: 29.66
mrth: 79.08 cth: 58.65 usage: 40.42 residual: 38.66
mrth: 149.25 cth: 131.14 usage: 93.18 residual: 56.07
mrth: 63.92 cth: 50.06 usage: 41.72 residual: 22.2
mrth: 55.83 cth: 40.79 usage: 39.66 residual: 16.17
mrth: 98.92 cth: 88.03 usage: 79.47 residual: 19.45
mrth: 105.7 cth: 93.07 usage: 80.57 residual: 25.13
mrth: 146.06 cth: 102.51 usage: 126.74 residual: 19.32
mrth: 106.84 cth: 88.42 usage: 62.78 residual: 44.06
mrth: 29.9 cth: 25.71 usage: 27.04 residual: 2.86
mrth: 56.94 cth: 48.09 usage: 55.05 residual: 1.89
mrth: 75.26 cth: 53.47 usage: 44.1 residual: 31.16
mrth: 46.71 cth: 41.54 usage: 34.75 residual: 11.96
mrth: 132.5 cth: 107.14 usage: 125.64 residual: 6.86
mrth: 105.16 cth: 87.61 usage: 61.36 residual: 43.8
mrth: 59.82 cth: 45.04 usage: 40.47 residual: 19.35
mrth: 119.89 cth: 106.13 usage: 85.06 residual: 34.83
mrth: 93.11 cth: 76.91 usage: 77.86 residual: 15.25
mrth: 34.88 cth: 29.96 usage: 30.14 residual: 4.74
mrth: 198.19 cth: 155.87 usage: 126.98 residual: 71.21
mrth: 58.08 cth: 50.96 usage: 51.74 residual: 6.34
mrth: 60.37 cth: 45.71 usage: 56.53 residual: 3.84
mrth: 133.77 cth: 100.42 usage: 75.74 residual: 58.03
mrth: 105.04 cth: 85.07 usage: 74.04 residual: 31.0
mrth: 282.37 cth: 227.4 usage: 146.14 residual: 136.23
mrth: 113.53 cth: 81.99 usage: 91.54 residual: 21.99
mrth: 68.12 cth: 58.15 usage: 64.86 residual: 3.26
mrth: 194.09 cth: 158.63 usage: 175.47 residual: 18.62
mrth: 198.01 cth: 142.72 usage: 161.7 residual: 36.31
mrth: 198.73 cth: 175.39 usage: 137.86 residual: 60.87
mrth: 146.71 cth: 124.33 usage: 88.36 residual: 58.35
mrth: 35.32 cth: 27.73 usage: 22.45 residual: 12.87
mrth: 45.31 cth: 39.28 usage: 29.3 residual: 16.01
mrth: 64.85 cth: 47.82 usage: 38.54 residual: 26.31
mrth: 143.34 cth: 112.98 usage: 134.22 residual: 9.12
mrth: 45.11 cth: 35.41 usage: 41.64 residual: 3.47
mrth: 81.0 cth: 63.88 usage: 54.79 residual: 26.21
mrth: 82.02 cth: 63.19 usage: 48.84 residual: 33.18
mrth: 40.62 cth: 32.89 usage: 25.87 residual: 14.75
mrth: 38.03 cth: 26.71 usage: 26.33 residual: 11.7
mrth: 96.71 cth: 71.65 usage: 79.75 residual: 16.96
mrth: 37.38 cth: 31.63 usage: 27.36 residual: 10.02
mrth: 102.33 cth: 75.93 usage: 90.89 residual: 11.44
mrth: 156.9 cth: 111.72 usage: 98.4 residual: 58.5
mrth: 161.07 cth: 130.67 usage: 142.27 residual: 18.8
mrth: 77.73 cth: 60.55 usage: 67.97 residual: 9.76
mrth: 117.41 cth: 88.29 usage: 93.32 residual: 24.09
mrth: 127.85 cth: 97.49 usage: 78.79 residual: 49.06
mrth: 93.84 cth: 77.61 usage: 70.08 residual: 23.76
mrth: 91.66 cth: 65.85 usage: 87.35 residual: 4.31
mrth: 107.4 cth: 94.73 usage: 78.4 residual: 29.0
mrth: 202.35 cth: 154.3 usage: 113.28 residual: 89.07
mrth: 74.65 cth: 55.0 usage: 57.87 residual: 16.78
mrth: 130.55 cth: 99.13 usage: 114.54 residual: 16.01
mrth: 145.05 cth: 109.67 usage: 136.77 residual: 8.28
mrth: 106.62 cth: 74.99 usage: 73.36 residual: 33.26
mrth: 31.15 cth: 23.33 usage: 23.53 residual: 7.62
mrth: 21.87 cth: 16.73 usage: 11.48 residual: 10.39
mrth: 70.81 cth: 51.87 usage: 58.71 residual: 12.1
mrth: 124.48 cth: 101.74 usage: 90.2 residual: 34.28
mrth: 124.18 cth: 110.76 usage: 62.53 residual: 61.65
mrth: 119.71 cth: 86.69 usage: 81.88 residual: 37.83
mrth: 103.88 cth: 75.74 usage: 96.17 residual: 7.71
mrth: 150.84 cth: 130.12 usage: 146.46 residual: 4.38
mrth: 55.08 cth: 38.6 usage: 52.7 residual: 2.38
mrth: 44.26 cth: 35.92 usage: 36.21 residual: 8.05
mrth: 120.0 cth: 89.9 usage: 75.17 residual: 44.83
mrth: 56.55 cth: 44.98 usage: 38.35 residual: 18.2
mrth: 15.13 cth: 10.61 usage: 10.13 residual: 5.0
mrth: 59.2 cth: 46.81 usage: 50.22 residual: 8.98
mrth: 73.46 cth: 65.39 usage: 61.81 residual: 11.65
mrth: 48.59 cth: 37.37 usage: 32.42 residual: 16.17
mrth: 47.69 cth: 42.58 usage: 33.65 residual: 14.04
mrth: 125.15 cth: 105.58 usage: 91.56 residual: 33.59
mrth: 97.27 cth: 86.85 usage: 73.04 residual: 24.23
mrth: 54.84 cth: 42.86 usage: 45.69 residual: 9.15
mrth: 65.85 cth: 49.08 usage: 43.93 residual: 21.92
mrth: 35.57 cth: 31.14 usage: 25.35 residual: 10.22
mrth: 60.55 cth: 49.29 usage: 36.12 residual: 24.43
mrth: 81.63 cth: 69.56 usage: 47.71 residual: 33.92
mrth: 66.16 cth: 55.98 usage: 47.57 residual: 18.59
mrth: 64.16 cth: 55.01 usage: 42.8 residual: 21.36
mrth: 217.75 cth: 188.95 usage: 150.93 residual: 66.82
mrth: 175.5 cth: 135.76 usage: 136.62 residual: 38.88
mrth: 190.0 cth: 165.06 usage: 116.45 residual: 73.55
mrth: 179.83 cth: 146.64 usage: 159.27 residual: 20.56
mrth: 94.85 cth: 68.08 usage: 69.45 residual: 25.4
mrth: 33.47 cth: 24.48 usage: 30.62 residual: 2.85
mrth: 26.52 cth: 21.72 usage: 16.16 residual: 10.36
mrth: 48.69 cth: 35.16 usage: 34.78 residual: 13.91
mrth: 70.85 cth: 53.41 usage: 45.93 residual: 24.92
mrth: 104.29 cth: 77.89 usage: 63.67 residual: 40.62
mrth: 75.69 cth: 57.82 usage: 54.83 residual: 20.86
mrth: 172.19 cth: 154.52 usage: 132.9 residual: 39.29
mrth: 126.84 cth: 102.95 usage: 107.82 residual: 19.02
mrth: 43.18 cth: 34.24 usage: 22.77 residual: 20.41
mrth: 43.77 cth: 33.74 usage: 42.76 residual: 1.01
mrth: 220.68 cth: 191.33 usage: 199.99 residual: 20.69
mrth: 101.63 cth: 75.45 usage: 92.02 residual: 9.61
mrth: 138.55 cth: 112.41 usage: 76.24 residual: 62.31
mrth: 170.94 cth: 145.82 usage: 120.73 residual: 50.21
mrth: 126.14 cth: 94.16 usage: 86.15 residual: 39.99
mrth: 95.13 cth: 84.19 usage: 49.12 residual: 46.01
mrth: 38.24 cth: 26.92 usage: 37.3 residual: 0.94
mrth: 48.09 cth: 41.81 usage: 35.59 residual: 12.5
mrth: 96.77 cth: 84.05 usage: 72.19 residual: 24.58
mrth: 120.84 cth: 97.05 usage: 71.96 residual: 48.88
mrth: 88.8 cth: 66.46 usage: 49.32 residual: 39.48
mrth: 58.23 cth: 49.06 usage: 31.2 residual: 27.03
mrth: 29.28 cth: 20.65 usage: 16.07 residual: 13.21
mrth: 45.77 cth: 36.53 usage: 27.62 residual: 18.15
mrth: 108.35 cth: 81.07 usage: 61.52 residual: 46.83
mrth: 22.86 cth: 17.92 usage: 12.94 residual: 9.92
mrth: 25.63 cth: 20.93 usage: 17.72 residual: 7.91
mrth: 120.35 cth: 95.57 usage: 95.75 residual: 24.6
mrth: 74.5 cth: 53.07 usage: 56.48 residual: 18.02
mrth: 105.44 cth: 87.27 usage: 101.64 residual: 3.8
mrth: 26.56 cth: 22.4 usage: 23.19 residual: 3.37
mrth: 53.68 cth: 45.73 usage: 31.44 residual: 22.24
mrth: 42.78 cth: 37.0 usage: 25.01 residual: 17.77
mrth: 127.0 cth: 113.78 usage: 100.81 residual: 26.19
mrth: 85.9 cth: 73.67 usage: 44.41 residual: 41.49
mrth: 75.62 cth: 63.6 usage: 57.03 residual: 18.59
mrth: 115.57 cth: 90.02 usage: 83.57 residual: 32.0
mrth: 105.64 cth: 79.43 usage: 61.09 residual: 44.55
mrth: 79.24 cth: 69.27 usage: 42.98 residual: 36.26
mrth: 108.89 cth: 80.92 usage: 99.9 residual: 8.99
mrth: 116.36 cth: 84.02 usage: 79.05 residual: 37.31
mrth: 10.43 cth: 9.2 usage: 9.98 residual: 0.45
mrth: 75.61 cth: 67.13 usage: 43.84 residual: 31.77
mrth: 91.38 cth: 64.03 usage: 64.41 residual: 26.97
mrth: 54.1 cth: 44.51 usage: 32.34 residual: 21.76
mrth: 151.43 cth: 123.86 usage: 144.24 residual: 7.19
mrth: 130.37 cth: 105.4 usage: 78.9 residual: 51.47
mrth: 133.04 cth: 114.77 usage: 113.54 residual: 19.5
mrth: 106.14 cth: 94.04 usage: 106.01 residual: 0.13
mrth: 112.76 cth: 86.03 usage: 69.89 residual: 42.87
mrth: 32.76 cth: 23.46 usage: 18.49 residual: 14.27
mrth: 90.6 cth: 66.68 usage: 66.34 residual: 24.26
mrth: 180.59 cth: 156.85 usage: 160.13 residual: 20.46
mrth: 94.94 cth: 73.39 usage: 55.29 residual: 39.65
mrth: 195.04 cth: 162.99 usage: 189.37 residual: 5.67
mrth: 152.66 cth: 131.37 usage: 78.94 residual: 73.72
mrth: 53.83 cth: 47.67 usage: 32.18 residual: 21.65
mrth: 80.03 cth: 68.07 usage: 40.75 residual: 39.28
mrth: 100.05 cth: 86.42 usage: 71.44 residual: 28.61
mrth: 6.59 cth: 4.83 usage: 5.89 residual: 0.7
mrth: 17.91 cth: 14.72 usage: 11.54 residual: 6.37
mrth: 56.9 cth: 42.26 usage: 35.16 residual: 21.74
mrth: 93.55 cth: 76.78 usage: 82.23 residual: 11.32
mrth: 74.41 cth: 56.53 usage: 45.75 residual: 28.66
mrth: 103.69 cth: 91.76 usage: 56.64 residual: 47.05
mrth: 91.04 cth: 64.4 usage: 76.46 residual: 14.58
mrth: 219.64 cth: 155.35 usage: 110.12 residual: 109.52
mrth: 117.3 cth: 93.77 usage: 73.21 residual: 44.09
mrth: 124.23 cth: 105.96 usage: 92.62 residual: 31.61
mrth: 109.28 cth: 89.84 usage: 56.02 residual: 53.26
mrth: 18.16 cth: 15.99 usage: 11.46 residual: 6.7
mrth: 70.35 cth: 54.4 usage: 35.53 residual: 34.82
mrth: 17.63 cth: 15.65 usage: 12.04 residual: 5.59
mrth: 154.78 cth: 137.77 usage: 92.6 residual: 62.18
mrth: 23.66 cth: 19.57 usage: 13.62 residual: 10.04
mrth: 116.61 cth: 86.12 usage: 85.96 residual: 30.65
mrth: 115.8 cth: 93.77 usage: 110.57 residual: 5.23
mrth: 68.73 cth: 48.33 usage: 63.63 residual: 5.1
mrth: 75.37 cth: 59.94 usage: 44.67 residual: 30.7
mrth: 126.94 cth: 96.02 usage: 70.8 residual: 56.14
mrth: 139.55 cth: 107.21 usage: 75.57 residual: 63.98
mrth: 171.91 cth: 139.72 usage: 115.87 residual: 56.04
mrth: 28.22 cth: 22.64 usage: 18.19 residual: 10.03
mrth: 92.74 cth: 69.23 usage: 68.65 residual: 24.09
mrth: 153.84 cth: 137.08 usage: 103.22 residual: 50.62
mrth: 71.42 cth: 58.39 usage: 56.78 residual: 14.64
mrth: 20.36 cth: 15.31 usage: 10.54 residual: 9.82
mrth: 90.42 cth: 76.12 usage: 55.16 residual: 35.26
mrth: 104.47 cth: 91.8 usage: 81.71 residual: 22.76
mrth: 49.14 cth: 41.03 usage: 43.36 residual: 5.78
mrth: 111.12 cth: 92.42 usage: 100.32 residual: 10.8
mrth: 144.14 cth: 111.37 usage: 118.82 residual: 25.32
mrth: 69.65 cth: 62.24 usage: 64.67 residual: 4.98
mrth: 117.92 cth: 87.14 usage: 115.34 residual: 2.58
mrth: 146.34 cth: 127.15 usage: 136.53 residual: 9.81
mrth: 110.24 cth: 89.58 usage: 58.92 residual: 51.32
