mrth: 101.52 cth: 82.27 usage: 100.62 residual: 0.9
mrth: 35.22 cth: 27.82 usage: 26.08 residual: 9.14
mrth: 87.63 cth: 71.14 usage: 82.34 residual: 5.29
mrth: 83.11 cth: 65.87 usage: 66.62 residual: 16.49
mrth: 23.11 cth: 20.09 usage: 11.88 residual: 11.23
mrth: 47.15 cth: 34.84 usage: 23.62 residual: 23.53
mrth: 54.38 cth: 44.31 usage: 31.51 residual: 22.87
mrth: 91.53 cth: 65.86 usage: 87.79 residual: 3.74
mrth: 81.86 cth: 61.17 usage: 47.91 residual: 33.95
mrth: 41.99 cth: 29.99 usage: 25.0 residual: 16.99
mrth: 58.25 cth: 41.82 usage: 35.74 residual: 22.51
mrth: 30.28 cth: 23.24 usage: 20.04 residual: 10.24
mrth: 47.94 cth: 37.21 usage: 46.65 residual: 1.29
mrth: 50.36 cth: 37.41 usage: 42.93 residual: 7.43
mrth: 81.11 cth: 64.12 usage: 49.97 residual: 31.14
mrth: 66.92 cth: 50.51 usage: 45.73 residual: 21.19
mrth: 94.04 cth: 84.26 usage: 63.3 residual: 30.74
mrth: 87.08 cth: 62.61 usage: 48.94 residual: 38.14
mrth: 15.77 cth: 13.16 usage: 12.62 residual: 3.15
mrth: 45.39 cth: 38.61 usage: 41.84 residual: 3.55
mrth: 75.57 cth: 54.51 usage: 39.75 residual: 35.82
mrth: 106.18 cth: 84.8 usage: 89.52 residual: 16.66
mrth: 8.24 cth: 7.03 usage: 5.13 residual: 3.11
mrth: 62.03 cth: 52.85 usage: 46.29 residual: 15.74
mrth: 44.37 cth: 37.59 usage: 26.11 residual: 18.26
mrth: 23.78 cth: 17.2 usage: 17.63 residual: 6.15
mrth: 63.06 cth: 48.76 usage: 53.1 residual: 9.96
mrth: 71.78 cth: 59.7 usage: 41.32 residual: 30.46
mrth: 66.71 cth: 53.97 usage: 53.32 residual: 13.39
mrth: 89.35 cth: 64.54 usage: 52.86 residual: 36.49
mrth: 61.03 cth: 45.77 usage: 59.68 residual: 1.35
mrth: 57.62 cth: 42.86 usage: 46.07 residual: 11.55
mrth: 58.01 cth: 49.87 usage: 50.88 residual: 7.13
mrth: 94.95 cth: 66.82 usage: 64.31 residual: 30.64
mrth: 21.71 cth: 17.14 usage: 18.9 residual: 2.81
mrth: 47.28 cth: 33.48 usage: 33.08 residual: 14.2
mrth: 28.29 cth: 23.19 usage: 26.05 residual: 2.24
mrth: 38.11 cth: 32.97 usage: 35.67 residual: 2.44
mrth: 89.03 cth: 73.83 usage: 86.02 residual: 3.01
mrth: 69.5 cth: 54.49 usage: 63.79 residual: 5.71
mrth: 57.42 cth: 40.62 usage: 29.59 residual: 27.83
mrth: 61.78 cth: 53.98 usage: 55.78 residual: 6.0
mrth: 69.22 cth: 60.82 usage: 55.86 residual: 13.36
mrth: 41.43 cth: 32.38 usage: 39.1 residual: 2.33
mrth: 22.06 cth: 16.9 usage: 16.9 residual: 5.16
mrth: 90.48 cth: 77.14 usage: 60.44 residual: 30.04
mrth: 26.97 cth: 21.04 usage: 24.17 residual: 2.8
mrth: 51.46 cth: 41.62 usage: 31.14 residual: 20.32
mrth: 27.47 cth: 23.09 usage: 22.54 residual: 4.93
mrth: 19.86 cth: 15.31 usage: 12.36 residual: 7.5
mrth: 22.0 cth: 17.76 usage: 20.28 residual: 1.72
mrth: 60.25 cth: 48.47 usage: 39.5 residual: 20.75
mrth: 60.83 cth: 50.63 usage: 35.18 residual: 25.65
mrth: 53.08 cth: 44.88 usage: 46.02 residual: 7.06
mrth: 62.53 cth: 48.86 usage: 43.58 residual: 18.95
mrth: 32.08 cth: 25.81 usage: 21.47 residual: 10.61
mrth: 31.16 cth: 22.48 usage: 22.22 residual: 8.94
mrth: 52.43 cth: 46.57 usage: 26.58 residual: 25.85
mrth: 45.42 cth: 35.26 usage: 29.85 residual: 15.57
mrth: 29.37 cth: 20.81 usage: 19.82 residual: 9.55
mrth: 96.93 cth: 70.34 usage: 69.69 residual: 27.24
mrth: 22.71 cth: 17.71 usage: 17.65 residual: 5.06
mrth: 41.12 cth: 29.58 usage: 40.22 residual: 0.9
mrth: 112.04 cth: 100.29 usage: 98.19 residual: 13.85
mrth: 51.34 cth: 38.98 usage: 33.67 residual: 17.67
mrth: 29.5 cth: 20.94 usage: 24.7 residual: 4.8
mrth: 41.63 cth: 30.94 usage: 33.87 residual: 7.76
mrth: 46.42 cth: 32.49 usage: 34.39 residual: 12.03
mrth: 22.51 cth: 16.4 usage: 12.2 residual: 10.31
mrth: 68.26 cth: 59.12 usage: 64.41 residual: 3.85
mrth: 65.37 cth: 48.51 usage: 45.87 residual: 19.5
mrth: 63.63 cth: 49.45 usage: 56.21 residual: 7.42
mrth: 64.71 cth: 53.93 usage: 51.44 residual: 13.27
mrth: 45.1 cth: 32.52 usage: 35.92 residual: 9.18
mrth: 50.99 cth: 40.74 usage: 50.62 residual: 0.37
mrth: 77.24 cth: 60.01 usage: 60.5 residual: 16.74
mrth: 47.63 cth: 37.88 usage: 24.02 residual: 23.61
mrth: 17.55 cth: 13.41 usage: 11.14 residual: 6.41
mrth: 104.77 cth: 88.21 usage: 84.46 residual: 20.31
mrth: 84.54 cth: 68.21 usage: 46.51 residual: 38.03
mrth: 32.28 cth: 26.71 usage: 27.23 residual: 5.05
mrth: 45.2 cth: 39.5 usage: 44.85 residual: 0.35
mrth: 79.48 cth: 56.27 usage: 42.49 residual: 36.99
mrth: 26.55 cth: 21.17 usage: 26.07 residual: 0.48
mrth: 34.0 cth: 24.35 usage: 19.51 residual: 14.49
mrth: 60.2 cth: 43.37 usage: 48.49 residual: 11.71
mrth: 43.87 cth: 34.41 usage: 43.08 residual: 0.79
mrth: 34.93 cth: 25.01 usage: 17.76 residual: 17.17
mrth: 99.81 cth: 87.45 usage: 93.13 residual: 6.68
mrth: 64.29 cth: 55.62 usage: 56.29 residual: 8.0
mrth: 78.67 cth: 58.63 usage: 48.26 residual: 30.41
mrth: 50.54 cth: 42.94 usage: 36.73 residual: 13.81
mrth: 48.7 cth: 40.07 usage: 41.24 residual: 7.46
mrth: 55.03 cth: 40.45 usage: 45.4 residual: 9.63
mrth: 26.46 cth: 22.02 usage: 23.1 residual: 3.36
mrth: 39.2 cth: 29.37 usage: 34.78 residual: 4.42
mrth: 23.63 cth: 20.93 usage: 23.05 residual: 0.58
mrth: 55.9 cth: 39.37 usage: 52.37 residual: 3.53
mrth: 29.09 cth: 22.52 usage: 19.07 residual: 10.02
mrth: 151.26 cth: 115.08 usage: 138.69 residual: 12.57
mrth: 33.91 cth: 27.7 usage: 18.43 residual: 15.48
mrth: 66.87 cth: 59.5 usage: 34.3 residual: 32.57
mrth: 41.28 cth: 28.9 usage: 21.68 residual: 19.6
mrth: 128.6 cth: 107.39 usage: 99.51 residual: 29.09
mrth: 78.38 cth: 67.63 usage: 52.32 residual: 26.06
mrth: 36.25 cth: 31.46 usage: 25.6 residual: 10.65
mrth: 75.16 cth: 56.23 usage: 54.81 residual: 20.35
mrth: 45.35 cth: 32.76 usage: 37.61 residual: 7.74
mrth: 106.51 cth: 74.59 usage: 65.7 residual: 40.81
mrth: 19.94 cth: 15.99 usage: 12.3 residual: 7.64
mrth: 18.2 cth: 15.87 usage: 15.8 residual: 2.4
mrth: 64.33 cth: 49.38 usage: 37.48 residual: 26.85
mrth: 62.35 cth: 51.3 usage: 53.12 residual: 9.23
mrth: 74.9 cth: 56.59 usage: 43.75 residual: 31.15
mrth: 58.15 cth: 49.64 usage: 32.89 residual: 25.26
mrth: 71.84 cth: 63.43 usage: 36.64 residual: 35.2
mrth: 40.63 cth: 28.83 usage: 38.63 residual: 2.0
mrth: 99.58 cth: 89.13 usage: 52.88 residual: 46.7
mrth: 114.53 cth: 81.58 usage: 92.18 residual: 22.35
mrth: 25.56 cth: 19.02 usage: 20.32 residual: 5.24
mrth: 41.96 cth: 33.2 usage: 32.19 residual: 9.77
mrth: 48.17 cth: 42.15 usage: 32.88 residual: 15.29
mrth: 18.36 cth: 14.28 usage: 12.64 residual: 5.72
mrth: 22.81 cth: 16.79 usage: 22.79 residual: 0.02
mrth: 37.55 cth: 32.32 usage: 30.59 residual: 6.96
mrth: 101.25 cth: 72.92 usage: 76.31 residual: 24.94
mrth: 33.35 cth: 29.96 usage: 22.52 residual: 10.83
mrth: 29.04 cth: 25.86 usage: 26.6 residual: 2.44
mrth: 23.05 cth: 17.93 usage: 13.68 residual: 9.37
mrth: 26.19 cth: 22.21 usage: 19.03 residual: 7.16
mrth: 41.58 cth: 29.82 usage: 35.98 residual: 5.6
mrth: 4.8 cth: 3.44 usage: 2.99 residual: 1.81
mrth: 60.98 cth: 51.62 usage: 54.58 residual: 6.4
mrth: 37.18 cth: 28.19 usage: 37.14 residual: 0.04
mrth: 23.49 cth: 17.96 usage: 16.27 residual: 7.22
mrth: 75.51 cth: 59.95 usage: 61.33 residual: 14.18
mrth: 39.33 cth: 35.31 usage: 27.29 residual: 12.04
mrth: 51.3 cth: 43.62 usage: 44.19 residual: 7.11
mrth: 63.35 cth: 46.25 usage: 31.78 residual: 31.57
mrth: 41.1 cth: 36.76 usage: 23.23 residual: 17.87
mrth: 42.55 cth: 37.27 usage: 29.54 residual: 13.01
mrth: 48.68 cth: 43.09 usage: 34.88 residual: 13.8
mrth: 94.15 cth: 80.33 usage: 54.51 residual: 39.64
mrth: 46.83 cth: 35.32 usage: 29.03 residual: 17.8
mrth: 132.23 cth: 112.81 usage: 124.01 residual: 8.22
mrth: 79.33 cth: 69.25 usage: 50.26 residual: 29.07
mrth: 24.5 cth: 17.89 usage: 15.14 residual: 9.36
mrth: 64.54 cth: 49.14 usage: 56.74 residual: 7.8
mrth: 115.5 cth: 97.47 usage: 60.09 residual: 55.41
mrth: 42.91 cth: 31.34 usage: 33.35 residual: 9.56
mrth: 84.43 cth: 64.5 usage: 72.14 residual: 12.29
mrth: 45.56 cth: 37.81 usage: 31.62 residual: 13.94
mrth: 59.34 cth: 42.15 usage: 29.88 residual: 29.46
mrth: 18.17 cth: 15.97 usage: 13.16 residual: 5.01
mrth: 54.03 cth: 39.27 usage: 52.84 residual: 1.19
mrth: 45.79 cth: 34.16 usage: 38.9 residual: 6.89
mrth: 24.28 cth: 17.2 usage: 13.05 residual: 11.23
mrth: 55.85 cth: 42.52 usage: 37.4 residual: 18.45
mrth: 17.44 cth: 14.0 usage: 13.8 residual: 3.64
mrth: 55.6 cth: 47.86 usage: 30.72 residual: 24.88
mrth: 70.2 cth: 58.23 usage: 47.52 residual: 22.68
mrth: 19.71 cth: 16.21 usage: 16.57 residual: 3.14
mrth: 104.08 cth: 85.1 usage: 57.91 residual: 46.17
mrth: 46.94 cth: 39.66 usage: 46.4 residual: 0.54
mrth: 45.45 cth: 34.88 usage: 25.79 residual: 19.66
mrth: 64.76 cth: 54.9 usage: 33.67 residual: 31.09
mrth: 43.19 cth: 35.7 usage: 37.34 residual: 5.85
mrth: 66.09 cth: 46.44 usage: 64.11 residual: 1.98
mrth: 28.88 cth: 24.81 usage: 28.79 residual: 0.09
mrth: 55.99 cth: 47.02 usage: 30.9 residual: 25.09
mrth: 52.92 cth: 37.47 usage: 49.84 residual: 3.08
mrth: 57.73 cth: 49.83 usage: 50.51 residual: 7.22
mrth: 24.57 cth: 20.77 usage: 18.46 residual: 6.11
mrth: 10.64 cth: 7.61 usage: 5.44 residual: 5.2
mrth: 29.52 cth: 23.84 usage: 28.23 residual: 1.29
mrth: 55.98 cth: 40.31 usage: 41.36 residual: 14.62
mrth: 90.64 cth: 67.87 usage: 59.68 residual: 30.96
mrth: 70.39 cth: 57.81 usage: 36.85 residual: 33.54
mrth: 69.58 cth: 55.02 usage: 41.53 residual: 28.05
mrth: 45.98 cth: 41.34 usage: 45.79 residual: 0.19
mrth: 35.08 cth: 26.33 usage: 23.28 residual: 11.8
mrth: 22.46 cth: 19.76 usage: 22.35 residual: 0.11
mrth: 109.84 cth: 94.24 usage: 55.01 residual: 54.83
mrth: 129.77 cth: 98.1 usage: 94.91 residual: 34.86
mrth: 75.56 cth: 58.21 usage: 59.49 residual: 16.07
mrth: 46.96 cth: 38.31 usage: 24.91 residual: 22.05
mrth: 67.9 cth: 48.72 usage: 54.63 residual: 13.27
mrth: 49.75 cth: 36.31 usage: 37.86 residual: 11.89
mrth: 96.25 cth: 69.59 usage: 69.96 residual: 26.29
mrth: 83.2 cth: 60.11 usage: 43.75 residual: 39.45
mrth: 23.22 cth: 20.87 usage: 14.7 residual: 8.52
mrth: 95.62 cth: 77.28 usage: 88.59 residual: 7.03
mrth: 64.27 cth: 46.68 usage: 34.7 residual: 29.57
mrth: 84.89 cth: 67.44 usage: 67.08 residual: 17.81
mrth: 83.95 cth: 63.4 usage: 74.97 residual: 8.98
mrth: 19.24 cth: 15.39 usage: 19.1 residual: 0.14
mrth: 124.9 cth: 107.42 usage: 74.93 residual: 49.97
mrth: 62.01 cth: 44.35 usage: 58.04 residual: 3.97
mrth: 80.79 cth: 58.98 usage: 47.13 residual: 33.66
mrth: 26.49 cth: 22.37 usage: 14.82 residual: 11.67
mrth: 30.49 cth: 22.08 usage: 21.8 residual: 8.69
mrth: 54.43 cth: 45.49 usage: 53.33 residual: 1.1
mrth: 62.84 cth: 48.79 usage: 46.11 residual: 16.73
mrth: 21.91 cth: 16.53 usage: 18.4 residual: 3.51
mrth: 85.18 cth: 60.29 usage: 48.37 residual: 36.81
mrth: 26.6 cth: 19.69 usage: 23.18 residual: 3.42
mrth: 54.49 cth: 47.1 usage: 39.16 residual: 15.33
mrth: 61.17 cth: 50.33 usage: 55.97 residual: 5.2
mrth: 66.33 cth: 58.27 usage: 44.87 residual: 21.46
mrth: 100.45 cth: 76.62 usage: 95.58 residual: 4.87
mrth: 43.76 cth: 38.31 usage: 31.62 residual: 12.14
mrth: 74.19 cth: 53.74 usage: 67.37 residual: 6.82
mrth: 72.12 cth: 62.61 usage: 71.22 residual: 0.9
mrth: 21.18 cth: 18.39 usage: 13.18 residual: 8.0
mrth: 29.19 cth: 21.91 usage: 23.63 residual: 5.56
mrth: 10.36 cth: 8.33 usage: 8.85 residual: 1.51
mrth: 92.39 cth: 77.37 usage: 46.79 residual: 45.6
mrth: 34.85 cth: 29.57 usage: 25.51 residual: 9.34
mrth: 33.66 cth: 25.08 usage: 30.15 residual: 3.51
mrth: 39.68 cth: 35.17 usage: 28.4 residual: 11.28
mrth: 44.6 cth: 32.68 usage: 36.12 residual: 8.48
mrth: 32.35 cth: 24.57 usage: 25.93 residual: 6.42
mrth: 37.96 cth: 33.94 usage: 33.76 residual: 4.2
mrth: 21.16 cth: 18.21 usage: 17.6 residual: 3.56
mrth: 85.4 cth: 61.17 usage: 52.21 residual: 33.19
mrth: 129.16 cth: 101.48 usage: 85.01 residual: 44.15
mrth: 23.18 cth: 17.36 usage: 17.96 residual: 5.22
mrth: 63.76 cth: 48.73 usage: 33.64 residual: 30.12
mrth: 44.45 cth: 37.54 usage: 38.51 residual: 5.94
mrth: 47.45 cth: 36.05 usage: 36.07 residual: 11.38
mrth: 90.1 cth: 78.92 usage: 85.0 residual: 5.1
mrth: 47.07 cth: 36.01 usage: 34.05 residual: 13.02
mrth: 63.97 cth: 45.42 usage: 55.18 residual: 8.79
mrth: 85.51 cth: 60.57 usage: 59.82 residual: 25.69
mrth: 30.62 cth: 26.81 usage: 22.96 residual: 7.66
mrth: 87.72 cth: 69.06 usage: 64.36 residual: 23.36
mrth: 14.07 cth: 10.7 usage: 8.86 residual: 5.21
mrth: 53.83 cth: 40.97 usage: 32.93 residual: 20.9
mrth: 112.3 cth: 98.3 usage: 108.28 residual: 4.02
mrth: 97.81 cth: 75.47 usage: 91.93 residual: 5.88
mrth: 104.62 cth: 79.25 usage: 71.01 residual: 33.61
mrth: 83.02 cth: 68.54 usage: 64.19 residual: 18.83
mrth: 83.33 cth: 70.22 usage: 66.16 residual: 17.17
mrth: 40.35 cth: 32.06 usage: 29.23 residual: 11.12
mrth: 45.19 cth: 40.21 usage: 27.97 residual: 17.22
mrth: 91.78 cth: 70.38 usage: 64.75 residual: 27.03
mrth: 61.58 cth: 46.88 usage: 55.26 residual: 6.32
mrth: 59.72 cth: 44.88 usage: 58.32 residual: 1.4
mrth: 123.26 cth: 86.58 usage: 101.03 residual: 22.23
mrth: 96.78 cth: 82.78 usage: 81.37 residual: 15.41
mrth: 68.34 cth: 48.5 usage: 50.02 residual: 18.32
mrth: 68.4 cth: 48.05 usage: 66.46 residual: 1.94
mrth: 49.39 cth: 35.55 usage: 43.29 residual: 6.1
mrth: 100.76 cth: 71.21 usage: 85.18 residual: 15.58
mrth: 71.45 cth: 54.62 usage: 56.68 residual: 14.77
mrth: 8.72 cth: 7.32 usage: 6.97 residual: 1.75
mrth: 74.38 cth: 61.52 usage: 67.21 residual: 7.17
mrth: 54.54 cth: 47.66 usage: 28.48 residual: 26.06
mrth: 37.71 cth: 26.48 usage: 36.86 residual: 0.85
mrth: 59.98 cth: 48.05 usage: 55.68 residual: 4.3
mrth: 37.06 cth: 27.25 usage: 33.61 residual: 3.45
mrth: 112.59 cth: 84.19 usage: 95.75 residual: 16.84
mrth: 65.3 cth: 46.38 usage: 49.78 residual: 15.52
mrth: 113.56 cth: 79.56 usage: 67.96 residual: 45.6
mrth: 59.64 cth: 44.46 usage: 49.44 residual: 10.2
mrth: 33.32 cth: 26.35 usage: 29.92 residual: 3.4
mrth: 35.47 cth: 28.16 usage: 17.91 residual: 17.56
mrth: 33.86 cth: 29.88 usage: 19.35 residual: 14.51
mrth: 49.08 cth: 43.09 usage: 46.78 residual: 2.3
mrth: 45.06 cth: 36.42 usage: 36.92 residual: 8.14
mrth: 64.41 cth: 51.16 usage: 45.73 residual: 18.68
mrth: 73.95 cth: 57.86 usage: 53.86 residual: 20.09
mrth: 78.06 cth: 63.02 usage: 45.49 residual: 32.57
mrth: 62.96 cth: 48.39 usage: 45.86 residual: 17.1
mrth: 21.39 cth: 17.88 usage: 14.04 residual: 7.35
mrth: 31.24 cth: 24.45 usage: 18.78 residual: 12.46
mrth: 15.69 cth: 12.98 usage: 11.35 residual: 4.34
mrth: 57.08 cth: 40.02 usage: 47.96 residual: 9.12
mrth: 21.08 cth: 18.23 usage: 20.01 residual: 1.07
mrth: 70.72 cth: 53.53 usage: 44.11 residual: 26.61
mrth: 29.27 cth: 22.31 usage: 15.89 residual: 13.38
mrth: 125.12 cth: 92.2 usage: 120.69 residual: 4.43
mrth: 86.24 cth: 71.71 usage: 52.05 residual: 34.19
mrth: 41.56 cth: 32.26 usage: 25.55 residual: 16.01
mrth: 66.74 cth: 47.98 usage: 45.93 residual: 20.81
mrth: 40.58 cth: 32.71 usage: 38.15 residual: 2.43
mrth: 57.88 cth: 48.03 usage: 29.36 residual: 28.52
mrth: 79.87 cth: 71.3 usage: 77.5 residual: 2.37
mrth: 51.35 cth: 39.35 usage: 27.0 residual: 24.35
mrth: 54.09 cth: 45.07 usage: 51.25 residual: 2.84
mrth: 34.49 cth: 29.67 usage: 25.02 residual: 9.47
mrth: 74.39 cth: 63.07 usage: 66.39 residual: 8.0
mrth: 94.04 cth: 70.5 usage: 92.35 residual: 1.69
mrth: 70.02 cth: 58.02 usage: 65.19 residual: 4.83
mrth: 95.14 cth: 70.19 usage: 48.23 residual: 46.91
mrth: 61.47 cth: 47.93 usage: 40.5 residual: 20.97
mrth: 46.92 cth: 41.53 usage: 26.23 residual: 20.69
mrth: 89.8 cth: 64.23 usage: 58.24 residual: 31.56
mrth: 102.93 cth: 84.35 usage: 56.47 residual: 46.46
mrth: 75.44 cth: 60.43 usage: 72.74 residual: 2.7
mrth: 30.89 cth: 25.22 usage: 21.01 residual: 9.88
mrth: 77.95 cth: 60.95 usage: 59.03 residual: 18.92
mrth: 37.15 cth: 30.89 usage: 20.92 residual: 16.23
mrth: 55.18 cth: 48.18 usage: 37.93 residual: 17.25
mrth: 21.43 cth: 17.81 usage: 17.58 residual: 3.85
mrth: 120.74 cth: 103.52 usage: 96.15 residual: 24.59
mrth: 42.35 cth: 29.85 usage: 40.69 residual: 1.66
mrth: 52.89 cth: 42.53 usage: 42.43 residual: 10.46
mrth: 27.94 cth: 21.41 usage: 19.42 residual: 8.52
mrth: 15.52 cth: 13.31 usage: 9.89 residual: 5.63
mrth: 35.79 cth: 30.35 usage: 30.51 residual: 5.28
mrth: 62.85 cth: 54.1 usage: 31.82 residual: 31.03
mrth: 37.74 cth: 30.08 usage: 27.8 residual: 9.94
mrth: 12.39 cth: 8.75 usage: 8.79 residual: 3.6
mrth: 3.43 cth: 2.9 usage: 2.4 residual: 1.03
mrth: 42.5 cth: 36.83 usage: 40.53 residual: 1.97
mrth: 46.7 cth: 35.57 usage: 44.37 residual: 2.33
mrth: 90.51 cth: 79.88 usage: 48.79 residual: 41.72
mrth: 60.99 cth: 52.57 usage: 52.9 residual: 8.09
mrth: 93.46 cth: 73.21 usage: 77.93 residual: 15.53
mrth: 90.93 cth: 72.45 usage: 60.93 residual: 30.0
mrth: 41.04 cth: 34.03 usage: 29.54 residual: 11.5
mrth: 103.91 cth: 75.26 usage: 52.5 residual: 51.41
mrth: 83.97 cth: 72.47 usage: 70.6 residual: 13.37
mrth: 51.55 cth: 38.47 usage: 29.14 residual: 22.41
mrth: 52.2 cth: 41.96 usage: 51.16 residual: 1.04
mrth: 61.83 cth: 51.55 usage: 57.63 residual: 4.2
mrth: 26.59 cth: 18.82 usage: 24.29 residual: 2.3
mrth: 50.09 cth: 42.95 usage: 26.56 residual: 23.53
mrth: 58.35 cth: 47.98 usage: 34.74 residual: 23.61
mrth: 27.97 cth: 24.93 usage: 17.73 residual: 10.24
mrth: 28.67 cth: 24.98 usage: 18.55 residual: 10.12
mrth: 67.33 cth: 56.83 usage: 34.37 residual: 32.96
mrth: 105.53 cth: 92.9 usage: 100.48 residual: 5.05
mrth: 62.98 cth: 47.66 usage: 60.62 residual: 2.36
mrth: 71.19 cth: 53.49 usage: 70.9 residual: 0.29
mrth: 40.95 cth: 30.87 usage: 20.92 residual: 20.03
mrth: 16.91 cth: 14.43 usage: 14.65 residual: 2.26
mrth: 114.13 cth: 86.12 usage: 72.6 residual: 41.53
mrth: 16.86 cth: 14.37 usage: 10.87 residual: 5.99
mrth: 6.16 cth: 4.45 usage: 4.3 residual: 1.86
mrth: 8.78 cth: 7.29 usage: 7.23 residual: 1.55
mrth: 87.77 cth: 63.11 usage: 61.96 residual: 25.81
mrth: 44.15 cth: 33.52 usage: 28.73 residual: 15.42
mrth: 80.51 cth: 66.28 usage: 58.25 residual: 22.26
mrth: 77.03 cth: 63.21 usage: 50.85 residual: 26.18
mrth: 35.2 cth: 31.05 usage: 34.02 residual: 1.18
mrth: 39.3 cth: 30.68 usage: 19.7 residual: 19.6
mrth: 43.64 cth: 31.75 usage: 30.35 residual: 13.29
mrth: 43.87 cth: 38.22 usage: 26.44 residual: 17.43
mrth: 39.24 cth: 28.06 usage: 31.23 residual: 8.01
mrth: 30.15 cth: 26.96 usage: 25.63 residual: 4.52
mrth: 58.17 cth: 51.35 usage: 33.55 residual: 24.62
mrth: 35.89 cth: 25.71 usage: 28.95 residual: 6.94
mrth: 19.35 cth: 16.62 usage: 12.95 residual: 6.4
mrth: 47.2 cth: 34.78 usage: 37.77 residual: 9.43
mrth: 141.79 cth: 107.34 usage: 125.68 residual: 16.11
mrth: 25.27 cth: 20.91 usage: 22.16 residual: 3.11
mrth: 65.5 cth: 52.87 usage: 37.11 residual: 28.39
mrth: 103.65 cth: 81.48 usage: 94.82 residual: 8.83
mrth: 68.57 cth: 55.92 usage: 58.91 residual: 9.66
mrth: 54.73 cth: 46.74 usage: 45.29 residual: 9.44
mrth: 55.54 cth: 42.7 usage: 46.64 residual: 8.9
mrth: 25.09 cth: 18.15 usage: 23.33 residual: 1.76
mrth: 14.85 cth: 12.28 usage: 8.47 residual: 6.38
mrth: 25.93 cth: 21.92 usage: 18.29 residual: 7.64
mrth: 106.25 cth: 78.04 usage: 74.62 residual: 31.63
mrth: 50.0 cth: 40.21 usage: 39.97 residual: 10.03
mrth: 49.64 cth: 42.62 usage: 44.25 residual: 5.39
mrth: 30.84 cth: 23.64 usage: 27.02 residual: 3.82
mrth: 117.09 cth: 93.03 usage: 90.32 residual: 26.77
mrth: 111.93 cth: 100.53 usage: 73.67 residual: 38.26
mrth: 25.36 cth: 21.13 usage: 13.42 residual: 11.94
mrth: 51.25 cth: 39.53 usage: 40.89 residual: 10.36
mrth: 65.29 cth: 51.01 usage: 43.53 residual: 21.76
mrth: 33.39 cth: 28.3 usage: 18.88 residual: 14.51
mrth: 25.21 cth: 21.06 usage: 25.03 residual: 0.18
mrth: 34.1 cth: 25.25 usage: 22.75 residual: 11.35
mrth: 47.68 cth: 39.52 usage: 40.47 residual: 7.21
mrth: 46.48 cth: 36.0 usage: 29.13 residual: 17.35
mrth: 84.17 cth: 62.15 usage: 50.42 residual: 33.75
mrth: 40.17 cth: 31.39 usage: 23.1 residual: 17.07
mrth: 8.35 cth: 6.28 usage: 5.17 residual: 3.18
mrth: 56.5 cth: 43.26 usage: 55.19 residual: 1.31
mrth: 15.07 cth: 10.83 usage: 9.48 residual: 5.59
mrth: 100.16 cth: 72.33 usage: 58.77 residual: 41.39
mrth: 8.36 cth: 6.71 usage: 5.58 residual: 2.78
mrth: 72.04 cth: 54.92 usage: 43.96 residual: 28.08
mrth: 54.27 cth: 47.95 usage: 40.03 residual: 14.24
mrth: 19.21 cth: 15.57 usage: 9.8 residual: 9.41
mrth: 96.26 cth: 78.99 usage: 72.14 residual: 24.12
mrth: 64.89 cth: 56.68 usage: 38.03 residual: 26.86
mrth: 78.68 cth: 69.28 usage: 52.5 residual: 26.18
mrth: 31.5 cth: 22.28 usage: 19.71 residual: 11.79
mrth: 136.88 cth: 109.59 usage: 102.26 residual: 34.62
mrth: 64.32 cth: 57.5 usage: 56.59 residual: 7.73
mrth: 22.99 cth: 17.06 usage: 14.73 residual: 8.26
mrth: 9.78 cth: 7.57 usage: 5.76 residual: 4.02
mrth: 35.64 cth: 25.03 usage: 20.34 residual: 15.3
mrth: 47.5 cth: 34.97 usage: 28.21 residual: 19.29
mrth: 56.54 cth: 45.59 usage: 50.06 residual: 6.48
mrth: 78.65 cth: 59.91 usage: 47.21 residual: 31.44
mrth: 82.32 cth: 58.68 usage: 69.28 residual: 13.04
mrth: 25.93 cth: 18.89 usage: 24.83 residual: 1.1
mrth: 46.18 cth: 33.84 usage: 45.33 residual: 0.85
mrth: 94.01 cth: 67.1 usage: 51.34 residual: 42.67
mrth: 66.18 cth: 47.66 usage: 53.4 residual: 12.78
mrth: 62.04 cth: 49.7 usage: 41.15 residual: 20.89
mrth: 59.11 cth: 44.36 usage: 52.47 residual: 6.64
mrth: 96.49 cth: 75.55 usage: 68.44 residual: 28.05
mrth: 14.6 cth: 10.5 usage: 11.29 residual: 3.31
mrth: 38.01 cth: 28.78 usage: 25.03 residual: 12.98
mrth: 123.14 cth: 88.48 usage: 66.0 residual: 57.14
mrth: 46.52 cth: 38.19 usage: 33.77 residual: 12.75
mrth: 59.84 cth: 45.99 usage: 55.88 residual: 3.96
mrth: 75.28 cth: 61.54 usage: 56.72 residual: 18.56
mrth: 68.47 cth: 55.12 usage: 68.29 residual: 0.18
mrth: 48.79 cth: 42.03 usage: 35.71 residual: 13.08
mrth: 54.52 cth: 38.99 usage: 47.83 residual: 6.69
mrth: 56.44 cth: 48.36 usage: 33.36 residual: 23.08
mrth: 24.4 cth: 17.44 usage: 18.51 residual: 5.89
mrth: 69.68 cth: 53.83 usage: 54.48 residual: 15.2
mrth: 31.63 cth: 26.15 usage: 21.33 residual: 10.3
mrth: 146.36 cth: 112.09 usage: 76.16 residual: 70.2
mrth: 20.43 cth: 16.95 usage: 15.4 residual: 5.03
mrth: 100.76 cth: 74.38 usage: 56.94 residual: 43.82
mrth: 70.68 cth: 60.38 usage: 35.96 residual: 34.72
mrth: 12.07 cth: 9.21 usage: 6.93 residual: 5.14
mrth: 31.63 cth: 25.26 usage: 28.7 residual: 2.93
mrth: 27.68 cth: 23.13 usage: 14.55 residual: 13.13
mrth: 36.99 cth: 31.39 usage: 28.04 residual: 8.95
mrth: 37.96 cth: 34.01 usage: 20.1 residual: 17.86
mrth: 32.22 cth: 25.41 usage: 29.3 residual: 2.92
mrth: 52.74 cth: 38.29 usage: 45.36 residual: 7.38
mrth: 13.67 cth: 11.88 usage: 11.14 residual: 2.53
mrth: 68.43 cth: 60.66 usage: 55.34 residual: 13.09
mrth: 88.99 cth: 62.37 usage: 68.28 residual: 20.71
mrth: 84.0 cth: 68.41 usage: 80.65 residual: 3.35
mrth: 71.3 cth: 58.12 usage: 45.96 residual: 25.34
mrth: 117.18 cth: 95.09 usage: 82.12 residual: 35.06
mrth: 84.28 cth: 70.63 usage: 47.22 residual: 37.06
mrth: 106.82 cth: 94.27 usage: 58.62 residual: 48.2
mrth: 80.39 cth: 64.24 usage: 40.59 residual: 39.8
mrth: 24.84 cth: 21.24 usage: 12.76 residual: 12.08
mrth: 101.33 cth: 85.1 usage: 51.71 residual: 49.62
mrth: 79.29 cth: 63.1 usage: 49.88 residual: 29.41
mrth: 18.79 cth: 16.53 usage: 12.04 residual: 6.75
mrth: 26.96 cth: 23.85 usage: 15.22 residual: 11.74
mrth: 31.42 cth: 23.41 usage: 22.04 residual: 9.38
mrth: 49.45 cth: 37.64 usage: 47.1 residual: 2.35
mrth: 82.89 cth: 70.22 usage: 53.49 residual: 29.4
mrth: 75.9 cth: 66.26 usage: 38.72 residual: 37.18
mrth: 46.28 cth: 41.11 usage: 25.16 residual: 21.12
mrth: 26.57 cth: 19.97 usage: 20.13 residual: 6.44
mrth: 135.9 cth: 112.39 usage: 79.14 residual: 56.76
mrth: 34.33 cth: 26.1 usage: 23.01 residual: 11.32
mrth: 59.34 cth: 44.89 usage: 31.79 residual: 27.55
mrth: 47.8 cth: 40.28 usage: 34.53 residual: 13.27
mrth: 126.54 cth: 111.35 usage: 114.16 residual: 12.38
mrth: 29.39 cth: 21.38 usage: 22.32 residual: 7.07
mrth: 91.43 cth: 68.53 usage: 89.02 residual: 2.41
mrth: 57.6 cth: 40.92 usage: 40.3 residual: 17.3
mrth: 101.88 cth: 86.96 usage: 73.42 residual: 28.46
mrth: 28.38 cth: 25.06 usage: 18.88 residual: 9.5
mrth: 41.44 cth: 35.4 usage: 38.17 residual: 3.27
mrth: 148.78 cth: 110.91 usage: 103.64 residual: 45.14
mrth: 99.37 cth: 83.92 usage: 86.97 residual: 12.4
mrth: 28.56 cth: 24.81 usage: 27.18 residual: 1.38
mrth: 79.48 cth: 62.62 usage: 76.23 residual: 3.25
mrth: 62.99 cth: 51.43 usage: 31.9 residual: 31.09
mrth: 62.1 cth: 47.73 usage: 41.39 residual: 20.71
mrth: 58.92 cth: 46.51 usage: 50.63 residual: 8.29
mrth: 64.34 cth: 48.85 usage: 62.59 residual: 1.75
mrth: 48.3 cth: 42.68 usage: 37.58 residual: 10.72
mrth: 35.44 cth: 30.87 usage: 26.29 residual: 9.15
mrth: 88.77 cth: 67.71 usage: 44.84 residual: 43.93
mrth: 46.35 cth: 34.84 usage: 30.58 residual: 15.77
mrth: 18.37 cth: 14.46 usage: 17.18 residual: 1.19
mrth: 37.47 cth: 26.6 usage: 19.22 residual: 18.25
mrth: 86.96 cth: 73.34 usage: 56.59 residual: 30.37
mrth: 115.44 cth: 102.29 usage: 92.47 residual: 22.97
mrth: 26.03 cth: 19.08 usage: 20.16 residual: 5.87
mrth: 96.87 cth: 80.9 usage: 66.13 residual: 30.74
mrth: 43.0 cth: 35.81 usage: 40.69 residual: 2.31
mrth: 20.04 cth: 16.78 usage: 12.62 residual: 7.42
mrth: 121.72 cth: 108.57 usage: 73.62 residual: 48.1
mrth: 82.42 cth: 58.58 usage: 54.04 residual: 28.38
mrth: 32.2 cth: 25.5 usage: 24.48 residual: 7.72
mrth: 86.1 cth: 65.27 usage: 83.09 residual: 3.01
mrth: 5.59 cth: 4.62 usage: 4.42 residual: 1.17
mrth: 34.92 cth: 25.69 usage: 20.37 residual: 14.55
mrth: 6.46 cth: 4.79 usage: 5.72 residual: 0.74
mrth: 69.07 cth: 52.77 usage: 59.71 residual: 9.36
mrth: 4.28 cth: 3.02 usage: 2.64 residual: 1.64
mrth: 34.98 cth: 24.81 usage: 26.83 residual: 8.15
mrth: 154.21 cth: 117.74 usage: 152.84 residual: 1.37
mrth: 88.08 cth: 70.55 usage: 64.08 residual: 24.0
mrth: 99.79 cth: 87.74 usage: 64.18 residual: 35.61
mrth: 66.36 cth: 55.21 usage: 49.03 residual: 17.33
mrth: 67.76 cth: 57.47 usage: 57.41 residual: 10.35
mrth: 74.14 cth: 65.85 usage: 74.06 residual: 0.08
mrth: 97.68 cth: 74.97 usage: 78.28 residual: 19.4
mrth: 32.52 cth: 26.86 usage: 19.93 residual: 12.59
mrth: 63.85 cth: 46.24 usage: 52.51 residual: 11.34
mrth: 37.73 cth: 33.64 usage: 20.75 residual: 16.98
mrth: 105.8 cth: 77.3 usage: 96.74 residual: 9.06
mrth: 106.39 cth: 85.58 usage: 67.17 residual: 39.22
mrth: 73.56 cth: 55.17 usage: 46.63 residual: 26.93
mrth: 11.94 cth: 8.51 usage: 9.03 residual: 2.91
mrth: 52.57 cth: 46.73 usage: 41.07 residual: 11.5
mrth: 35.44 cth: 29.16 usage: 34.45 residual: 0.99
mrth: 125.76 cth: 96.4 usage: 106.86 residual: 18.9
mrth: 77.36 cth: 62.4 usage: 57.07 residual: 20.29
mrth: 77.65 cth: 60.23 usage: 45.67 residual: 31.98
mrth: 56.75 cth: 49.86 usage: 29.57 residual: 27.18
mrth: 70.38 cth: 60.01 usage: 62.86 residual: 7.52
mrth: 90.45 cth: 74.3 usage: 61.68 residual: 28.77
mrth: 19.97 cth: 15.15 usage: 14.54 residual: 5.43
mrth: 59.4 cth: 48.71 usage: 45.59 residual: 13.81
mrth: 80.3 cth: 60.56 usage: 57.63 residual: 22.67
mrth: 125.83 cth: 99.61 usage: 125.35 residual: 0.48
mrth: 150.9 cth: 118.42 usage: 135.65 residual: 15.25
mrth: 26.69 cth: 23.91 usage: 21.08 residual: 5.61
mrth: 51.41 cth: 45.49 usage: 39.41 residual: 12.0
mrth: 79.77 cth: 57.82 usage: 47.45 residual: 32.32
mrth: 64.54 cth: 51.52 usage: 58.07 residual: 6.47
mrth: 40.13 cth: 33.0 usage: 32.68 residual: 7.45
mrth: 58.47 cth: 46.0 usage: 44.18 residual: 14.29
mrth: 28.08 cth: 21.17 usage: 15.92 residual: 12.16
mrth: 68.61 cth: 56.22 usage: 61.84 residual: 6.77
mrth: 79.41 cth: 68.65 usage: 51.28 residual: 28.13
mrth: 59.23 cth: 45.04 usage: 31.13 residual: 28.1
mrth: 55.17 cth: 46.84 usage: 38.3 residual: 16.87
mrth: 48.51 cth: 35.05 usage: 27.26 residual: 21.25
mrth: 22.4 cth: 17.81 usage: 15.03 residual: 7.37
mrth: 39.45 cth: 28.71 usage: 28.75 residual: 10.7
mrth: 14.48 cth: 10.52 usage: 9.39 residual: 5.09
mrth: 32.09 cth: 25.71 usage: 29.5 residual: 2.59
mrth: 43.52 cth: 31.98 usage: 28.97 residual: 14.55
mrth: 85.08 cth: 70.56 usage: 81.93 residual: 3.15
mrth: 73.11 cth: 59.76 usage: 53.87 residual: 19.24
mrth: 34.09 cth: 30.1 usage: 29.67 residual: 4.42
mrth: 78.76 cth: 70.27 usage: 43.84 residual: 34.92
mrth: 108.78 cth: 91.61 usage: 71.64 residual: 37.14
mrth: 39.04 cth: 30.89 usage: 34.12 residual: 4.92
mrth: 78.52 cth: 62.06 usage: 68.59 residual: 9.93
mrth: 40.99 cth: 30.16 usage: 37.29 residual: 3.7
mrth: 106.5 cth: 91.64 usage: 67.61 residual: 38.89
mrth: 48.16 cth: 41.71 usage: 26.55 residual: 21.61
mrth: 76.2 cth: 65.18 usage: 58.58 residual: 17.62
mrth: 139.61 cth: 119.67 usage: 77.98 residual: 61.63
mrth: 54.46 cth: 42.91 usage: 38.85 residual: 15.61
mrth: 67.64 cth: 50.37 usage: 43.45 residual: 24.19
mrth: 47.1 cth: 33.68 usage: 46.41 residual: 0.69
mrth: 40.28 cth: 33.98 usage: 23.39 residual: 16.89
mrth: 37.87 cth: 33.63 usage: 21.08 residual: 16.79
mrth: 79.05 cth: 64.36 usage: 46.75 residual: 32.3
mrth: 34.16 cth: 26.55 usage: 19.36 residual: 14.8
mrth: 61.82 cth: 45.04 usage: 33.1 residual: 28.72
mrth: 60.34 cth: 50.12 usage: 43.04 residual: 17.3
mrth: 39.09 cth: 31.93 usage: 32.51 residual: 6.58
mrth: 86.75 cth: 65.97 usage: 67.25 residual: 19.5
mrth: 108.54 cth: 90.13 usage: 61.26 residual: 47.28
mrth: 18.64 cth: 13.44 usage: 17.95 residual: 0.69
mrth: 123.91 cth: 98.79 usage: 101.87 residual: 22.04
mrth: 60.62 cth: 46.6 usage: 33.07 residual: 27.55
mrth: 83.25 cth: 62.62 usage: 43.83 residual: 39.42
mrth: 88.94 cth: 67.76 usage: 70.11 residual: 18.83
mrth: 60.03 cth: 44.95 usage: 40.41 residual: 19.62
mrth: 79.04 cth: 70.04 usage: 57.78 residual: 21.26
mrth: 93.41 cth: 67.47 usage: 78.71 residual: 14.7
mrth: 29.3 cth: 21.44 usage: 28.19 residual: 1.11
mrth: 73.76 cth: 53.45 usage: 52.91 residual: 20.85
mrth: 52.74 cth: 43.66 usage: 37.44 residual: 15.3
mrth: 22.08 cth: 19.22 usage: 12.3 residual: 9.78
mrth: 40.68 cth: 35.88 usage: 30.79 residual: 9.89
mrth: 47.71 cth: 39.34 usage: 44.36 residual: 3.35
mrth: 15.86 cth: 13.32 usage: 11.1 residual: 4.76
mrth: 22.86 cth: 18.41 usage: 15.5 residual: 7.36
mrth: 29.54 cth: 23.68 usage: 15.63 residual: 13.91
mrth: 55.23 cth: 40.38 usage: 31.01 residual: 24.22
mrth: 79.9 cth: 69.54 usage: 78.81 residual: 1.09
mrth: 77.23 cth: 58.04 usage: 72.02 residual: 5.21
mrth: 54.34 cth: 41.4 usage: 41.6 residual: 12.74
mrth: 56.41 cth: 50.37 usage: 43.43 residual: 12.98
mrth: 105.71 cth: 80.51 usage: 75.15 residual: 30.56
mrth: 24.28 cth: 21.03 usage: 17.3 residual: 6.98
mrth: 10.52 cth: 8.7 usage: 9.03 residual: 1.49
mrth: 89.85 cth: 71.35 usage: 75.03 residual: 14.82
mrth: 24.46 cth: 19.82 usage: 20.56 residual: 3.9
mrth: 57.53 cth: 51.23 usage: 31.29 residual: 26.24
mrth: 69.47 cth: 56.93 usage: 60.77 residual: 8.7
mrth: 51.59 cth: 45.61 usage: 31.87 residual: 19.72
mrth: 66.7 cth: 48.38 usage: 45.21 residual: 21.49
mrth: 38.13 cth: 33.75 usage: 35.37 residual: 2.76
mrth: 66.79 cth: 55.73 usage: 46.53 residual: 20.26
mrth: 74.42 cth: 62.09 usage: 61.14 residual: 13.28
mrth: 7.83 cth: 5.71 usage: 7.68 residual: 0.15
mrth: 84.73 cth: 66.91 usage: 70.99 residual: 13.74
mrth: 42.5 cth: 32.46 usage: 27.93 residual: 14.57
mrth: 91.19 cth: 75.7 usage: 69.26 residual: 21.93
mrth: 22.22 cth: 17.72 usage: 13.35 residual: 8.87
mrth: 41.46 cth: 35.53 usage: 38.3 residual: 3.16
mrth: 35.85 cth: 31.91 usage: 33.3 residual: 2.55
mrth: 46.31 cth: 39.35 usage: 37.61 residual: 8.7
mrth: 33.13 cth: 28.95 usage: 22.3 residual: 10.83
mrth: 8.75 cth: 7.35 usage: 8.57 residual: 0.18
mrth: 16.64 cth: 14.65 usage: 9.44 residual: 7.2
mrth: 87.84 cth: 77.89 usage: 75.17 residual: 12.67
mrth: 91.6 cth: 74.5 usage: 60.36 residual: 31.24
mrth: 26.67 cth: 21.71 usage: 18.42 residual: 8.25
mrth: 24.47 cth: 17.59 usage: 22.65 residual: 1.82
mrth: 44.46 cth: 32.46 usage: 39.15 residual: 5.31
mrth: 64.03 cth: 47.34 usage: 54.39 residual: 9.64
mrth: 34.36 cth: 24.97 usage: 31.25 residual: 3.11
mrth: 57.48 cth: 51.36 usage: 54.07 residual: 3.41
mrth: 54.38 cth: 46.91 usage: 37.21 residual: 17.17
mrth: 69.04 cth: 60.52 usage: 47.11 residual: 21.93
mrth: 35.62 cth: 26.85 usage: 27.05 residual: 8.57
mrth: 52.04 cth: 45.93 usage: 29.92 residual: 22.12
mrth: 86.05 cth: 63.88 usage: 49.29 residual: 36.76
mrth: 55.84 cth: 41.19 usage: 37.46 residual: 18.38
mrth: 93.47 cth: 79.85 usage: 80.04 residual: 13.43
mrth: 51.57 cth: 42.99 usage: 42.95 residual: 8.62
mrth: 51.36 cth: 43.1 usage: 35.89 residual: 15.47
mrth: 91.25 cth: 77.21 usage: 59.16 residual: 32.09
mrth: 55.96 cth: 49.45 usage: 41.15 residual: 14.81
mrth: 22.83 cth: 18.4 usage: 20.83 residual: 2.0
mrth: 64.04 cth: 52.08 usage: 41.03 residual: 23.01
mrth: 47.83 cth: 39.95 usage: 47.31 residual: 0.52
mrth: 59.61 cth: 48.29 usage: 41.5 residual: 18.11
mrth: 29.77 cth: 26.49 usage: 17.89 residual: 11.88
mrth: 45.27 cth: 40.59 usage: 33.55 residual: 11.72
mrth: 78.04 cth: 68.52 usage: 55.81 residual: 22.23
mrth: 41.2 cth: 34.17 usage: 24.75 residual: 16.45
mrth: 37.13 cth: 30.18 usage: 21.89 residual: 15.24
mrth: 52.0 cth: 43.7 usage: 35.53 residual: 16.47
mrth: 96.38 cth: 73.3 usage: 69.72 residual: 26.66
mrth: 57.83 cth: 44.44 usage: 52.3 residual: 5.53
mrth: 69.27 cth: 55.04 usage: 53.93 residual: 15.34
mrth: 50.32 cth: 42.7 usage: 42.01 residual: 8.31
mrth: 113.65 cth: 88.97 usage: 100.74 residual: 12.91
mrth: 77.73 cth: 56.68 usage: 43.05 residual: 34.68
mrth: 77.96 cth: 63.15 usage: 59.58 residual: 18.38
mrth: 57.06 cth: 50.52 usage: 54.32 residual: 2.74
mrth: 21.97 cth: 16.13 usage: 11.12 residual: 10.85
mrth: 102.13 cth: 82.49 usage: 63.97 residual: 38.16
mrth: 58.55 cth: 48.2 usage: 32.62 residual: 25.93
mrth: 13.83 cth: 11.55 usage: 9.8 residual: 4.03
mrth: 40.3 cth: 33.14 usage: 32.14 residual: 8.16
mrth: 30.92 cth: 21.94 usage: 28.66 residual: 2.26
mrth: 65.75 cth: 49.23 usage: 49.1 residual: 16.65
mrth: 42.39 cth: 31.3 usage: 24.44 residual: 17.95
mrth: 11.32 cth: 10.06 usage: 10.84 residual: 0.48
mrth: 16.91 cth: 14.47 usage: 13.32 residual: 3.59
mrth: 41.71 cth: 34.22 usage: 32.66 residual: 9.05
mrth: 92.63 cth: 76.07 usage: 50.03 residual: 42.6
mrth: 58.49 cth: 49.6 usage: 58.2 residual: 0.29
mrth: 113.6 cth: 95.97 usage: 101.4 residual: 12.2
mrth: 28.37 cth: 24.65 usage: 25.37 residual: 3.0
mrth: 56.85 cth: 43.8 usage: 32.53 residual: 24.32
mrth: 40.15 cth: 31.89 usage: 20.73 residual: 19.42
mrth: 12.63 cth: 9.24 usage: 8.0 residual: 4.63
mrth: 14.26 cth: 12.83 usage: 9.33 residual: 4.93
mrth: 82.94 cth: 70.92 usage: 56.86 residual: 26.08
mrth: 84.28 cth: 72.05 usage: 53.97 residual: 30.31
mrth: 48.96 cth: 39.41 usage: 27.48 residual: 21.48
mrth: 65.75 cth: 55.81 usage: 64.45 residual: 1.3
mrth: 54.47 cth: 39.02 usage: 34.28 residual: 20.19
mrth: 46.49 cth: 40.07 usage: 38.09 residual: 8.4
mrth: 29.37 cth: 21.67 usage: 16.49 residual: 12.88
mrth: 101.38 cth: 77.51 usage: 63.71 residual: 37.67
mrth: 64.68 cth: 54.57 usage: 37.65 residual: 27.03
mrth: 78.96 cth: 66.54 usage: 43.96 residual: 35.0
mrth: 14.91 cth: 11.79 usage: 12.37 residual: 2.54
mrth: 52.57 cth: 38.06 usage: 44.99 residual: 7.58
mrth: 22.89 cth: 18.72 usage: 16.44 residual: 6.45
mrth: 65.51 cth: 53.47 usage: 59.21 residual: 6.3
mrth: 64.34 cth: 50.52 usage: 33.26 residual: 31.08
mrth: 20.54 cth: 15.28 usage: 10.87 residual: 9.67
mrth: 60.14 cth: 50.12 usage: 53.8 residual: 6.34
mrth: 53.77 cth: 43.0 usage: 40.76 residual: 13.01
mrth: 61.22 cth: 53.86 usage: 43.27 residual: 17.95
mrth: 86.65 cth: 66.73 usage: 43.91 residual: 42.74
mrth: 76.04 cth: 54.12 usage: 52.94 residual: 23.1
mrth: 15.76 cth: 11.4 usage: 8.15 residual: 7.61
mrth: 51.92 cth: 45.73 usage: 33.94 residual: 17.98
mrth: 40.06 cth: 29.92 usage: 21.9 residual: 18.16
mrth: 69.34 cth: 59.46 usage: 36.9 residual: 32.44
mrth: 74.9 cth: 57.41 usage: 59.25 residual: 15.65
mrth: 36.43 cth: 29.85 usage: 31.46 residual: 4.97
mrth: 71.48 cth: 57.59 usage: 68.91 residual: 2.57
mrth: 49.02 cth: 40.89 usage: 27.42 residual: 21.6
mrth: 25.2 cth: 18.69 usage: 18.49 residual: 6.71
mrth: 48.7 cth: 36.95 usage: 31.42 residual: 17.28
mrth: 60.07 cth: 52.99 usage: 34.76 residual: 25.31
mrth: 49.85 cth: 43.14 usage: 38.8 residual: 11.05
mrth: 39.75 cth: 34.78 usage: 35.6 residual: 4.15
mrth: 35.62 cth: 30.88 usage: 22.01 residual: 13.61
mrth: 70.03 cth: 54.6 usage: 46.17 residual: 23.86
mrth: 42.29 cth: 30.86 usage: 40.15 residual: 2.14
mrth: 13.46 cth: 10.61 usage: 7.97 residual: 5.49
mrth: 73.9 cth: 52.38 usage: 72.65 residual: 1.25
mrth: 37.23 cth: 26.69 usage: 33.59 residual: 3.64
mrth: 77.23 cth: 54.29 usage: 45.13 residual: 32.1
mrth: 95.5 cth: 85.71 usage: 90.16 residual: 5.34
mrth: 78.13 cth: 66.56 usage: 49.98 residual: 28.15
mrth: 30.95 cth: 26.31 usage: 19.94 residual: 11.01
mrth: 58.33 cth: 48.37 usage: 43.91 residual: 14.42
mrth: 38.49 cth: 29.24 usage: 28.12 residual: 10.37
mrth: 59.69 cth: 50.23 usage: 56.77 residual: 2.92
mrth: 17.4 cth: 14.18 usage: 8.8 residual: 8.6
mrth: 45.48 cth: 39.94 usage: 32.88 residual: 12.6
mrth: 28.95 cth: 24.81 usage: 16.51 residual: 12.44
mrth: 46.32 cth: 39.08 usage: 24.95 residual: 21.37
mrth: 47.14 cth: 34.99 usage: 44.24 residual: 2.9
mrth: 61.09 cth: 49.53 usage: 37.63 residual: 23.46
mrth: 31.79 cth: 28.2 usage: 31.73 residual: 0.06
mrth: 45.75 cth: 34.53 usage: 32.22 residual: 13.53
mrth: 13.9 cth: 10.33 usage: 13.25 residual: 0.65
mrth: 19.43 cth: 16.09 usage: 13.5 residual: 5.93
mrth: 17.43 cth: 13.02 usage: 12.59 residual: 4.84
mrth: 93.5 cth: 83.53 usage: 91.39 residual: 2.11
mrth: 133.96 cth: 100.44 usage: 133.77 residual: 0.19
mrth: 14.31 cth: 12.22 usage: 11.72 residual: 2.59
mrth: 34.46 cth: 25.35 usage: 23.22 residual: 11.24
mrth: 80.35 cth: 70.48 usage: 54.41 residual: 25.94
mrth: 56.73 cth: 40.78 usage: 36.11 residual: 20.62
mrth: 39.28 cth: 27.67 usage: 28.67 residual: 10.61
mrth: 88.87 cth: 63.88 usage: 62.78 residual: 26.09
mrth: 27.85 cth: 24.76 usage: 22.76 residual: 5.09
mrth: 38.18 cth: 27.66 usage: 35.52 residual: 2.66
mrth: 75.7 cth: 64.2 usage: 47.34 residual: 28.36
mrth: 85.83 cth: 75.54 usage: 72.23 residual: 13.6
mrth: 44.02 cth: 31.7 usage: 32.22 residual: 11.8
mrth: 81.05 cth: 57.37 usage: 77.5 residual: 3.55
mrth: 30.65 cth: 22.61 usage: 26.5 residual: 4.15
mrth: 61.57 cth: 44.56 usage: 50.41 residual: 11.16
mrth: 99.96 cth: 86.16 usage: 96.79 residual: 3.17
mrth: 63.49 cth: 55.07 usage: 56.34 residual: 7.15
mrth: 31.35 cth: 23.91 usage: 26.74 residual: 4.61
mrth: 62.88 cth: 52.1 usage: 45.78 residual: 17.1
mrth: 69.74 cth: 52.45 usage: 43.77 residual: 25.97
mrth: 57.72 cth: 40.5 usage: 35.23 residual: 22.49
mrth: 29.43 cth: 24.53 usage: 15.76 residual: 13.67
mrth: 106.85 cth: 88.35 usage: 71.95 residual: 34.9
mrth: 21.1 cth: 18.76 usage: 17.67 residual: 3.43
mrth: 39.03 cth: 27.9 usage: 30.32 residual: 8.71
mrth: 79.75 cth: 62.38 usage: 70.16 residual: 9.59
mrth: 14.73 cth: 10.47 usage: 8.8 residual: 5.93
mrth: 103.32 cth: 74.56 usage: 53.25 residual: 50.07
mrth: 84.38 cth: 75.92 usage: 62.46 residual: 21.92
mrth: 69.76 cth: 51.88 usage: 68.04 residual: 1.72
mrth: 43.35 cth: 38.21 usage: 39.71 residual: 3.64
mrth: 42.44 cth: 35.21 usage: 30.44 residual: 12.0
mrth: 64.23 cth: 56.59 usage: 47.77 residual: 16.46
mrth: 81.72 cth: 71.98 usage: 54.11 residual: 27.61
mrth: 25.76 cth: 22.73 usage: 17.33 residual: 8.43
mrth: 100.57 cth: 87.69 usage: 97.73 residual: 2.84
mrth: 52.97 cth: 38.82 usage: 38.71 residual: 14.26
mrth: 49.7 cth: 38.68 usage: 47.8 residual: 1.9
mrth: 28.07 cth: 19.84 usage: 24.3 residual: 3.77
mrth: 67.66 cth: 59.53 usage: 39.11 residual: 28.55
mrth: 92.17 cth: 72.42 usage: 56.47 residual: 35.7
mrth: 28.62 cth: 25.5 usage: 16.12 residual: 12.5
mrth: 28.93 cth: 23.5 usage: 25.27 residual: 3.66
mrth: 73.5 cth: 53.59 usage: 72.88 residual: 0.62
mrth: 63.23 cth: 48.84 usage: 43.62 residual: 19.61
mrth: 63.63 cth: 53.3 usage: 53.08 residual: 10.55
mrth: 20.66 cth: 17.27 usage: 19.81 residual: 0.85
mrth: 39.01 cth: 31.91 usage: 21.32 residual: 17.69
mrth: 24.52 cth: 19.95 usage: 15.65 residual: 8.87
mrth: 111.66 cth: 79.82 usage: 81.17 residual: 30.49
mrth: 57.95 cth: 42.9 usage: 50.53 residual: 7.42
mrth: 101.46 cth: 84.09 usage: 54.89 residual: 46.57
mrth: 74.26 cth: 65.02 usage: 42.2 residual: 32.06
mrth: 30.15 cth: 22.3 usage: 27.95 residual: 2.2
mrth: 40.04 cth: 29.39 usage: 30.97 residual: 9.07
mrth: 23.81 cth: 21.0 usage: 15.08 residual: 8.73
mrth: 30.08 cth: 22.95 usage: 27.15 residual: 2.93
mrth: 23.94 cth: 20.85 usage: 23.18 residual: 0.76
mrth: 45.4 cth: 34.57 usage: 39.54 residual: 5.86
mrth: 79.31 cth: 63.84 usage: 56.32 residual: 22.99
mrth: 44.01 cth: 32.64 usage: 36.31 residual: 7.7
mrth: 15.17 cth: 13.13 usage: 15.04 residual: 0.13
mrth: 106.5 cth: 84.96 usage: 90.92 residual: 15.58
mrth: 24.91 cth: 17.65 usage: 22.67 residual: 2.24
mrth: 62.1 cth: 43.74 usage: 47.75 residual: 14.35
mrth: 90.78 cth: 77.62 usage: 55.1 residual: 35.68
mrth: 9.49 cth: 7.18 usage: 5.99 residual: 3.5
mrth: 47.91 cth: 37.42 usage: 42.31 residual: 5.6
mrth: 54.17 cth: 39.43 usage: 31.33 residual: 22.84
mrth: 38.86 cth: 31.26 usage: 20.63 residual: 18.23
mrth: 91.62 cth: 78.42 usage: 79.82 residual: 11.8
mrth: 65.64 cth: 49.4 usage: 39.87 residual: 25.77
mrth: 55.84 cth: 49.07 usage: 51.18 residual: 4.66
mrth: 52.58 cth: 46.51 usage: 50.93 residual: 1.65
mrth: 28.29 cth: 20.26 usage: 16.4 residual: 11.89
mrth: 47.03 cth: 40.87 usage: 28.21 residual: 18.82
mrth: 52.1 cth: 40.6 usage: 31.42 residual: 20.68
mrth: 39.82 cth: 30.59 usage: 34.96 residual: 4.86
mrth: 7.47 cth: 6.47 usage: 5.01 residual: 2.46
mrth: 19.64 cth: 14.23 usage: 13.47 residual: 6.17
mrth: 14.05 cth: 11.34 usage: 8.31 residual: 5.74
mrth: 62.86 cth: 47.88 usage: 52.76 residual: 10.1
mrth: 26.37 cth: 22.14 usage: 22.58 residual: 3.79
mrth: 14.87 cth: 10.42 usage: 13.74 residual: 1.13
mrth: 31.13 cth: 22.13 usage: 17.05 residual: 14.08
mrth: 57.32 cth: 44.87 usage: 47.14 residual: 10.18
mrth: 27.57 cth: 24.03 usage: 23.33 residual: 4.24
mrth: 60.49 cth: 52.46 usage: 48.72 residual: 11.77
mrth: 43.35 cth: 35.81 usage: 40.56 residual: 2.79
mrth: 65.77 cth: 58.53 usage: 36.81 residual: 28.96
mrth: 38.99 cth: 28.44 usage: 31.11 residual: 7.88
mrth: 38.63 cth: 27.25 usage: 31.32 residual: 7.31
mrth: 42.23 cth: 29.87 usage: 23.68 residual: 18.55
mrth: 48.39 cth: 39.33 usage: 47.53 residual: 0.86
mrth: 57.81 cth: 44.28 usage: 49.72 residual: 8.09
mrth: 21.6 cth: 17.01 usage: 19.76 residual: 1.84
mrth: 18.77 cth: 13.83 usage: 18.0 residual: 0.77
mrth: 73.03 cth: 52.43 usage: 57.35 residual: 15.68
mrth: 46.49 cth: 41.28 usage: 24.42 residual: 22.07
mrth: 35.3 cth: 28.26 usage: 32.88 residual: 2.42
mrth: 39.56 cth: 32.81 usage: 34.08 residual: 5.48
mrth: 74.62 cth: 57.73 usage: 73.57 residual: 1.05
mrth: 32.52 cth: 24.02 usage: 31.9 residual: 0.62
mrth: 30.95 cth: 21.85 usage: 25.03 residual: 5.92
mrth: 67.07 cth: 49.44 usage: 58.19 residual: 8.88
mrth: 35.4 cth: 31.65 usage: 23.6 residual: 11.8
mrth: 30.92 cth: 27.38 usage: 26.31 residual: 4.61
mrth: 70.45 cth: 54.06 usage: 55.62 residual: 14.83
mrth: 38.5 cth: 31.07 usage: 28.51 residual: 9.99
mrth: 146.29 cth: 111.16 usage: 121.62 residual: 24.67
mrth: 39.69 cth: 32.92 usage: 32.87 residual: 6.82
mrth: 13.72 cth: 10.64 usage: 13.48 residual: 0.24
mrth: 29.79 cth: 23.32 usage: 16.41 residual: 13.38
mrth: 70.1 cth: 50.18 usage: 55.36 residual: 14.74
mrth: 35.01 cth: 26.29 usage: 27.25 residual: 7.76
mrth: 106.78 cth: 87.29 usage: 103.39 residual: 3.39
mrth: 38.02 cth: 27.17 usage: 37.88 residual: 0.14
mrth: 41.5 cth: 34.86 usage: 27.0 residual: 14.5
mrth: 34.09 cth: 26.94 usage: 24.48 residual: 9.61
mrth: 116.68 cth: 84.82 usage: 73.83 residual: 42.85
mrth: 8.34 cth: 6.25 usage: 7.57 residual: 0.77
mrth: 74.4 cth: 52.09 usage: 59.21 residual: 15.19
mrth: 87.17 cth: 67.63 usage: 84.9 residual: 2.27
mrth: 64.31 cth: 57.85 usage: 57.43 residual: 6.88
mrth: 85.69 cth: 77.07 usage: 59.87 residual: 25.82
mrth: 47.66 cth: 37.91 usage: 24.84 residual: 22.82
mrth: 33.34 cth: 29.64 usage: 24.19 residual: 9.15
mrth: 92.65 cth: 69.32 usage: 69.6 residual: 23.05
mrth: 139.93 cth: 111.56 usage: 104.14 residual: 35.79
mrth: 42.87 cth: 37.63 usage: 42.86 residual: 0.01
mrth: 77.1 cth: 62.78 usage: 42.16 residual: 34.94
mrth: 62.44 cth: 48.88 usage: 41.08 residual: 21.36
mrth: 67.1 cth: 59.09 usage: 41.87 residual: 25.23
mrth: 23.7 cth: 18.19 usage: 22.59 residual: 1.11
mrth: 19.28 cth: 14.72 usage: 11.59 residual: 7.69
mrth: 73.33 cth: 54.22 usage: 60.38 residual: 12.95
mrth: 99.7 cth: 86.92 usage: 63.21 residual: 36.49
mrth: 60.41 cth: 48.82 usage: 44.27 residual: 16.14
mrth: 71.98 cth: 61.77 usage: 47.55 residual: 24.43
mrth: 62.53 cth: 53.94 usage: 58.57 residual: 3.96
mrth: 23.81 cth: 20.9 usage: 22.39 residual: 1.42
mrth: 13.33 cth: 10.35 usage: 13.29 residual: 0.04
mrth: 61.7 cth: 51.08 usage: 41.59 residual: 20.11
mrth: 49.66 cth: 37.57 usage: 48.05 residual: 1.61
mrth: 47.95 cth: 38.55 usage: 31.04 residual: 16.91
mrth: 47.47 cth: 38.67 usage: 44.12 residual: 3.35
mrth: 86.5 cth: 71.02 usage: 81.43 residual: 5.07
mrth: 63.01 cth: 52.57 usage: 51.65 residual: 11.36
mrth: 79.27 cth: 56.74 usage: 78.59 residual: 0.68
mrth: 34.8 cth: 24.63 usage: 19.11 residual: 15.69
mrth: 36.28 cth: 29.59 usage: 36.18 residual: 0.1
mrth: 80.14 cth: 68.45 usage: 59.24 residual: 20.9
mrth: 30.16 cth: 24.47 usage: 15.26 residual: 14.9
mrth: 72.52 cth: 63.51 usage: 70.98 residual: 1.54
mrth: 36.29 cth: 31.8 usage: 33.22 residual: 3.07
mrth: 31.32 cth: 25.67 usage: 26.66 residual: 4.66
mrth: 55.66 cth: 45.18 usage: 38.76 residual: 16.9
mrth: 95.05 cth: 71.51 usage: 69.53 residual: 25.52
mrth: 20.89 cth: 16.32 usage: 13.21 residual: 7.68
mrth: 44.79 cth: 33.76 usage: 44.06 residual: 0.73
mrth: 65.05 cth: 55.28 usage: 38.82 residual: 26.23
mrth: 42.97 cth: 36.76 usage: 31.21 residual: 11.76
mrth: 10.68 cth: 7.85 usage: 5.83 residual: 4.85
mrth: 51.12 cth: 36.57 usage: 46.37 residual: 4.75
mrth: 60.44 cth: 48.43 usage: 56.99 residual: 3.45
mrth: 47.58 cth: 37.34 usage: 43.62 residual: 3.96
mrth: 46.9 cth: 37.27 usage: 39.1 residual: 7.8
mrth: 81.19 cth: 69.1 usage: 42.01 residual: 39.18
mrth: 47.88 cth: 41.05 usage: 43.16 residual: 4.72
mrth: 84.32 cth: 72.9 usage: 71.77 residual: 12.55
mrth: 69.81 cth: 53.54 usage: 69.8 residual: 0.01
mrth: 10.13 cth: 8.59 usage: 9.42 residual: 0.71
mrth: 64.93 cth: 45.96 usage: 59.63 residual: 5.3
mrth: 75.71 cth: 54.54 usage: 70.33 residual: 5.38
mrth: 54.36 cth: 45.44 usage: 33.55 residual: 20.81
mrth: 63.38 cth: 52.59 usage: 46.89 residual: 16.49
mrth: 20.08 cth: 15.25 usage: 19.6 residual: 0.48
mrth: 31.3 cth: 22.74 usage: 28.88 residual: 2.42
mrth: 65.1 cth: 53.7 usage: 62.77 residual: 2.33
mrth: 56.48 cth: 42.01 usage: 54.77 residual: 1.71
mrth: 86.73 cth: 73.98 usage: 62.82 residual: 23.91
mrth: 57.4 cth: 46.58 usage: 57.07 residual: 0.33
mrth: 36.42 cth: 28.4 usage: 32.57 residual: 3.85
mrth: 60.21 cth: 42.54 usage: 40.95 residual: 19.26
mrth: 101.31 cth: 73.91 usage: 53.76 residual: 47.55
mrth: 90.93 cth: 75.63 usage: 52.1 residual: 38.83
mrth: 42.4 cth: 32.42 usage: 25.56 residual: 16.84
mrth: 117.53 cth: 102.58 usage: 86.61 residual: 30.92
mrth: 103.26 cth: 83.67 usage: 102.42 residual: 0.84
mrth: 37.32 cth: 28.48 usage: 28.36 residual: 8.96
mrth: 70.13 cth: 49.66 usage: 63.33 residual: 6.8
mrth: 12.09 cth: 9.27 usage: 11.23 residual: 0.86
mrth: 117.34 cth: 98.79 usage: 88.38 residual: 28.96
mrth: 51.41 cth: 41.17 usage: 44.62 residual: 6.79
mrth: 50.7 cth: 42.55 usage: 48.94 residual: 1.76
mrth: 87.41 cth: 65.75 usage: 67.77 residual: 19.64
mrth: 6.43 cth: 5.08 usage: 3.99 residual: 2.44
mrth: 75.16 cth: 64.94 usage: 40.61 residual: 34.55
mrth: 39.03 cth: 27.85 usage: 32.42 residual: 6.61
mrth: 105.68 cth: 76.16 usage: 94.41 residual: 11.27
mrth: 108.08 cth: 95.78 usage: 77.22 residual: 30.86
mrth: 76.15 cth: 58.41 usage: 74.93 residual: 1.22
mrth: 54.36 cth: 47.19 usage: 33.94 residual: 20.42
mrth: 18.66 cth: 13.91 usage: 13.64 residual: 5.02
mrth: 100.53 cth: 87.96 usage: 66.12 residual: 34.41
mrth: 112.9 cth: 81.76 usage: 59.07 residual: 53.83
mrth: 14.69 cth: 12.53 usage: 12.6 residual: 2.09
mrth: 59.62 cth: 53.46 usage: 51.33 residual: 8.29
mrth: 77.93 cth: 67.16 usage: 73.78 residual: 4.15
mrth: 53.5 cth: 45.89 usage: 42.43 residual: 11.07
mrth: 29.0 cth: 21.63 usage: 21.05 residual: 7.95
mrth: 99.45 cth: 81.27 usage: 50.93 residual: 48.52
mrth: 33.01 cth: 23.65 usage: 26.47 residual: 6.54
mrth: 35.77 cth: 31.57 usage: 26.51 residual: 9.26
mrth: 114.24 cth: 82.57 usage: 108.03 residual: 6.21
mrth: 53.77 cth: 44.35 usage: 31.21 residual: 22.56
mrth: 66.87 cth: 52.84 usage: 61.31 residual: 5.56
mrth: 4.08 cth: 3.56 usage: 2.78 residual: 1.3
mrth: 10.39 cth: 7.77 usage: 6.06 residual: 4.33
mrth: 10.09 cth: 8.81 usage: 9.61 residual: 0.48
mrth: 55.56 cth: 44.35 usage: 46.51 residual: 9.05
mrth: 40.6 cth: 34.21 usage: 25.26 residual: 15.34
mrth: 63.46 cth: 57.07 usage: 38.65 residual: 24.81
mrth: 58.95 cth: 47.02 usage: 53.69 residual: 5.26
mrth: 43.81 cth: 31.2 usage: 24.38 residual: 19.43
mrth: 54.57 cth: 40.09 usage: 37.56 residual: 17.01
mrth: 24.36 cth: 20.42 usage: 14.64 residual: 9.72
mrth: 10.39 cth: 7.98 usage: 6.73 residual: 3.66
mrth: 42.83 cth: 31.33 usage: 30.88 residual: 11.95
mrth: 82.0 cth: 63.08 usage: 50.95 residual: 31.05
mrth: 55.11 cth: 42.73 usage: 37.57 residual: 17.54
mrth: 22.49 cth: 16.59 usage: 13.86 residual: 8.63
mrth: 58.18 cth: 45.39 usage: 57.44 residual: 0.74
mrth: 71.51 cth: 54.4 usage: 64.76 residual: 6.75
mrth: 15.96 cth: 12.48 usage: 12.55 residual: 3.41
mrth: 66.73 cth: 47.8 usage: 36.79 residual: 29.94
mrth: 43.0 cth: 38.61 usage: 37.43 residual: 5.57
mrth: 28.22 cth: 20.6 usage: 24.95 residual: 3.27
mrth: 74.87 cth: 55.38 usage: 47.74 residual: 27.13
mrth: 77.96 cth: 64.91 usage: 57.6 residual: 20.36
mrth: 67.28 cth: 49.3 usage: 48.9 residual: 18.38
mrth: 85.92 cth: 69.13 usage: 47.56 residual: 38.36
mrth: 88.39 cth: 71.67 usage: 78.43 residual: 9.96
mrth: 56.97 cth: 47.73 usage: 34.77 residual: 22.2
mrth: 61.82 cth: 43.82 usage: 53.76 residual: 8.06
mrth: 86.59 cth: 70.12 usage: 79.98 residual: 6.61
mrth: 107.46 cth: 94.42 usage: 66.51 residual: 40.95
mrth: 76.7 cth: 54.65 usage: 39.31 residual: 37.39
mrth: 46.83 cth: 33.23 usage: 28.08 residual: 18.75
mrth: 52.97 cth: 44.11 usage: 44.19 residual: 8.78
mrth: 89.71 cth: 69.59 usage: 47.52 residual: 42.19
mrth: 63.4 cth: 56.72 usage: 41.26 residual: 22.14
mrth: 94.09 cth: 82.76 usage: 80.5 residual: 13.59
mrth: 80.08 cth: 68.84 usage: 78.87 residual: 1.21
mrth: 129.43 cth: 106.93 usage: 103.19 residual: 26.24
mrth: 48.58 cth: 43.05 usage: 36.6 residual: 11.98
mrth: 88.91 cth: 73.13 usage: 78.76 residual: 10.15
mrth: 131.23 cth: 95.41 usage: 101.1 residual: 30.13
mrth: 55.65 cth: 43.86 usage: 50.49 residual: 5.16
mrth: 63.97 cth: 45.6 usage: 61.32 residual: 2.65
mrth: 42.71 cth: 36.1 usage: 30.06 residual: 12.65
mrth: 52.42 cth: 39.11 usage: 45.33 residual: 7.09
mrth: 25.54 cth: 20.93 usage: 15.11 residual: 10.43
mrth: 39.68 cth: 29.97 usage: 26.94 residual: 12.74
mrth: 45.64 cth: 37.0 usage: 23.6 residual: 22.04
mrth: 26.35 cth: 19.63 usage: 18.72 residual: 7.63
mrth: 40.16 cth: 30.23 usage: 21.78 residual: 18.38
mrth: 93.04 cth: 78.97 usage: 55.01 residual: 38.03
mrth: 47.94 cth: 37.27 usage: 44.74 residual: 3.2
mrth: 7.77 cth: 6.59 usage: 7.56 residual: 0.21
mrth: 58.58 cth: 50.92 usage: 50.9 residual: 7.68
mrth: 35.06 cth: 28.59 usage: 22.79 residual: 12.27
mrth: 56.59 cth: 46.34 usage: 52.85 residual: 3.74
mrth: 45.28 cth: 32.32 usage: 36.37 residual: 8.91
mrth: 76.36 cth: 66.48 usage: 55.19 residual: 21.17
mrth: 45.85 cth: 32.84 usage: 34.27 residual: 11.58
mrth: 99.46 cth: 88.44 usage: 94.57 residual: 4.89
