mrth: 13.6 cth: 12.19 usage: 12.32 residual: 1.28
mrth: 65.04 cth: 53.79 usage: 59.6 residual: 5.44
mrth: 50.87 cth: 40.54 usage: 33.82 residual: 17.05
mrth: 46.71 cth: 40.04 usage: 23.56 residual: 23.15
mrth: 34.77 cth: 27.77 usage: 30.4 residual: 4.37
mrth: 16.16 cth: 13.02 usage: 9.32 residual: 6.84
mrth: 130.57 cth: 102.04 usage: 95.26 residual: 35.31
mrth: 32.84 cth: 29.34 usage: 28.13 residual: 4.71
mrth: 19.66 cth: 14.84 usage: 13.56 residual: 6.1
mrth: 98.52 cth: 75.66 usage: 51.2 residual: 47.32
mrth: 26.44 cth: 19.74 usage: 24.72 residual: 1.72
mrth: 69.59 cth: 50.1 usage: 55.25 residual: 14.34
mrth: 27.69 cth: 24.91 usage: 15.65 residual: 12.04
mrth: 70.78 cth: 61.34 usage: 66.55 residual: 4.23
mrth: 19.15 cth: 14.2 usage: 11.17 residual: 7.98
mrth: 17.69 cth: 14.97 usage: 17.44 residual: 0.25
mrth: 108.03 cth: 83.59 usage: 93.1 residual: 14.93
mrth: 62.49 cth: 51.77 usage: 52.38 residual: 10.11
mrth: 86.97 cth: 68.46 usage: 70.8 residual: 16.17
mrth: 59.14 cth: 48.27 usage: 44.92 residual: 14.22
mrth: 134.1 cth: 102.91 usage: 81.93 residual: 52.17
mrth: 39.17 cth: 32.57 usage: 31.91 residual: 7.26
mrth: 39.17 cth: 34.47 usage: 28.25 residual: 10.92
mrth: 65.13 cth: 47.31 usage: 42.64 residual: 22.49
mrth: 115.37 cth: 90.21 usage: 63.33 residual: 52.04
mrth: 29.77 cth: 23.53 usage: 25.84 residual: 3.93
mrth: 25.25 cth: 20.34 usage: 24.15 residual: 1.1
mrth: 46.93 cth: 37.71 usage: 32.9 residual: 14.03
mrth: 80.85 cth: 71.02 usage: 50.53 residual: 30.32
mrth: 50.12 cth: 42.55 usage: 43.48 residual: 6.64
mrth: 57.97 cth: 45.67 usage: 35.81 residual: 22.16
mrth: 43.63 cth: 38.65 usage: 41.87 residual: 1.76
mrth: 53.39 cth: 47.07 usage: 40.11 residual: 13.28
mrth: 44.4 cth: 38.2 usage: 38.21 residual: 6.19
mrth: 96.29 cth: 85.26 usage: 66.39 residual: 29.9
mrth: 103.08 cth: 86.53 usage: 54.58 residual: 48.5
mrth: 48.88 cth: 37.24 usage: 31.75 residual: 17.13
mrth: 68.56 cth: 48.14 usage: 62.56 residual: 6.0
mrth: 42.82 cth: 33.56 usage: 32.6 residual: 10.22
mrth: 74.43 cth: 53.3 usage: 70.55 residual: 3.88
mrth: 25.86 cth: 21.19 usage: 25.84 residual: 0.02
mrth: 44.32 cth: 34.91 usage: 29.07 residual: 15.25
mrth: 43.76 cth: 34.44 usage: 27.2 residual: 16.56
mrth: 14.36 cth: 12.26 usage: 7.74 residual: 6.62
mrth: 7.91 cth: 6.95 usage: 4.64 residual: 3.27
mrth: 62.42 cth: 53.74 usage: 45.37 residual: 17.05
mrth: 55.07 cth: 46.07 usage: 29.66 residual: 25.41
mrth: 41.94 cth: 32.54 usage: 33.76 residual: 8.18
mrth: 65.86 cth: 47.88 usage: 42.59 residual: 23.27
mrth: 28.3 cth: 19.96 usage: 26.16 residual: 2.14
mrth: 64.69 cth: 54.05 usage: 56.07 residual: 8.62
mrth: 71.59 cth: 58.16 usage: 60.22 residual: 11.37
mrth: 51.35 cth: 39.86 usage: 31.53 residual: 19.82
mrth: 79.46 cth: 69.77 usage: 40.22 residual: 39.24
mrth: 30.2 cth: 25.02 usage: 27.85 residual: 2.35
mrth: 48.83 cth: 35.39 usage: 36.73 residual: 12.1
mrth: 42.54 cth: 31.13 usage: 26.31 residual: 16.23
mrth: 81.32 cth: 64.07 usage: 70.23 residual: 11.09
mrth: 89.95 cth: 72.8 usage: 80.16 residual: 9.79
mrth: 51.27 cth: 42.06 usage: 35.24 residual: 16.03
mrth: 70.23 cth: 53.16 usage: 62.22 residual: 8.01
mrth: 132.55 cth: 118.19 usage: 124.32 residual: 8.23
mrth: 65.34 cth: 49.41 usage: 46.09 residual: 19.25
mrth: 47.24 cth: 38.93 usage: 35.54 residual: 11.7
mrth: 53.41 cth: 44.38 usage: 30.77 residual: 22.64
mrth: 58.92 cth: 45.43 usage: 39.29 residual: 19.63
mrth: 63.51 cth: 56.91 usage: 43.85 residual: 19.66
mrth: 41.77 cth: 36.92 usage: 32.97 residual: 8.8
mrth: 51.53 cth: 42.82 usage: 51.41 residual: 0.12
mrth: 25.47 cth: 20.07 usage: 21.1 residual: 4.37
mrth: 127.51 cth: 111.02 usage: 81.91 residual: 45.6
mrth: 92.03 cth: 66.45 usage: 63.27 residual: 28.76
mrth: 76.03 cth: 62.46 usage: 38.93 residual: 37.1
mrth: 25.09 cth: 20.04 usage: 13.01 residual: 12.08
mrth: 23.88 cth: 20.97 usage: 18.76 residual: 5.12
mrth: 52.69 cth: 37.61 usage: 48.95 residual: 3.74
mrth: 83.44 cth: 72.08 usage: 62.21 residual: 21.23
mrth: 3.66 cth: 3.14 usage: 2.81 residual: 0.85
mrth: 73.17 cth: 52.09 usage: 56.72 residual: 16.45
mrth: 64.51 cth: 57.47 usage: 59.86 residual: 4.65
mrth: 59.76 cth: 42.19 usage: 40.0 residual: 19.76
mrth: 82.39 cth: 64.54 usage: 43.1 residual: 39.29
mrth: 92.75 cth: 68.56 usage: 62.39 residual: 30.36
mrth: 60.28 cth: 43.84 usage: 59.21 residual: 1.07
mrth: 55.34 cth: 39.76 usage: 53.85 residual: 1.49
mrth: 63.75 cth: 50.96 usage: 41.87 residual: 21.88
mrth: 71.56 cth: 57.19 usage: 41.42 residual: 30.14
mrth: 16.14 cth: 12.68 usage: 14.56 residual: 1.58
mrth: 73.62 cth: 63.77 usage: 65.78 residual: 7.84
mrth: 40.81 cth: 34.77 usage: 39.43 residual: 1.38
mrth: 9.7 cth: 8.17 usage: 9.67 residual: 0.03
mrth: 108.57 cth: 93.17 usage: 86.89 residual: 21.68
mrth: 99.36 cth: 71.77 usage: 83.36 residual: 16.0
mrth: 39.72 cth: 30.15 usage: 34.9 residual: 4.82
mrth: 34.05 cth: 28.57 usage: 26.03 residual: 8.02
mrth: 47.85 cth: 38.96 usage: 28.07 residual: 19.78
mrth: 82.52 cth: 73.92 usage: 76.33 residual: 6.19
mrth: 66.87 cth: 51.34 usage: 62.05 residual: 4.82
mrth: 115.15 cth: 83.34 usage: 103.5 residual: 11.65
mrth: 44.29 cth: 31.82 usage: 40.31 residual: 3.98
mrth: 81.7 cth: 59.79 usage: 79.98 residual: 1.72
mrth: 100.56 cth: 89.83 usage: 63.95 residual: 36.61
mrth: 131.79 cth: 108.5 usage: 78.2 residual: 53.59
mrth: 64.73 cth: 55.49 usage: 39.29 residual: 25.44
mrth: 102.95 cth: 92.03 usage: 82.29 residual: 20.66
mrth: 28.11 cth: 20.47 usage: 19.99 residual: 8.12
mrth: 24.67 cth: 22.12 usage: 19.02 residual: 5.65
mrth: 45.99 cth: 38.89 usage: 26.06 residual: 19.93
mrth: 34.63 cth: 29.75 usage: 25.55 residual: 9.08
mrth: 28.52 cth: 24.85 usage: 15.34 residual: 13.18
mrth: 49.38 cth: 35.86 usage: 40.0 residual: 9.38
mrth: 19.64 cth: 16.74 usage: 19.33 residual: 0.31
mrth: 35.87 cth: 29.01 usage: 22.66 residual: 13.21
mrth: 63.74 cth: 50.68 usage: 53.36 residual: 10.38
mrth: 39.57 cth: 35.18 usage: 30.39 residual: 9.18
mrth: 27.3 cth: 23.56 usage: 14.87 residual: 12.43
mrth: 43.89 cth: 36.12 usage: 38.53 residual: 5.36
mrth: 22.02 cth: 17.83 usage: 13.84 residual: 8.18
mrth: 132.46 cth: 118.51 usage: 90.14 residual: 42.32
mrth: 65.59 cth: 55.79 usage: 54.77 residual: 10.82
mrth: 59.44 cth: 49.42 usage: 41.84 residual: 17.6
mrth: 70.81 cth: 52.29 usage: 41.48 residual: 29.33
mrth: 43.93 cth: 32.8 usage: 26.57 residual: 17.36
mrth: 42.57 cth: 30.21 usage: 33.04 residual: 9.53
mrth: 51.25 cth: 43.62 usage: 26.1 residual: 25.15
mrth: 67.09 cth: 49.77 usage: 57.08 residual: 10.01
mrth: 17.46 cth: 15.61 usage: 13.97 residual: 3.49
mrth: 33.49 cth: 26.55 usage: 19.06 residual: 14.43
mrth: 43.87 cth: 32.46 usage: 31.71 residual: 12.16
mrth: 36.68 cth: 28.25 usage: 32.42 residual: 4.26
mrth: 74.17 cth: 62.87 usage: 42.16 residual: 32.01
mrth: 66.34 cth: 59.0 usage: 54.98 residual: 11.36
mrth: 9.62 cth: 6.82 usage: 8.39 residual: 1.23
mrth: 20.37 cth: 14.47 usage: 10.49 residual: 9.88
mrth: 21.06 cth: 18.14 usage: 20.3 residual: 0.76
mrth: 67.92 cth: 49.35 usage: 67.72 residual: 0.2
mrth: 19.0 cth: 16.94 usage: 11.67 residual: 7.33
mrth: 28.73 cth: 23.61 usage: 27.78 residual: 0.95
mrth: 15.22 cth: 10.77 usage: 10.2 residual: 5.02
mrth: 69.45 cth: 52.55 usage: 64.14 residual: 5.31
mrth: 66.64 cth: 57.04 usage: 38.65 residual: 27.99
mrth: 89.21 cth: 68.02 usage: 56.31 residual: 32.9
mrth: 91.12 cth: 70.75 usage: 63.87 residual: 27.25
mrth: 115.82 cth: 104.17 usage: 96.95 residual: 18.87
mrth: 61.34 cth: 53.73 usage: 45.73 residual: 15.61
mrth: 41.45 cth: 30.0 usage: 26.19 residual: 15.26
mrth: 64.13 cth: 49.47 usage: 62.4 residual: 1.73
mrth: 40.7 cth: 36.41 usage: 26.15 residual: 14.55
mrth: 58.18 cth: 41.11 usage: 55.66 residual: 2.52
mrth: 46.03 cth: 37.71 usage: 45.4 residual: 0.63
mrth: 52.67 cth: 37.02 usage: 46.05 residual: 6.62
mrth: 31.57 cth: 24.44 usage: 17.9 residual: 13.67
mrth: 32.49 cth: 25.93 usage: 30.33 residual: 2.16
mrth: 108.38 cth: 80.29 usage: 54.26 residual: 54.12
mrth: 84.66 cth: 73.32 usage: 71.07 residual: 13.59
mrth: 62.68 cth: 56.38 usage: 36.25 residual: 26.43
mrth: 45.57 cth: 33.9 usage: 35.38 residual: 10.19
mrth: 12.7 cth: 11.25 usage: 10.52 residual: 2.18
mrth: 39.57 cth: 34.34 usage: 24.8 residual: 14.77
mrth: 23.28 cth: 18.21 usage: 21.05 residual: 2.23
mrth: 6.89 cth: 4.97 usage: 4.7 residual: 2.19
mrth: 78.03 cth: 56.66 usage: 76.78 residual: 1.25
mrth: 54.22 cth: 47.68 usage: 31.51 residual: 22.71
mrth: 57.51 cth: 51.35 usage: 40.82 residual: 16.69
mrth: 33.89 cth: 26.12 usage: 28.85 residual: 5.04
mrth: 41.08 cth: 28.96 usage: 28.48 residual: 12.6
mrth: 95.19 cth: 72.6 usage: 51.17 residual: 44.02
mrth: 30.16 cth: 26.29 usage: 22.94 residual: 7.22
mrth: 61.56 cth: 52.53 usage: 43.76 residual: 17.8
mrth: 63.73 cth: 48.94 usage: 63.29 residual: 0.44
mrth: 64.11 cth: 48.38 usage: 37.43 residual: 26.68
mrth: 38.72 cth: 28.08 usage: 23.01 residual: 15.71
mrth: 25.12 cth: 19.93 usage: 18.31 residual: 6.81
mrth: 75.65 cth: 63.62 usage: 73.39 residual: 2.26
mrth: 66.64 cth: 50.17 usage: 48.75 residual: 17.89
mrth: 91.6 cth: 66.75 usage: 83.57 residual: 8.03
mrth: 39.88 cth: 30.07 usage: 39.11 residual: 0.77
mrth: 83.69 cth: 73.0 usage: 58.01 residual: 25.68
mrth: 37.96 cth: 29.23 usage: 26.01 residual: 11.95
mrth: 63.86 cth: 55.1 usage: 36.48 residual: 27.38
mrth: 109.17 cth: 88.41 usage: 90.71 residual: 18.46
mrth: 18.11 cth: 14.64 usage: 12.41 residual: 5.7
mrth: 87.84 cth: 69.05 usage: 86.25 residual: 1.59
mrth: 59.33 cth: 42.76 usage: 34.0 residual: 25.33
mrth: 77.8 cth: 63.3 usage: 57.78 residual: 20.02
mrth: 30.51 cth: 25.09 usage: 19.08 residual: 11.43
mrth: 28.74 cth: 23.05 usage: 19.37 residual: 9.37
mrth: 37.44 cth: 33.22 usage: 27.04 residual: 10.4
mrth: 38.67 cth: 29.57 usage: 26.19 residual: 12.48
mrth: 102.1 cth: 88.89 usage: 78.65 residual: 23.45
mrth: 97.95 cth: 75.4 usage: 77.43 residual: 20.52
mrth: 102.32 cth: 86.81 usage: 83.56 residual: 18.76
mrth: 38.86 cth: 32.77 usage: 32.25 residual: 6.61
mrth: 58.61 cth: 43.52 usage: 32.55 residual: 26.06
mrth: 25.11 cth: 19.86 usage: 18.22 residual: 6.89
mrth: 58.77 cth: 44.39 usage: 48.89 residual: 9.88
mrth: 105.51 cth: 87.62 usage: 85.89 residual: 19.62
mrth: 80.9 cth: 60.65 usage: 56.39 residual: 24.51
mrth: 20.08 cth: 14.81 usage: 15.94 residual: 4.14
mrth: 49.58 cth: 44.61 usage: 39.91 residual: 9.67
mrth: 44.97 cth: 37.36 usage: 43.86 residual: 1.11
mrth: 32.2 cth: 24.28 usage: 21.68 residual: 10.52
mrth: 73.55 cth: 58.32 usage: 57.65 residual: 15.9
mrth: 42.67 cth: 36.4 usage: 31.28 residual: 11.39
mrth: 71.52 cth: 50.89 usage: 66.89 residual: 4.63
mrth: 65.74 cth: 51.32 usage: 60.0 residual: 5.74
mrth: 44.21 cth: 37.21 usage: 43.28 residual: 0.93
mrth: 70.38 cth: 61.68 usage: 52.65 residual: 17.73
mrth: 35.58 cth: 27.08 usage: 31.79 residual: 3.79
mrth: 18.32 cth: 13.3 usage: 10.79 residual: 7.53
mrth: 131.75 cth: 99.42 usage: 74.8 residual: 56.95
mrth: 47.81 cth: 37.97 usage: 32.13 residual: 15.68
mrth: 118.74 cth: 94.37 usage: 67.43 residual: 51.31
mrth: 71.69 cth: 62.3 usage: 66.02 residual: 5.67
mrth: 25.56 cth: 18.04 usage: 17.4 residual: 8.16
mrth: 80.47 cth: 71.17 usage: 77.99 residual: 2.48
mrth: 46.91 cth: 41.36 usage: 46.67 residual: 0.24
mrth: 93.23 cth: 83.16 usage: 48.48 residual: 44.75
mrth: 46.53 cth: 32.65 usage: 32.72 residual: 13.81
mrth: 63.24 cth: 51.79 usage: 39.41 residual: 23.83
mrth: 56.85 cth: 43.41 usage: 30.83 residual: 26.02
mrth: 33.54 cth: 24.47 usage: 20.44 residual: 13.1
mrth: 48.09 cth: 41.0 usage: 35.32 residual: 12.77
mrth: 52.63 cth: 41.93 usage: 35.64 residual: 16.99
mrth: 67.47 cth: 54.2 usage: 56.68 residual: 10.79
mrth: 61.67 cth: 44.81 usage: 40.02 residual: 21.65
mrth: 90.06 cth: 63.43 usage: 51.99 residual: 38.07
mrth: 88.34 cth: 63.07 usage: 79.89 residual: 8.45
mrth: 62.57 cth: 49.71 usage: 36.84 residual: 25.73
mrth: 50.57 cth: 38.08 usage: 31.74 residual: 18.83
mrth: 71.43 cth: 60.82 usage: 65.12 residual: 6.31
mrth: 67.58 cth: 53.18 usage: 63.16 residual: 4.42
mrth: 80.71 cth: 58.34 usage: 74.97 residual: 5.74
mrth: 37.95 cth: 32.09 usage: 31.84 residual: 6.11
mrth: 34.71 cth: 27.23 usage: 24.33 residual: 10.38
mrth: 64.72 cth: 57.95 usage: 54.56 residual: 10.16
mrth: 13.8 cth: 11.76 usage: 13.05 residual: 0.75
mrth: 22.05 cth: 18.24 usage: 18.79 residual: 3.26
mrth: 97.36 cth: 79.01 usage: 58.8 residual: 38.56
mrth: 90.94 cth: 79.12 usage: 47.36 residual: 43.58
mrth: 43.53 cth: 36.36 usage: 42.76 residual: 0.77
mrth: 58.48 cth: 46.17 usage: 47.14 residual: 11.34
mrth: 26.14 cth: 20.48 usage: 22.83 residual: 3.31
mrth: 12.81 cth: 10.23 usage: 11.95 residual: 0.86
mrth: 65.45 cth: 48.26 usage: 49.13 residual: 16.32
mrth: 65.36 cth: 51.43 usage: 63.64 residual: 1.72
mrth: 37.08 cth: 30.87 usage: 32.73 residual: 4.35
mrth: 55.98 cth: 47.2 usage: 41.55 residual: 14.43
mrth: 80.2 cth: 58.44 usage: 41.68 residual: 38.52
mrth: 53.35 cth: 38.17 usage: 44.98 residual: 8.37
mrth: 80.91 cth: 70.11 usage: 58.38 residual: 22.53
mrth: 28.74 cth: 22.15 usage: 24.14 residual: 4.6
mrth: 71.88 cth: 57.92 usage: 41.07 residual: 30.81
mrth: 144.57 cth: 126.71 usage: 143.98 residual: 0.59
mrth: 88.82 cth: 67.4 usage: 77.06 residual: 11.76
mrth: 65.59 cth: 55.61 usage: 44.5 residual: 21.09
mrth: 22.1 cth: 17.81 usage: 19.92 residual: 2.18
mrth: 28.09 cth: 21.77 usage: 26.89 residual: 1.2
mrth: 42.77 cth: 32.65 usage: 23.0 residual: 19.77
mrth: 31.07 cth: 25.92 usage: 19.88 residual: 11.19
mrth: 42.39 cth: 34.76 usage: 32.58 residual: 9.81
mrth: 13.55 cth: 10.43 usage: 8.07 residual: 5.48
mrth: 17.68 cth: 14.94 usage: 16.33 residual: 1.35
mrth: 116.76 cth: 90.75 usage: 103.45 residual: 13.31
mrth: 78.46 cth: 57.08 usage: 43.08 residual: 35.38
mrth: 16.95 cth: 13.12 usage: 14.24 residual: 2.71
mrth: 17.52 cth: 12.45 usage: 16.01 residual: 1.51
mrth: 120.19 cth: 104.25 usage: 74.14 residual: 46.05
mrth: 37.59 cth: 29.65 usage: 36.86 residual: 0.73
mrth: 82.98 cth: 66.71 usage: 55.74 residual: 27.24
mrth: 28.18 cth: 21.26 usage: 16.87 residual: 11.31
mrth: 135.81 cth: 110.88 usage: 73.22 residual: 62.59
mrth: 109.69 cth: 97.34 usage: 67.25 residual: 42.44
mrth: 29.29 cth: 24.24 usage: 19.63 residual: 9.66
mrth: 59.63 cth: 49.31 usage: 35.46 residual: 24.17
mrth: 54.94 cth: 48.82 usage: 51.07 residual: 3.87
mrth: 50.77 cth: 40.96 usage: 31.2 residual: 19.57
mrth: 60.9 cth: 50.45 usage: 58.63 residual: 2.27
mrth: 66.63 cth: 50.48 usage: 65.73 residual: 0.9
mrth: 41.36 cth: 31.84 usage: 26.11 residual: 15.25
mrth: 45.85 cth: 34.62 usage: 37.99 residual: 7.86
mrth: 36.86 cth: 29.41 usage: 26.82 residual: 10.04
mrth: 31.24 cth: 23.81 usage: 18.58 residual: 12.66
mrth: 56.98 cth: 42.23 usage: 35.94 residual: 21.04
mrth: 71.31 cth: 51.37 usage: 40.53 residual: 30.78
mrth: 15.66 cth: 14.04 usage: 9.28 residual: 6.38
mrth: 21.85 cth: 16.32 usage: 17.85 residual: 4.0
mrth: 59.37 cth: 46.87 usage: 45.83 residual: 13.54
mrth: 36.32 cth: 25.45 usage: 26.17 residual: 10.15
mrth: 39.11 cth: 31.57 usage: 31.84 residual: 7.27
mrth: 88.81 cth: 76.55 usage: 44.81 residual: 44.0
mrth: 60.79 cth: 54.46 usage: 33.66 residual: 27.13
mrth: 60.22 cth: 52.56 usage: 50.24 residual: 9.98
mrth: 33.91 cth: 29.28 usage: 19.22 residual: 14.69
mrth: 13.01 cth: 9.2 usage: 7.22 residual: 5.79
mrth: 11.69 cth: 10.26 usage: 6.94 residual: 4.75
mrth: 28.3 cth: 22.03 usage: 20.3 residual: 8.0
mrth: 81.09 cth: 56.9 usage: 63.22 residual: 17.87
mrth: 59.85 cth: 51.75 usage: 32.05 residual: 27.8
mrth: 51.02 cth: 40.35 usage: 49.34 residual: 1.68
mrth: 39.96 cth: 29.36 usage: 28.47 residual: 11.49
mrth: 64.71 cth: 51.36 usage: 58.11 residual: 6.6
mrth: 79.64 cth: 64.74 usage: 70.76 residual: 8.88
mrth: 101.35 cth: 87.2 usage: 55.74 residual: 45.61
mrth: 64.92 cth: 56.62 usage: 33.87 residual: 31.05
mrth: 49.58 cth: 36.93 usage: 26.09 residual: 23.49
mrth: 52.7 cth: 46.66 usage: 33.83 residual: 18.87
mrth: 38.17 cth: 33.85 usage: 36.38 residual: 1.79
mrth: 20.43 cth: 17.26 usage: 11.18 residual: 9.25
mrth: 95.5 cth: 74.49 usage: 71.69 residual: 23.81
mrth: 66.71 cth: 58.87 usage: 55.28 residual: 11.43
mrth: 64.37 cth: 47.65 usage: 49.69 residual: 14.68
mrth: 43.0 cth: 37.54 usage: 32.95 residual: 10.05
mrth: 43.34 cth: 33.91 usage: 37.79 residual: 5.55
mrth: 59.08 cth: 42.13 usage: 41.5 residual: 17.58
mrth: 54.56 cth: 42.46 usage: 42.96 residual: 11.6
mrth: 71.02 cth: 56.48 usage: 41.47 residual: 29.55
mrth: 51.39 cth: 37.62 usage: 34.13 residual: 17.26
mrth: 132.5 cth: 119.22 usage: 85.04 residual: 47.46
mrth: 33.27 cth: 27.46 usage: 22.67 residual: 10.6
mrth: 28.93 cth: 25.29 usage: 21.38 residual: 7.55
mrth: 57.18 cth: 48.04 usage: 52.55 residual: 4.63
mrth: 43.5 cth: 32.1 usage: 40.42 residual: 3.08
mrth: 68.71 cth: 50.65 usage: 40.29 residual: 28.42
mrth: 52.45 cth: 43.19 usage: 29.9 residual: 22.55
mrth: 50.51 cth: 41.28 usage: 34.97 residual: 15.54
mrth: 106.14 cth: 78.44 usage: 60.38 residual: 45.76
mrth: 10.74 cth: 8.22 usage: 6.18 residual: 4.56
mrth: 69.49 cth: 54.86 usage: 59.23 residual: 10.26
mrth: 47.37 cth: 40.81 usage: 35.13 residual: 12.24
mrth: 46.5 cth: 38.96 usage: 39.68 residual: 6.82
mrth: 43.59 cth: 39.02 usage: 30.13 residual: 13.46
mrth: 32.72 cth: 25.35 usage: 28.64 residual: 4.08
mrth: 46.65 cth: 37.4 usage: 30.18 residual: 16.47
mrth: 39.06 cth: 28.26 usage: 34.45 residual: 4.61
mrth: 35.12 cth: 26.83 usage: 24.01 residual: 11.11
mrth: 92.56 cth: 73.27 usage: 47.26 residual: 45.3
mrth: 42.37 cth: 32.42 usage: 33.23 residual: 9.14
mrth: 84.01 cth: 59.6 usage: 80.09 residual: 3.92
mrth: 87.83 cth: 62.64 usage: 76.41 residual: 11.42
mrth: 47.73 cth: 42.23 usage: 24.02 residual: 23.71
mrth: 35.06 cth: 26.49 usage: 32.65 residual: 2.41
mrth: 60.5 cth: 51.25 usage: 32.35 residual: 28.15
mrth: 10.29 cth: 7.74 usage: 7.95 residual: 2.34
mrth: 32.22 cth: 27.52 usage: 26.39 residual: 5.83
mrth: 49.09 cth: 41.6 usage: 35.51 residual: 13.58
mrth: 31.62 cth: 23.11 usage: 20.32 residual: 11.3
mrth: 51.0 cth: 44.01 usage: 33.04 residual: 17.96
mrth: 84.47 cth: 71.65 usage: 59.03 residual: 25.44
mrth: 17.68 cth: 15.76 usage: 11.09 residual: 6.59
mrth: 53.5 cth: 44.19 usage: 53.14 residual: 0.36
mrth: 42.09 cth: 35.42 usage: 41.6 residual: 0.49
mrth: 66.56 cth: 52.72 usage: 43.71 residual: 22.85
mrth: 72.83 cth: 56.16 usage: 36.55 residual: 36.28
mrth: 55.26 cth: 49.26 usage: 36.79 residual: 18.47
mrth: 11.49 cth: 8.69 usage: 9.08 residual: 2.41
mrth: 16.63 cth: 12.24 usage: 10.67 residual: 5.96
mrth: 28.74 cth: 24.62 usage: 17.9 residual: 10.84
mrth: 118.4 cth: 83.5 usage: 64.44 residual: 53.96
mrth: 52.5 cth: 36.82 usage: 26.75 residual: 25.75
mrth: 79.59 cth: 67.18 usage: 57.99 residual: 21.6
mrth: 125.5 cth: 94.64 usage: 68.06 residual: 57.44
mrth: 41.93 cth: 34.36 usage: 41.16 residual: 0.77
mrth: 35.28 cth: 28.59 usage: 27.96 residual: 7.32
mrth: 47.88 cth: 34.02 usage: 35.26 residual: 12.62
mrth: 84.54 cth: 67.32 usage: 64.73 residual: 19.81
mrth: 62.88 cth: 44.98 usage: 42.76 residual: 20.12
mrth: 129.87 cth: 114.69 usage: 124.34 residual: 5.53
mrth: 61.26 cth: 45.03 usage: 49.69 residual: 11.57
mrth: 39.25 cth: 35.24 usage: 26.3 residual: 12.95
mrth: 62.65 cth: 45.55 usage: 57.13 residual: 5.52
mrth: 45.49 cth: 38.54 usage: 27.07 residual: 18.42
mrth: 36.0 cth: 26.68 usage: 31.55 residual: 4.45
mrth: 28.81 cth: 23.55 usage: 14.42 residual: 14.39
mrth: 57.49 cth: 50.26 usage: 32.08 residual: 25.41
mrth: 32.96 cth: 25.0 usage: 30.35 residual: 2.61
mrth: 132.14 cth: 103.54 usage: 129.47 residual: 2.67
mrth: 17.27 cth: 14.39 usage: 10.84 residual: 6.43
mrth: 54.79 cth: 49.11 usage: 51.15 residual: 3.64
mrth: 41.59 cth: 29.83 usage: 24.41 residual: 17.18
mrth: 28.54 cth: 22.81 usage: 22.85 residual: 5.69
mrth: 63.76 cth: 45.54 usage: 48.6 residual: 15.16
mrth: 17.52 cth: 13.87 usage: 8.93 residual: 8.59
mrth: 40.98 cth: 33.41 usage: 39.39 residual: 1.59
mrth: 65.94 cth: 49.61 usage: 37.56 residual: 28.38
mrth: 94.48 cth: 78.44 usage: 54.73 residual: 39.75
mrth: 47.11 cth: 33.37 usage: 30.2 residual: 16.91
mrth: 21.51 cth: 16.52 usage: 17.17 residual: 4.34
mrth: 67.78 cth: 58.57 usage: 49.99 residual: 17.79
mrth: 72.02 cth: 62.23 usage: 60.03 residual: 11.99
mrth: 86.04 cth: 67.67 usage: 53.36 residual: 32.68
mrth: 13.07 cth: 10.29 usage: 10.26 residual: 2.81
mrth: 43.75 cth: 33.7 usage: 31.65 residual: 12.1
mrth: 74.84 cth: 62.72 usage: 64.05 residual: 10.79
mrth: 79.82 cth: 58.59 usage: 72.41 residual: 7.41
mrth: 25.65 cth: 19.88 usage: 12.91 residual: 12.74
mrth: 58.41 cth: 44.19 usage: 31.95 residual: 26.46
mrth: 29.17 cth: 23.41 usage: 19.38 residual: 9.79
mrth: 48.92 cth: 37.77 usage: 40.52 residual: 8.4
mrth: 41.95 cth: 29.59 usage: 29.54 residual: 12.41
mrth: 29.07 cth: 21.16 usage: 20.99 residual: 8.08
mrth: 55.7 cth: 44.26 usage: 46.53 residual: 9.17
mrth: 82.02 cth: 57.43 usage: 42.14 residual: 39.88
mrth: 12.39 cth: 10.29 usage: 11.96 residual: 0.43
mrth: 89.39 cth: 69.59 usage: 47.94 residual: 41.45
mrth: 112.05 cth: 83.48 usage: 67.63 residual: 44.42
mrth: 34.93 cth: 30.07 usage: 22.45 residual: 12.48
mrth: 57.15 cth: 40.5 usage: 45.15 residual: 12.0
mrth: 34.88 cth: 25.04 usage: 29.29 residual: 5.59
mrth: 52.69 cth: 45.87 usage: 36.71 residual: 15.98
mrth: 21.02 cth: 17.85 usage: 15.89 residual: 5.13
mrth: 34.36 cth: 27.63 usage: 29.02 residual: 5.34
mrth: 39.15 cth: 30.07 usage: 31.66 residual: 7.49
mrth: 36.07 cth: 25.8 usage: 25.43 residual: 10.64
mrth: 40.67 cth: 31.58 usage: 40.28 residual: 0.39
mrth: 46.83 cth: 41.17 usage: 40.71 residual: 6.12
mrth: 46.93 cth: 40.63 usage: 38.47 residual: 8.46
mrth: 8.5 cth: 6.88 usage: 5.55 residual: 2.95
mrth: 66.8 cth: 51.88 usage: 34.97 residual: 31.83
mrth: 71.75 cth: 57.12 usage: 67.24 residual: 4.51
mrth: 53.08 cth: 44.36 usage: 42.42 residual: 10.66
mrth: 69.01 cth: 56.31 usage: 64.92 residual: 4.09
mrth: 119.06 cth: 104.96 usage: 68.19 residual: 50.87
mrth: 91.75 cth: 70.62 usage: 59.13 residual: 32.62
mrth: 49.17 cth: 41.47 usage: 39.0 residual: 10.17
mrth: 41.17 cth: 34.72 usage: 35.2 residual: 5.97
mrth: 23.21 cth: 17.68 usage: 15.71 residual: 7.5
mrth: 45.94 cth: 39.1 usage: 23.23 residual: 22.71
mrth: 133.3 cth: 112.52 usage: 123.77 residual: 9.53
mrth: 119.34 cth: 101.58 usage: 97.56 residual: 21.78
mrth: 67.03 cth: 55.25 usage: 61.44 residual: 5.59
mrth: 34.13 cth: 28.92 usage: 30.07 residual: 4.06
mrth: 84.17 cth: 74.16 usage: 53.37 residual: 30.8
mrth: 103.31 cth: 81.57 usage: 71.37 residual: 31.94
mrth: 49.92 cth: 41.76 usage: 41.6 residual: 8.32
mrth: 50.25 cth: 37.91 usage: 26.75 residual: 23.5
mrth: 30.46 cth: 25.54 usage: 29.68 residual: 0.78
mrth: 50.22 cth: 37.23 usage: 31.31 residual: 18.91
mrth: 50.0 cth: 38.38 usage: 43.68 residual: 6.32
mrth: 12.54 cth: 9.63 usage: 10.23 residual: 2.31
mrth: 16.11 cth: 13.68 usage: 11.04 residual: 5.07
mrth: 15.75 cth: 13.92 usage: 9.48 residual: 6.27
mrth: 55.01 cth: 38.86 usage: 30.22 residual: 24.79
mrth: 81.59 cth: 59.14 usage: 75.14 residual: 6.45
mrth: 51.77 cth: 42.93 usage: 35.16 residual: 16.61
mrth: 51.73 cth: 39.28 usage: 43.65 residual: 8.08
mrth: 28.4 cth: 25.24 usage: 22.83 residual: 5.57
mrth: 49.6 cth: 35.56 usage: 47.8 residual: 1.8
mrth: 61.88 cth: 46.07 usage: 55.42 residual: 6.46
mrth: 51.72 cth: 37.34 usage: 28.41 residual: 23.31
mrth: 84.71 cth: 69.98 usage: 47.81 residual: 36.9
mrth: 65.19 cth: 53.86 usage: 47.48 residual: 17.71
mrth: 71.73 cth: 52.47 usage: 71.61 residual: 0.12
mrth: 31.65 cth: 23.28 usage: 28.57 residual: 3.08
mrth: 92.75 cth: 82.37 usage: 72.97 residual: 19.78
mrth: 76.64 cth: 58.35 usage: 73.19 residual: 3.45
mrth: 20.16 cth: 16.96 usage: 19.3 residual: 0.86
mrth: 38.12 cth: 28.02 usage: 26.64 residual: 11.48
mrth: 96.73 cth: 69.6 usage: 54.1 residual: 42.63
mrth: 32.55 cth: 26.66 usage: 17.21 residual: 15.34
mrth: 12.28 cth: 10.91 usage: 7.66 residual: 4.62
mrth: 72.41 cth: 63.83 usage: 63.28 residual: 9.13
mrth: 103.08 cth: 75.45 usage: 59.28 residual: 43.8
mrth: 88.39 cth: 63.94 usage: 48.4 residual: 39.99
mrth: 21.47 cth: 16.51 usage: 11.53 residual: 9.94
mrth: 44.41 cth: 37.1 usage: 23.92 residual: 20.49
mrth: 32.17 cth: 22.78 usage: 26.39 residual: 5.78
mrth: 53.59 cth: 43.17 usage: 27.15 residual: 26.44
mrth: 64.74 cth: 45.52 usage: 52.3 residual: 12.44
mrth: 11.96 cth: 10.23 usage: 11.42 residual: 0.54
mrth: 32.26 cth: 27.85 usage: 17.42 residual: 14.84
mrth: 100.78 cth: 87.44 usage: 70.97 residual: 29.81
mrth: 122.06 cth: 87.09 usage: 98.52 residual: 23.54
mrth: 59.6 cth: 48.66 usage: 44.47 residual: 15.13
mrth: 45.96 cth: 36.18 usage: 33.5 residual: 12.46
mrth: 66.29 cth: 48.1 usage: 50.73 residual: 15.56
mrth: 59.75 cth: 51.47 usage: 47.36 residual: 12.39
mrth: 122.99 cth: 109.4 usage: 91.01 residual: 31.98
mrth: 81.49 cth: 69.46 usage: 63.11 residual: 18.38
mrth: 73.38 cth: 61.49 usage: 50.12 residual: 23.26
mrth: 14.68 cth: 12.37 usage: 9.87 residual: 4.81
mrth: 37.15 cth: 31.76 usage: 25.27 residual: 11.88
mrth: 80.2 cth: 68.52 usage: 57.52 residual: 22.68
mrth: 62.55 cth: 48.46 usage: 52.45 residual: 10.1
mrth: 40.2 cth: 28.28 usage: 24.81 residual: 15.39
mrth: 57.57 cth: 48.02 usage: 43.56 residual: 14.01
mrth: 146.95 cth: 118.67 usage: 79.07 residual: 67.88
mrth: 63.68 cth: 46.53 usage: 39.08 residual: 24.6
mrth: 80.39 cth: 59.81 usage: 40.37 residual: 40.02
mrth: 52.5 cth: 37.87 usage: 26.27 residual: 26.23
mrth: 17.58 cth: 14.18 usage: 11.26 residual: 6.32
mrth: 27.7 cth: 21.2 usage: 13.92 residual: 13.78
mrth: 46.27 cth: 40.78 usage: 27.75 residual: 18.52
mrth: 72.8 cth: 57.27 usage: 44.91 residual: 27.89
mrth: 120.46 cth: 103.69 usage: 76.4 residual: 44.06
mrth: 54.87 cth: 45.57 usage: 54.17 residual: 0.7
mrth: 31.52 cth: 23.77 usage: 24.4 residual: 7.12
mrth: 17.57 cth: 13.79 usage: 15.03 residual: 2.54
mrth: 103.52 cth: 87.09 usage: 78.56 residual: 24.96
mrth: 43.93 cth: 32.42 usage: 42.55 residual: 1.38
mrth: 74.84 cth: 54.73 usage: 49.79 residual: 25.05
mrth: 62.68 cth: 44.08 usage: 33.3 residual: 29.38
mrth: 27.78 cth: 21.37 usage: 21.5 residual: 6.28
mrth: 65.24 cth: 52.52 usage: 35.11 residual: 30.13
mrth: 47.7 cth: 39.7 usage: 41.92 residual: 5.78
mrth: 80.23 cth: 70.64 usage: 69.07 residual: 11.16
mrth: 68.04 cth: 47.86 usage: 50.15 residual: 17.89
mrth: 49.34 cth: 41.31 usage: 31.1 residual: 18.24
mrth: 90.33 cth: 64.85 usage: 55.65 residual: 34.68
mrth: 46.91 cth: 40.2 usage: 28.2 residual: 18.71
mrth: 114.68 cth: 102.46 usage: 102.24 residual: 12.44
mrth: 17.72 cth: 13.17 usage: 8.96 residual: 8.76
mrth: 83.31 cth: 58.57 usage: 62.36 residual: 20.95
mrth: 63.61 cth: 52.87 usage: 39.53 residual: 24.08
mrth: 16.68 cth: 12.9 usage: 15.52 residual: 1.16
mrth: 3.68 cth: 2.91 usage: 2.36 residual: 1.32
mrth: 32.77 cth: 25.35 usage: 30.33 residual: 2.44
mrth: 60.75 cth: 43.56 usage: 57.98 residual: 2.77
mrth: 46.38 cth: 36.73 usage: 45.78 residual: 0.6
mrth: 75.08 cth: 66.9 usage: 43.48 residual: 31.6
mrth: 19.91 cth: 15.85 usage: 17.05 residual: 2.86
mrth: 48.48 cth: 37.47 usage: 40.31 residual: 8.17
mrth: 8.37 cth: 7.26 usage: 6.25 residual: 2.12
mrth: 44.85 cth: 36.81 usage: 35.96 residual: 8.89
mrth: 94.28 cth: 78.74 usage: 85.01 residual: 9.27
mrth: 27.14 cth: 20.51 usage: 22.96 residual: 4.18
mrth: 22.75 cth: 19.54 usage: 20.36 residual: 2.39
mrth: 21.51 cth: 15.11 usage: 14.67 residual: 6.84
mrth: 66.84 cth: 57.91 usage: 46.21 residual: 20.63
mrth: 64.4 cth: 55.21 usage: 33.12 residual: 31.28
mrth: 73.81 cth: 56.04 usage: 54.2 residual: 19.61
mrth: 18.77 cth: 16.81 usage: 16.43 residual: 2.34
mrth: 11.94 cth: 10.07 usage: 9.63 residual: 2.31
mrth: 79.77 cth: 67.14 usage: 77.12 residual: 2.65
mrth: 45.36 cth: 33.02 usage: 29.31 residual: 16.05
mrth: 91.57 cth: 68.59 usage: 49.09 residual: 42.48
mrth: 92.65 cth: 76.42 usage: 47.52 residual: 45.13
mrth: 42.93 cth: 38.24 usage: 24.15 residual: 18.78
mrth: 84.94 cth: 62.25 usage: 61.18 residual: 23.76
mrth: 69.61 cth: 58.54 usage: 43.97 residual: 25.64
mrth: 12.48 cth: 9.84 usage: 11.58 residual: 0.9
mrth: 58.65 cth: 45.16 usage: 57.16 residual: 1.49
mrth: 83.21 cth: 64.76 usage: 77.84 residual: 5.37
mrth: 40.35 cth: 29.7 usage: 39.36 residual: 0.99
mrth: 79.97 cth: 60.51 usage: 54.48 residual: 25.49
mrth: 119.06 cth: 102.08 usage: 116.72 residual: 2.34
mrth: 22.84 cth: 17.85 usage: 21.73 residual: 1.11
mrth: 67.31 cth: 55.89 usage: 65.16 residual: 2.15
mrth: 70.08 cth: 49.34 usage: 65.9 residual: 4.18
mrth: 16.52 cth: 12.88 usage: 8.56 residual: 7.96
mrth: 53.75 cth: 47.77 usage: 37.95 residual: 15.8
mrth: 43.17 cth: 37.37 usage: 34.7 residual: 8.47
mrth: 36.89 cth: 32.73 usage: 23.89 residual: 13.0
mrth: 56.66 cth: 49.68 usage: 40.19 residual: 16.47
mrth: 40.69 cth: 33.45 usage: 35.86 residual: 4.83
mrth: 57.94 cth: 41.87 usage: 54.28 residual: 3.66
mrth: 84.71 cth: 66.63 usage: 65.13 residual: 19.58
mrth: 41.82 cth: 29.77 usage: 33.25 residual: 8.57
mrth: 85.2 cth: 71.85 usage: 46.49 residual: 38.71
mrth: 65.02 cth: 51.49 usage: 33.55 residual: 31.47
mrth: 53.98 cth: 44.25 usage: 52.33 residual: 1.65
mrth: 11.67 cth: 9.96 usage: 8.52 residual: 3.15
mrth: 39.05 cth: 34.56 usage: 22.85 residual: 16.2
mrth: 79.42 cth: 65.08 usage: 54.66 residual: 24.76
mrth: 101.43 cth: 73.99 usage: 58.2 residual: 43.23
mrth: 49.85 cth: 40.31 usage: 46.46 residual: 3.39
mrth: 33.6 cth: 29.28 usage: 26.97 residual: 6.63
mrth: 38.7 cth: 31.79 usage: 34.99 residual: 3.71
mrth: 9.04 cth: 6.87 usage: 6.98 residual: 2.06
mrth: 63.02 cth: 45.32 usage: 54.98 residual: 8.04
mrth: 38.97 cth: 30.64 usage: 26.33 residual: 12.64
mrth: 55.5 cth: 49.03 usage: 42.23 residual: 13.27
mrth: 33.65 cth: 24.18 usage: 18.42 residual: 15.23
mrth: 34.05 cth: 27.88 usage: 19.5 residual: 14.55
mrth: 71.87 cth: 55.47 usage: 37.66 residual: 34.21
mrth: 47.72 cth: 42.16 usage: 42.3 residual: 5.42
mrth: 16.99 cth: 15.28 usage: 11.63 residual: 5.36
mrth: 4.43 cth: 3.13 usage: 3.55 residual: 0.88
mrth: 22.2 cth: 16.65 usage: 22.15 residual: 0.05
mrth: 78.14 cth: 59.43 usage: 48.0 residual: 30.14
mrth: 68.69 cth: 48.16 usage: 48.0 residual: 20.69
mrth: 34.03 cth: 26.43 usage: 24.24 residual: 9.79
mrth: 96.95 cth: 86.6 usage: 64.38 residual: 32.57
mrth: 56.8 cth: 44.6 usage: 29.71 residual: 27.09
mrth: 68.46 cth: 59.67 usage: 60.82 residual: 7.64
mrth: 35.73 cth: 28.28 usage: 34.84 residual: 0.89
mrth: 24.51 cth: 18.22 usage: 12.49 residual: 12.02
mrth: 80.26 cth: 59.77 usage: 47.78 residual: 32.48
mrth: 19.67 cth: 14.14 usage: 12.38 residual: 7.29
mrth: 26.99 cth: 20.0 usage: 23.62 residual: 3.37
mrth: 20.97 cth: 15.25 usage: 20.04 residual: 0.93
mrth: 101.01 cth: 81.72 usage: 72.65 residual: 28.36
mrth: 51.54 cth: 42.11 usage: 32.2 residual: 19.34
mrth: 24.1 cth: 18.26 usage: 15.17 residual: 8.93
mrth: 56.98 cth: 45.09 usage: 35.21 residual: 21.77
mrth: 33.69 cth: 30.17 usage: 18.1 residual: 15.59
mrth: 23.48 cth: 20.71 usage: 22.85 residual: 0.63
mrth: 64.16 cth: 55.1 usage: 33.96 residual: 30.2
mrth: 65.56 cth: 53.26 usage: 54.0 residual: 11.56
mrth: 11.52 cth: 8.51 usage: 6.88 residual: 4.64
mrth: 33.47 cth: 28.81 usage: 18.98 residual: 14.49
mrth: 96.25 cth: 68.73 usage: 54.44 residual: 41.81
mrth: 113.74 cth: 97.35 usage: 57.87 residual: 55.87
mrth: 28.6 cth: 20.65 usage: 26.93 residual: 1.67
mrth: 100.3 cth: 81.07 usage: 93.34 residual: 6.96
mrth: 65.77 cth: 51.17 usage: 61.68 residual: 4.09
mrth: 67.73 cth: 57.33 usage: 39.11 residual: 28.62
mrth: 29.58 cth: 26.21 usage: 26.06 residual: 3.52
mrth: 39.9 cth: 34.31 usage: 31.14 residual: 8.76
mrth: 32.8 cth: 29.08 usage: 23.85 residual: 8.95
mrth: 32.86 cth: 23.14 usage: 19.29 residual: 13.57
mrth: 43.84 cth: 32.46 usage: 35.14 residual: 8.7
mrth: 61.56 cth: 50.22 usage: 47.47 residual: 14.09
mrth: 15.2 cth: 11.26 usage: 7.78 residual: 7.42
mrth: 80.66 cth: 65.26 usage: 69.58 residual: 11.08
mrth: 20.66 cth: 17.48 usage: 12.6 residual: 8.06
mrth: 33.58 cth: 27.5 usage: 21.19 residual: 12.39
mrth: 91.46 cth: 73.47 usage: 80.87 residual: 10.59
mrth: 16.13 cth: 13.59 usage: 8.41 residual: 7.72
mrth: 4.35 cth: 3.83 usage: 4.04 residual: 0.31
mrth: 45.97 cth: 34.83 usage: 35.59 residual: 10.38
mrth: 57.08 cth: 46.03 usage: 44.91 residual: 12.17
mrth: 51.15 cth: 36.83 usage: 38.04 residual: 13.11
mrth: 100.92 cth: 77.0 usage: 63.56 residual: 37.36
mrth: 62.24 cth: 47.45 usage: 44.92 residual: 17.32
mrth: 87.97 cth: 75.24 usage: 63.82 residual: 24.15
mrth: 69.75 cth: 62.03 usage: 65.27 residual: 4.48
mrth: 54.13 cth: 46.7 usage: 47.07 residual: 7.06
mrth: 51.13 cth: 39.35 usage: 45.88 residual: 5.25
mrth: 83.62 cth: 72.98 usage: 60.1 residual: 23.52
mrth: 87.58 cth: 68.76 usage: 73.19 residual: 14.39
mrth: 53.5 cth: 48.06 usage: 47.44 residual: 6.06
mrth: 23.67 cth: 19.23 usage: 13.03 residual: 10.64
mrth: 25.52 cth: 20.3 usage: 17.19 residual: 8.33
mrth: 87.31 cth: 74.18 usage: 55.87 residual: 31.44
mrth: 43.02 cth: 32.11 usage: 41.7 residual: 1.32
mrth: 58.42 cth: 45.67 usage: 33.81 residual: 24.61
mrth: 32.69 cth: 26.97 usage: 28.54 residual: 4.15
mrth: 23.38 cth: 20.42 usage: 14.13 residual: 9.25
mrth: 41.31 cth: 34.19 usage: 34.87 residual: 6.44
mrth: 28.63 cth: 24.34 usage: 23.1 residual: 5.53
mrth: 176.47 cth: 131.29 usage: 162.82 residual: 13.65
mrth: 73.58 cth: 56.7 usage: 49.46 residual: 24.12
mrth: 24.35 cth: 21.46 usage: 12.87 residual: 11.48
mrth: 22.85 cth: 17.54 usage: 17.45 residual: 5.4
mrth: 78.79 cth: 60.12 usage: 64.24 residual: 14.55
mrth: 9.57 cth: 7.48 usage: 6.33 residual: 3.24
mrth: 7.21 cth: 6.04 usage: 6.06 residual: 1.15
mrth: 55.12 cth: 44.51 usage: 38.27 residual: 16.85
mrth: 54.6 cth: 46.44 usage: 38.84 residual: 15.76
mrth: 24.54 cth: 21.73 usage: 23.37 residual: 1.17
mrth: 132.63 cth: 102.22 usage: 90.79 residual: 41.84
mrth: 111.09 cth: 86.46 usage: 84.15 residual: 26.94
mrth: 54.32 cth: 43.93 usage: 36.55 residual: 17.77
mrth: 52.98 cth: 39.08 usage: 47.31 residual: 5.67
mrth: 56.3 cth: 44.12 usage: 41.09 residual: 15.21
mrth: 60.02 cth: 53.71 usage: 55.14 residual: 4.88
mrth: 27.95 cth: 19.97 usage: 15.26 residual: 12.69
mrth: 40.78 cth: 30.31 usage: 34.23 residual: 6.55
mrth: 78.35 cth: 68.63 usage: 67.24 residual: 11.11
mrth: 23.85 cth: 20.87 usage: 16.42 residual: 7.43
mrth: 99.22 cth: 82.15 usage: 96.31 residual: 2.91
mrth: 86.13 cth: 71.39 usage: 62.21 residual: 23.92
mrth: 52.69 cth: 40.09 usage: 28.43 residual: 24.26
mrth: 84.79 cth: 74.26 usage: 82.88 residual: 1.91
mrth: 41.9 cth: 30.88 usage: 34.81 residual: 7.09
mrth: 25.97 cth: 18.78 usage: 24.1 residual: 1.87
mrth: 82.77 cth: 72.05 usage: 79.88 residual: 2.89
mrth: 89.11 cth: 68.37 usage: 57.08 residual: 32.03
mrth: 53.62 cth: 44.64 usage: 32.18 residual: 21.44
mrth: 45.99 cth: 39.41 usage: 25.3 residual: 20.69
mrth: 63.75 cth: 50.79 usage: 54.63 residual: 9.12
mrth: 67.75 cth: 53.36 usage: 54.7 residual: 13.05
mrth: 88.45 cth: 61.96 usage: 46.25 residual: 42.2
mrth: 26.43 cth: 21.29 usage: 25.8 residual: 0.63
mrth: 35.9 cth: 26.48 usage: 30.62 residual: 5.28
mrth: 38.21 cth: 31.44 usage: 23.08 residual: 15.13
mrth: 14.79 cth: 11.06 usage: 12.1 residual: 2.69
mrth: 9.09 cth: 6.93 usage: 5.16 residual: 3.93
mrth: 36.67 cth: 26.4 usage: 19.23 residual: 17.44
mrth: 36.8 cth: 27.37 usage: 22.73 residual: 14.07
mrth: 72.71 cth: 53.31 usage: 69.47 residual: 3.24
mrth: 6.8 cth: 4.98 usage: 4.31 residual: 2.49
mrth: 67.64 cth: 51.77 usage: 43.18 residual: 24.46
mrth: 42.23 cth: 37.31 usage: 28.07 residual: 14.16
mrth: 6.19 cth: 4.4 usage: 3.36 residual: 2.83
mrth: 52.98 cth: 37.35 usage: 27.63 residual: 25.35
mrth: 28.19 cth: 22.76 usage: 26.41 residual: 1.78
mrth: 18.39 cth: 13.48 usage: 10.64 residual: 7.75
mrth: 69.48 cth: 54.47 usage: 59.74 residual: 9.74
mrth: 44.53 cth: 34.85 usage: 36.36 residual: 8.17
mrth: 31.34 cth: 23.06 usage: 25.71 residual: 5.63
mrth: 86.6 cth: 74.32 usage: 48.34 residual: 38.26
mrth: 26.23 cth: 20.49 usage: 21.38 residual: 4.85
mrth: 52.09 cth: 45.53 usage: 37.08 residual: 15.01
mrth: 94.14 cth: 75.48 usage: 72.11 residual: 22.03
mrth: 45.37 cth: 33.86 usage: 29.77 residual: 15.6
mrth: 67.17 cth: 57.64 usage: 42.52 residual: 24.65
mrth: 34.14 cth: 25.73 usage: 33.33 residual: 0.81
mrth: 49.39 cth: 36.45 usage: 32.08 residual: 17.31
mrth: 24.13 cth: 18.37 usage: 19.34 residual: 4.79
mrth: 19.09 cth: 13.55 usage: 17.36 residual: 1.73
mrth: 30.59 cth: 25.89 usage: 20.43 residual: 10.16
mrth: 67.38 cth: 51.44 usage: 45.79 residual: 21.59
mrth: 79.36 cth: 62.69 usage: 53.29 residual: 26.07
mrth: 64.71 cth: 53.87 usage: 54.71 residual: 10.0
mrth: 107.81 cth: 86.7 usage: 78.89 residual: 28.92
mrth: 45.36 cth: 36.41 usage: 38.54 residual: 6.82
mrth: 94.8 cth: 79.45 usage: 75.78 residual: 19.02
mrth: 18.95 cth: 15.2 usage: 13.04 residual: 5.91
mrth: 110.13 cth: 92.8 usage: 80.73 residual: 29.4
mrth: 62.3 cth: 43.85 usage: 35.86 residual: 26.44
mrth: 12.3 cth: 9.67 usage: 7.86 residual: 4.44
mrth: 19.68 cth: 15.41 usage: 11.52 residual: 8.16
mrth: 61.06 cth: 54.42 usage: 52.53 residual: 8.53
mrth: 75.45 cth: 55.94 usage: 47.84 residual: 27.61
mrth: 50.58 cth: 40.27 usage: 47.02 residual: 3.56
mrth: 48.77 cth: 43.83 usage: 42.25 residual: 6.52
mrth: 27.5 cth: 23.37 usage: 20.42 residual: 7.08
mrth: 32.53 cth: 22.99 usage: 23.19 residual: 9.34
mrth: 19.52 cth: 15.02 usage: 15.17 residual: 4.35
mrth: 68.38 cth: 54.4 usage: 57.02 residual: 11.36
mrth: 53.71 cth: 48.12 usage: 34.83 residual: 18.88
mrth: 124.77 cth: 96.55 usage: 100.33 residual: 24.44
mrth: 94.08 cth: 68.27 usage: 57.92 residual: 36.16
mrth: 74.43 cth: 58.49 usage: 70.81 residual: 3.62
mrth: 34.79 cth: 30.51 usage: 19.18 residual: 15.61
mrth: 40.65 cth: 30.31 usage: 29.95 residual: 10.7
mrth: 25.87 cth: 22.88 usage: 24.97 residual: 0.9
mrth: 85.02 cth: 64.17 usage: 52.31 residual: 32.71
mrth: 68.84 cth: 61.07 usage: 58.19 residual: 10.65
mrth: 90.38 cth: 76.98 usage: 54.65 residual: 35.73
mrth: 87.0 cth: 69.27 usage: 44.27 residual: 42.73
mrth: 53.31 cth: 42.61 usage: 32.57 residual: 20.74
mrth: 75.15 cth: 53.57 usage: 40.94 residual: 34.21
mrth: 52.82 cth: 44.07 usage: 51.69 residual: 1.13
mrth: 67.82 cth: 54.74 usage: 51.32 residual: 16.5
mrth: 78.24 cth: 65.66 usage: 39.33 residual: 38.91
mrth: 18.63 cth: 15.3 usage: 11.02 residual: 7.61
mrth: 41.68 cth: 35.12 usage: 30.93 residual: 10.75
mrth: 178.32 cth: 143.2 usage: 156.81 residual: 21.51
mrth: 82.58 cth: 68.43 usage: 78.17 residual: 4.41
mrth: 38.94 cth: 29.42 usage: 25.7 residual: 13.24
mrth: 43.27 cth: 30.66 usage: 28.75 residual: 14.52
mrth: 36.82 cth: 26.19 usage: 33.53 residual: 3.29
mrth: 67.59 cth: 55.55 usage: 54.91 residual: 12.68
mrth: 33.12 cth: 25.38 usage: 27.7 residual: 5.42
mrth: 59.09 cth: 46.74 usage: 56.06 residual: 3.03
mrth: 47.4 cth: 36.26 usage: 34.55 residual: 12.85
mrth: 61.57 cth: 47.97 usage: 36.33 residual: 25.24
mrth: 68.63 cth: 58.45 usage: 67.09 residual: 1.54
mrth: 81.38 cth: 63.22 usage: 58.04 residual: 23.34
mrth: 81.4 cth: 72.46 usage: 42.73 residual: 38.67
mrth: 55.45 cth: 44.14 usage: 52.42 residual: 3.03
mrth: 24.74 cth: 18.99 usage: 18.68 residual: 6.06
mrth: 30.57 cth: 22.99 usage: 23.92 residual: 6.65
mrth: 73.15 cth: 51.69 usage: 39.13 residual: 34.02
mrth: 28.21 cth: 25.14 usage: 17.48 residual: 10.73
mrth: 62.39 cth: 53.77 usage: 58.45 residual: 3.94
mrth: 63.76 cth: 44.65 usage: 41.3 residual: 22.46
mrth: 47.53 cth: 42.72 usage: 34.33 residual: 13.2
mrth: 48.52 cth: 37.83 usage: 31.04 residual: 17.48
mrth: 51.84 cth: 40.21 usage: 31.06 residual: 20.78
mrth: 20.64 cth: 16.0 usage: 14.01 residual: 6.63
mrth: 79.26 cth: 63.62 usage: 75.58 residual: 3.68
mrth: 137.59 cth: 108.65 usage: 124.46 residual: 13.13
mrth: 69.29 cth: 56.61 usage: 65.95 residual: 3.34
mrth: 83.17 cth: 62.08 usage: 46.71 residual: 36.46
mrth: 43.89 cth: 36.36 usage: 33.66 residual: 10.23
mrth: 13.23 cth: 10.07 usage: 12.04 residual: 1.19
mrth: 79.17 cth: 64.61 usage: 45.61 residual: 33.56
mrth: 39.59 cth: 28.97 usage: 24.37 residual: 15.22
mrth: 36.04 cth: 30.07 usage: 30.8 residual: 5.24
mrth: 61.99 cth: 44.23 usage: 59.59 residual: 2.4
mrth: 57.76 cth: 49.83 usage: 36.81 residual: 20.95
mrth: 52.74 cth: 37.75 usage: 36.09 residual: 16.65
mrth: 65.38 cth: 48.66 usage: 33.52 residual: 31.86
mrth: 44.38 cth: 35.45 usage: 44.0 residual: 0.38
mrth: 110.33 cth: 99.02 usage: 73.99 residual: 36.34
mrth: 34.95 cth: 27.15 usage: 17.48 residual: 17.47
mrth: 129.56 cth: 113.15 usage: 84.41 residual: 45.15
mrth: 59.4 cth: 48.29 usage: 42.14 residual: 17.26
mrth: 55.1 cth: 41.94 usage: 31.36 residual: 23.74
mrth: 89.97 cth: 79.98 usage: 65.85 residual: 24.12
mrth: 68.85 cth: 50.62 usage: 59.04 residual: 9.81
mrth: 79.34 cth: 70.86 usage: 43.38 residual: 35.96
mrth: 45.95 cth: 34.02 usage: 31.88 residual: 14.07
mrth: 98.99 cth: 76.66 usage: 96.78 residual: 2.21
mrth: 37.72 cth: 29.53 usage: 34.44 residual: 3.28
mrth: 22.11 cth: 19.42 usage: 12.69 residual: 9.42
mrth: 26.71 cth: 23.41 usage: 18.27 residual: 8.44
mrth: 47.36 cth: 42.13 usage: 33.86 residual: 13.5
mrth: 17.24 cth: 12.89 usage: 16.32 residual: 0.92
mrth: 64.69 cth: 47.32 usage: 38.41 residual: 26.28
mrth: 34.86 cth: 30.65 usage: 33.48 residual: 1.38
mrth: 34.41 cth: 26.4 usage: 23.58 residual: 10.83
mrth: 59.72 cth: 50.38 usage: 43.61 residual: 16.11
mrth: 41.0 cth: 29.17 usage: 21.95 residual: 19.05
mrth: 52.38 cth: 42.33 usage: 42.6 residual: 9.78
mrth: 32.16 cth: 24.76 usage: 25.08 residual: 7.08
mrth: 39.62 cth: 30.16 usage: 22.21 residual: 17.41
mrth: 103.05 cth: 84.67 usage: 78.33 residual: 24.72
mrth: 34.28 cth: 24.54 usage: 24.61 residual: 9.67
mrth: 62.72 cth: 48.25 usage: 41.86 residual: 20.86
mrth: 39.28 cth: 31.93 usage: 22.11 residual: 17.17
mrth: 24.54 cth: 19.09 usage: 18.14 residual: 6.4
mrth: 42.64 cth: 36.72 usage: 35.25 residual: 7.39
mrth: 17.81 cth: 13.13 usage: 17.79 residual: 0.02
mrth: 38.61 cth: 28.93 usage: 33.35 residual: 5.26
mrth: 85.57 cth: 61.98 usage: 77.28 residual: 8.29
mrth: 36.71 cth: 32.27 usage: 29.24 residual: 7.47
mrth: 50.5 cth: 37.49 usage: 32.45 residual: 18.05
mrth: 17.46 cth: 13.73 usage: 16.32 residual: 1.14
mrth: 78.27 cth: 56.84 usage: 49.32 residual: 28.95
mrth: 17.35 cth: 14.17 usage: 12.23 residual: 5.12
mrth: 26.95 cth: 21.21 usage: 21.8 residual: 5.15
mrth: 46.11 cth: 37.49 usage: 40.75 residual: 5.36
mrth: 56.9 cth: 47.73 usage: 42.01 residual: 14.89
mrth: 33.24 cth: 26.63 usage: 26.45 residual: 6.79
mrth: 28.83 cth: 24.45 usage: 26.53 residual: 2.3
mrth: 62.82 cth: 55.63 usage: 52.55 residual: 10.27
mrth: 33.13 cth: 27.06 usage: 20.67 residual: 12.46
mrth: 68.5 cth: 58.09 usage: 39.61 residual: 28.89
mrth: 23.27 cth: 19.53 usage: 11.81 residual: 11.46
mrth: 37.49 cth: 29.95 usage: 22.1 residual: 15.39
mrth: 20.27 cth: 16.23 usage: 11.49 residual: 8.78
mrth: 35.16 cth: 27.14 usage: 30.66 residual: 4.5
mrth: 77.52 cth: 62.6 usage: 71.55 residual: 5.97
mrth: 38.71 cth: 31.77 usage: 32.87 residual: 5.84
mrth: 99.51 cth: 87.49 usage: 73.15 residual: 26.36
mrth: 76.37 cth: 62.36 usage: 61.45 residual: 14.92
mrth: 41.41 cth: 30.21 usage: 23.34 residual: 18.07
mrth: 57.1 cth: 42.91 usage: 39.08 residual: 18.02
mrth: 59.65 cth: 49.17 usage: 57.38 residual: 2.27
mrth: 88.49 cth: 79.15 usage: 62.11 residual: 26.38
mrth: 38.5 cth: 30.75 usage: 30.4 residual: 8.1
mrth: 26.34 cth: 21.42 usage: 20.66 residual: 5.68
mrth: 81.81 cth: 65.69 usage: 79.15 residual: 2.66
mrth: 64.11 cth: 56.83 usage: 56.62 residual: 7.49
mrth: 63.74 cth: 44.97 usage: 54.42 residual: 9.32
mrth: 25.32 cth: 18.52 usage: 16.21 residual: 9.11
mrth: 17.01 cth: 15.29 usage: 10.57 residual: 6.44
mrth: 59.14 cth: 48.78 usage: 49.25 residual: 9.89
mrth: 67.35 cth: 47.45 usage: 65.36 residual: 1.99
mrth: 50.0 cth: 37.76 usage: 31.79 residual: 18.21
mrth: 70.92 cth: 57.36 usage: 40.61 residual: 30.31
mrth: 66.01 cth: 52.19 usage: 46.45 residual: 19.56
mrth: 44.45 cth: 33.21 usage: 39.21 residual: 5.24
mrth: 77.1 cth: 68.56 usage: 43.38 residual: 33.72
mrth: 88.11 cth: 71.52 usage: 77.49 residual: 10.62
mrth: 106.65 cth: 83.33 usage: 85.01 residual: 21.64
mrth: 9.88 cth: 8.53 usage: 6.17 residual: 3.71
mrth: 29.11 cth: 23.94 usage: 28.35 residual: 0.76
mrth: 63.84 cth: 54.92 usage: 54.49 residual: 9.35
mrth: 53.74 cth: 42.76 usage: 41.41 residual: 12.33
mrth: 109.79 cth: 89.58 usage: 98.5 residual: 11.29
mrth: 81.66 cth: 70.43 usage: 68.04 residual: 13.62
mrth: 50.64 cth: 44.0 usage: 43.23 residual: 7.41
mrth: 51.49 cth: 44.92 usage: 28.91 residual: 22.58
mrth: 34.14 cth: 30.68 usage: 22.89 residual: 11.25
mrth: 84.47 cth: 66.93 usage: 53.58 residual: 30.89
mrth: 74.94 cth: 60.91 usage: 47.03 residual: 27.91
mrth: 91.54 cth: 80.85 usage: 81.84 residual: 9.7
mrth: 118.96 cth: 89.75 usage: 86.74 residual: 32.22
mrth: 35.87 cth: 26.41 usage: 26.27 residual: 9.6
mrth: 49.81 cth: 43.79 usage: 30.89 residual: 18.92
mrth: 177.07 cth: 131.54 usage: 126.72 residual: 50.35
mrth: 25.47 cth: 20.22 usage: 17.62 residual: 7.85
mrth: 17.81 cth: 14.14 usage: 13.06 residual: 4.75
mrth: 45.48 cth: 35.81 usage: 33.97 residual: 11.51
mrth: 65.94 cth: 50.92 usage: 52.3 residual: 13.64
mrth: 68.17 cth: 48.93 usage: 65.14 residual: 3.03
mrth: 83.13 cth: 64.04 usage: 77.3 residual: 5.83
mrth: 45.86 cth: 35.72 usage: 36.41 residual: 9.45
mrth: 94.45 cth: 76.68 usage: 57.84 residual: 36.61
mrth: 62.47 cth: 52.32 usage: 37.06 residual: 25.41
mrth: 58.24 cth: 42.72 usage: 50.79 residual: 7.45
mrth: 67.32 cth: 58.73 usage: 47.81 residual: 19.51
mrth: 34.69 cth: 30.19 usage: 19.74 residual: 14.95
mrth: 39.03 cth: 30.63 usage: 27.7 residual: 11.33
mrth: 96.66 cth: 82.06 usage: 86.48 residual: 10.18
mrth: 72.8 cth: 62.05 usage: 57.62 residual: 15.18
mrth: 82.72 cth: 74.01 usage: 74.81 residual: 7.91
mrth: 12.11 cth: 8.6 usage: 11.38 residual: 0.73
mrth: 95.93 cth: 79.47 usage: 72.58 residual: 23.35
mrth: 48.63 cth: 42.87 usage: 40.27 residual: 8.36
mrth: 31.36 cth: 25.81 usage: 25.39 residual: 5.97
mrth: 16.14 cth: 13.88 usage: 14.49 residual: 1.65
mrth: 83.54 cth: 67.1 usage: 75.16 residual: 8.38
mrth: 71.43 cth: 56.32 usage: 43.12 residual: 28.31
mrth: 23.85 cth: 18.17 usage: 16.07 residual: 7.78
mrth: 62.33 cth: 53.42 usage: 60.54 residual: 1.79
mrth: 49.15 cth: 35.2 usage: 41.7 residual: 7.45
mrth: 25.19 cth: 21.46 usage: 18.5 residual: 6.69
mrth: 80.7 cth: 62.65 usage: 48.54 residual: 32.16
mrth: 36.45 cth: 28.99 usage: 18.91 residual: 17.54
mrth: 70.47 cth: 53.29 usage: 47.08 residual: 23.39
mrth: 59.51 cth: 50.64 usage: 44.82 residual: 14.69
mrth: 103.01 cth: 90.58 usage: 65.23 residual: 37.78
mrth: 27.26 cth: 21.15 usage: 20.56 residual: 6.7
mrth: 19.99 cth: 15.5 usage: 18.99 residual: 1.0
mrth: 53.66 cth: 43.23 usage: 51.27 residual: 2.39
mrth: 46.2 cth: 36.04 usage: 23.93 residual: 22.27
mrth: 97.15 cth: 83.41 usage: 56.03 residual: 41.12
mrth: 53.23 cth: 38.36 usage: 45.46 residual: 7.77
mrth: 24.86 cth: 20.53 usage: 17.6 residual: 7.26
mrth: 57.06 cth: 47.85 usage: 30.99 residual: 26.07
mrth: 56.9 cth: 48.29 usage: 50.58 residual: 6.32
mrth: 67.36 cth: 49.82 usage: 52.97 residual: 14.39
mrth: 52.01 cth: 37.04 usage: 50.34 residual: 1.67
mrth: 34.88 cth: 31.06 usage: 18.9 residual: 15.98
mrth: 47.89 cth: 34.36 usage: 25.25 residual: 22.64
mrth: 53.22 cth: 42.98 usage: 35.0 residual: 18.22
mrth: 88.73 cth: 68.04 usage: 48.18 residual: 40.55
mrth: 18.93 cth: 13.91 usage: 18.25 residual: 0.68
mrth: 51.65 cth: 38.36 usage: 34.66 residual: 16.99
mrth: 19.35 cth: 15.01 usage: 14.76 residual: 4.59
mrth: 136.23 cth: 110.79 usage: 123.27 residual: 12.96
mrth: 28.14 cth: 24.49 usage: 20.49 residual: 7.65
mrth: 70.71 cth: 60.0 usage: 65.31 residual: 5.4
mrth: 60.03 cth: 43.32 usage: 41.98 residual: 18.05
mrth: 24.66 cth: 21.91 usage: 20.14 residual: 4.52
mrth: 92.45 cth: 76.38 usage: 69.02 residual: 23.43
mrth: 64.22 cth: 51.61 usage: 33.47 residual: 30.75
mrth: 75.23 cth: 52.73 usage: 43.46 residual: 31.77
mrth: 34.33 cth: 24.87 usage: 26.12 residual: 8.21
mrth: 83.41 cth: 70.27 usage: 72.91 residual: 10.5
mrth: 62.28 cth: 55.15 usage: 49.44 residual: 12.84
mrth: 1.9 cth: 1.57 usage: 1.38 residual: 0.52
mrth: 55.65 cth: 44.51 usage: 35.47 residual: 20.18
mrth: 111.49 cth: 85.7 usage: 61.37 residual: 50.12
mrth: 114.29 cth: 87.63 usage: 103.34 residual: 10.95
mrth: 34.42 cth: 29.49 usage: 23.22 residual: 11.2
mrth: 29.35 cth: 25.35 usage: 17.02 residual: 12.33
mrth: 20.02 cth: 14.39 usage: 17.86 residual: 2.16
mrth: 70.81 cth: 60.97 usage: 55.98 residual: 14.83
mrth: 61.43 cth: 53.54 usage: 35.86 residual: 25.57
mrth: 59.81 cth: 48.23 usage: 54.19 residual: 5.62
mrth: 47.79 cth: 39.66 usage: 42.67 residual: 5.12
mrth: 70.04 cth: 55.37 usage: 36.24 residual: 33.8
mrth: 48.42 cth: 35.45 usage: 43.64 residual: 4.78
mrth: 27.33 cth: 20.07 usage: 24.36 residual: 2.97
mrth: 18.29 cth: 13.11 usage: 17.94 residual: 0.35
mrth: 27.94 cth: 24.2 usage: 22.43 residual: 5.51
mrth: 56.55 cth: 40.58 usage: 37.57 residual: 18.98
mrth: 17.98 cth: 14.15 usage: 11.47 residual: 6.51
mrth: 54.85 cth: 44.92 usage: 33.2 residual: 21.65
mrth: 52.01 cth: 38.18 usage: 48.52 residual: 3.49
mrth: 86.73 cth: 63.17 usage: 80.72 residual: 6.01
mrth: 66.99 cth: 50.37 usage: 34.15 residual: 32.84
mrth: 38.22 cth: 33.64 usage: 23.06 residual: 15.16
mrth: 26.75 cth: 22.24 usage: 20.44 residual: 6.31
mrth: 18.34 cth: 14.11 usage: 11.35 residual: 6.99
mrth: 12.09 cth: 9.22 usage: 10.59 residual: 1.5
mrth: 41.59 cth: 33.66 usage: 30.86 residual: 10.73
mrth: 40.28 cth: 29.36 usage: 27.04 residual: 13.24
mrth: 34.96 cth: 26.14 usage: 30.45 residual: 4.51
mrth: 28.64 cth: 24.58 usage: 24.44 residual: 4.2
mrth: 25.78 cth: 20.53 usage: 13.74 residual: 12.04
mrth: 88.37 cth: 76.23 usage: 51.65 residual: 36.72
mrth: 33.26 cth: 25.14 usage: 28.79 residual: 4.47
mrth: 84.87 cth: 71.36 usage: 46.17 residual: 38.7
mrth: 141.65 cth: 114.06 usage: 73.12 residual: 68.53
mrth: 95.19 cth: 72.3 usage: 51.3 residual: 43.89
mrth: 70.58 cth: 62.58 usage: 44.81 residual: 25.77
mrth: 36.68 cth: 32.08 usage: 25.88 residual: 10.8
mrth: 40.71 cth: 32.02 usage: 30.44 residual: 10.27
mrth: 76.73 cth: 64.81 usage: 41.33 residual: 35.4
mrth: 38.57 cth: 30.72 usage: 25.56 residual: 13.01
mrth: 73.45 cth: 51.51 usage: 69.73 residual: 3.72
mrth: 98.51 cth: 84.49 usage: 67.5 residual: 31.01
mrth: 30.4 cth: 25.84 usage: 28.5 residual: 1.9
mrth: 33.32 cth: 26.43 usage: 25.01 residual: 8.31
mrth: 111.31 cth: 94.35 usage: 75.67 residual: 35.64
mrth: 56.64 cth: 50.0 usage: 30.33 residual: 26.31
mrth: 92.54 cth: 70.09 usage: 87.8 residual: 4.74
mrth: 73.4 cth: 55.67 usage: 70.83 residual: 2.57
mrth: 76.24 cth: 56.92 usage: 53.73 residual: 22.51
mrth: 75.47 cth: 55.25 usage: 41.6 residual: 33.87
mrth: 72.42 cth: 64.28 usage: 64.95 residual: 7.47
mrth: 77.73 cth: 66.89 usage: 44.57 residual: 33.16
mrth: 29.2 cth: 20.5 usage: 17.74 residual: 11.46
mrth: 63.97 cth: 49.0 usage: 54.77 residual: 9.2
mrth: 20.32 cth: 18.19 usage: 16.19 residual: 4.13
mrth: 45.09 cth: 36.51 usage: 37.19 residual: 7.9
mrth: 58.54 cth: 52.54 usage: 36.0 residual: 22.54
mrth: 82.86 cth: 63.14 usage: 47.61 residual: 35.25
mrth: 33.91 cth: 29.85 usage: 33.18 residual: 0.73
mrth: 92.99 cth: 76.78 usage: 91.06 residual: 1.93
mrth: 114.36 cth: 83.81 usage: 58.04 residual: 56.32
mrth: 52.5 cth: 39.14 usage: 43.67 residual: 8.83
mrth: 55.21 cth: 48.82 usage: 50.18 residual: 5.03
mrth: 52.09 cth: 40.77 usage: 38.01 residual: 14.08
mrth: 77.85 cth: 58.91 usage: 65.39 residual: 12.46
mrth: 9.93 cth: 7.82 usage: 8.06 residual: 1.87
mrth: 3.5 cth: 2.74 usage: 3.08 residual: 0.42
mrth: 56.12 cth: 47.77 usage: 28.46 residual: 27.66
mrth: 58.56 cth: 47.38 usage: 42.61 residual: 15.95
mrth: 56.39 cth: 45.66 usage: 44.89 residual: 11.5
mrth: 70.69 cth: 50.12 usage: 56.74 residual: 13.95
