mrth: 20.84 cth: 15.92 usage: 16.8 residual: 4.04
mrth: 35.39 cth: 25.26 usage: 20.19 residual: 15.2
mrth: 51.58 cth: 42.44 usage: 32.61 residual: 18.97
mrth: 54.55 cth: 38.55 usage: 32.33 residual: 22.22
mrth: 43.97 cth: 32.49 usage: 38.93 residual: 5.04
mrth: 120.16 cth: 98.73 usage: 117.17 residual: 2.99
mrth: 45.03 cth: 36.01 usage: 32.59 residual: 12.44
mrth: 79.29 cth: 57.85 usage: 41.04 residual: 38.25
mrth: 50.39 cth: 38.48 usage: 46.07 residual: 4.32
mrth: 68.7 cth: 50.77 usage: 47.61 residual: 21.09
mrth: 67.14 cth: 48.04 usage: 64.44 residual: 2.7
mrth: 81.89 cth: 59.28 usage: 76.26 residual: 5.63
mrth: 151.6 cth: 129.02 usage: 131.93 residual: 19.67
mrth: 33.2 cth: 28.98 usage: 21.26 residual: 11.94
mrth: 62.85 cth: 56.29 usage: 61.48 residual: 1.37
mrth: 53.04 cth: 45.1 usage: 43.53 residual: 9.51
mrth: 37.79 cth: 32.27 usage: 32.48 residual: 5.31
mrth: 55.98 cth: 44.5 usage: 47.09 residual: 8.89
mrth: 14.22 cth: 10.43 usage: 7.17 residual: 7.05
mrth: 9.48 cth: 8.12 usage: 5.78 residual: 3.7
mrth: 62.59 cth: 53.33 usage: 43.54 residual: 19.05
mrth: 76.38 cth: 67.88 usage: 74.99 residual: 1.39
mrth: 77.35 cth: 62.48 usage: 46.8 residual: 30.55
mrth: 51.06 cth: 40.11 usage: 39.11 residual: 11.95
mrth: 35.16 cth: 30.58 usage: 21.38 residual: 13.78
mrth: 98.94 cth: 70.51 usage: 95.5 residual: 3.44
mrth: 114.51 cth: 84.56 usage: 69.33 residual: 45.18
mrth: 9.39 cth: 7.45 usage: 8.24 residual: 1.15
mrth: 114.05 cth: 79.95 usage: 108.1 residual: 5.95
mrth: 71.07 cth: 50.18 usage: 53.24 residual: 17.83
mrth: 89.0 cth: 62.96 usage: 61.34 residual: 27.66
mrth: 36.3 cth: 29.76 usage: 22.17 residual: 14.13
mrth: 57.89 cth: 48.66 usage: 56.57 residual: 1.32
mrth: 33.63 cth: 25.11 usage: 24.64 residual: 8.99
mrth: 38.16 cth: 28.0 usage: 29.72 residual: 8.44
mrth: 71.92 cth: 62.1 usage: 70.14 residual: 1.78
mrth: 125.67 cth: 93.78 usage: 83.26 residual: 42.41
mrth: 87.53 cth: 65.03 usage: 56.01 residual: 31.52
mrth: 87.53 cth: 77.35 usage: 45.35 residual: 42.18
mrth: 59.69 cth: 44.51 usage: 47.11 residual: 12.58
mrth: 70.54 cth: 57.09 usage: 43.33 residual: 27.21
mrth: 26.34 cth: 20.86 usage: 19.21 residual: 7.13
mrth: 58.06 cth: 42.05 usage: 41.56 residual: 16.5
mrth: 142.98 cth: 125.84 usage: 120.97 residual: 22.01
mrth: 69.93 cth: 51.06 usage: 60.03 residual: 9.9
mrth: 55.06 cth: 45.32 usage: 52.32 residual: 2.74
mrth: 90.13 cth: 66.91 usage: 69.76 residual: 20.37
mrth: 54.97 cth: 44.02 usage: 28.09 residual: 26.88
mrth: 25.29 cth: 22.39 usage: 20.39 residual: 4.9
mrth: 51.53 cth: 42.23 usage: 45.04 residual: 6.49
mrth: 42.5 cth: 38.15 usage: 40.86 residual: 1.64
mrth: 28.1 cth: 22.84 usage: 15.65 residual: 12.45
mrth: 72.76 cth: 59.96 usage: 54.65 residual: 18.11
mrth: 59.7 cth: 52.52 usage: 54.75 residual: 4.95
mrth: 64.82 cth: 54.19 usage: 52.26 residual: 12.56
mrth: 53.16 cth: 47.06 usage: 40.22 residual: 12.94
mrth: 84.66 cth: 72.2 usage: 78.58 residual: 6.08
mrth: 106.74 cth: 94.18 usage: 103.53 residual: 3.21
mrth: 81.12 cth: 58.64 usage: 66.01 residual: 15.11
mrth: 53.81 cth: 48.1 usage: 27.41 residual: 26.4
mrth: 66.14 cth: 58.51 usage: 63.75 residual: 2.39
mrth: 111.78 cth: 97.78 usage: 69.99 residual: 41.79
mrth: 34.63 cth: 26.52 usage: 24.02 residual: 10.61
mrth: 40.55 cth: 33.35 usage: 32.56 residual: 7.99
mrth: 81.76 cth: 62.93 usage: 42.1 residual: 39.66
mrth: 80.73 cth: 67.84 usage: 62.45 residual: 18.28
mrth: 111.65 cth: 88.92 usage: 107.72 residual: 3.93
mrth: 58.34 cth: 46.59 usage: 55.5 residual: 2.84
mrth: 126.94 cth: 111.64 usage: 69.52 residual: 57.42
mrth: 23.6 cth: 19.24 usage: 19.11 residual: 4.49
mrth: 36.82 cth: 31.03 usage: 21.88 residual: 14.94
mrth: 31.05 cth: 27.13 usage: 25.16 residual: 5.89
mrth: 50.91 cth: 44.61 usage: 35.36 residual: 15.55
mrth: 64.96 cth: 47.09 usage: 56.36 residual: 8.6
mrth: 74.52 cth: 57.89 usage: 55.31 residual: 19.21
mrth: 90.07 cth: 78.1 usage: 63.76 residual: 26.31
mrth: 46.51 cth: 37.22 usage: 43.72 residual: 2.79
mrth: 65.4 cth: 46.63 usage: 52.39 residual: 13.01
mrth: 67.21 cth: 55.57 usage: 36.12 residual: 31.09
mrth: 74.0 cth: 55.73 usage: 47.36 residual: 26.64
mrth: 30.72 cth: 26.04 usage: 22.01 residual: 8.71
mrth: 70.24 cth: 52.24 usage: 57.69 residual: 12.55
mrth: 93.04 cth: 83.31 usage: 88.44 residual: 4.6
mrth: 66.3 cth: 49.41 usage: 56.61 residual: 9.69
mrth: 44.54 cth: 33.02 usage: 40.28 residual: 4.26
mrth: 65.2 cth: 55.22 usage: 42.69 residual: 22.51
mrth: 41.43 cth: 36.38 usage: 23.98 residual: 17.45
mrth: 27.7 cth: 19.44 usage: 27.23 residual: 0.47
mrth: 24.59 cth: 19.64 usage: 22.51 residual: 2.08
mrth: 28.64 cth: 22.09 usage: 16.99 residual: 11.65
mrth: 26.79 cth: 21.73 usage: 15.31 residual: 11.48
mrth: 40.57 cth: 29.46 usage: 39.6 residual: 0.97
mrth: 46.0 cth: 32.79 usage: 29.48 residual: 16.52
mrth: 12.42 cth: 9.3 usage: 9.98 residual: 2.44
mrth: 58.86 cth: 52.3 usage: 29.46 residual: 29.4
mrth: 87.74 cth: 77.72 usage: 65.71 residual: 22.03
mrth: 32.22 cth: 28.38 usage: 19.21 residual: 13.01
mrth: 40.37 cth: 33.68 usage: 23.82 residual: 16.55
mrth: 36.43 cth: 28.59 usage: 34.89 residual: 1.54
mrth: 28.04 cth: 23.48 usage: 16.47 residual: 11.57
mrth: 66.11 cth: 54.04 usage: 51.18 residual: 14.93
mrth: 91.52 cth: 73.77 usage: 69.0 residual: 22.52
mrth: 86.43 cth: 64.44 usage: 75.42 residual: 11.01
mrth: 97.5 cth: 78.36 usage: 50.37 residual: 47.13
mrth: 3.75 cth: 2.91 usage: 2.85 residual: 0.9
mrth: 27.54 cth: 23.48 usage: 21.82 residual: 5.72
mrth: 40.11 cth: 28.76 usage: 25.94 residual: 14.17
mrth: 17.43 cth: 12.38 usage: 15.0 residual: 2.43
mrth: 65.79 cth: 59.07 usage: 37.72 residual: 28.07
mrth: 68.67 cth: 52.4 usage: 59.43 residual: 9.24
mrth: 59.28 cth: 50.35 usage: 54.19 residual: 5.09
mrth: 65.88 cth: 51.12 usage: 39.81 residual: 26.07
mrth: 97.39 cth: 73.48 usage: 63.18 residual: 34.21
mrth: 62.13 cth: 55.05 usage: 43.26 residual: 18.87
mrth: 28.75 cth: 25.15 usage: 18.07 residual: 10.68
mrth: 53.02 cth: 46.29 usage: 45.52 residual: 7.5
mrth: 49.47 cth: 34.98 usage: 48.22 residual: 1.25
mrth: 15.78 cth: 13.33 usage: 8.55 residual: 7.23
mrth: 152.48 cth: 121.62 usage: 97.19 residual: 55.29
mrth: 56.63 cth: 43.62 usage: 51.43 residual: 5.2
mrth: 54.38 cth: 48.0 usage: 45.79 residual: 8.59
mrth: 111.77 cth: 81.26 usage: 65.52 residual: 46.25
mrth: 67.49 cth: 60.41 usage: 63.56 residual: 3.93
mrth: 151.56 cth: 119.04 usage: 84.69 residual: 66.87
mrth: 19.7 cth: 15.95 usage: 11.27 residual: 8.43
mrth: 54.89 cth: 43.66 usage: 43.69 residual: 11.2
mrth: 47.6 cth: 38.86 usage: 38.57 residual: 9.03
mrth: 89.24 cth: 79.94 usage: 86.96 residual: 2.28
mrth: 65.88 cth: 53.83 usage: 38.61 residual: 27.27
mrth: 16.46 cth: 11.53 usage: 14.12 residual: 2.34
mrth: 79.71 cth: 67.51 usage: 46.73 residual: 32.98
mrth: 106.7 cth: 94.88 usage: 65.78 residual: 40.92
mrth: 76.46 cth: 61.28 usage: 68.69 residual: 7.77
mrth: 47.91 cth: 37.47 usage: 43.93 residual: 3.98
mrth: 58.99 cth: 43.68 usage: 51.85 residual: 7.14
mrth: 55.67 cth: 43.64 usage: 43.22 residual: 12.45
mrth: 70.37 cth: 54.06 usage: 69.48 residual: 0.89
mrth: 45.78 cth: 32.4 usage: 37.56 residual: 8.22
mrth: 80.58 cth: 67.67 usage: 76.89 residual: 3.69
mrth: 81.03 cth: 60.34 usage: 79.03 residual: 2.0
mrth: 51.83 cth: 37.08 usage: 50.21 residual: 1.62
mrth: 82.45 cth: 67.76 usage: 79.83 residual: 2.62
mrth: 39.78 cth: 32.77 usage: 32.7 residual: 7.08
mrth: 19.85 cth: 16.83 usage: 17.42 residual: 2.43
mrth: 125.35 cth: 108.43 usage: 72.98 residual: 52.37
mrth: 8.68 cth: 7.04 usage: 7.27 residual: 1.41
mrth: 59.95 cth: 50.45 usage: 57.55 residual: 2.4
mrth: 48.77 cth: 36.41 usage: 43.75 residual: 5.02
mrth: 91.97 cth: 73.3 usage: 88.01 residual: 3.96
mrth: 54.16 cth: 41.47 usage: 34.57 residual: 19.59
mrth: 86.75 cth: 77.23 usage: 52.45 residual: 34.3
mrth: 75.31 cth: 57.52 usage: 41.82 residual: 33.49
mrth: 97.21 cth: 79.78 usage: 96.01 residual: 1.2
mrth: 36.58 cth: 29.23 usage: 20.28 residual: 16.3
mrth: 64.99 cth: 55.78 usage: 55.77 residual: 9.22
mrth: 129.11 cth: 101.67 usage: 119.08 residual: 10.03
mrth: 67.92 cth: 54.07 usage: 60.28 residual: 7.64
mrth: 108.03 cth: 84.25 usage: 101.18 residual: 6.85
mrth: 63.18 cth: 52.27 usage: 41.3 residual: 21.88
mrth: 78.77 cth: 60.56 usage: 70.84 residual: 7.93
mrth: 69.81 cth: 58.81 usage: 55.31 residual: 14.5
mrth: 121.92 cth: 99.11 usage: 100.26 residual: 21.66
mrth: 104.01 cth: 90.68 usage: 83.17 residual: 20.84
mrth: 18.92 cth: 14.36 usage: 11.02 residual: 7.9
mrth: 67.65 cth: 57.95 usage: 57.92 residual: 9.73
mrth: 35.26 cth: 28.99 usage: 22.11 residual: 13.15
mrth: 94.65 cth: 80.3 usage: 66.27 residual: 28.38
mrth: 22.98 cth: 18.95 usage: 16.34 residual: 6.64
mrth: 83.7 cth: 67.17 usage: 62.67 residual: 21.03
mrth: 19.37 cth: 14.43 usage: 10.45 residual: 8.92
mrth: 107.21 cth: 81.93 usage: 87.74 residual: 19.47
mrth: 63.41 cth: 46.38 usage: 38.43 residual: 24.98
mrth: 72.87 cth: 60.83 usage: 60.29 residual: 12.58
mrth: 30.47 cth: 21.83 usage: 19.39 residual: 11.08
mrth: 122.57 cth: 86.15 usage: 67.19 residual: 55.38
mrth: 17.13 cth: 15.4 usage: 14.72 residual: 2.41
mrth: 52.86 cth: 45.72 usage: 38.86 residual: 14.0
mrth: 69.84 cth: 61.64 usage: 35.35 residual: 34.49
mrth: 64.42 cth: 57.46 usage: 46.0 residual: 18.42
mrth: 56.26 cth: 39.92 usage: 33.76 residual: 22.5
mrth: 37.03 cth: 31.13 usage: 24.8 residual: 12.23
mrth: 64.68 cth: 53.48 usage: 40.43 residual: 24.25
mrth: 28.67 cth: 21.46 usage: 22.66 residual: 6.01
mrth: 56.86 cth: 48.0 usage: 49.47 residual: 7.39
mrth: 68.87 cth: 56.44 usage: 56.12 residual: 12.75
mrth: 85.47 cth: 66.18 usage: 61.06 residual: 24.41
mrth: 127.34 cth: 101.93 usage: 121.93 residual: 5.41
mrth: 20.28 cth: 16.77 usage: 13.96 residual: 6.32
mrth: 11.62 cth: 8.85 usage: 8.65 residual: 2.97
mrth: 41.08 cth: 30.07 usage: 22.28 residual: 18.8
mrth: 50.08 cth: 41.64 usage: 48.86 residual: 1.22
mrth: 65.55 cth: 50.54 usage: 57.58 residual: 7.97
mrth: 42.57 cth: 34.51 usage: 41.38 residual: 1.19
mrth: 84.06 cth: 72.78 usage: 44.98 residual: 39.08
mrth: 17.36 cth: 14.33 usage: 12.85 residual: 4.51
mrth: 69.32 cth: 49.68 usage: 39.03 residual: 30.29
mrth: 43.22 cth: 35.24 usage: 37.18 residual: 6.04
mrth: 78.58 cth: 62.99 usage: 47.29 residual: 31.29
mrth: 27.06 cth: 21.61 usage: 22.58 residual: 4.48
mrth: 115.38 cth: 86.75 usage: 76.63 residual: 38.75
mrth: 17.01 cth: 13.36 usage: 8.55 residual: 8.46
mrth: 115.09 cth: 85.45 usage: 75.77 residual: 39.32
mrth: 18.69 cth: 14.57 usage: 18.22 residual: 0.47
mrth: 44.57 cth: 37.5 usage: 29.73 residual: 14.84
mrth: 56.55 cth: 50.69 usage: 42.82 residual: 13.73
mrth: 39.57 cth: 27.97 usage: 37.63 residual: 1.94
mrth: 82.37 cth: 60.0 usage: 46.75 residual: 35.62
mrth: 77.04 cth: 63.45 usage: 64.84 residual: 12.2
mrth: 41.09 cth: 36.81 usage: 40.51 residual: 0.58
mrth: 60.07 cth: 43.02 usage: 44.49 residual: 15.58
mrth: 21.49 cth: 15.07 usage: 16.19 residual: 5.3
mrth: 73.8 cth: 62.47 usage: 43.09 residual: 30.71
mrth: 60.35 cth: 42.38 usage: 54.8 residual: 5.55
mrth: 12.57 cth: 9.27 usage: 9.63 residual: 2.94
mrth: 36.33 cth: 26.68 usage: 24.72 residual: 11.61
mrth: 71.86 cth: 52.76 usage: 54.81 residual: 17.05
mrth: 21.19 cth: 16.43 usage: 20.28 residual: 0.91
mrth: 94.56 cth: 77.83 usage: 47.52 residual: 47.04
mrth: 93.58 cth: 71.78 usage: 46.81 residual: 46.77
mrth: 55.35 cth: 38.78 usage: 38.58 residual: 16.77
mrth: 29.98 cth: 23.8 usage: 20.78 residual: 9.2
mrth: 100.28 cth: 77.82 usage: 73.54 residual: 26.74
mrth: 19.72 cth: 15.31 usage: 19.47 residual: 0.25
mrth: 19.99 cth: 16.9 usage: 11.05 residual: 8.94
mrth: 137.04 cth: 104.05 usage: 118.2 residual: 18.84
mrth: 102.25 cth: 72.87 usage: 86.09 residual: 16.16
mrth: 50.08 cth: 41.44 usage: 38.35 residual: 11.73
mrth: 36.21 cth: 26.68 usage: 35.32 residual: 0.89
mrth: 49.65 cth: 41.92 usage: 38.19 residual: 11.46
mrth: 32.48 cth: 24.14 usage: 27.67 residual: 4.81
mrth: 68.46 cth: 57.02 usage: 48.02 residual: 20.44
mrth: 65.6 cth: 48.52 usage: 45.98 residual: 19.62
mrth: 77.62 cth: 58.74 usage: 53.41 residual: 24.21
mrth: 51.72 cth: 38.23 usage: 28.75 residual: 22.97
mrth: 29.67 cth: 23.64 usage: 24.27 residual: 5.4
mrth: 136.11 cth: 115.18 usage: 69.51 residual: 66.6
mrth: 64.75 cth: 50.12 usage: 49.8 residual: 14.95
mrth: 89.58 cth: 80.09 usage: 85.64 residual: 3.94
mrth: 32.17 cth: 23.92 usage: 17.34 residual: 14.83
mrth: 31.45 cth: 22.47 usage: 17.44 residual: 14.01
mrth: 45.98 cth: 36.66 usage: 43.98 residual: 2.0
mrth: 85.9 cth: 68.69 usage: 44.39 residual: 41.51
mrth: 94.53 cth: 74.34 usage: 79.5 residual: 15.03
mrth: 36.12 cth: 30.84 usage: 20.38 residual: 15.74
mrth: 21.26 cth: 16.56 usage: 11.07 residual: 10.19
mrth: 48.14 cth: 38.83 usage: 35.21 residual: 12.93
mrth: 26.97 cth: 21.29 usage: 18.37 residual: 8.6
mrth: 74.05 cth: 62.05 usage: 57.06 residual: 16.99
mrth: 74.88 cth: 64.61 usage: 73.76 residual: 1.12
mrth: 77.27 cth: 64.52 usage: 61.01 residual: 16.26
mrth: 45.33 cth: 32.23 usage: 29.04 residual: 16.29
mrth: 81.99 cth: 68.97 usage: 50.04 residual: 31.95
mrth: 38.65 cth: 31.26 usage: 32.98 residual: 5.67
mrth: 25.84 cth: 19.03 usage: 23.47 residual: 2.37
mrth: 61.46 cth: 46.78 usage: 61.09 residual: 0.37
mrth: 66.46 cth: 56.42 usage: 38.5 residual: 27.96
mrth: 53.79 cth: 39.37 usage: 27.19 residual: 26.6
mrth: 77.67 cth: 65.72 usage: 47.76 residual: 29.91
mrth: 71.81 cth: 59.37 usage: 67.04 residual: 4.77
mrth: 75.19 cth: 65.63 usage: 65.62 residual: 9.57
mrth: 35.17 cth: 30.93 usage: 29.01 residual: 6.16
mrth: 17.08 cth: 14.9 usage: 14.84 residual: 2.24
mrth: 21.48 cth: 19.11 usage: 12.44 residual: 9.04
mrth: 48.25 cth: 39.21 usage: 43.6 residual: 4.65
mrth: 58.71 cth: 45.01 usage: 46.19 residual: 12.52
mrth: 81.06 cth: 63.07 usage: 67.44 residual: 13.62
mrth: 32.24 cth: 24.39 usage: 19.29 residual: 12.95
mrth: 131.91 cth: 94.03 usage: 127.76 residual: 4.15
mrth: 60.03 cth: 51.36 usage: 51.23 residual: 8.8
mrth: 58.74 cth: 46.08 usage: 30.59 residual: 28.15
mrth: 70.95 cth: 53.56 usage: 50.27 residual: 20.68
mrth: 33.8 cth: 27.83 usage: 26.23 residual: 7.57
mrth: 111.92 cth: 87.36 usage: 83.6 residual: 28.32
mrth: 14.85 cth: 11.32 usage: 7.65 residual: 7.2
mrth: 80.25 cth: 65.74 usage: 56.05 residual: 24.2
mrth: 54.39 cth: 47.73 usage: 39.4 residual: 14.99
mrth: 71.81 cth: 63.32 usage: 49.44 residual: 22.37
mrth: 36.12 cth: 32.21 usage: 30.18 residual: 5.94
mrth: 37.52 cth: 29.76 usage: 29.7 residual: 7.82
mrth: 25.0 cth: 18.28 usage: 17.63 residual: 7.37
mrth: 80.32 cth: 59.44 usage: 40.6 residual: 39.72
mrth: 53.78 cth: 40.3 usage: 29.85 residual: 23.93
mrth: 78.9 cth: 60.87 usage: 41.09 residual: 37.81
mrth: 43.67 cth: 36.42 usage: 22.7 residual: 20.97
mrth: 21.17 cth: 17.92 usage: 19.09 residual: 2.08
mrth: 30.03 cth: 26.56 usage: 19.73 residual: 10.3
mrth: 61.12 cth: 51.96 usage: 55.0 residual: 6.12
mrth: 72.66 cth: 61.18 usage: 52.46 residual: 20.2
mrth: 51.21 cth: 41.56 usage: 46.51 residual: 4.7
mrth: 107.67 cth: 80.68 usage: 83.25 residual: 24.42
mrth: 24.71 cth: 20.09 usage: 21.16 residual: 3.55
mrth: 98.9 cth: 88.31 usage: 95.96 residual: 2.94
mrth: 47.49 cth: 36.74 usage: 34.53 residual: 12.96
mrth: 38.24 cth: 32.52 usage: 19.8 residual: 18.44
mrth: 25.51 cth: 19.76 usage: 14.54 residual: 10.97
mrth: 104.4 cth: 87.25 usage: 78.85 residual: 25.55
mrth: 15.05 cth: 11.67 usage: 11.27 residual: 3.78
mrth: 74.13 cth: 66.22 usage: 37.79 residual: 36.34
mrth: 47.88 cth: 36.5 usage: 36.05 residual: 11.83
mrth: 3.73 cth: 2.81 usage: 3.38 residual: 0.35
mrth: 98.68 cth: 75.28 usage: 87.7 residual: 10.98
mrth: 77.8 cth: 64.01 usage: 71.64 residual: 6.16
mrth: 50.35 cth: 35.85 usage: 48.86 residual: 1.49
mrth: 83.74 cth: 66.73 usage: 80.98 residual: 2.76
mrth: 53.22 cth: 37.9 usage: 46.19 residual: 7.03
mrth: 12.56 cth: 8.97 usage: 6.85 residual: 5.71
mrth: 45.45 cth: 32.52 usage: 40.26 residual: 5.19
mrth: 68.94 cth: 61.44 usage: 61.47 residual: 7.47
mrth: 113.22 cth: 92.46 usage: 94.91 residual: 18.31
mrth: 36.86 cth: 32.06 usage: 19.71 residual: 17.15
mrth: 81.2 cth: 68.45 usage: 58.96 residual: 22.24
mrth: 56.48 cth: 47.65 usage: 49.41 residual: 7.07
mrth: 50.23 cth: 38.04 usage: 41.18 residual: 9.05
mrth: 76.62 cth: 67.86 usage: 71.51 residual: 5.11
mrth: 30.57 cth: 23.87 usage: 21.21 residual: 9.36
mrth: 25.41 cth: 19.27 usage: 16.92 residual: 8.49
mrth: 56.62 cth: 46.91 usage: 50.87 residual: 5.75
mrth: 48.99 cth: 40.75 usage: 41.78 residual: 7.21
mrth: 85.89 cth: 66.06 usage: 59.81 residual: 26.08
mrth: 50.34 cth: 45.26 usage: 33.78 residual: 16.56
mrth: 46.44 cth: 35.23 usage: 31.42 residual: 15.02
mrth: 63.52 cth: 48.35 usage: 57.45 residual: 6.07
mrth: 9.33 cth: 8.28 usage: 8.99 residual: 0.34
mrth: 19.86 cth: 14.51 usage: 12.18 residual: 7.68
mrth: 23.52 cth: 17.87 usage: 15.59 residual: 7.93
mrth: 53.68 cth: 38.92 usage: 27.14 residual: 26.54
mrth: 71.04 cth: 62.27 usage: 52.09 residual: 18.95
mrth: 64.56 cth: 49.76 usage: 37.86 residual: 26.7
mrth: 68.04 cth: 47.64 usage: 42.52 residual: 25.52
mrth: 12.35 cth: 9.61 usage: 11.41 residual: 0.94
mrth: 21.78 cth: 19.25 usage: 19.04 residual: 2.74
mrth: 64.77 cth: 57.06 usage: 37.28 residual: 27.49
mrth: 60.27 cth: 47.3 usage: 54.8 residual: 5.47
mrth: 41.75 cth: 33.73 usage: 33.04 residual: 8.71
mrth: 9.8 cth: 8.1 usage: 6.68 residual: 3.12
mrth: 31.59 cth: 23.43 usage: 16.16 residual: 15.43
mrth: 20.33 cth: 17.26 usage: 17.32 residual: 3.01
mrth: 38.67 cth: 34.47 usage: 32.28 residual: 6.39
mrth: 85.51 cth: 64.8 usage: 79.08 residual: 6.43
mrth: 24.64 cth: 21.14 usage: 18.58 residual: 6.06
mrth: 55.14 cth: 39.82 usage: 51.48 residual: 3.66
mrth: 99.54 cth: 79.99 usage: 61.41 residual: 38.13
mrth: 126.89 cth: 110.04 usage: 98.45 residual: 28.44
mrth: 50.02 cth: 35.17 usage: 32.76 residual: 17.26
mrth: 51.45 cth: 41.0 usage: 43.72 residual: 7.73
mrth: 61.48 cth: 49.65 usage: 49.95 residual: 11.53
mrth: 30.85 cth: 25.54 usage: 25.11 residual: 5.74
mrth: 33.3 cth: 29.48 usage: 32.5 residual: 0.8
mrth: 41.8 cth: 35.22 usage: 33.48 residual: 8.32
mrth: 99.05 cth: 85.08 usage: 77.76 residual: 21.29
mrth: 77.62 cth: 63.46 usage: 54.62 residual: 23.0
mrth: 46.36 cth: 36.04 usage: 42.73 residual: 3.63
mrth: 93.47 cth: 68.09 usage: 75.38 residual: 18.09
mrth: 31.45 cth: 26.14 usage: 24.85 residual: 6.6
mrth: 77.52 cth: 57.29 usage: 39.46 residual: 38.06
mrth: 46.31 cth: 33.17 usage: 35.3 residual: 11.01
mrth: 40.85 cth: 31.92 usage: 36.48 residual: 4.37
mrth: 94.76 cth: 70.52 usage: 93.65 residual: 1.11
mrth: 19.26 cth: 15.28 usage: 15.18 residual: 4.08
mrth: 26.39 cth: 20.15 usage: 18.87 residual: 7.52
mrth: 42.39 cth: 32.74 usage: 37.67 residual: 4.72
mrth: 97.22 cth: 72.88 usage: 76.68 residual: 20.54
mrth: 34.37 cth: 27.27 usage: 31.59 residual: 2.78
mrth: 46.32 cth: 40.88 usage: 28.86 residual: 17.46
mrth: 62.55 cth: 45.38 usage: 48.7 residual: 13.85
mrth: 69.6 cth: 59.12 usage: 34.99 residual: 34.61
mrth: 45.15 cth: 39.21 usage: 42.34 residual: 2.81
mrth: 72.23 cth: 64.22 usage: 38.9 residual: 33.33
mrth: 28.84 cth: 21.56 usage: 18.37 residual: 10.47
mrth: 23.62 cth: 17.92 usage: 15.29 residual: 8.33
mrth: 79.66 cth: 66.82 usage: 42.88 residual: 36.78
mrth: 17.92 cth: 14.93 usage: 15.43 residual: 2.49
mrth: 73.11 cth: 64.85 usage: 71.78 residual: 1.33
mrth: 49.13 cth: 34.59 usage: 42.72 residual: 6.41
mrth: 77.51 cth: 59.65 usage: 52.22 residual: 25.29
mrth: 82.26 cth: 61.06 usage: 79.81 residual: 2.45
mrth: 59.81 cth: 44.1 usage: 47.52 residual: 12.29
mrth: 15.9 cth: 12.02 usage: 9.87 residual: 6.03
mrth: 71.03 cth: 50.16 usage: 52.26 residual: 18.77
mrth: 68.83 cth: 56.47 usage: 62.32 residual: 6.51
mrth: 54.51 cth: 38.64 usage: 33.64 residual: 20.87
mrth: 47.11 cth: 42.15 usage: 26.24 residual: 20.87
mrth: 78.13 cth: 61.05 usage: 45.16 residual: 32.97
mrth: 88.86 cth: 63.58 usage: 71.55 residual: 17.31
mrth: 83.73 cth: 63.9 usage: 78.07 residual: 5.66
mrth: 135.67 cth: 113.74 usage: 124.05 residual: 11.62
mrth: 17.33 cth: 13.11 usage: 14.45 residual: 2.88
mrth: 34.53 cth: 27.69 usage: 33.18 residual: 1.35
mrth: 40.04 cth: 29.71 usage: 28.51 residual: 11.53
mrth: 59.84 cth: 52.17 usage: 41.47 residual: 18.37
mrth: 32.92 cth: 26.27 usage: 16.9 residual: 16.02
mrth: 74.23 cth: 62.14 usage: 66.71 residual: 7.52
mrth: 70.53 cth: 58.34 usage: 62.97 residual: 7.56
mrth: 62.43 cth: 46.73 usage: 36.86 residual: 25.57
mrth: 30.04 cth: 25.03 usage: 15.85 residual: 14.19
mrth: 26.11 cth: 18.66 usage: 19.27 residual: 6.84
mrth: 13.92 cth: 10.6 usage: 8.34 residual: 5.58
mrth: 96.69 cth: 78.54 usage: 68.68 residual: 28.01
mrth: 151.85 cth: 132.91 usage: 110.18 residual: 41.67
mrth: 38.38 cth: 30.68 usage: 29.52 residual: 8.86
mrth: 20.2 cth: 14.73 usage: 12.72 residual: 7.48
mrth: 47.21 cth: 33.21 usage: 37.68 residual: 9.53
mrth: 62.11 cth: 50.11 usage: 31.6 residual: 30.51
mrth: 29.78 cth: 25.55 usage: 19.91 residual: 9.87
mrth: 76.52 cth: 63.37 usage: 43.59 residual: 32.93
mrth: 48.63 cth: 40.39 usage: 46.55 residual: 2.08
mrth: 69.31 cth: 51.46 usage: 39.74 residual: 29.57
mrth: 95.49 cth: 81.68 usage: 72.65 residual: 22.84
mrth: 27.19 cth: 22.72 usage: 23.22 residual: 3.97
mrth: 101.75 cth: 86.94 usage: 93.85 residual: 7.9
mrth: 124.97 cth: 95.18 usage: 104.79 residual: 20.18
mrth: 45.81 cth: 35.75 usage: 42.61 residual: 3.2
mrth: 12.87 cth: 9.21 usage: 7.12 residual: 5.75
mrth: 63.01 cth: 46.45 usage: 53.47 residual: 9.54
mrth: 33.43 cth: 24.85 usage: 24.16 residual: 9.27
mrth: 64.5 cth: 52.95 usage: 38.49 residual: 26.01
mrth: 61.89 cth: 49.21 usage: 52.41 residual: 9.48
mrth: 59.67 cth: 49.07 usage: 56.05 residual: 3.62
mrth: 122.06 cth: 104.34 usage: 115.99 residual: 6.07
mrth: 31.35 cth: 27.2 usage: 25.36 residual: 5.99
mrth: 54.09 cth: 43.05 usage: 33.27 residual: 20.82
mrth: 93.13 cth: 81.83 usage: 66.56 residual: 26.57
mrth: 76.56 cth: 57.54 usage: 42.32 residual: 34.24
mrth: 57.87 cth: 42.93 usage: 30.69 residual: 27.18
mrth: 15.76 cth: 11.49 usage: 14.81 residual: 0.95
mrth: 60.14 cth: 43.71 usage: 45.61 residual: 14.53
mrth: 85.1 cth: 67.75 usage: 62.97 residual: 22.13
mrth: 38.15 cth: 27.5 usage: 26.6 residual: 11.55
mrth: 124.99 cth: 93.61 usage: 83.76 residual: 41.23
mrth: 73.36 cth: 58.63 usage: 51.23 residual: 22.13
mrth: 31.58 cth: 26.21 usage: 29.39 residual: 2.19
mrth: 64.38 cth: 57.03 usage: 47.79 residual: 16.59
mrth: 79.49 cth: 59.05 usage: 55.54 residual: 23.95
mrth: 34.42 cth: 25.63 usage: 25.0 residual: 9.42
mrth: 50.75 cth: 36.53 usage: 45.45 residual: 5.3
mrth: 52.99 cth: 43.91 usage: 32.22 residual: 20.77
mrth: 44.12 cth: 31.35 usage: 23.18 residual: 20.94
mrth: 77.7 cth: 67.44 usage: 55.09 residual: 22.61
mrth: 49.1 cth: 37.71 usage: 28.67 residual: 20.43
mrth: 71.34 cth: 56.83 usage: 53.32 residual: 18.02
mrth: 34.22 cth: 26.57 usage: 18.49 residual: 15.73
mrth: 95.1 cth: 84.74 usage: 75.21 residual: 19.89
mrth: 36.25 cth: 27.41 usage: 26.07 residual: 10.18
mrth: 28.69 cth: 25.55 usage: 23.12 residual: 5.57
mrth: 53.79 cth: 39.7 usage: 29.11 residual: 24.68
mrth: 75.41 cth: 66.3 usage: 69.65 residual: 5.76
mrth: 102.83 cth: 72.59 usage: 89.09 residual: 13.74
mrth: 74.03 cth: 64.51 usage: 45.14 residual: 28.89
mrth: 76.09 cth: 63.54 usage: 46.16 residual: 29.93
mrth: 74.28 cth: 54.9 usage: 63.55 residual: 10.73
mrth: 51.52 cth: 40.76 usage: 29.18 residual: 22.34
mrth: 63.76 cth: 50.87 usage: 33.67 residual: 30.09
mrth: 46.68 cth: 38.41 usage: 30.79 residual: 15.89
mrth: 45.61 cth: 40.34 usage: 26.19 residual: 19.42
mrth: 21.99 cth: 17.59 usage: 12.25 residual: 9.74
mrth: 56.71 cth: 47.94 usage: 50.93 residual: 5.78
mrth: 62.07 cth: 52.52 usage: 55.49 residual: 6.58
mrth: 34.52 cth: 30.25 usage: 34.46 residual: 0.06
mrth: 76.52 cth: 67.6 usage: 59.22 residual: 17.3
mrth: 61.21 cth: 54.91 usage: 54.17 residual: 7.04
mrth: 42.72 cth: 35.59 usage: 33.31 residual: 9.41
mrth: 32.6 cth: 25.5 usage: 16.33 residual: 16.27
mrth: 66.7 cth: 51.6 usage: 61.65 residual: 5.05
mrth: 44.35 cth: 33.35 usage: 22.36 residual: 21.99
mrth: 77.2 cth: 68.73 usage: 40.98 residual: 36.22
mrth: 57.22 cth: 44.19 usage: 40.91 residual: 16.31
mrth: 51.8 cth: 41.07 usage: 39.53 residual: 12.27
mrth: 28.6 cth: 22.98 usage: 27.79 residual: 0.81
mrth: 31.8 cth: 24.17 usage: 26.04 residual: 5.76
mrth: 104.24 cth: 90.45 usage: 91.37 residual: 12.87
mrth: 101.03 cth: 84.81 usage: 82.21 residual: 18.82
mrth: 65.7 cth: 52.21 usage: 39.37 residual: 26.33
mrth: 80.09 cth: 62.67 usage: 55.77 residual: 24.32
mrth: 111.56 cth: 86.31 usage: 83.24 residual: 28.32
mrth: 8.23 cth: 7.27 usage: 4.85 residual: 3.38
mrth: 20.24 cth: 16.07 usage: 13.82 residual: 6.42
mrth: 52.67 cth: 40.46 usage: 26.37 residual: 26.3
mrth: 15.01 cth: 12.06 usage: 11.07 residual: 3.94
mrth: 93.93 cth: 66.79 usage: 50.6 residual: 43.33
mrth: 7.84 cth: 6.83 usage: 7.37 residual: 0.47
mrth: 71.01 cth: 58.56 usage: 66.19 residual: 4.82
mrth: 38.47 cth: 32.48 usage: 22.15 residual: 16.32
mrth: 72.57 cth: 51.32 usage: 37.78 residual: 34.79
mrth: 77.09 cth: 66.36 usage: 46.91 residual: 30.18
mrth: 71.13 cth: 52.14 usage: 57.53 residual: 13.6
mrth: 68.82 cth: 59.36 usage: 52.03 residual: 16.79
mrth: 21.94 cth: 15.89 usage: 19.53 residual: 2.41
mrth: 76.0 cth: 55.05 usage: 44.3 residual: 31.7
mrth: 71.66 cth: 63.79 usage: 63.44 residual: 8.22
mrth: 88.42 cth: 77.0 usage: 79.25 residual: 9.17
mrth: 117.56 cth: 99.34 usage: 113.78 residual: 3.78
mrth: 53.59 cth: 46.93 usage: 42.55 residual: 11.04
mrth: 12.36 cth: 10.24 usage: 12.21 residual: 0.15
mrth: 33.72 cth: 28.54 usage: 22.69 residual: 11.03
mrth: 36.09 cth: 31.43 usage: 26.34 residual: 9.75
mrth: 23.21 cth: 17.23 usage: 20.76 residual: 2.45
mrth: 42.09 cth: 36.98 usage: 27.26 residual: 14.83
mrth: 56.36 cth: 47.32 usage: 45.81 residual: 10.55
mrth: 48.42 cth: 38.53 usage: 27.76 residual: 20.66
mrth: 28.28 cth: 22.54 usage: 26.39 residual: 1.89
mrth: 40.62 cth: 35.16 usage: 30.4 residual: 10.22
mrth: 70.86 cth: 62.04 usage: 41.95 residual: 28.91
mrth: 66.89 cth: 54.59 usage: 55.57 residual: 11.32
mrth: 87.37 cth: 77.39 usage: 53.09 residual: 34.28
mrth: 64.71 cth: 49.21 usage: 60.08 residual: 4.63
mrth: 69.28 cth: 54.72 usage: 64.96 residual: 4.32
mrth: 88.09 cth: 75.57 usage: 54.11 residual: 33.98
mrth: 58.85 cth: 50.53 usage: 39.19 residual: 19.66
mrth: 58.86 cth: 48.85 usage: 41.53 residual: 17.33
mrth: 101.54 cth: 82.03 usage: 68.2 residual: 33.34
mrth: 32.54 cth: 23.64 usage: 20.61 residual: 11.93
mrth: 103.37 cth: 76.31 usage: 102.07 residual: 1.3
mrth: 97.46 cth: 77.13 usage: 79.53 residual: 17.93
mrth: 64.84 cth: 55.52 usage: 56.68 residual: 8.16
mrth: 42.83 cth: 38.06 usage: 27.52 residual: 15.31
mrth: 21.88 cth: 17.19 usage: 21.37 residual: 0.51
mrth: 52.61 cth: 38.15 usage: 42.29 residual: 10.32
mrth: 32.9 cth: 27.6 usage: 25.45 residual: 7.45
mrth: 32.06 cth: 25.97 usage: 25.58 residual: 6.48
mrth: 15.76 cth: 13.64 usage: 10.86 residual: 4.9
mrth: 41.27 cth: 29.17 usage: 33.04 residual: 8.23
mrth: 62.67 cth: 52.07 usage: 35.65 residual: 27.02
mrth: 30.48 cth: 22.02 usage: 18.07 residual: 12.41
mrth: 31.61 cth: 27.9 usage: 30.77 residual: 0.84
mrth: 69.41 cth: 62.01 usage: 63.81 residual: 5.6
mrth: 5.84 cth: 5.19 usage: 5.72 residual: 0.12
mrth: 89.73 cth: 65.92 usage: 57.76 residual: 31.97
mrth: 87.02 cth: 77.62 usage: 70.66 residual: 16.36
mrth: 42.5 cth: 30.88 usage: 30.4 residual: 12.1
mrth: 38.75 cth: 29.55 usage: 30.74 residual: 8.01
mrth: 37.85 cth: 33.64 usage: 37.71 residual: 0.14
mrth: 43.62 cth: 33.12 usage: 38.6 residual: 5.02
mrth: 13.89 cth: 10.52 usage: 13.0 residual: 0.89
mrth: 87.98 cth: 76.74 usage: 66.61 residual: 21.37
mrth: 32.79 cth: 29.04 usage: 19.21 residual: 13.58
mrth: 41.26 cth: 28.89 usage: 25.47 residual: 15.79
mrth: 90.29 cth: 71.97 usage: 87.61 residual: 2.68
mrth: 77.9 cth: 61.8 usage: 75.36 residual: 2.54
mrth: 62.37 cth: 47.79 usage: 59.46 residual: 2.91
mrth: 26.64 cth: 23.16 usage: 17.7 residual: 8.94
mrth: 64.6 cth: 56.19 usage: 46.33 residual: 18.27
mrth: 20.41 cth: 14.47 usage: 16.67 residual: 3.74
mrth: 22.05 cth: 17.96 usage: 13.75 residual: 8.3
mrth: 49.16 cth: 42.76 usage: 44.11 residual: 5.05
mrth: 100.63 cth: 89.28 usage: 51.68 residual: 48.95
mrth: 17.3 cth: 14.99 usage: 11.77 residual: 5.53
mrth: 16.58 cth: 12.94 usage: 9.83 residual: 6.75
mrth: 88.74 cth: 67.82 usage: 68.05 residual: 20.69
mrth: 86.77 cth: 70.42 usage: 44.94 residual: 41.83
mrth: 50.53 cth: 44.06 usage: 42.06 residual: 8.47
mrth: 37.64 cth: 32.41 usage: 33.75 residual: 3.89
mrth: 51.92 cth: 45.86 usage: 29.41 residual: 22.51
mrth: 28.62 cth: 22.83 usage: 14.97 residual: 13.65
mrth: 45.89 cth: 34.68 usage: 34.72 residual: 11.17
mrth: 45.19 cth: 32.57 usage: 29.8 residual: 15.39
mrth: 101.25 cth: 79.73 usage: 99.94 residual: 1.31
mrth: 39.94 cth: 28.1 usage: 22.94 residual: 17.0
mrth: 140.94 cth: 99.52 usage: 91.98 residual: 48.96
mrth: 77.34 cth: 68.82 usage: 43.92 residual: 33.42
mrth: 15.24 cth: 12.87 usage: 13.95 residual: 1.29
mrth: 60.32 cth: 52.48 usage: 33.58 residual: 26.74
mrth: 41.69 cth: 33.08 usage: 21.39 residual: 20.3
mrth: 52.07 cth: 36.56 usage: 50.57 residual: 1.5
mrth: 92.26 cth: 73.68 usage: 53.45 residual: 38.81
mrth: 66.7 cth: 55.35 usage: 51.91 residual: 14.79
mrth: 90.97 cth: 65.22 usage: 62.23 residual: 28.74
mrth: 42.53 cth: 32.98 usage: 38.77 residual: 3.76
mrth: 95.07 cth: 80.99 usage: 78.12 residual: 16.95
mrth: 13.73 cth: 10.41 usage: 8.16 residual: 5.57
mrth: 119.77 cth: 105.11 usage: 97.76 residual: 22.01
mrth: 75.45 cth: 60.02 usage: 70.08 residual: 5.37
mrth: 76.41 cth: 59.68 usage: 53.62 residual: 22.79
mrth: 65.9 cth: 50.47 usage: 42.0 residual: 23.9
mrth: 68.83 cth: 48.52 usage: 67.37 residual: 1.46
mrth: 36.8 cth: 28.35 usage: 23.23 residual: 13.57
mrth: 2.68 cth: 2.19 usage: 2.2 residual: 0.48
mrth: 50.74 cth: 42.51 usage: 43.25 residual: 7.49
mrth: 86.96 cth: 63.23 usage: 85.27 residual: 1.69
mrth: 39.02 cth: 30.71 usage: 23.92 residual: 15.1
mrth: 23.96 cth: 19.69 usage: 20.49 residual: 3.47
mrth: 32.12 cth: 28.74 usage: 24.61 residual: 7.51
mrth: 30.39 cth: 23.19 usage: 16.89 residual: 13.5
mrth: 69.99 cth: 56.14 usage: 45.64 residual: 24.35
mrth: 80.57 cth: 62.63 usage: 70.04 residual: 10.53
mrth: 71.61 cth: 53.27 usage: 58.85 residual: 12.76
mrth: 24.9 cth: 18.5 usage: 15.98 residual: 8.92
mrth: 106.87 cth: 87.69 usage: 53.54 residual: 53.33
mrth: 16.06 cth: 13.45 usage: 13.48 residual: 2.58
mrth: 52.93 cth: 43.08 usage: 47.44 residual: 5.49
mrth: 51.46 cth: 43.21 usage: 42.46 residual: 9.0
mrth: 44.67 cth: 32.61 usage: 38.36 residual: 6.31
mrth: 28.12 cth: 20.44 usage: 15.34 residual: 12.78
mrth: 34.12 cth: 24.49 usage: 26.14 residual: 7.98
mrth: 93.85 cth: 77.98 usage: 72.46 residual: 21.39
mrth: 124.06 cth: 98.22 usage: 82.11 residual: 41.95
mrth: 18.78 cth: 14.93 usage: 12.54 residual: 6.24
mrth: 86.47 cth: 61.14 usage: 68.42 residual: 18.05
mrth: 78.45 cth: 61.31 usage: 71.83 residual: 6.62
mrth: 57.54 cth: 51.11 usage: 39.89 residual: 17.65
mrth: 16.48 cth: 13.86 usage: 11.51 residual: 4.97
mrth: 12.2 cth: 9.88 usage: 6.77 residual: 5.43
mrth: 49.88 cth: 42.25 usage: 32.81 residual: 17.07
mrth: 74.95 cth: 52.63 usage: 74.38 residual: 0.57
mrth: 43.93 cth: 36.28 usage: 27.52 residual: 16.41
mrth: 65.34 cth: 51.37 usage: 63.15 residual: 2.19
mrth: 49.11 cth: 34.93 usage: 41.99 residual: 7.12
mrth: 23.29 cth: 17.37 usage: 12.51 residual: 10.78
mrth: 63.74 cth: 47.71 usage: 35.36 residual: 28.38
mrth: 52.6 cth: 37.58 usage: 34.79 residual: 17.81
mrth: 16.17 cth: 11.61 usage: 13.74 residual: 2.43
mrth: 27.35 cth: 23.5 usage: 19.43 residual: 7.92
mrth: 87.88 cth: 70.93 usage: 66.96 residual: 20.92
mrth: 45.12 cth: 40.38 usage: 42.17 residual: 2.95
mrth: 87.43 cth: 72.75 usage: 45.59 residual: 41.84
mrth: 62.97 cth: 46.03 usage: 37.87 residual: 25.1
mrth: 129.21 cth: 96.82 usage: 96.41 residual: 32.8
mrth: 41.03 cth: 33.53 usage: 37.72 residual: 3.31
mrth: 66.1 cth: 49.04 usage: 54.85 residual: 11.25
mrth: 34.89 cth: 26.08 usage: 18.62 residual: 16.27
mrth: 105.36 cth: 92.36 usage: 63.45 residual: 41.91
mrth: 42.12 cth: 36.79 usage: 34.7 residual: 7.42
mrth: 36.09 cth: 29.91 usage: 24.17 residual: 11.92
mrth: 64.62 cth: 53.23 usage: 49.27 residual: 15.35
mrth: 35.82 cth: 31.06 usage: 29.48 residual: 6.34
mrth: 20.96 cth: 18.24 usage: 17.32 residual: 3.64
mrth: 104.89 cth: 82.51 usage: 60.25 residual: 44.64
mrth: 27.46 cth: 19.77 usage: 21.23 residual: 6.23
mrth: 71.1 cth: 56.93 usage: 65.85 residual: 5.25
mrth: 52.62 cth: 40.27 usage: 35.02 residual: 17.6
mrth: 38.78 cth: 29.14 usage: 33.59 residual: 5.19
mrth: 123.09 cth: 89.73 usage: 92.12 residual: 30.97
mrth: 64.32 cth: 46.84 usage: 61.4 residual: 2.92
mrth: 34.38 cth: 29.72 usage: 33.12 residual: 1.26
mrth: 63.58 cth: 48.83 usage: 61.96 residual: 1.62
mrth: 73.32 cth: 57.85 usage: 70.46 residual: 2.86
mrth: 65.18 cth: 50.04 usage: 47.05 residual: 18.13
mrth: 29.89 cth: 25.19 usage: 21.7 residual: 8.19
mrth: 45.33 cth: 36.99 usage: 25.54 residual: 19.79
mrth: 59.52 cth: 48.74 usage: 33.65 residual: 25.87
mrth: 39.2 cth: 32.18 usage: 27.96 residual: 11.24
mrth: 52.14 cth: 38.81 usage: 51.1 residual: 1.04
mrth: 55.26 cth: 42.11 usage: 28.84 residual: 26.42
mrth: 49.66 cth: 39.73 usage: 41.68 residual: 7.98
mrth: 54.57 cth: 41.47 usage: 40.09 residual: 14.48
mrth: 71.48 cth: 54.06 usage: 53.69 residual: 17.79
mrth: 28.07 cth: 21.03 usage: 26.31 residual: 1.76
mrth: 58.53 cth: 44.47 usage: 43.97 residual: 14.56
mrth: 20.77 cth: 15.18 usage: 15.11 residual: 5.66
mrth: 24.14 cth: 17.64 usage: 16.29 residual: 7.85
mrth: 49.1 cth: 42.66 usage: 40.06 residual: 9.04
mrth: 32.8 cth: 28.97 usage: 27.4 residual: 5.4
mrth: 66.3 cth: 55.73 usage: 57.9 residual: 8.4
mrth: 2.51 cth: 1.78 usage: 1.49 residual: 1.02
mrth: 47.83 cth: 34.51 usage: 41.05 residual: 6.78
mrth: 75.49 cth: 54.38 usage: 73.97 residual: 1.52
mrth: 108.39 cth: 90.08 usage: 69.84 residual: 38.55
mrth: 39.79 cth: 31.95 usage: 21.83 residual: 17.96
mrth: 51.44 cth: 44.72 usage: 30.1 residual: 21.34
mrth: 60.34 cth: 50.18 usage: 52.67 residual: 7.67
mrth: 90.11 cth: 67.28 usage: 87.21 residual: 2.9
mrth: 24.28 cth: 20.24 usage: 12.6 residual: 11.68
mrth: 94.9 cth: 68.82 usage: 85.29 residual: 9.61
mrth: 36.59 cth: 27.01 usage: 25.86 residual: 10.73
mrth: 29.59 cth: 25.38 usage: 25.24 residual: 4.35
mrth: 64.73 cth: 47.65 usage: 57.07 residual: 7.66
mrth: 25.14 cth: 18.69 usage: 17.33 residual: 7.81
mrth: 53.84 cth: 46.37 usage: 47.42 residual: 6.42
mrth: 31.13 cth: 23.53 usage: 16.93 residual: 14.2
mrth: 25.16 cth: 19.8 usage: 15.99 residual: 9.17
mrth: 101.84 cth: 78.61 usage: 82.62 residual: 19.22
mrth: 76.83 cth: 63.78 usage: 71.37 residual: 5.46
mrth: 14.51 cth: 10.51 usage: 13.74 residual: 0.77
mrth: 91.65 cth: 71.78 usage: 65.92 residual: 25.73
mrth: 68.04 cth: 52.5 usage: 63.02 residual: 5.02
mrth: 51.94 cth: 39.8 usage: 50.95 residual: 0.99
mrth: 47.61 cth: 37.03 usage: 26.09 residual: 21.52
mrth: 3.84 cth: 3.4 usage: 2.68 residual: 1.16
mrth: 89.87 cth: 75.13 usage: 71.93 residual: 17.94
mrth: 19.67 cth: 15.21 usage: 18.88 residual: 0.79
mrth: 70.45 cth: 51.97 usage: 67.51 residual: 2.94
mrth: 28.49 cth: 25.58 usage: 21.31 residual: 7.18
mrth: 75.53 cth: 57.77 usage: 47.56 residual: 27.97
mrth: 65.37 cth: 54.84 usage: 53.92 residual: 11.45
mrth: 26.59 cth: 21.12 usage: 21.76 residual: 4.83
mrth: 90.21 cth: 79.12 usage: 51.32 residual: 38.89
mrth: 11.35 cth: 9.98 usage: 5.73 residual: 5.62
mrth: 17.43 cth: 14.41 usage: 11.72 residual: 5.71
mrth: 40.74 cth: 33.38 usage: 37.34 residual: 3.4
mrth: 18.57 cth: 14.63 usage: 14.93 residual: 3.64
mrth: 51.9 cth: 45.38 usage: 42.91 residual: 8.99
mrth: 50.12 cth: 36.82 usage: 33.53 residual: 16.59
mrth: 30.33 cth: 26.55 usage: 16.27 residual: 14.06
mrth: 71.72 cth: 58.65 usage: 42.93 residual: 28.79
mrth: 51.84 cth: 37.47 usage: 28.09 residual: 23.75
mrth: 89.61 cth: 66.45 usage: 57.59 residual: 32.02
mrth: 15.33 cth: 11.95 usage: 14.58 residual: 0.75
mrth: 33.76 cth: 29.18 usage: 30.72 residual: 3.04
mrth: 80.93 cth: 63.4 usage: 67.88 residual: 13.05
mrth: 55.86 cth: 44.54 usage: 28.41 residual: 27.45
mrth: 117.38 cth: 87.53 usage: 111.31 residual: 6.07
mrth: 21.25 cth: 17.78 usage: 20.75 residual: 0.5
mrth: 49.37 cth: 41.8 usage: 25.34 residual: 24.03
mrth: 12.28 cth: 8.74 usage: 9.17 residual: 3.11
mrth: 90.35 cth: 74.06 usage: 60.59 residual: 29.76
mrth: 21.11 cth: 17.28 usage: 20.14 residual: 0.97
mrth: 97.93 cth: 78.91 usage: 83.89 residual: 14.04
mrth: 55.07 cth: 41.7 usage: 33.57 residual: 21.5
mrth: 26.9 cth: 22.88 usage: 19.42 residual: 7.48
mrth: 38.0 cth: 31.46 usage: 37.82 residual: 0.18
mrth: 64.11 cth: 44.94 usage: 42.96 residual: 21.15
mrth: 13.86 cth: 11.92 usage: 8.48 residual: 5.38
mrth: 55.88 cth: 49.56 usage: 48.27 residual: 7.61
mrth: 71.02 cth: 50.41 usage: 48.62 residual: 22.4
mrth: 6.17 cth: 4.86 usage: 5.37 residual: 0.8
mrth: 39.0 cth: 28.75 usage: 25.03 residual: 13.97
mrth: 98.2 cth: 80.0 usage: 94.86 residual: 3.34
mrth: 76.12 cth: 63.32 usage: 41.14 residual: 34.98
mrth: 102.63 cth: 72.17 usage: 73.24 residual: 29.39
mrth: 55.47 cth: 44.72 usage: 45.03 residual: 10.44
mrth: 58.01 cth: 50.48 usage: 50.12 residual: 7.89
mrth: 56.62 cth: 44.77 usage: 56.07 residual: 0.55
mrth: 100.47 cth: 77.81 usage: 99.03 residual: 1.44
mrth: 95.77 cth: 73.31 usage: 64.79 residual: 30.98
mrth: 63.35 cth: 51.04 usage: 47.06 residual: 16.29
mrth: 33.69 cth: 28.3 usage: 22.65 residual: 11.04
mrth: 44.98 cth: 40.04 usage: 28.88 residual: 16.1
mrth: 23.3 cth: 19.21 usage: 15.49 residual: 7.81
mrth: 87.04 cth: 67.45 usage: 86.93 residual: 0.11
mrth: 11.47 cth: 8.56 usage: 8.83 residual: 2.64
mrth: 92.69 cth: 69.53 usage: 56.76 residual: 35.93
mrth: 97.88 cth: 69.51 usage: 91.83 residual: 6.05
mrth: 35.68 cth: 31.68 usage: 20.52 residual: 15.16
mrth: 44.73 cth: 34.38 usage: 39.62 residual: 5.11
mrth: 119.23 cth: 100.64 usage: 100.73 residual: 18.5
mrth: 86.48 cth: 72.23 usage: 49.7 residual: 36.78
mrth: 81.84 cth: 72.63 usage: 44.07 residual: 37.77
mrth: 46.68 cth: 33.6 usage: 24.34 residual: 22.34
mrth: 44.54 cth: 31.34 usage: 24.03 residual: 20.51
mrth: 51.37 cth: 43.06 usage: 44.57 residual: 6.8
mrth: 51.87 cth: 37.72 usage: 37.63 residual: 14.24
mrth: 60.07 cth: 48.45 usage: 42.33 residual: 17.74
mrth: 29.86 cth: 25.23 usage: 17.95 residual: 11.91
mrth: 87.16 cth: 66.61 usage: 60.89 residual: 26.27
mrth: 80.28 cth: 65.74 usage: 65.27 residual: 15.01
mrth: 77.61 cth: 54.72 usage: 49.33 residual: 28.28
mrth: 28.18 cth: 22.55 usage: 18.53 residual: 9.65
mrth: 14.18 cth: 10.02 usage: 8.84 residual: 5.34
mrth: 51.08 cth: 36.14 usage: 49.71 residual: 1.37
mrth: 41.07 cth: 30.9 usage: 33.62 residual: 7.45
mrth: 29.56 cth: 22.96 usage: 27.25 residual: 2.31
mrth: 30.92 cth: 27.62 usage: 15.46 residual: 15.46
mrth: 105.32 cth: 88.79 usage: 75.16 residual: 30.16
mrth: 68.08 cth: 59.27 usage: 47.31 residual: 20.77
mrth: 38.53 cth: 31.71 usage: 33.78 residual: 4.75
mrth: 24.37 cth: 19.93 usage: 20.1 residual: 4.27
mrth: 23.25 cth: 20.52 usage: 17.87 residual: 5.38
mrth: 8.93 cth: 6.81 usage: 8.06 residual: 0.87
mrth: 46.68 cth: 39.72 usage: 41.11 residual: 5.57
mrth: 45.88 cth: 32.99 usage: 32.92 residual: 12.96
mrth: 2.21 cth: 1.58 usage: 1.27 residual: 0.94
mrth: 113.33 cth: 82.61 usage: 96.09 residual: 17.24
mrth: 55.7 cth: 46.44 usage: 33.83 residual: 21.87
mrth: 63.43 cth: 55.19 usage: 38.64 residual: 24.79
mrth: 45.35 cth: 38.37 usage: 38.26 residual: 7.09
mrth: 130.77 cth: 109.32 usage: 85.36 residual: 45.41
mrth: 67.05 cth: 55.75 usage: 37.6 residual: 29.45
mrth: 60.93 cth: 51.25 usage: 47.21 residual: 13.72
mrth: 99.74 cth: 85.2 usage: 85.61 residual: 14.13
mrth: 99.28 cth: 79.93 usage: 83.08 residual: 16.2
mrth: 121.28 cth: 91.48 usage: 98.16 residual: 23.12
mrth: 95.94 cth: 82.5 usage: 76.58 residual: 19.36
mrth: 96.94 cth: 83.3 usage: 91.15 residual: 5.79
mrth: 91.44 cth: 77.66 usage: 68.87 residual: 22.57
mrth: 37.38 cth: 31.04 usage: 29.69 residual: 7.69
mrth: 74.34 cth: 66.68 usage: 53.97 residual: 20.37
mrth: 28.75 cth: 21.94 usage: 23.04 residual: 5.71
mrth: 76.14 cth: 67.2 usage: 57.09 residual: 19.05
mrth: 84.48 cth: 75.29 usage: 71.28 residual: 13.2
mrth: 69.96 cth: 53.94 usage: 42.4 residual: 27.56
mrth: 70.99 cth: 55.23 usage: 60.2 residual: 10.79
mrth: 54.33 cth: 48.36 usage: 52.94 residual: 1.39
mrth: 6.43 cth: 4.92 usage: 5.34 residual: 1.09
mrth: 33.99 cth: 30.29 usage: 26.16 residual: 7.83
mrth: 48.51 cth: 38.68 usage: 45.23 residual: 3.28
mrth: 56.98 cth: 49.57 usage: 31.27 residual: 25.71
mrth: 52.65 cth: 39.42 usage: 35.99 residual: 16.66
mrth: 59.84 cth: 53.12 usage: 59.19 residual: 0.65
mrth: 49.17 cth: 36.37 usage: 25.89 residual: 23.28
mrth: 98.62 cth: 77.7 usage: 75.19 residual: 23.43
mrth: 62.19 cth: 45.74 usage: 58.2 residual: 3.99
mrth: 30.47 cth: 23.92 usage: 15.84 residual: 14.63
mrth: 51.44 cth: 41.13 usage: 43.7 residual: 7.74
mrth: 91.42 cth: 64.45 usage: 61.22 residual: 30.2
mrth: 45.58 cth: 40.61 usage: 33.82 residual: 11.76
mrth: 39.4 cth: 33.66 usage: 34.28 residual: 5.12
mrth: 34.3 cth: 29.32 usage: 22.08 residual: 12.22
mrth: 24.54 cth: 21.73 usage: 19.43 residual: 5.11
mrth: 18.16 cth: 16.34 usage: 17.78 residual: 0.38
mrth: 116.45 cth: 90.54 usage: 72.25 residual: 44.2
mrth: 12.51 cth: 9.15 usage: 7.18 residual: 5.33
mrth: 80.48 cth: 64.95 usage: 48.77 residual: 31.71
mrth: 105.99 cth: 76.61 usage: 73.01 residual: 32.98
mrth: 23.62 cth: 16.82 usage: 13.3 residual: 10.32
mrth: 125.51 cth: 92.31 usage: 67.0 residual: 58.51
mrth: 42.99 cth: 34.46 usage: 26.99 residual: 16.0
mrth: 94.7 cth: 72.69 usage: 53.25 residual: 41.45
mrth: 61.75 cth: 46.37 usage: 50.23 residual: 11.52
mrth: 28.12 cth: 24.56 usage: 14.75 residual: 13.37
mrth: 30.93 cth: 24.45 usage: 17.17 residual: 13.76
mrth: 50.01 cth: 36.11 usage: 29.94 residual: 20.07
mrth: 75.21 cth: 56.81 usage: 74.26 residual: 0.95
mrth: 55.9 cth: 49.68 usage: 33.58 residual: 22.32
mrth: 101.9 cth: 84.33 usage: 54.8 residual: 47.1
mrth: 51.45 cth: 39.75 usage: 31.87 residual: 19.58
mrth: 71.45 cth: 53.3 usage: 70.28 residual: 1.17
mrth: 60.93 cth: 48.19 usage: 60.28 residual: 0.65
mrth: 46.7 cth: 38.73 usage: 43.15 residual: 3.55
mrth: 58.92 cth: 45.99 usage: 50.92 residual: 8.0
mrth: 37.38 cth: 31.75 usage: 33.26 residual: 4.12
mrth: 89.28 cth: 63.79 usage: 55.22 residual: 34.06
mrth: 82.35 cth: 71.17 usage: 81.12 residual: 1.23
mrth: 22.8 cth: 16.1 usage: 18.36 residual: 4.44
mrth: 50.9 cth: 36.46 usage: 42.97 residual: 7.93
mrth: 79.23 cth: 65.83 usage: 63.54 residual: 15.69
mrth: 79.37 cth: 66.06 usage: 62.93 residual: 16.44
mrth: 65.21 cth: 47.44 usage: 51.22 residual: 13.99
mrth: 26.36 cth: 18.75 usage: 16.89 residual: 9.47
mrth: 10.7 cth: 9.5 usage: 10.52 residual: 0.18
mrth: 73.62 cth: 60.89 usage: 46.58 residual: 27.04
mrth: 43.19 cth: 33.77 usage: 36.59 residual: 6.6
mrth: 67.99 cth: 50.84 usage: 58.73 residual: 9.26
mrth: 15.69 cth: 12.42 usage: 13.47 residual: 2.22
mrth: 26.03 cth: 18.4 usage: 16.41 residual: 9.62
mrth: 44.32 cth: 35.61 usage: 29.38 residual: 14.94
mrth: 91.48 cth: 81.28 usage: 76.49 residual: 14.99
mrth: 7.08 cth: 6.29 usage: 6.9 residual: 0.18
mrth: 83.81 cth: 72.07 usage: 49.06 residual: 34.75
mrth: 3.04 cth: 2.24 usage: 1.66 residual: 1.38
mrth: 29.87 cth: 22.54 usage: 16.98 residual: 12.89
mrth: 53.73 cth: 41.2 usage: 39.88 residual: 13.85
mrth: 26.87 cth: 22.88 usage: 13.79 residual: 13.08
mrth: 20.41 cth: 14.66 usage: 11.87 residual: 8.54
mrth: 14.45 cth: 11.52 usage: 7.92 residual: 6.53
mrth: 32.46 cth: 26.46 usage: 22.76 residual: 9.7
mrth: 71.89 cth: 62.0 usage: 60.45 residual: 11.44
mrth: 68.91 cth: 50.12 usage: 36.82 residual: 32.09
mrth: 74.92 cth: 58.05 usage: 47.74 residual: 27.18
mrth: 84.19 cth: 62.56 usage: 80.9 residual: 3.29
mrth: 51.35 cth: 43.01 usage: 37.15 residual: 14.2
mrth: 43.9 cth: 35.83 usage: 28.79 residual: 15.11
mrth: 66.15 cth: 54.53 usage: 40.37 residual: 25.78
mrth: 45.83 cth: 40.93 usage: 40.07 residual: 5.76
mrth: 52.4 cth: 41.1 usage: 39.36 residual: 13.04
mrth: 77.04 cth: 59.17 usage: 57.86 residual: 19.18
mrth: 56.17 cth: 49.74 usage: 32.66 residual: 23.51
mrth: 44.64 cth: 31.97 usage: 29.6 residual: 15.04
mrth: 58.06 cth: 48.9 usage: 31.84 residual: 26.22
mrth: 26.93 cth: 22.66 usage: 26.07 residual: 0.86
mrth: 131.24 cth: 92.93 usage: 69.81 residual: 61.43
mrth: 48.38 cth: 39.85 usage: 40.46 residual: 7.92
mrth: 86.91 cth: 68.38 usage: 72.54 residual: 14.37
mrth: 15.8 cth: 12.09 usage: 14.98 residual: 0.82
mrth: 56.72 cth: 49.54 usage: 51.44 residual: 5.28
mrth: 26.59 cth: 22.06 usage: 24.64 residual: 1.95
mrth: 17.98 cth: 14.48 usage: 15.93 residual: 2.05
mrth: 59.1 cth: 41.58 usage: 41.03 residual: 18.07
mrth: 39.76 cth: 31.77 usage: 23.38 residual: 16.38
mrth: 99.47 cth: 75.23 usage: 64.14 residual: 35.33
mrth: 99.72 cth: 82.81 usage: 71.62 residual: 28.1
mrth: 51.0 cth: 37.16 usage: 33.62 residual: 17.38
mrth: 128.84 cth: 114.55 usage: 96.53 residual: 32.31
mrth: 71.3 cth: 64.03 usage: 69.48 residual: 1.82
mrth: 24.48 cth: 19.64 usage: 19.04 residual: 5.44
mrth: 129.3 cth: 101.55 usage: 91.18 residual: 38.12
mrth: 92.33 cth: 74.57 usage: 63.65 residual: 28.68
mrth: 42.88 cth: 36.19 usage: 26.53 residual: 16.35
mrth: 37.53 cth: 29.42 usage: 28.96 residual: 8.57
mrth: 151.04 cth: 123.25 usage: 115.91 residual: 35.13
mrth: 77.89 cth: 55.87 usage: 63.14 residual: 14.75
mrth: 82.14 cth: 65.97 usage: 41.26 residual: 40.88
mrth: 113.81 cth: 99.91 usage: 70.36 residual: 43.45
mrth: 22.15 cth: 18.84 usage: 20.91 residual: 1.24
mrth: 57.62 cth: 41.39 usage: 46.52 residual: 11.1
mrth: 47.44 cth: 40.7 usage: 42.59 residual: 4.85
mrth: 56.79 cth: 44.32 usage: 34.34 residual: 22.45
mrth: 71.03 cth: 61.46 usage: 67.19 residual: 3.84
mrth: 45.6 cth: 32.31 usage: 29.49 residual: 16.11
mrth: 49.23 cth: 37.9 usage: 27.64 residual: 21.59
mrth: 92.2 cth: 69.29 usage: 50.92 residual: 41.28
mrth: 116.87 cth: 100.64 usage: 115.92 residual: 0.95
mrth: 34.58 cth: 26.45 usage: 25.39 residual: 9.19
mrth: 97.0 cth: 82.39 usage: 72.03 residual: 24.97
mrth: 79.04 cth: 62.25 usage: 44.52 residual: 34.52
mrth: 72.6 cth: 58.68 usage: 63.85 residual: 8.75
mrth: 38.32 cth: 29.59 usage: 23.97 residual: 14.35
mrth: 74.84 cth: 61.19 usage: 64.66 residual: 10.18
mrth: 30.9 cth: 23.62 usage: 24.57 residual: 6.33
mrth: 24.12 cth: 18.05 usage: 24.06 residual: 0.06
mrth: 77.72 cth: 67.65 usage: 76.07 residual: 1.65
mrth: 100.31 cth: 83.43 usage: 74.08 residual: 26.23
mrth: 37.42 cth: 31.5 usage: 22.7 residual: 14.72
mrth: 14.33 cth: 10.56 usage: 9.12 residual: 5.21
mrth: 14.24 cth: 12.4 usage: 11.46 residual: 2.78
mrth: 97.71 cth: 81.28 usage: 62.9 residual: 34.81
mrth: 79.53 cth: 61.9 usage: 52.36 residual: 27.17
mrth: 115.04 cth: 92.2 usage: 108.2 residual: 6.84
mrth: 47.43 cth: 40.71 usage: 23.86 residual: 23.57
mrth: 44.47 cth: 37.48 usage: 43.2 residual: 1.27
mrth: 65.94 cth: 48.8 usage: 33.78 residual: 32.16
mrth: 67.54 cth: 57.9 usage: 34.46 residual: 33.08
mrth: 87.05 cth: 62.89 usage: 48.82 residual: 38.23
mrth: 79.84 cth: 66.45 usage: 64.99 residual: 14.85
mrth: 117.26 cth: 99.77 usage: 106.47 residual: 10.79
mrth: 55.86 cth: 40.96 usage: 49.33 residual: 6.53
mrth: 47.31 cth: 36.67 usage: 39.52 residual: 7.79
mrth: 66.47 cth: 52.21 usage: 33.35 residual: 33.12
mrth: 70.13 cth: 50.58 usage: 62.64 residual: 7.49
mrth: 87.44 cth: 71.88 usage: 44.11 residual: 43.33
mrth: 106.99 cth: 95.71 usage: 85.06 residual: 21.93
mrth: 131.17 cth: 116.98 usage: 84.76 residual: 46.41
mrth: 12.12 cth: 8.85 usage: 11.03 residual: 1.09
mrth: 77.95 cth: 68.26 usage: 43.15 residual: 34.8
mrth: 119.07 cth: 96.3 usage: 78.29 residual: 40.78
mrth: 65.07 cth: 46.0 usage: 54.18 residual: 10.89
mrth: 72.76 cth: 51.54 usage: 48.05 residual: 24.71
mrth: 73.89 cth: 53.92 usage: 55.56 residual: 18.33
mrth: 19.75 cth: 17.76 usage: 19.15 residual: 0.6
mrth: 6.14 cth: 4.4 usage: 5.06 residual: 1.08
mrth: 57.3 cth: 50.13 usage: 44.43 residual: 12.87
mrth: 76.85 cth: 57.35 usage: 73.65 residual: 3.2
mrth: 29.29 cth: 20.89 usage: 19.35 residual: 9.94
mrth: 55.77 cth: 47.63 usage: 52.12 residual: 3.65
mrth: 96.1 cth: 76.16 usage: 52.37 residual: 43.73
mrth: 96.08 cth: 84.01 usage: 68.58 residual: 27.5
mrth: 61.22 cth: 48.16 usage: 42.99 residual: 18.23
mrth: 73.01 cth: 56.72 usage: 57.12 residual: 15.89
mrth: 55.15 cth: 41.32 usage: 41.65 residual: 13.5
mrth: 31.52 cth: 22.18 usage: 24.81 residual: 6.71
mrth: 69.94 cth: 49.65 usage: 50.29 residual: 19.65
mrth: 44.26 cth: 35.02 usage: 28.61 residual: 15.65
mrth: 63.91 cth: 46.39 usage: 33.27 residual: 30.64
mrth: 63.17 cth: 44.99 usage: 61.64 residual: 1.53
mrth: 88.84 cth: 62.59 usage: 76.13 residual: 12.71
mrth: 39.6 cth: 28.28 usage: 37.95 residual: 1.65
mrth: 55.16 cth: 48.45 usage: 31.82 residual: 23.34
mrth: 51.71 cth: 38.13 usage: 51.1 residual: 0.61
mrth: 28.45 cth: 20.86 usage: 22.95 residual: 5.5
mrth: 81.25 cth: 64.75 usage: 49.66 residual: 31.59
mrth: 92.86 cth: 74.1 usage: 70.39 residual: 22.47
mrth: 66.44 cth: 48.02 usage: 51.39 residual: 15.05
mrth: 48.46 cth: 35.61 usage: 38.66 residual: 9.8
mrth: 111.01 cth: 96.47 usage: 89.18 residual: 21.83
mrth: 12.7 cth: 11.31 usage: 11.83 residual: 0.87
mrth: 113.47 cth: 94.92 usage: 93.9 residual: 19.57
mrth: 56.26 cth: 44.99 usage: 44.3 residual: 11.96
mrth: 6.74 cth: 5.28 usage: 5.27 residual: 1.47
mrth: 54.98 cth: 47.75 usage: 48.54 residual: 6.44
mrth: 42.05 cth: 32.43 usage: 31.51 residual: 10.54
mrth: 60.18 cth: 49.95 usage: 39.44 residual: 20.74
mrth: 37.98 cth: 31.58 usage: 34.07 residual: 3.91
mrth: 56.7 cth: 44.36 usage: 54.66 residual: 2.04
mrth: 101.38 cth: 84.13 usage: 92.39 residual: 8.99
mrth: 21.89 cth: 16.89 usage: 12.07 residual: 9.82
mrth: 58.64 cth: 42.82 usage: 44.76 residual: 13.88
mrth: 24.86 cth: 19.79 usage: 23.35 residual: 1.51
mrth: 38.89 cth: 32.22 usage: 26.59 residual: 12.3
mrth: 11.37 cth: 9.45 usage: 7.05 residual: 4.32
mrth: 70.1 cth: 52.35 usage: 58.58 residual: 11.52
mrth: 63.39 cth: 52.92 usage: 57.02 residual: 6.37
mrth: 50.75 cth: 40.13 usage: 48.45 residual: 2.3
mrth: 35.25 cth: 26.62 usage: 27.22 residual: 8.03
mrth: 42.56 cth: 31.7 usage: 31.26 residual: 11.3
mrth: 94.55 cth: 83.44 usage: 92.67 residual: 1.88
mrth: 22.82 cth: 16.39 usage: 14.83 residual: 7.99
mrth: 74.83 cth: 63.28 usage: 56.84 residual: 17.99
mrth: 30.78 cth: 25.75 usage: 24.33 residual: 6.45
mrth: 92.2 cth: 72.74 usage: 50.3 residual: 41.9
mrth: 54.51 cth: 47.5 usage: 41.8 residual: 12.71
mrth: 130.36 cth: 94.15 usage: 102.06 residual: 28.3
mrth: 38.02 cth: 27.04 usage: 25.52 residual: 12.5
mrth: 71.32 cth: 54.91 usage: 57.23 residual: 14.09
mrth: 85.93 cth: 72.01 usage: 65.47 residual: 20.46
mrth: 79.23 cth: 63.0 usage: 56.57 residual: 22.66
mrth: 35.92 cth: 26.92 usage: 19.85 residual: 16.07
mrth: 44.91 cth: 34.83 usage: 41.61 residual: 3.3
mrth: 44.69 cth: 40.08 usage: 31.38 residual: 13.31
mrth: 92.89 cth: 68.77 usage: 50.46 residual: 42.43
mrth: 68.53 cth: 50.23 usage: 68.23 residual: 0.3
mrth: 18.53 cth: 14.49 usage: 16.22 residual: 2.31
mrth: 53.92 cth: 42.9 usage: 32.08 residual: 21.84
mrth: 13.05 cth: 11.0 usage: 9.14 residual: 3.91
mrth: 10.29 cth: 7.44 usage: 8.32 residual: 1.97
mrth: 64.08 cth: 48.54 usage: 32.43 residual: 31.65
mrth: 17.88 cth: 13.34 usage: 16.07 residual: 1.81
mrth: 61.96 cth: 51.7 usage: 32.17 residual: 29.79
mrth: 65.52 cth: 57.68 usage: 42.13 residual: 23.39
mrth: 69.59 cth: 57.6 usage: 58.38 residual: 11.21
mrth: 23.21 cth: 18.05 usage: 19.52 residual: 3.69
mrth: 76.87 cth: 54.5 usage: 58.42 residual: 18.45
mrth: 45.11 cth: 40.28 usage: 22.8 residual: 22.31
