mrth: 70.68 cth: 63.41 usage: 60.55 residual: 10.13
mrth: 28.65 cth: 24.06 usage: 16.64 residual: 12.01
mrth: 63.92 cth: 46.13 usage: 50.28 residual: 13.64
mrth: 110.33 cth: 78.1 usage: 81.53 residual: 28.8
mrth: 82.79 cth: 61.28 usage: 52.71 residual: 30.08
mrth: 61.67 cth: 50.69 usage: 49.79 residual: 11.88
mrth: 157.76 cth: 127.33 usage: 107.11 residual: 50.65
mrth: 31.96 cth: 23.63 usage: 18.32 residual: 13.64
mrth: 26.25 cth: 20.42 usage: 25.19 residual: 1.06
mrth: 33.22 cth: 27.06 usage: 22.27 residual: 10.95
mrth: 52.64 cth: 44.05 usage: 39.16 residual: 13.48
mrth: 61.14 cth: 49.97 usage: 56.38 residual: 4.76
mrth: 53.1 cth: 40.02 usage: 38.5 residual: 14.6
mrth: 55.73 cth: 39.5 usage: 50.46 residual: 5.27
mrth: 60.56 cth: 53.16 usage: 40.94 residual: 19.62
mrth: 52.35 cth: 38.32 usage: 47.08 residual: 5.27
mrth: 84.15 cth: 75.07 usage: 59.35 residual: 24.8
mrth: 13.91 cth: 12.2 usage: 7.75 residual: 6.16
mrth: 74.32 cth: 64.37 usage: 53.03 residual: 21.29
mrth: 104.7 cth: 83.99 usage: 71.83 residual: 32.87
mrth: 28.65 cth: 25.44 usage: 24.43 residual: 4.22
mrth: 19.84 cth: 15.85 usage: 13.09 residual: 6.75
mrth: 55.07 cth: 48.54 usage: 28.49 residual: 26.58
mrth: 46.55 cth: 40.61 usage: 40.37 residual: 6.18
mrth: 59.3 cth: 42.12 usage: 30.45 residual: 28.85
mrth: 6.64 cth: 5.24 usage: 4.68 residual: 1.96
mrth: 16.38 cth: 11.82 usage: 11.22 residual: 5.16
mrth: 88.0 cth: 66.73 usage: 84.59 residual: 3.41
mrth: 56.03 cth: 41.35 usage: 45.22 residual: 10.81
mrth: 45.23 cth: 34.67 usage: 23.57 residual: 21.66
mrth: 108.84 cth: 76.77 usage: 82.36 residual: 26.48
mrth: 59.88 cth: 52.61 usage: 53.49 residual: 6.39
mrth: 84.02 cth: 72.46 usage: 83.32 residual: 0.7
mrth: 130.03 cth: 101.89 usage: 103.61 residual: 26.42
mrth: 33.71 cth: 28.8 usage: 23.14 residual: 10.57
mrth: 36.51 cth: 29.26 usage: 23.72 residual: 12.79
mrth: 37.5 cth: 27.44 usage: 21.88 residual: 15.62
mrth: 118.05 cth: 97.97 usage: 80.82 residual: 37.23
mrth: 30.36 cth: 21.79 usage: 16.6 residual: 13.76
mrth: 6.98 cth: 5.44 usage: 5.82 residual: 1.16
mrth: 20.54 cth: 15.09 usage: 17.08 residual: 3.46
mrth: 45.48 cth: 38.59 usage: 44.42 residual: 1.06
mrth: 61.3 cth: 54.93 usage: 50.59 residual: 10.71
mrth: 138.01 cth: 122.84 usage: 84.48 residual: 53.53
mrth: 66.0 cth: 53.05 usage: 54.68 residual: 11.32
mrth: 43.71 cth: 30.66 usage: 29.09 residual: 14.62
mrth: 70.43 cth: 50.24 usage: 35.82 residual: 34.61
mrth: 39.4 cth: 32.52 usage: 23.63 residual: 15.77
mrth: 85.87 cth: 67.45 usage: 73.21 residual: 12.66
mrth: 37.65 cth: 33.58 usage: 33.73 residual: 3.92
mrth: 24.51 cth: 17.42 usage: 21.76 residual: 2.75
mrth: 25.39 cth: 21.55 usage: 22.8 residual: 2.59
mrth: 26.94 cth: 20.65 usage: 22.18 residual: 4.76
mrth: 60.65 cth: 49.48 usage: 49.3 residual: 11.35
mrth: 106.76 cth: 95.53 usage: 100.76 residual: 6.0
mrth: 74.14 cth: 59.97 usage: 73.55 residual: 0.59
mrth: 51.51 cth: 38.07 usage: 38.29 residual: 13.22
mrth: 79.19 cth: 61.89 usage: 75.55 residual: 3.64
mrth: 37.46 cth: 31.07 usage: 32.4 residual: 5.06
mrth: 73.63 cth: 62.21 usage: 44.47 residual: 29.16
mrth: 37.95 cth: 33.54 usage: 27.15 residual: 10.8
mrth: 45.8 cth: 34.63 usage: 24.22 residual: 21.58
mrth: 79.48 cth: 60.33 usage: 44.43 residual: 35.05
mrth: 33.0 cth: 27.15 usage: 24.85 residual: 8.15
mrth: 44.48 cth: 37.67 usage: 28.34 residual: 16.14
mrth: 43.77 cth: 36.07 usage: 24.77 residual: 19.0
mrth: 69.62 cth: 59.27 usage: 59.92 residual: 9.7
mrth: 55.56 cth: 47.01 usage: 53.17 residual: 2.39
mrth: 85.66 cth: 61.52 usage: 83.54 residual: 2.12
mrth: 35.55 cth: 27.9 usage: 25.96 residual: 9.59
mrth: 80.2 cth: 65.59 usage: 50.75 residual: 29.45
mrth: 70.35 cth: 63.2 usage: 63.11 residual: 7.24
mrth: 88.83 cth: 77.98 usage: 60.12 residual: 28.71
mrth: 117.95 cth: 84.32 usage: 107.09 residual: 10.86
mrth: 44.27 cth: 38.39 usage: 43.03 residual: 1.24
mrth: 53.33 cth: 40.17 usage: 50.35 residual: 2.98
mrth: 50.87 cth: 39.76 usage: 36.54 residual: 14.33
mrth: 29.52 cth: 24.79 usage: 24.8 residual: 4.72
mrth: 42.03 cth: 35.92 usage: 28.83 residual: 13.2
mrth: 5.15 cth: 4.23 usage: 4.79 residual: 0.36
mrth: 23.3 cth: 19.38 usage: 21.74 residual: 1.56
mrth: 95.17 cth: 74.91 usage: 73.3 residual: 21.87
mrth: 25.88 cth: 21.36 usage: 15.75 residual: 10.13
mrth: 105.33 cth: 76.65 usage: 89.78 residual: 15.55
mrth: 32.26 cth: 23.13 usage: 29.9 residual: 2.36
mrth: 46.31 cth: 38.19 usage: 23.53 residual: 22.78
mrth: 64.82 cth: 45.73 usage: 55.75 residual: 9.07
mrth: 89.86 cth: 73.5 usage: 67.54 residual: 22.32
mrth: 48.44 cth: 40.38 usage: 44.84 residual: 3.6
mrth: 18.72 cth: 13.68 usage: 9.68 residual: 9.04
mrth: 15.33 cth: 11.2 usage: 10.27 residual: 5.06
mrth: 40.77 cth: 29.78 usage: 28.38 residual: 12.39
mrth: 34.61 cth: 29.57 usage: 23.34 residual: 11.27
mrth: 23.41 cth: 17.54 usage: 23.12 residual: 0.29
mrth: 101.63 cth: 75.16 usage: 97.65 residual: 3.98
mrth: 30.98 cth: 21.69 usage: 28.42 residual: 2.56
mrth: 13.74 cth: 10.66 usage: 11.8 residual: 1.94
mrth: 15.43 cth: 12.83 usage: 12.35 residual: 3.08
mrth: 91.51 cth: 67.92 usage: 71.44 residual: 20.07
mrth: 0.78 cth: 0.58 usage: 0.76 residual: 0.02
mrth: 76.95 cth: 55.52 usage: 52.88 residual: 24.07
mrth: 26.13 cth: 22.11 usage: 24.0 residual: 2.13
mrth: 48.07 cth: 38.69 usage: 32.58 residual: 15.49
mrth: 88.11 cth: 65.01 usage: 50.98 residual: 37.13
mrth: 99.96 cth: 83.29 usage: 66.75 residual: 33.21
mrth: 42.88 cth: 34.85 usage: 22.26 residual: 20.62
mrth: 38.12 cth: 30.4 usage: 29.11 residual: 9.01
mrth: 87.06 cth: 67.49 usage: 68.8 residual: 18.26
mrth: 68.46 cth: 61.15 usage: 44.23 residual: 24.23
mrth: 101.55 cth: 80.63 usage: 97.25 residual: 4.3
mrth: 73.46 cth: 64.49 usage: 57.03 residual: 16.43
mrth: 73.87 cth: 66.36 usage: 58.46 residual: 15.41
mrth: 32.63 cth: 28.23 usage: 20.85 residual: 11.78
mrth: 7.5 cth: 5.63 usage: 5.92 residual: 1.58
mrth: 59.96 cth: 44.27 usage: 57.7 residual: 2.26
mrth: 28.41 cth: 22.11 usage: 22.75 residual: 5.66
mrth: 80.79 cth: 60.1 usage: 56.83 residual: 23.96
mrth: 16.41 cth: 12.14 usage: 9.03 residual: 7.38
mrth: 18.14 cth: 14.42 usage: 14.71 residual: 3.43
mrth: 60.15 cth: 45.0 usage: 59.15 residual: 1.0
mrth: 43.02 cth: 37.65 usage: 30.67 residual: 12.35
mrth: 80.73 cth: 67.54 usage: 48.95 residual: 31.78
mrth: 88.32 cth: 68.03 usage: 50.46 residual: 37.86
mrth: 42.27 cth: 33.98 usage: 31.1 residual: 11.17
mrth: 31.86 cth: 23.19 usage: 17.2 residual: 14.66
mrth: 39.68 cth: 35.24 usage: 34.83 residual: 4.85
mrth: 84.38 cth: 63.02 usage: 65.82 residual: 18.56
mrth: 31.95 cth: 24.48 usage: 16.68 residual: 15.27
mrth: 71.83 cth: 59.0 usage: 40.47 residual: 31.36
mrth: 34.9 cth: 29.6 usage: 17.6 residual: 17.3
mrth: 45.93 cth: 34.98 usage: 40.75 residual: 5.18
mrth: 116.08 cth: 86.88 usage: 81.26 residual: 34.82
mrth: 86.68 cth: 69.63 usage: 72.78 residual: 13.9
mrth: 69.55 cth: 51.49 usage: 36.27 residual: 33.28
mrth: 32.95 cth: 28.15 usage: 18.49 residual: 14.46
mrth: 61.34 cth: 54.17 usage: 32.25 residual: 29.09
mrth: 106.74 cth: 79.33 usage: 99.48 residual: 7.26
mrth: 91.37 cth: 70.22 usage: 61.04 residual: 30.33
mrth: 49.27 cth: 40.45 usage: 31.63 residual: 17.64
mrth: 45.29 cth: 36.58 usage: 29.43 residual: 15.86
mrth: 33.54 cth: 24.05 usage: 18.32 residual: 15.22
mrth: 52.71 cth: 40.63 usage: 41.11 residual: 11.6
mrth: 10.63 cth: 9.31 usage: 7.69 residual: 2.94
mrth: 51.79 cth: 46.42 usage: 44.34 residual: 7.45
mrth: 76.61 cth: 66.5 usage: 72.78 residual: 3.83
mrth: 74.95 cth: 53.6 usage: 48.1 residual: 26.85
mrth: 53.52 cth: 40.86 usage: 28.1 residual: 25.42
mrth: 74.83 cth: 61.36 usage: 73.15 residual: 1.68
mrth: 32.42 cth: 24.6 usage: 28.34 residual: 4.08
mrth: 61.31 cth: 47.22 usage: 53.11 residual: 8.2
mrth: 33.49 cth: 26.52 usage: 30.91 residual: 2.58
mrth: 26.51 cth: 21.25 usage: 25.46 residual: 1.05
mrth: 62.0 cth: 51.17 usage: 49.53 residual: 12.47
mrth: 31.97 cth: 22.96 usage: 31.34 residual: 0.63
mrth: 20.77 cth: 17.86 usage: 19.65 residual: 1.12
mrth: 68.88 cth: 61.77 usage: 54.59 residual: 14.29
mrth: 30.17 cth: 26.37 usage: 30.15 residual: 0.02
mrth: 71.51 cth: 50.59 usage: 51.72 residual: 19.79
mrth: 102.42 cth: 85.8 usage: 81.16 residual: 21.26
mrth: 18.8 cth: 16.2 usage: 11.3 residual: 7.5
mrth: 58.91 cth: 51.7 usage: 52.02 residual: 6.89
mrth: 6.21 cth: 5.42 usage: 5.92 residual: 0.29
mrth: 58.99 cth: 46.09 usage: 39.76 residual: 19.23
mrth: 54.15 cth: 46.3 usage: 28.06 residual: 26.09
mrth: 43.84 cth: 32.27 usage: 41.24 residual: 2.6
mrth: 62.93 cth: 56.63 usage: 45.98 residual: 16.95
mrth: 107.8 cth: 86.71 usage: 74.89 residual: 32.91
mrth: 116.18 cth: 83.66 usage: 69.59 residual: 46.59
mrth: 27.3 cth: 23.03 usage: 20.2 residual: 7.1
mrth: 94.4 cth: 78.85 usage: 56.33 residual: 38.07
mrth: 68.17 cth: 55.5 usage: 42.06 residual: 26.11
mrth: 54.73 cth: 38.39 usage: 41.99 residual: 12.74
mrth: 49.81 cth: 42.29 usage: 48.59 residual: 1.22
mrth: 16.9 cth: 13.07 usage: 12.08 residual: 4.82
mrth: 107.87 cth: 95.93 usage: 54.7 residual: 53.17
mrth: 64.36 cth: 53.48 usage: 50.62 residual: 13.74
mrth: 45.66 cth: 36.26 usage: 41.59 residual: 4.07
mrth: 87.38 cth: 69.56 usage: 59.11 residual: 28.27
mrth: 94.92 cth: 71.29 usage: 48.28 residual: 46.64
mrth: 3.98 cth: 3.44 usage: 3.62 residual: 0.36
mrth: 48.94 cth: 38.29 usage: 39.58 residual: 9.36
mrth: 37.53 cth: 33.72 usage: 30.04 residual: 7.49
mrth: 18.46 cth: 14.19 usage: 10.56 residual: 7.9
mrth: 33.62 cth: 25.39 usage: 28.11 residual: 5.51
mrth: 110.36 cth: 79.79 usage: 66.67 residual: 43.69
mrth: 31.59 cth: 23.96 usage: 22.11 residual: 9.48
mrth: 39.29 cth: 33.42 usage: 32.7 residual: 6.59
mrth: 168.43 cth: 118.36 usage: 105.98 residual: 62.45
mrth: 64.13 cth: 51.47 usage: 55.8 residual: 8.33
mrth: 9.31 cth: 7.3 usage: 9.1 residual: 0.21
mrth: 52.09 cth: 42.43 usage: 47.99 residual: 4.1
mrth: 69.29 cth: 55.32 usage: 39.07 residual: 30.22
mrth: 23.04 cth: 18.47 usage: 15.17 residual: 7.87
mrth: 58.31 cth: 42.05 usage: 48.91 residual: 9.4
mrth: 36.82 cth: 26.18 usage: 36.08 residual: 0.74
mrth: 28.69 cth: 22.58 usage: 26.06 residual: 2.63
mrth: 108.68 cth: 85.5 usage: 61.5 residual: 47.18
mrth: 34.49 cth: 27.4 usage: 27.11 residual: 7.38
mrth: 16.78 cth: 13.67 usage: 13.73 residual: 3.05
mrth: 11.17 cth: 9.7 usage: 6.85 residual: 4.32
mrth: 48.3 cth: 41.97 usage: 47.71 residual: 0.59
mrth: 59.22 cth: 51.44 usage: 53.68 residual: 5.54
mrth: 86.87 cth: 75.37 usage: 70.33 residual: 16.54
mrth: 29.42 cth: 25.07 usage: 16.16 residual: 13.26
mrth: 42.26 cth: 35.32 usage: 36.2 residual: 6.06
mrth: 80.65 cth: 65.87 usage: 59.52 residual: 21.13
mrth: 73.89 cth: 59.67 usage: 67.08 residual: 6.81
mrth: 60.46 cth: 51.89 usage: 32.18 residual: 28.28
mrth: 92.26 cth: 65.59 usage: 47.97 residual: 44.29
mrth: 102.88 cth: 88.71 usage: 99.86 residual: 3.02
mrth: 56.84 cth: 47.25 usage: 43.03 residual: 13.81
mrth: 95.29 cth: 71.87 usage: 60.78 residual: 34.51
mrth: 89.58 cth: 68.5 usage: 61.97 residual: 27.61
mrth: 77.66 cth: 58.77 usage: 49.13 residual: 28.53
mrth: 39.25 cth: 35.08 usage: 33.34 residual: 5.91
mrth: 38.34 cth: 28.44 usage: 22.79 residual: 15.55
mrth: 117.93 cth: 103.12 usage: 90.62 residual: 27.31
mrth: 39.68 cth: 32.93 usage: 37.61 residual: 2.07
mrth: 42.56 cth: 30.64 usage: 41.43 residual: 1.13
mrth: 75.0 cth: 59.19 usage: 46.89 residual: 28.11
mrth: 36.02 cth: 28.45 usage: 26.35 residual: 9.67
mrth: 58.94 cth: 48.0 usage: 44.04 residual: 14.9
mrth: 18.3 cth: 15.39 usage: 12.04 residual: 6.26
mrth: 49.92 cth: 38.76 usage: 38.36 residual: 11.56
mrth: 75.08 cth: 61.79 usage: 54.59 residual: 20.49
mrth: 87.43 cth: 63.05 usage: 59.36 residual: 28.07
mrth: 38.13 cth: 32.18 usage: 36.84 residual: 1.29
mrth: 83.97 cth: 69.71 usage: 77.98 residual: 5.99
mrth: 43.13 cth: 36.52 usage: 41.37 residual: 1.76
mrth: 50.38 cth: 38.18 usage: 35.45 residual: 14.93
mrth: 10.68 cth: 7.59 usage: 6.29 residual: 4.39
mrth: 35.45 cth: 25.86 usage: 33.62 residual: 1.83
mrth: 11.32 cth: 9.07 usage: 8.74 residual: 2.58
mrth: 55.84 cth: 48.93 usage: 51.53 residual: 4.31
mrth: 50.35 cth: 42.61 usage: 49.1 residual: 1.25
mrth: 101.17 cth: 90.48 usage: 92.03 residual: 9.14
mrth: 70.35 cth: 50.22 usage: 38.37 residual: 31.98
mrth: 87.91 cth: 66.82 usage: 67.01 residual: 20.9
mrth: 31.41 cth: 25.12 usage: 18.19 residual: 13.22
mrth: 77.83 cth: 64.09 usage: 49.54 residual: 28.29
mrth: 33.64 cth: 25.43 usage: 20.62 residual: 13.02
mrth: 152.56 cth: 115.36 usage: 82.61 residual: 69.95
mrth: 51.38 cth: 37.65 usage: 29.48 residual: 21.9
mrth: 40.65 cth: 29.82 usage: 36.07 residual: 4.58
mrth: 2.13 cth: 1.77 usage: 1.74 residual: 0.39
mrth: 109.99 cth: 87.98 usage: 102.08 residual: 7.91
mrth: 13.13 cth: 9.41 usage: 10.92 residual: 2.21
mrth: 48.18 cth: 35.59 usage: 43.01 residual: 5.17
mrth: 88.75 cth: 69.8 usage: 83.85 residual: 4.9
mrth: 21.88 cth: 17.64 usage: 21.74 residual: 0.14
mrth: 91.73 cth: 82.3 usage: 52.51 residual: 39.22
mrth: 75.41 cth: 54.73 usage: 60.88 residual: 14.53
mrth: 68.1 cth: 51.59 usage: 64.56 residual: 3.54
mrth: 73.67 cth: 57.5 usage: 71.5 residual: 2.17
mrth: 67.5 cth: 58.63 usage: 34.54 residual: 32.96
mrth: 44.1 cth: 32.54 usage: 38.04 residual: 6.06
mrth: 106.58 cth: 85.96 usage: 79.57 residual: 27.01
mrth: 97.78 cth: 82.87 usage: 81.57 residual: 16.21
mrth: 69.11 cth: 50.18 usage: 58.89 residual: 10.22
mrth: 78.02 cth: 59.9 usage: 64.44 residual: 13.58
mrth: 30.35 cth: 25.92 usage: 23.01 residual: 7.34
mrth: 50.16 cth: 39.65 usage: 49.62 residual: 0.54
mrth: 60.43 cth: 53.67 usage: 38.56 residual: 21.87
mrth: 118.95 cth: 90.42 usage: 64.77 residual: 54.18
mrth: 35.05 cth: 31.13 usage: 22.8 residual: 12.25
mrth: 50.85 cth: 44.58 usage: 33.83 residual: 17.02
mrth: 56.39 cth: 47.51 usage: 29.34 residual: 27.05
mrth: 40.01 cth: 33.79 usage: 28.45 residual: 11.56
mrth: 15.65 cth: 14.04 usage: 9.1 residual: 6.55
mrth: 88.88 cth: 63.0 usage: 48.87 residual: 40.01
mrth: 109.27 cth: 82.91 usage: 82.74 residual: 26.53
mrth: 69.14 cth: 58.23 usage: 51.59 residual: 17.55
mrth: 59.51 cth: 49.66 usage: 33.11 residual: 26.4
mrth: 69.73 cth: 58.33 usage: 35.19 residual: 34.54
mrth: 74.16 cth: 57.04 usage: 59.39 residual: 14.77
mrth: 151.28 cth: 128.61 usage: 106.68 residual: 44.6
mrth: 105.5 cth: 76.16 usage: 60.57 residual: 44.93
mrth: 37.3 cth: 26.99 usage: 32.58 residual: 4.72
mrth: 37.27 cth: 31.3 usage: 20.48 residual: 16.79
mrth: 34.47 cth: 25.61 usage: 20.45 residual: 14.02
mrth: 92.77 cth: 77.49 usage: 64.45 residual: 28.32
mrth: 134.08 cth: 99.85 usage: 94.53 residual: 39.55
mrth: 37.11 cth: 31.53 usage: 25.04 residual: 12.07
mrth: 44.63 cth: 37.04 usage: 42.4 residual: 2.23
mrth: 60.37 cth: 49.61 usage: 49.17 residual: 11.2
mrth: 38.62 cth: 31.24 usage: 19.91 residual: 18.71
mrth: 24.18 cth: 20.79 usage: 16.62 residual: 7.56
mrth: 96.36 cth: 67.99 usage: 62.03 residual: 34.33
mrth: 56.2 cth: 42.63 usage: 43.35 residual: 12.85
mrth: 140.29 cth: 104.15 usage: 131.71 residual: 8.58
mrth: 87.41 cth: 64.21 usage: 81.62 residual: 5.79
mrth: 63.75 cth: 56.67 usage: 53.88 residual: 9.87
mrth: 13.98 cth: 11.28 usage: 11.63 residual: 2.35
mrth: 62.53 cth: 44.82 usage: 45.98 residual: 16.55
mrth: 20.14 cth: 14.47 usage: 14.26 residual: 5.88
mrth: 94.02 cth: 81.81 usage: 78.46 residual: 15.56
mrth: 67.58 cth: 52.37 usage: 49.24 residual: 18.34
mrth: 10.94 cth: 9.8 usage: 7.56 residual: 3.38
mrth: 18.73 cth: 16.65 usage: 16.43 residual: 2.3
mrth: 54.41 cth: 47.36 usage: 33.25 residual: 21.16
mrth: 49.59 cth: 44.22 usage: 46.42 residual: 3.17
mrth: 26.06 cth: 20.99 usage: 18.77 residual: 7.29
mrth: 77.51 cth: 62.84 usage: 41.76 residual: 35.75
mrth: 75.55 cth: 61.62 usage: 71.28 residual: 4.27
mrth: 18.51 cth: 15.75 usage: 12.91 residual: 5.6
mrth: 24.98 cth: 19.64 usage: 22.88 residual: 2.1
mrth: 40.98 cth: 33.94 usage: 30.59 residual: 10.39
mrth: 86.36 cth: 68.82 usage: 51.66 residual: 34.7
mrth: 9.96 cth: 8.09 usage: 5.61 residual: 4.35
mrth: 29.93 cth: 21.21 usage: 18.23 residual: 11.7
mrth: 18.26 cth: 15.89 usage: 17.17 residual: 1.09
mrth: 72.52 cth: 60.59 usage: 59.16 residual: 13.36
mrth: 62.06 cth: 55.6 usage: 49.14 residual: 12.92
mrth: 39.58 cth: 32.05 usage: 30.27 residual: 9.31
mrth: 36.14 cth: 29.68 usage: 28.88 residual: 7.26
mrth: 60.67 cth: 48.06 usage: 35.5 residual: 25.17
mrth: 25.88 cth: 21.52 usage: 23.31 residual: 2.57
mrth: 42.94 cth: 34.1 usage: 27.6 residual: 15.34
mrth: 45.48 cth: 38.87 usage: 28.45 residual: 17.03
mrth: 47.18 cth: 40.71 usage: 35.71 residual: 11.47
mrth: 39.24 cth: 35.08 usage: 26.87 residual: 12.37
mrth: 55.27 cth: 48.13 usage: 52.69 residual: 2.58
mrth: 24.73 cth: 21.0 usage: 23.62 residual: 1.11
mrth: 51.17 cth: 43.2 usage: 27.39 residual: 23.78
mrth: 136.48 cth: 100.02 usage: 91.79 residual: 44.69
mrth: 60.17 cth: 45.57 usage: 35.24 residual: 24.93
mrth: 59.35 cth: 51.52 usage: 46.78 residual: 12.57
mrth: 14.27 cth: 10.75 usage: 9.18 residual: 5.09
mrth: 65.82 cth: 55.74 usage: 47.87 residual: 17.95
mrth: 105.43 cth: 87.19 usage: 63.28 residual: 42.15
mrth: 28.0 cth: 19.91 usage: 19.12 residual: 8.88
mrth: 24.38 cth: 20.53 usage: 15.55 residual: 8.83
mrth: 85.31 cth: 65.08 usage: 50.18 residual: 35.13
mrth: 30.87 cth: 23.64 usage: 30.31 residual: 0.56
mrth: 40.71 cth: 33.89 usage: 29.23 residual: 11.48
mrth: 6.05 cth: 5.02 usage: 3.62 residual: 2.43
mrth: 55.64 cth: 46.96 usage: 29.09 residual: 26.55
mrth: 101.17 cth: 79.01 usage: 94.59 residual: 6.58
mrth: 43.74 cth: 36.83 usage: 41.75 residual: 1.99
mrth: 28.77 cth: 25.24 usage: 25.49 residual: 3.28
mrth: 58.85 cth: 47.7 usage: 52.93 residual: 5.92
mrth: 31.6 cth: 26.8 usage: 19.67 residual: 11.93
mrth: 23.54 cth: 18.54 usage: 12.27 residual: 11.27
mrth: 33.98 cth: 25.24 usage: 32.97 residual: 1.01
mrth: 37.51 cth: 33.28 usage: 24.81 residual: 12.7
mrth: 82.58 cth: 59.91 usage: 75.03 residual: 7.55
mrth: 55.92 cth: 49.2 usage: 40.56 residual: 15.36
mrth: 24.04 cth: 17.7 usage: 21.85 residual: 2.19
mrth: 71.83 cth: 63.97 usage: 37.9 residual: 33.93
mrth: 47.4 cth: 36.71 usage: 39.9 residual: 7.5
mrth: 42.26 cth: 36.84 usage: 31.52 residual: 10.74
mrth: 41.77 cth: 30.55 usage: 33.23 residual: 8.54
mrth: 52.69 cth: 43.72 usage: 41.51 residual: 11.18
mrth: 34.12 cth: 24.36 usage: 25.35 residual: 8.77
mrth: 72.45 cth: 60.1 usage: 44.14 residual: 28.31
mrth: 94.75 cth: 70.32 usage: 73.72 residual: 21.03
mrth: 23.66 cth: 17.86 usage: 13.14 residual: 10.52
mrth: 39.26 cth: 30.6 usage: 22.47 residual: 16.79
mrth: 65.44 cth: 57.15 usage: 56.48 residual: 8.96
mrth: 29.33 cth: 22.15 usage: 29.15 residual: 0.18
mrth: 101.36 cth: 88.23 usage: 60.48 residual: 40.88
mrth: 35.65 cth: 27.35 usage: 28.57 residual: 7.08
mrth: 70.22 cth: 55.81 usage: 40.0 residual: 30.22
mrth: 3.9 cth: 3.3 usage: 2.01 residual: 1.89
mrth: 56.79 cth: 44.35 usage: 28.99 residual: 27.8
mrth: 66.75 cth: 51.27 usage: 44.13 residual: 22.62
mrth: 107.1 cth: 84.63 usage: 53.83 residual: 53.27
mrth: 101.85 cth: 77.61 usage: 97.91 residual: 3.94
mrth: 87.49 cth: 61.42 usage: 58.52 residual: 28.97
mrth: 88.06 cth: 77.52 usage: 74.76 residual: 13.3
mrth: 48.46 cth: 42.67 usage: 47.15 residual: 1.31
mrth: 91.9 cth: 77.24 usage: 56.22 residual: 35.68
mrth: 75.67 cth: 66.87 usage: 59.92 residual: 15.75
mrth: 33.53 cth: 26.83 usage: 30.21 residual: 3.32
mrth: 117.15 cth: 104.67 usage: 76.73 residual: 40.42
mrth: 93.3 cth: 69.69 usage: 82.42 residual: 10.88
mrth: 108.08 cth: 90.69 usage: 87.42 residual: 20.66
mrth: 69.82 cth: 57.17 usage: 48.07 residual: 21.75
mrth: 23.88 cth: 17.33 usage: 18.74 residual: 5.14
mrth: 69.01 cth: 50.8 usage: 61.76 residual: 7.25
mrth: 6.97 cth: 6.15 usage: 4.53 residual: 2.44
mrth: 69.53 cth: 50.32 usage: 57.16 residual: 12.37
mrth: 40.08 cth: 30.68 usage: 26.04 residual: 14.04
mrth: 3.36 cth: 2.96 usage: 2.73 residual: 0.63
mrth: 16.84 cth: 13.29 usage: 11.08 residual: 5.76
mrth: 44.01 cth: 31.47 usage: 30.52 residual: 13.49
mrth: 18.03 cth: 16.11 usage: 12.88 residual: 5.15
mrth: 10.84 cth: 8.7 usage: 9.46 residual: 1.38
mrth: 41.54 cth: 30.28 usage: 30.74 residual: 10.8
mrth: 88.17 cth: 64.64 usage: 75.4 residual: 12.77
mrth: 33.21 cth: 26.01 usage: 25.21 residual: 8.0
mrth: 6.31 cth: 5.6 usage: 3.76 residual: 2.55
mrth: 95.55 cth: 80.48 usage: 66.93 residual: 28.62
mrth: 22.91 cth: 18.87 usage: 13.11 residual: 9.8
mrth: 62.57 cth: 47.69 usage: 53.44 residual: 9.13
mrth: 60.13 cth: 44.79 usage: 47.38 residual: 12.75
mrth: 66.79 cth: 57.57 usage: 35.42 residual: 31.37
mrth: 44.53 cth: 34.52 usage: 36.76 residual: 7.77
mrth: 70.41 cth: 55.17 usage: 36.63 residual: 33.78
mrth: 37.18 cth: 29.57 usage: 28.5 residual: 8.68
mrth: 42.49 cth: 31.12 usage: 42.23 residual: 0.26
mrth: 81.22 cth: 56.99 usage: 51.99 residual: 29.23
mrth: 29.27 cth: 23.66 usage: 18.1 residual: 11.17
mrth: 22.79 cth: 18.87 usage: 22.21 residual: 0.58
mrth: 97.47 cth: 77.54 usage: 48.75 residual: 48.72
mrth: 34.67 cth: 30.72 usage: 26.02 residual: 8.65
mrth: 89.44 cth: 76.52 usage: 66.04 residual: 23.4
mrth: 94.3 cth: 67.09 usage: 78.34 residual: 15.96
mrth: 78.6 cth: 66.41 usage: 52.62 residual: 25.98
mrth: 17.3 cth: 12.58 usage: 10.85 residual: 6.45
mrth: 67.65 cth: 51.3 usage: 67.11 residual: 0.54
mrth: 53.3 cth: 40.51 usage: 38.42 residual: 14.88
mrth: 77.34 cth: 54.76 usage: 53.28 residual: 24.06
mrth: 81.23 cth: 64.21 usage: 45.05 residual: 36.18
mrth: 118.65 cth: 100.79 usage: 118.14 residual: 0.51
mrth: 57.27 cth: 42.87 usage: 49.49 residual: 7.78
mrth: 132.77 cth: 110.72 usage: 112.46 residual: 20.31
mrth: 33.94 cth: 26.66 usage: 31.38 residual: 2.56
mrth: 34.78 cth: 27.14 usage: 24.96 residual: 9.82
mrth: 20.33 cth: 14.83 usage: 13.48 residual: 6.85
mrth: 56.35 cth: 43.97 usage: 30.51 residual: 25.84
mrth: 49.49 cth: 37.69 usage: 25.76 residual: 23.73
mrth: 49.34 cth: 35.14 usage: 47.17 residual: 2.17
mrth: 120.84 cth: 100.39 usage: 116.94 residual: 3.9
mrth: 99.74 cth: 88.94 usage: 95.67 residual: 4.07
mrth: 62.95 cth: 44.47 usage: 40.96 residual: 21.99
mrth: 14.08 cth: 11.06 usage: 12.9 residual: 1.18
mrth: 59.54 cth: 48.96 usage: 31.38 residual: 28.16
mrth: 22.62 cth: 19.51 usage: 11.81 residual: 10.81
mrth: 25.27 cth: 19.31 usage: 13.5 residual: 11.77
mrth: 64.41 cth: 48.74 usage: 46.05 residual: 18.36
mrth: 115.41 cth: 100.89 usage: 74.45 residual: 40.96
mrth: 63.07 cth: 54.77 usage: 50.03 residual: 13.04
mrth: 63.34 cth: 50.54 usage: 55.36 residual: 7.98
mrth: 72.5 cth: 63.89 usage: 72.0 residual: 0.5
mrth: 40.91 cth: 29.16 usage: 40.76 residual: 0.15
mrth: 51.33 cth: 42.21 usage: 28.47 residual: 22.86
mrth: 100.96 cth: 86.92 usage: 66.07 residual: 34.89
mrth: 50.0 cth: 38.69 usage: 29.17 residual: 20.83
mrth: 22.04 cth: 18.59 usage: 16.75 residual: 5.29
mrth: 46.78 cth: 39.34 usage: 29.47 residual: 17.31
mrth: 42.99 cth: 38.64 usage: 24.23 residual: 18.76
mrth: 23.46 cth: 17.73 usage: 18.82 residual: 4.64
mrth: 54.36 cth: 46.01 usage: 46.74 residual: 7.62
mrth: 34.03 cth: 27.7 usage: 27.33 residual: 6.7
mrth: 58.51 cth: 41.07 usage: 32.06 residual: 26.45
mrth: 73.19 cth: 51.37 usage: 39.33 residual: 33.86
mrth: 43.89 cth: 32.14 usage: 26.53 residual: 17.36
mrth: 74.16 cth: 52.16 usage: 48.81 residual: 25.35
mrth: 109.76 cth: 86.27 usage: 59.17 residual: 50.59
mrth: 22.25 cth: 16.13 usage: 20.12 residual: 2.13
mrth: 39.34 cth: 28.33 usage: 36.21 residual: 3.13
mrth: 58.8 cth: 43.14 usage: 47.78 residual: 11.02
mrth: 75.24 cth: 57.13 usage: 54.99 residual: 20.25
mrth: 33.19 cth: 23.74 usage: 19.38 residual: 13.81
mrth: 51.59 cth: 41.36 usage: 35.33 residual: 16.26
mrth: 64.55 cth: 46.88 usage: 64.46 residual: 0.09
mrth: 84.88 cth: 66.43 usage: 71.21 residual: 13.67
mrth: 72.78 cth: 59.93 usage: 64.92 residual: 7.86
mrth: 65.07 cth: 57.53 usage: 63.81 residual: 1.26
mrth: 34.26 cth: 25.39 usage: 27.37 residual: 6.89
mrth: 56.31 cth: 48.32 usage: 45.9 residual: 10.41
mrth: 66.47 cth: 48.51 usage: 38.91 residual: 27.56
mrth: 39.02 cth: 34.14 usage: 31.21 residual: 7.81
mrth: 31.69 cth: 23.24 usage: 21.99 residual: 9.7
mrth: 9.13 cth: 8.21 usage: 6.9 residual: 2.23
mrth: 14.12 cth: 10.83 usage: 13.26 residual: 0.86
mrth: 12.99 cth: 11.31 usage: 8.91 residual: 4.08
mrth: 35.76 cth: 29.17 usage: 24.43 residual: 11.33
mrth: 23.85 cth: 21.24 usage: 14.5 residual: 9.35
mrth: 9.54 cth: 8.35 usage: 6.51 residual: 3.03
mrth: 96.57 cth: 71.43 usage: 75.15 residual: 21.42
mrth: 108.93 cth: 90.77 usage: 68.56 residual: 40.37
mrth: 28.2 cth: 24.21 usage: 19.22 residual: 8.98
mrth: 61.0 cth: 43.15 usage: 52.32 residual: 8.68
mrth: 32.24 cth: 23.41 usage: 27.77 residual: 4.47
mrth: 41.77 cth: 32.5 usage: 38.08 residual: 3.69
mrth: 80.72 cth: 66.77 usage: 43.84 residual: 36.88
mrth: 59.4 cth: 42.31 usage: 57.85 residual: 1.55
mrth: 46.31 cth: 40.32 usage: 25.84 residual: 20.47
mrth: 58.5 cth: 47.46 usage: 47.96 residual: 10.54
mrth: 54.43 cth: 42.94 usage: 28.9 residual: 25.53
mrth: 20.93 cth: 14.8 usage: 17.06 residual: 3.87
mrth: 76.66 cth: 62.96 usage: 48.83 residual: 27.83
mrth: 60.17 cth: 46.41 usage: 32.94 residual: 27.23
mrth: 50.15 cth: 40.06 usage: 26.0 residual: 24.15
mrth: 55.89 cth: 42.81 usage: 37.15 residual: 18.74
mrth: 58.48 cth: 51.95 usage: 47.77 residual: 10.71
mrth: 11.68 cth: 8.31 usage: 9.93 residual: 1.75
mrth: 16.72 cth: 12.65 usage: 13.62 residual: 3.1
mrth: 41.17 cth: 34.64 usage: 24.67 residual: 16.5
mrth: 78.01 cth: 57.77 usage: 76.1 residual: 1.91
mrth: 95.02 cth: 81.76 usage: 89.05 residual: 5.97
mrth: 58.47 cth: 43.01 usage: 35.32 residual: 23.15
mrth: 35.95 cth: 29.82 usage: 21.19 residual: 14.76
mrth: 31.69 cth: 22.42 usage: 17.02 residual: 14.67
mrth: 61.39 cth: 43.16 usage: 60.15 residual: 1.24
mrth: 44.81 cth: 33.12 usage: 27.8 residual: 17.01
mrth: 15.81 cth: 11.2 usage: 9.42 residual: 6.39
mrth: 70.49 cth: 56.3 usage: 58.37 residual: 12.12
mrth: 32.88 cth: 29.28 usage: 27.13 residual: 5.75
mrth: 82.77 cth: 69.91 usage: 52.38 residual: 30.39
mrth: 65.47 cth: 53.37 usage: 45.41 residual: 20.06
mrth: 62.09 cth: 46.85 usage: 34.49 residual: 27.6
mrth: 11.29 cth: 9.68 usage: 10.96 residual: 0.33
mrth: 102.75 cth: 80.29 usage: 75.54 residual: 27.21
mrth: 44.73 cth: 32.76 usage: 30.9 residual: 13.83
mrth: 25.8 cth: 19.8 usage: 20.97 residual: 4.83
mrth: 49.52 cth: 42.62 usage: 44.74 residual: 4.78
mrth: 37.6 cth: 28.62 usage: 34.62 residual: 2.98
mrth: 61.36 cth: 51.41 usage: 53.13 residual: 8.23
mrth: 38.65 cth: 27.87 usage: 30.42 residual: 8.23
mrth: 23.36 cth: 17.32 usage: 14.1 residual: 9.26
mrth: 13.65 cth: 11.58 usage: 13.08 residual: 0.57
mrth: 72.18 cth: 60.02 usage: 59.52 residual: 12.66
mrth: 64.69 cth: 53.62 usage: 55.11 residual: 9.58
mrth: 46.36 cth: 38.79 usage: 38.18 residual: 8.18
mrth: 65.03 cth: 52.04 usage: 61.37 residual: 3.66
mrth: 15.63 cth: 11.65 usage: 12.42 residual: 3.21
mrth: 33.7 cth: 29.75 usage: 29.43 residual: 4.27
mrth: 62.21 cth: 52.59 usage: 61.07 residual: 1.14
mrth: 38.23 cth: 31.96 usage: 35.37 residual: 2.86
mrth: 12.05 cth: 10.5 usage: 7.81 residual: 4.24
mrth: 51.78 cth: 42.05 usage: 49.62 residual: 2.16
mrth: 99.93 cth: 77.76 usage: 61.13 residual: 38.8
mrth: 17.61 cth: 15.53 usage: 9.24 residual: 8.37
mrth: 87.26 cth: 62.94 usage: 79.39 residual: 7.87
mrth: 34.28 cth: 28.27 usage: 30.6 residual: 3.68
mrth: 83.68 cth: 75.1 usage: 43.13 residual: 40.55
mrth: 60.79 cth: 49.64 usage: 44.02 residual: 16.77
mrth: 40.79 cth: 31.62 usage: 28.59 residual: 12.2
mrth: 137.46 cth: 110.08 usage: 120.58 residual: 16.88
mrth: 93.45 cth: 66.01 usage: 50.26 residual: 43.19
mrth: 36.74 cth: 28.61 usage: 26.07 residual: 10.67
mrth: 59.19 cth: 49.52 usage: 35.97 residual: 23.22
mrth: 38.12 cth: 32.45 usage: 37.47 residual: 0.65
mrth: 57.19 cth: 42.46 usage: 42.97 residual: 14.22
mrth: 41.65 cth: 31.74 usage: 33.93 residual: 7.72
mrth: 12.28 cth: 10.41 usage: 8.38 residual: 3.9
mrth: 26.95 cth: 22.17 usage: 23.89 residual: 3.06
mrth: 65.2 cth: 54.68 usage: 45.6 residual: 19.6
mrth: 108.37 cth: 80.01 usage: 57.36 residual: 51.01
mrth: 94.84 cth: 67.51 usage: 90.32 residual: 4.52
mrth: 43.66 cth: 35.99 usage: 28.48 residual: 15.18
mrth: 57.17 cth: 43.58 usage: 40.78 residual: 16.39
mrth: 45.97 cth: 33.65 usage: 27.61 residual: 18.36
mrth: 67.96 cth: 47.8 usage: 44.13 residual: 23.83
mrth: 69.11 cth: 51.54 usage: 61.68 residual: 7.43
mrth: 60.18 cth: 51.45 usage: 51.94 residual: 8.24
mrth: 73.46 cth: 55.32 usage: 58.54 residual: 14.92
mrth: 76.61 cth: 63.74 usage: 63.53 residual: 13.08
mrth: 54.29 cth: 38.17 usage: 49.2 residual: 5.09
mrth: 27.63 cth: 23.1 usage: 22.06 residual: 5.57
mrth: 100.26 cth: 76.43 usage: 77.68 residual: 22.58
mrth: 55.37 cth: 45.18 usage: 49.66 residual: 5.71
mrth: 21.69 cth: 16.7 usage: 14.31 residual: 7.38
mrth: 30.7 cth: 27.29 usage: 30.47 residual: 0.23
mrth: 34.57 cth: 27.06 usage: 20.01 residual: 14.56
mrth: 126.51 cth: 99.74 usage: 96.2 residual: 30.31
mrth: 38.62 cth: 33.83 usage: 28.42 residual: 10.2
mrth: 18.59 cth: 14.92 usage: 16.82 residual: 1.77
mrth: 37.07 cth: 26.13 usage: 33.92 residual: 3.15
mrth: 71.2 cth: 56.17 usage: 58.49 residual: 12.71
mrth: 116.13 cth: 89.82 usage: 80.31 residual: 35.82
mrth: 37.27 cth: 27.32 usage: 22.93 residual: 14.34
mrth: 57.12 cth: 47.8 usage: 34.3 residual: 22.82
mrth: 67.83 cth: 59.16 usage: 53.92 residual: 13.91
mrth: 55.05 cth: 47.08 usage: 48.57 residual: 6.48
mrth: 37.56 cth: 29.24 usage: 23.83 residual: 13.73
mrth: 65.37 cth: 47.55 usage: 48.47 residual: 16.9
mrth: 71.31 cth: 58.59 usage: 35.84 residual: 35.47
mrth: 26.81 cth: 22.38 usage: 17.45 residual: 9.36
mrth: 45.9 cth: 32.9 usage: 30.28 residual: 15.62
mrth: 48.66 cth: 42.7 usage: 36.96 residual: 11.7
mrth: 97.48 cth: 75.01 usage: 75.8 residual: 21.68
mrth: 73.1 cth: 53.05 usage: 69.11 residual: 3.99
mrth: 35.49 cth: 25.77 usage: 32.23 residual: 3.26
mrth: 48.78 cth: 37.17 usage: 42.18 residual: 6.6
mrth: 68.31 cth: 53.61 usage: 64.01 residual: 4.3
mrth: 30.76 cth: 25.14 usage: 24.78 residual: 5.98
mrth: 88.85 cth: 77.42 usage: 61.06 residual: 27.79
mrth: 47.22 cth: 38.26 usage: 46.16 residual: 1.06
mrth: 92.13 cth: 78.72 usage: 51.1 residual: 41.03
mrth: 89.75 cth: 69.49 usage: 82.96 residual: 6.79
mrth: 65.12 cth: 52.55 usage: 61.8 residual: 3.32
mrth: 21.85 cth: 16.7 usage: 14.73 residual: 7.12
mrth: 57.67 cth: 51.18 usage: 49.74 residual: 7.93
mrth: 83.44 cth: 60.8 usage: 60.7 residual: 22.74
mrth: 12.58 cth: 10.8 usage: 11.97 residual: 0.61
mrth: 4.5 cth: 3.4 usage: 2.41 residual: 2.09
mrth: 64.67 cth: 46.03 usage: 61.34 residual: 3.33
mrth: 26.0 cth: 22.44 usage: 15.0 residual: 11.0
mrth: 52.64 cth: 40.73 usage: 27.51 residual: 25.13
mrth: 82.86 cth: 69.87 usage: 45.23 residual: 37.63
mrth: 35.22 cth: 27.9 usage: 33.84 residual: 1.38
mrth: 47.51 cth: 38.17 usage: 27.05 residual: 20.46
mrth: 77.03 cth: 60.96 usage: 54.31 residual: 22.72
mrth: 24.1 cth: 21.07 usage: 16.5 residual: 7.6
mrth: 25.07 cth: 19.97 usage: 24.46 residual: 0.61
mrth: 37.1 cth: 31.36 usage: 28.77 residual: 8.33
mrth: 67.59 cth: 52.43 usage: 41.23 residual: 26.36
mrth: 32.93 cth: 28.0 usage: 22.25 residual: 10.68
mrth: 12.47 cth: 10.13 usage: 10.29 residual: 2.18
mrth: 23.39 cth: 19.3 usage: 14.24 residual: 9.15
mrth: 44.43 cth: 39.5 usage: 27.04 residual: 17.39
mrth: 49.08 cth: 40.98 usage: 30.23 residual: 18.85
mrth: 45.49 cth: 39.56 usage: 40.43 residual: 5.06
mrth: 22.4 cth: 17.07 usage: 16.61 residual: 5.79
mrth: 61.31 cth: 55.09 usage: 47.88 residual: 13.43
mrth: 88.88 cth: 65.32 usage: 45.38 residual: 43.5
mrth: 124.72 cth: 100.6 usage: 75.14 residual: 49.58
mrth: 72.78 cth: 62.81 usage: 47.32 residual: 25.46
mrth: 89.47 cth: 74.34 usage: 59.46 residual: 30.01
mrth: 88.77 cth: 74.91 usage: 53.28 residual: 35.49
mrth: 9.82 cth: 7.75 usage: 9.62 residual: 0.2
mrth: 32.51 cth: 28.08 usage: 18.12 residual: 14.39
mrth: 71.98 cth: 50.73 usage: 57.03 residual: 14.95
mrth: 83.06 cth: 64.72 usage: 53.23 residual: 29.83
mrth: 43.17 cth: 31.18 usage: 39.48 residual: 3.69
mrth: 51.72 cth: 41.31 usage: 33.1 residual: 18.62
mrth: 64.72 cth: 55.67 usage: 48.06 residual: 16.66
mrth: 17.17 cth: 13.25 usage: 12.23 residual: 4.94
mrth: 25.96 cth: 19.03 usage: 21.2 residual: 4.76
mrth: 78.84 cth: 55.65 usage: 63.74 residual: 15.1
mrth: 22.79 cth: 18.17 usage: 19.3 residual: 3.49
mrth: 86.14 cth: 64.35 usage: 48.58 residual: 37.56
mrth: 67.08 cth: 57.88 usage: 43.72 residual: 23.36
mrth: 83.05 cth: 64.15 usage: 70.81 residual: 12.24
mrth: 73.18 cth: 53.63 usage: 38.29 residual: 34.89
mrth: 9.28 cth: 7.54 usage: 6.05 residual: 3.23
mrth: 120.13 cth: 99.64 usage: 109.85 residual: 10.28
mrth: 78.41 cth: 60.21 usage: 46.05 residual: 32.36
mrth: 65.59 cth: 48.34 usage: 57.8 residual: 7.79
mrth: 11.33 cth: 8.36 usage: 6.03 residual: 5.3
mrth: 13.08 cth: 11.61 usage: 12.24 residual: 0.84
mrth: 30.84 cth: 24.23 usage: 27.16 residual: 3.68
mrth: 29.11 cth: 24.55 usage: 23.61 residual: 5.5
mrth: 46.12 cth: 34.45 usage: 37.3 residual: 8.82
mrth: 76.53 cth: 63.21 usage: 67.03 residual: 9.5
mrth: 57.35 cth: 42.87 usage: 35.17 residual: 22.18
mrth: 34.71 cth: 26.14 usage: 30.39 residual: 4.32
mrth: 25.09 cth: 18.16 usage: 13.99 residual: 11.1
mrth: 71.68 cth: 59.5 usage: 47.74 residual: 23.94
mrth: 27.26 cth: 22.84 usage: 23.54 residual: 3.72
mrth: 18.75 cth: 14.0 usage: 12.22 residual: 6.53
mrth: 36.84 cth: 31.55 usage: 25.9 residual: 10.94
mrth: 22.63 cth: 17.19 usage: 21.12 residual: 1.51
mrth: 98.3 cth: 72.0 usage: 91.4 residual: 6.9
mrth: 112.71 cth: 87.01 usage: 107.04 residual: 5.67
mrth: 22.05 cth: 19.63 usage: 12.05 residual: 10.0
mrth: 9.9 cth: 8.2 usage: 8.21 residual: 1.69
mrth: 118.11 cth: 94.41 usage: 87.52 residual: 30.59
mrth: 49.53 cth: 39.0 usage: 42.6 residual: 6.93
mrth: 64.2 cth: 52.81 usage: 40.67 residual: 23.53
mrth: 41.06 cth: 33.14 usage: 21.93 residual: 19.13
mrth: 59.44 cth: 43.86 usage: 48.86 residual: 10.58
mrth: 63.15 cth: 49.41 usage: 52.79 residual: 10.36
mrth: 50.03 cth: 42.45 usage: 30.22 residual: 19.81
mrth: 57.06 cth: 48.86 usage: 50.23 residual: 6.83
mrth: 56.76 cth: 41.04 usage: 39.37 residual: 17.39
mrth: 31.58 cth: 27.62 usage: 31.32 residual: 0.26
mrth: 50.66 cth: 37.62 usage: 46.71 residual: 3.95
mrth: 80.51 cth: 63.74 usage: 66.78 residual: 13.73
mrth: 131.02 cth: 116.46 usage: 84.72 residual: 46.3
mrth: 122.09 cth: 87.18 usage: 72.57 residual: 49.52
mrth: 27.16 cth: 22.27 usage: 24.24 residual: 2.92
mrth: 9.11 cth: 7.0 usage: 9.02 residual: 0.09
mrth: 45.99 cth: 37.18 usage: 27.58 residual: 18.41
mrth: 94.11 cth: 70.35 usage: 91.82 residual: 2.29
mrth: 51.76 cth: 41.66 usage: 34.05 residual: 17.71
mrth: 59.83 cth: 50.22 usage: 34.14 residual: 25.69
mrth: 66.35 cth: 46.93 usage: 46.22 residual: 20.13
mrth: 96.71 cth: 69.34 usage: 60.07 residual: 36.64
mrth: 14.23 cth: 10.38 usage: 13.68 residual: 0.55
mrth: 55.74 cth: 45.87 usage: 52.74 residual: 3.0
mrth: 77.73 cth: 63.6 usage: 73.93 residual: 3.8
mrth: 55.84 cth: 48.0 usage: 54.0 residual: 1.84
mrth: 24.63 cth: 18.21 usage: 20.66 residual: 3.97
mrth: 55.39 cth: 48.15 usage: 34.26 residual: 21.13
mrth: 25.16 cth: 19.18 usage: 17.55 residual: 7.61
mrth: 92.97 cth: 82.78 usage: 91.35 residual: 1.62
mrth: 37.28 cth: 27.76 usage: 34.97 residual: 2.31
mrth: 58.98 cth: 47.53 usage: 58.65 residual: 0.33
mrth: 41.35 cth: 28.99 usage: 30.48 residual: 10.87
mrth: 77.49 cth: 56.88 usage: 63.1 residual: 14.39
mrth: 48.13 cth: 41.22 usage: 45.14 residual: 2.99
mrth: 66.39 cth: 52.54 usage: 54.65 residual: 11.74
mrth: 31.41 cth: 24.39 usage: 29.08 residual: 2.33
mrth: 19.84 cth: 16.8 usage: 19.0 residual: 0.84
mrth: 24.23 cth: 19.67 usage: 12.49 residual: 11.74
mrth: 73.02 cth: 56.15 usage: 72.49 residual: 0.53
mrth: 53.28 cth: 40.58 usage: 28.87 residual: 24.41
mrth: 68.43 cth: 51.76 usage: 50.4 residual: 18.03
mrth: 54.33 cth: 47.31 usage: 27.39 residual: 26.94
mrth: 58.87 cth: 50.83 usage: 39.73 residual: 19.14
mrth: 28.85 cth: 22.11 usage: 18.02 residual: 10.83
mrth: 79.4 cth: 64.13 usage: 65.96 residual: 13.44
mrth: 107.04 cth: 80.1 usage: 80.2 residual: 26.84
mrth: 56.85 cth: 47.03 usage: 35.48 residual: 21.37
mrth: 83.19 cth: 71.36 usage: 62.53 residual: 20.66
mrth: 68.54 cth: 52.76 usage: 50.55 residual: 17.99
mrth: 112.31 cth: 89.36 usage: 89.6 residual: 22.71
mrth: 97.4 cth: 76.01 usage: 69.9 residual: 27.5
mrth: 16.92 cth: 12.98 usage: 10.08 residual: 6.84
mrth: 65.57 cth: 53.47 usage: 54.5 residual: 11.07
mrth: 13.32 cth: 9.97 usage: 9.56 residual: 3.76
mrth: 65.81 cth: 48.0 usage: 33.72 residual: 32.09
mrth: 24.11 cth: 18.55 usage: 19.59 residual: 4.52
mrth: 49.85 cth: 39.53 usage: 49.63 residual: 0.22
mrth: 25.54 cth: 21.15 usage: 15.78 residual: 9.76
mrth: 58.74 cth: 42.88 usage: 50.87 residual: 7.87
mrth: 51.03 cth: 41.8 usage: 43.58 residual: 7.45
mrth: 75.8 cth: 53.28 usage: 57.83 residual: 17.97
mrth: 98.06 cth: 75.5 usage: 91.13 residual: 6.93
mrth: 31.53 cth: 22.21 usage: 31.0 residual: 0.53
mrth: 99.23 cth: 74.4 usage: 62.05 residual: 37.18
mrth: 25.61 cth: 22.75 usage: 20.67 residual: 4.94
mrth: 22.44 cth: 18.96 usage: 15.71 residual: 6.73
mrth: 63.95 cth: 52.44 usage: 44.05 residual: 19.9
mrth: 73.07 cth: 55.65 usage: 62.99 residual: 10.08
mrth: 54.77 cth: 40.65 usage: 37.57 residual: 17.2
mrth: 40.81 cth: 33.08 usage: 26.32 residual: 14.49
mrth: 57.34 cth: 45.81 usage: 52.49 residual: 4.85
mrth: 17.84 cth: 15.63 usage: 14.32 residual: 3.52
mrth: 66.76 cth: 50.69 usage: 46.64 residual: 20.12
mrth: 29.91 cth: 26.07 usage: 15.36 residual: 14.55
mrth: 21.67 cth: 19.1 usage: 14.82 residual: 6.85
mrth: 43.02 cth: 37.94 usage: 41.46 residual: 1.56
mrth: 24.53 cth: 18.09 usage: 13.25 residual: 11.28
mrth: 92.29 cth: 79.89 usage: 47.47 residual: 44.82
mrth: 50.56 cth: 36.65 usage: 43.36 residual: 7.2
mrth: 44.34 cth: 34.04 usage: 31.34 residual: 13.0
mrth: 67.31 cth: 57.04 usage: 50.13 residual: 17.18
mrth: 26.22 cth: 23.44 usage: 16.65 residual: 9.57
mrth: 62.91 cth: 47.25 usage: 38.74 residual: 24.17
mrth: 69.28 cth: 53.52 usage: 63.33 residual: 5.95
mrth: 39.83 cth: 28.73 usage: 26.44 residual: 13.39
mrth: 70.48 cth: 52.51 usage: 52.48 residual: 18.0
mrth: 28.68 cth: 24.64 usage: 16.37 residual: 12.31
mrth: 18.88 cth: 15.97 usage: 11.7 residual: 7.18
mrth: 39.87 cth: 31.79 usage: 29.99 residual: 9.88
mrth: 34.16 cth: 25.06 usage: 32.9 residual: 1.26
mrth: 16.5 cth: 14.08 usage: 14.86 residual: 1.64
mrth: 41.12 cth: 36.32 usage: 41.05 residual: 0.07
mrth: 8.86 cth: 7.23 usage: 8.73 residual: 0.13
mrth: 78.56 cth: 68.91 usage: 52.15 residual: 26.41
mrth: 38.65 cth: 33.65 usage: 25.17 residual: 13.48
mrth: 54.58 cth: 39.79 usage: 52.03 residual: 2.55
mrth: 55.53 cth: 43.9 usage: 31.3 residual: 24.23
mrth: 24.26 cth: 19.62 usage: 15.85 residual: 8.41
mrth: 68.05 cth: 52.51 usage: 61.56 residual: 6.49
mrth: 29.71 cth: 23.31 usage: 23.56 residual: 6.15
mrth: 34.66 cth: 24.48 usage: 21.54 residual: 13.12
mrth: 23.06 cth: 17.47 usage: 14.39 residual: 8.67
mrth: 68.45 cth: 57.34 usage: 43.73 residual: 24.72
mrth: 39.72 cth: 33.05 usage: 29.95 residual: 9.77
mrth: 27.38 cth: 21.6 usage: 20.11 residual: 7.27
mrth: 64.48 cth: 54.69 usage: 44.2 residual: 20.28
mrth: 47.87 cth: 39.66 usage: 47.57 residual: 0.3
mrth: 39.44 cth: 31.74 usage: 37.03 residual: 2.41
mrth: 75.56 cth: 65.56 usage: 42.02 residual: 33.54
mrth: 45.28 cth: 34.09 usage: 28.72 residual: 16.56
mrth: 39.61 cth: 34.87 usage: 34.67 residual: 4.94
mrth: 59.31 cth: 51.9 usage: 33.44 residual: 25.87
mrth: 111.51 cth: 90.83 usage: 102.33 residual: 9.18
mrth: 54.98 cth: 49.08 usage: 53.23 residual: 1.75
mrth: 100.63 cth: 86.55 usage: 93.09 residual: 7.54
mrth: 92.75 cth: 80.29 usage: 46.42 residual: 46.33
mrth: 49.53 cth: 39.33 usage: 45.97 residual: 3.56
mrth: 67.42 cth: 56.07 usage: 54.98 residual: 12.44
mrth: 46.6 cth: 35.12 usage: 27.17 residual: 19.43
mrth: 39.45 cth: 29.25 usage: 26.03 residual: 13.42
mrth: 30.29 cth: 21.38 usage: 25.63 residual: 4.66
mrth: 13.91 cth: 11.85 usage: 10.24 residual: 3.67
mrth: 43.56 cth: 34.63 usage: 33.61 residual: 9.95
mrth: 20.23 cth: 16.67 usage: 10.68 residual: 9.55
mrth: 17.59 cth: 14.21 usage: 13.7 residual: 3.89
mrth: 30.25 cth: 23.77 usage: 25.84 residual: 4.41
mrth: 54.2 cth: 44.05 usage: 41.95 residual: 12.25
mrth: 54.86 cth: 41.18 usage: 40.09 residual: 14.77
mrth: 53.38 cth: 39.58 usage: 41.45 residual: 11.93
mrth: 32.42 cth: 25.73 usage: 20.34 residual: 12.08
mrth: 61.89 cth: 49.07 usage: 43.34 residual: 18.55
mrth: 50.59 cth: 44.0 usage: 26.76 residual: 23.83
mrth: 42.86 cth: 34.96 usage: 27.08 residual: 15.78
mrth: 55.97 cth: 45.99 usage: 28.98 residual: 26.99
mrth: 49.85 cth: 35.61 usage: 29.96 residual: 19.89
mrth: 32.2 cth: 22.88 usage: 29.26 residual: 2.94
mrth: 86.32 cth: 67.06 usage: 66.75 residual: 19.57
mrth: 79.22 cth: 56.76 usage: 64.58 residual: 14.64
mrth: 76.73 cth: 58.27 usage: 40.49 residual: 36.24
mrth: 31.0 cth: 26.65 usage: 18.56 residual: 12.44
mrth: 44.48 cth: 37.56 usage: 37.52 residual: 6.96
mrth: 23.41 cth: 21.01 usage: 15.77 residual: 7.64
mrth: 86.22 cth: 75.94 usage: 78.04 residual: 8.18
mrth: 109.84 cth: 77.91 usage: 66.06 residual: 43.78
mrth: 33.64 cth: 27.3 usage: 22.08 residual: 11.56
mrth: 63.28 cth: 54.69 usage: 60.28 residual: 3.0
mrth: 67.78 cth: 60.23 usage: 48.14 residual: 19.64
mrth: 84.89 cth: 68.18 usage: 58.33 residual: 26.56
mrth: 52.25 cth: 45.54 usage: 45.99 residual: 6.26
mrth: 63.66 cth: 51.51 usage: 33.17 residual: 30.49
mrth: 84.74 cth: 71.51 usage: 83.09 residual: 1.65
mrth: 20.39 cth: 17.28 usage: 20.04 residual: 0.35
mrth: 90.25 cth: 79.72 usage: 84.06 residual: 6.19
mrth: 66.16 cth: 54.22 usage: 55.96 residual: 10.2
mrth: 47.87 cth: 41.43 usage: 42.09 residual: 5.78
mrth: 77.28 cth: 54.67 usage: 47.93 residual: 29.35
mrth: 26.9 cth: 20.21 usage: 24.51 residual: 2.39
mrth: 69.91 cth: 62.54 usage: 52.07 residual: 17.84
mrth: 68.68 cth: 50.93 usage: 35.12 residual: 33.56
mrth: 41.38 cth: 35.48 usage: 27.13 residual: 14.25
mrth: 104.1 cth: 84.2 usage: 73.48 residual: 30.62
mrth: 44.94 cth: 40.19 usage: 43.7 residual: 1.24
mrth: 25.3 cth: 17.87 usage: 13.21 residual: 12.09
mrth: 15.67 cth: 12.08 usage: 12.77 residual: 2.9
mrth: 33.11 cth: 25.09 usage: 30.08 residual: 3.03
mrth: 114.5 cth: 89.19 usage: 89.23 residual: 25.27
mrth: 59.09 cth: 41.77 usage: 50.8 residual: 8.29
mrth: 76.16 cth: 54.41 usage: 47.09 residual: 29.07
mrth: 13.24 cth: 9.58 usage: 8.48 residual: 4.76
mrth: 47.24 cth: 37.19 usage: 44.12 residual: 3.12
mrth: 65.37 cth: 51.35 usage: 48.04 residual: 17.33
mrth: 43.55 cth: 34.69 usage: 29.33 residual: 14.22
mrth: 29.36 cth: 24.7 usage: 21.47 residual: 7.89
mrth: 50.54 cth: 36.35 usage: 33.86 residual: 16.68
mrth: 16.09 cth: 13.03 usage: 11.52 residual: 4.57
mrth: 17.17 cth: 14.0 usage: 17.13 residual: 0.04
mrth: 31.54 cth: 24.39 usage: 28.21 residual: 3.33
mrth: 21.9 cth: 19.15 usage: 13.9 residual: 8.0
mrth: 68.45 cth: 56.46 usage: 42.4 residual: 26.05
mrth: 37.4 cth: 31.4 usage: 27.39 residual: 10.01
mrth: 66.12 cth: 50.56 usage: 64.79 residual: 1.33
mrth: 72.95 cth: 59.14 usage: 51.24 residual: 21.71
mrth: 5.37 cth: 4.29 usage: 5.36 residual: 0.01
mrth: 57.16 cth: 41.57 usage: 42.62 residual: 14.54
mrth: 34.96 cth: 30.71 usage: 25.34 residual: 9.62
mrth: 78.82 cth: 59.0 usage: 59.89 residual: 18.93
mrth: 25.72 cth: 22.24 usage: 19.67 residual: 6.05
mrth: 67.25 cth: 53.37 usage: 63.89 residual: 3.36
mrth: 47.56 cth: 37.78 usage: 35.64 residual: 11.92
mrth: 89.05 cth: 79.92 usage: 68.82 residual: 20.23
mrth: 112.45 cth: 79.0 usage: 99.12 residual: 13.33
mrth: 39.38 cth: 31.47 usage: 36.68 residual: 2.7
mrth: 87.36 cth: 69.16 usage: 56.5 residual: 30.86
mrth: 47.25 cth: 38.99 usage: 46.99 residual: 0.26
mrth: 56.76 cth: 43.0 usage: 29.19 residual: 27.57
mrth: 44.0 cth: 31.35 usage: 43.21 residual: 0.79
mrth: 70.16 cth: 63.01 usage: 52.4 residual: 17.76
mrth: 73.65 cth: 57.23 usage: 39.09 residual: 34.56
mrth: 72.77 cth: 57.6 usage: 72.31 residual: 0.46
mrth: 61.85 cth: 52.58 usage: 58.95 residual: 2.9
mrth: 54.18 cth: 48.32 usage: 50.51 residual: 3.67
mrth: 75.38 cth: 63.72 usage: 49.56 residual: 25.82
mrth: 57.38 cth: 42.19 usage: 53.14 residual: 4.24
mrth: 71.08 cth: 52.12 usage: 46.26 residual: 24.82
mrth: 32.73 cth: 23.93 usage: 18.73 residual: 14.0
mrth: 5.42 cth: 3.8 usage: 4.11 residual: 1.31
mrth: 75.92 cth: 65.4 usage: 43.14 residual: 32.78
mrth: 19.23 cth: 16.22 usage: 13.43 residual: 5.8
mrth: 56.58 cth: 45.94 usage: 44.84 residual: 11.74
mrth: 72.37 cth: 60.38 usage: 40.61 residual: 31.76
mrth: 78.83 cth: 58.03 usage: 39.75 residual: 39.08
mrth: 68.39 cth: 60.4 usage: 50.01 residual: 18.38
mrth: 121.48 cth: 86.14 usage: 83.48 residual: 38.0
mrth: 32.33 cth: 26.48 usage: 17.81 residual: 14.52
mrth: 45.64 cth: 33.02 usage: 25.73 residual: 19.91
mrth: 60.07 cth: 43.05 usage: 31.86 residual: 28.21
mrth: 43.64 cth: 34.62 usage: 43.51 residual: 0.13
mrth: 6.7 cth: 4.92 usage: 4.03 residual: 2.67
mrth: 84.06 cth: 69.83 usage: 56.54 residual: 27.52
mrth: 20.54 cth: 17.34 usage: 11.57 residual: 8.97
mrth: 112.88 cth: 85.6 usage: 68.03 residual: 44.85
mrth: 70.61 cth: 61.07 usage: 47.15 residual: 23.46
mrth: 48.53 cth: 34.33 usage: 28.93 residual: 19.6
mrth: 58.82 cth: 52.84 usage: 37.05 residual: 21.77
mrth: 65.87 cth: 46.47 usage: 50.03 residual: 15.84
mrth: 76.23 cth: 59.77 usage: 49.5 residual: 26.73
mrth: 20.75 cth: 18.42 usage: 16.62 residual: 4.13
mrth: 43.65 cth: 38.87 usage: 27.24 residual: 16.41
mrth: 8.65 cth: 6.96 usage: 4.41 residual: 4.24
mrth: 8.56 cth: 6.62 usage: 5.59 residual: 2.97
mrth: 27.53 cth: 20.81 usage: 21.78 residual: 5.75
mrth: 128.39 cth: 92.83 usage: 79.73 residual: 48.66
mrth: 80.97 cth: 61.9 usage: 65.02 residual: 15.95
mrth: 35.65 cth: 25.0 usage: 33.37 residual: 2.28
mrth: 15.74 cth: 12.93 usage: 11.33 residual: 4.41
mrth: 5.59 cth: 4.38 usage: 4.72 residual: 0.87
mrth: 77.05 cth: 56.65 usage: 53.2 residual: 23.85
mrth: 101.6 cth: 81.33 usage: 73.42 residual: 28.18
mrth: 88.07 cth: 63.75 usage: 46.94 residual: 41.13
mrth: 43.02 cth: 31.78 usage: 24.28 residual: 18.74
mrth: 36.47 cth: 28.72 usage: 26.95 residual: 9.52
mrth: 23.52 cth: 20.24 usage: 21.31 residual: 2.21
mrth: 60.05 cth: 45.56 usage: 37.96 residual: 22.09
mrth: 37.65 cth: 28.63 usage: 36.27 residual: 1.38
mrth: 53.07 cth: 40.81 usage: 52.65 residual: 0.42
mrth: 95.65 cth: 73.6 usage: 69.77 residual: 25.88
mrth: 47.44 cth: 33.32 usage: 28.69 residual: 18.75
mrth: 56.42 cth: 49.37 usage: 33.93 residual: 22.49
mrth: 79.33 cth: 66.04 usage: 45.56 residual: 33.77
mrth: 53.65 cth: 45.63 usage: 32.65 residual: 21.0
mrth: 72.8 cth: 57.15 usage: 49.02 residual: 23.78
mrth: 37.85 cth: 30.9 usage: 33.42 residual: 4.43
mrth: 10.05 cth: 8.79 usage: 5.28 residual: 4.77
mrth: 13.03 cth: 11.05 usage: 7.49 residual: 5.54
mrth: 37.4 cth: 29.28 usage: 25.23 residual: 12.17
mrth: 40.34 cth: 28.99 usage: 36.98 residual: 3.36
mrth: 82.42 cth: 72.96 usage: 66.21 residual: 16.21
mrth: 105.1 cth: 87.13 usage: 66.6 residual: 38.5
mrth: 64.56 cth: 52.46 usage: 46.28 residual: 18.28
mrth: 26.78 cth: 22.15 usage: 16.34 residual: 10.44
mrth: 43.67 cth: 38.71 usage: 39.42 residual: 4.25
mrth: 69.28 cth: 53.42 usage: 65.09 residual: 4.19
mrth: 6.92 cth: 6.15 usage: 5.62 residual: 1.3
mrth: 40.77 cth: 30.89 usage: 40.26 residual: 0.51
mrth: 26.06 cth: 19.85 usage: 15.67 residual: 10.39
mrth: 52.54 cth: 44.09 usage: 40.16 residual: 12.38
mrth: 14.25 cth: 12.21 usage: 8.78 residual: 5.47
mrth: 57.69 cth: 45.39 usage: 48.23 residual: 9.46
mrth: 85.12 cth: 69.34 usage: 56.55 residual: 28.57
mrth: 22.57 cth: 16.68 usage: 12.64 residual: 9.93
mrth: 33.75 cth: 26.56 usage: 18.29 residual: 15.46
mrth: 46.92 cth: 40.45 usage: 30.14 residual: 16.78
mrth: 72.68 cth: 51.61 usage: 39.32 residual: 33.36
mrth: 56.49 cth: 47.91 usage: 43.24 residual: 13.25
mrth: 105.48 cth: 79.94 usage: 81.9 residual: 23.58
mrth: 121.86 cth: 107.15 usage: 83.81 residual: 38.05
mrth: 22.97 cth: 17.71 usage: 15.66 residual: 7.31
mrth: 39.37 cth: 30.98 usage: 28.53 residual: 10.84
mrth: 39.62 cth: 34.66 usage: 30.61 residual: 9.01
mrth: 55.8 cth: 49.09 usage: 44.85 residual: 10.95
mrth: 102.43 cth: 79.78 usage: 61.94 residual: 40.49
mrth: 40.64 cth: 29.72 usage: 27.17 residual: 13.47
mrth: 70.29 cth: 58.38 usage: 37.73 residual: 32.56
mrth: 34.41 cth: 24.34 usage: 17.71 residual: 16.7
mrth: 46.8 cth: 40.37 usage: 35.85 residual: 10.95
mrth: 42.21 cth: 36.8 usage: 25.52 residual: 16.69
mrth: 43.39 cth: 32.93 usage: 36.21 residual: 7.18
mrth: 50.63 cth: 36.42 usage: 28.25 residual: 22.38
mrth: 13.97 cth: 12.26 usage: 10.6 residual: 3.37
mrth: 76.63 cth: 59.96 usage: 57.51 residual: 19.12
mrth: 41.56 cth: 36.68 usage: 27.96 residual: 13.6
mrth: 110.43 cth: 89.29 usage: 85.68 residual: 24.75
mrth: 47.93 cth: 34.46 usage: 25.96 residual: 21.97
mrth: 83.72 cth: 61.8 usage: 51.55 residual: 32.17
mrth: 39.45 cth: 27.93 usage: 39.16 residual: 0.29
mrth: 28.65 cth: 25.24 usage: 21.04 residual: 7.61
mrth: 19.81 cth: 17.63 usage: 15.38 residual: 4.43
mrth: 31.96 cth: 25.03 usage: 17.27 residual: 14.69
mrth: 26.59 cth: 20.42 usage: 17.17 residual: 9.42
mrth: 54.75 cth: 43.31 usage: 33.99 residual: 20.76
mrth: 48.19 cth: 36.81 usage: 30.09 residual: 18.1
mrth: 105.65 cth: 77.81 usage: 94.84 residual: 10.81
mrth: 36.36 cth: 30.19 usage: 26.03 residual: 10.33
mrth: 44.23 cth: 38.4 usage: 37.18 residual: 7.05
mrth: 59.4 cth: 47.84 usage: 45.66 residual: 13.74
mrth: 46.61 cth: 33.73 usage: 35.18 residual: 11.43
mrth: 68.73 cth: 56.06 usage: 43.47 residual: 25.26
mrth: 57.14 cth: 48.58 usage: 33.0 residual: 24.14
mrth: 6.33 cth: 4.87 usage: 5.23 residual: 1.1
mrth: 74.55 cth: 64.04 usage: 42.56 residual: 31.99
mrth: 69.3 cth: 53.21 usage: 44.73 residual: 24.57
mrth: 69.36 cth: 57.16 usage: 38.27 residual: 31.09
mrth: 97.96 cth: 85.88 usage: 85.95 residual: 12.01
mrth: 22.41 cth: 18.33 usage: 17.36 residual: 5.05
mrth: 82.03 cth: 63.34 usage: 71.8 residual: 10.23
mrth: 91.62 cth: 73.04 usage: 76.13 residual: 15.49
mrth: 74.46 cth: 61.47 usage: 47.15 residual: 27.31
mrth: 14.8 cth: 11.03 usage: 8.54 residual: 6.26
mrth: 61.53 cth: 46.48 usage: 51.88 residual: 9.65
mrth: 31.61 cth: 22.33 usage: 16.44 residual: 15.17
mrth: 64.5 cth: 53.05 usage: 58.21 residual: 6.29
mrth: 100.7 cth: 90.5 usage: 88.03 residual: 12.67
mrth: 51.53 cth: 41.72 usage: 51.32 residual: 0.21
mrth: 19.91 cth: 15.29 usage: 17.66 residual: 2.25
mrth: 35.19 cth: 26.21 usage: 21.79 residual: 13.4
mrth: 7.06 cth: 5.54 usage: 6.99 residual: 0.07
mrth: 62.16 cth: 52.94 usage: 42.28 residual: 19.88
mrth: 37.19 cth: 26.85 usage: 22.69 residual: 14.5
mrth: 31.74 cth: 24.85 usage: 20.07 residual: 11.67
mrth: 16.13 cth: 12.59 usage: 13.86 residual: 2.27
mrth: 68.48 cth: 56.86 usage: 42.81 residual: 25.67
mrth: 73.88 cth: 64.16 usage: 47.58 residual: 26.3
mrth: 70.25 cth: 54.29 usage: 68.03 residual: 2.22
mrth: 85.81 cth: 62.97 usage: 56.2 residual: 29.61
mrth: 65.11 cth: 49.45 usage: 63.92 residual: 1.19
mrth: 54.4 cth: 42.37 usage: 30.31 residual: 24.09
mrth: 61.51 cth: 52.23 usage: 48.23 residual: 13.28
mrth: 113.98 cth: 87.14 usage: 107.79 residual: 6.19
mrth: 36.32 cth: 29.83 usage: 30.71 residual: 5.61
mrth: 26.12 cth: 19.01 usage: 23.47 residual: 2.65
mrth: 47.8 cth: 35.48 usage: 24.45 residual: 23.35
mrth: 79.58 cth: 60.18 usage: 60.15 residual: 19.43
mrth: 2.64 cth: 2.35 usage: 1.35 residual: 1.29
mrth: 32.09 cth: 23.0 usage: 16.94 residual: 15.15
mrth: 31.89 cth: 22.99 usage: 20.88 residual: 11.01
mrth: 49.61 cth: 36.25 usage: 48.81 residual: 0.8
mrth: 38.82 cth: 33.14 usage: 22.05 residual: 16.77
mrth: 56.32 cth: 42.55 usage: 45.36 residual: 10.96
