mrth: 15.35 cth: 12.28 usage: 14.99 residual: 0.36
mrth: 111.16 cth: 91.55 usage: 86.58 residual: 24.58
mrth: 33.92 cth: 28.42 usage: 18.25 residual: 15.67
mrth: 105.19 cth: 90.47 usage: 73.23 residual: 31.96
mrth: 32.32 cth: 24.62 usage: 18.29 residual: 14.03
mrth: 126.64 cth: 92.49 usage: 82.85 residual: 43.79
mrth: 80.82 cth: 56.61 usage: 75.72 residual: 5.1
mrth: 97.55 cth: 72.5 usage: 86.05 residual: 11.5
mrth: 32.97 cth: 24.57 usage: 23.82 residual: 9.15
mrth: 41.08 cth: 33.19 usage: 27.76 residual: 13.32
mrth: 33.55 cth: 27.84 usage: 20.29 residual: 13.26
mrth: 84.72 cth: 64.09 usage: 63.55 residual: 21.17
mrth: 45.45 cth: 36.22 usage: 42.03 residual: 3.42
mrth: 77.91 cth: 60.75 usage: 59.4 residual: 18.51
mrth: 59.9 cth: 53.85 usage: 42.01 residual: 17.89
mrth: 5.93 cth: 4.26 usage: 4.85 residual: 1.08
mrth: 30.46 cth: 21.46 usage: 17.9 residual: 12.56
mrth: 58.08 cth: 46.32 usage: 47.84 residual: 10.24
mrth: 44.37 cth: 39.76 usage: 22.41 residual: 21.96
mrth: 86.42 cth: 71.4 usage: 44.44 residual: 41.98
mrth: 74.92 cth: 54.64 usage: 61.28 residual: 13.64
mrth: 60.74 cth: 54.12 usage: 52.91 residual: 7.83
mrth: 62.02 cth: 47.62 usage: 45.62 residual: 16.4
mrth: 56.33 cth: 39.51 usage: 38.35 residual: 17.98
mrth: 56.63 cth: 46.61 usage: 52.23 residual: 4.4
mrth: 23.71 cth: 20.66 usage: 14.72 residual: 8.99
mrth: 64.08 cth: 54.08 usage: 61.69 residual: 2.39
mrth: 32.76 cth: 24.33 usage: 17.27 residual: 15.49
mrth: 18.65 cth: 13.27 usage: 13.44 residual: 5.21
mrth: 38.04 cth: 28.24 usage: 20.68 residual: 17.36
mrth: 58.69 cth: 48.81 usage: 53.21 residual: 5.48
mrth: 28.85 cth: 22.16 usage: 22.3 residual: 6.55
mrth: 46.59 cth: 34.08 usage: 31.59 residual: 15.0
mrth: 53.82 cth: 46.14 usage: 35.83 residual: 17.99
mrth: 50.31 cth: 39.2 usage: 34.61 residual: 15.7
mrth: 106.06 cth: 76.82 usage: 90.66 residual: 15.4
mrth: 108.6 cth: 90.6 usage: 75.36 residual: 33.24
mrth: 74.54 cth: 65.81 usage: 71.49 residual: 3.05
mrth: 30.33 cth: 25.43 usage: 26.29 residual: 4.04
mrth: 42.21 cth: 33.35 usage: 31.52 residual: 10.69
mrth: 74.86 cth: 57.09 usage: 37.99 residual: 36.87
mrth: 51.23 cth: 41.06 usage: 34.33 residual: 16.9
mrth: 39.38 cth: 34.81 usage: 22.46 residual: 16.92
mrth: 60.46 cth: 52.5 usage: 60.06 residual: 0.4
mrth: 78.34 cth: 70.35 usage: 50.06 residual: 28.28
mrth: 56.7 cth: 49.11 usage: 30.5 residual: 26.2
mrth: 7.31 cth: 5.25 usage: 5.13 residual: 2.18
mrth: 13.86 cth: 12.39 usage: 11.21 residual: 2.65
mrth: 53.7 cth: 45.01 usage: 41.06 residual: 12.64
mrth: 77.89 cth: 59.93 usage: 43.77 residual: 34.12
mrth: 79.08 cth: 68.2 usage: 75.33 residual: 3.75
mrth: 92.46 cth: 78.22 usage: 62.71 residual: 29.75
mrth: 29.32 cth: 25.1 usage: 18.97 residual: 10.35
mrth: 45.59 cth: 34.24 usage: 32.41 residual: 13.18
mrth: 70.73 cth: 59.8 usage: 44.53 residual: 26.2
mrth: 64.17 cth: 56.56 usage: 41.48 residual: 22.69
mrth: 108.17 cth: 78.63 usage: 74.36 residual: 33.81
mrth: 78.51 cth: 62.89 usage: 43.47 residual: 35.04
mrth: 84.2 cth: 63.12 usage: 57.79 residual: 26.41
mrth: 75.35 cth: 60.08 usage: 70.28 residual: 5.07
mrth: 23.4 cth: 17.88 usage: 11.82 residual: 11.58
mrth: 17.34 cth: 13.52 usage: 10.31 residual: 7.03
mrth: 79.05 cth: 67.62 usage: 44.52 residual: 34.53
mrth: 95.53 cth: 81.03 usage: 50.18 residual: 45.35
mrth: 58.96 cth: 47.03 usage: 33.6 residual: 25.36
mrth: 59.17 cth: 51.42 usage: 51.2 residual: 7.97
mrth: 53.35 cth: 43.8 usage: 36.66 residual: 16.69
mrth: 44.52 cth: 36.39 usage: 24.31 residual: 20.21
mrth: 23.86 cth: 19.56 usage: 16.43 residual: 7.43
mrth: 65.28 cth: 55.53 usage: 46.49 residual: 18.79
mrth: 75.32 cth: 67.33 usage: 74.64 residual: 0.68
mrth: 67.29 cth: 52.27 usage: 34.8 residual: 32.49
mrth: 41.76 cth: 33.0 usage: 36.99 residual: 4.77
mrth: 28.41 cth: 25.15 usage: 19.57 residual: 8.84
mrth: 11.36 cth: 8.41 usage: 6.23 residual: 5.13
mrth: 50.81 cth: 39.42 usage: 47.03 residual: 3.78
mrth: 37.5 cth: 27.24 usage: 20.12 residual: 17.38
mrth: 110.03 cth: 98.65 usage: 85.5 residual: 24.53
mrth: 13.02 cth: 11.64 usage: 10.55 residual: 2.47
mrth: 76.74 cth: 68.53 usage: 67.16 residual: 9.58
mrth: 17.15 cth: 13.66 usage: 14.82 residual: 2.33
mrth: 29.56 cth: 20.86 usage: 26.35 residual: 3.21
mrth: 47.62 cth: 34.49 usage: 43.02 residual: 4.6
mrth: 34.37 cth: 28.82 usage: 31.38 residual: 2.99
mrth: 51.23 cth: 37.51 usage: 34.7 residual: 16.53
mrth: 72.45 cth: 57.65 usage: 48.11 residual: 24.34
mrth: 78.18 cth: 58.59 usage: 55.87 residual: 22.31
mrth: 40.6 cth: 29.09 usage: 23.98 residual: 16.62
mrth: 13.58 cth: 12.12 usage: 10.84 residual: 2.74
mrth: 30.86 cth: 23.71 usage: 26.09 residual: 4.77
mrth: 51.99 cth: 37.56 usage: 48.83 residual: 3.16
mrth: 88.94 cth: 64.78 usage: 48.56 residual: 40.38
mrth: 108.54 cth: 78.11 usage: 84.62 residual: 23.92
mrth: 24.82 cth: 21.01 usage: 21.21 residual: 3.61
mrth: 18.47 cth: 13.19 usage: 9.91 residual: 8.56
mrth: 103.8 cth: 83.52 usage: 103.68 residual: 0.12
mrth: 66.27 cth: 46.76 usage: 36.52 residual: 29.75
mrth: 69.86 cth: 56.91 usage: 48.75 residual: 21.11
mrth: 84.98 cth: 60.1 usage: 82.53 residual: 2.45
mrth: 41.49 cth: 34.13 usage: 24.25 residual: 17.24
mrth: 21.12 cth: 16.27 usage: 21.09 residual: 0.03
mrth: 14.77 cth: 11.41 usage: 14.68 residual: 0.09
mrth: 51.26 cth: 42.98 usage: 30.71 residual: 20.55
mrth: 5.11 cth: 4.2 usage: 4.28 residual: 0.83
mrth: 39.42 cth: 30.64 usage: 22.31 residual: 17.11
mrth: 158.95 cth: 117.56 usage: 85.29 residual: 73.66
mrth: 15.2 cth: 11.41 usage: 9.42 residual: 5.78
mrth: 30.12 cth: 22.08 usage: 27.09 residual: 3.03
mrth: 39.66 cth: 30.56 usage: 39.13 residual: 0.53
mrth: 28.03 cth: 23.16 usage: 18.74 residual: 9.29
mrth: 62.44 cth: 55.67 usage: 52.83 residual: 9.61
mrth: 17.66 cth: 15.88 usage: 13.0 residual: 4.66
mrth: 35.79 cth: 32.13 usage: 30.13 residual: 5.66
mrth: 54.21 cth: 41.61 usage: 41.74 residual: 12.47
mrth: 12.38 cth: 9.09 usage: 8.24 residual: 4.14
mrth: 39.8 cth: 28.28 usage: 24.0 residual: 15.8
mrth: 43.88 cth: 31.62 usage: 29.94 residual: 13.94
mrth: 62.49 cth: 49.63 usage: 36.5 residual: 25.99
mrth: 117.02 cth: 101.77 usage: 103.73 residual: 13.29
mrth: 74.57 cth: 53.99 usage: 68.38 residual: 6.19
mrth: 79.7 cth: 65.22 usage: 69.18 residual: 10.52
mrth: 63.71 cth: 50.97 usage: 60.68 residual: 3.03
mrth: 109.43 cth: 89.34 usage: 81.33 residual: 28.1
mrth: 62.08 cth: 54.91 usage: 55.97 residual: 6.11
mrth: 31.45 cth: 22.59 usage: 19.43 residual: 12.02
mrth: 124.85 cth: 106.95 usage: 79.03 residual: 45.82
mrth: 29.61 cth: 24.2 usage: 20.86 residual: 8.75
mrth: 46.64 cth: 35.06 usage: 42.07 residual: 4.57
mrth: 65.05 cth: 49.2 usage: 43.95 residual: 21.1
mrth: 24.25 cth: 19.84 usage: 21.83 residual: 2.42
mrth: 97.83 cth: 80.56 usage: 77.92 residual: 19.91
mrth: 80.67 cth: 57.13 usage: 69.99 residual: 10.68
mrth: 48.51 cth: 42.36 usage: 41.57 residual: 6.94
mrth: 78.39 cth: 65.25 usage: 40.13 residual: 38.26
mrth: 78.47 cth: 57.36 usage: 64.66 residual: 13.81
mrth: 136.74 cth: 115.58 usage: 132.74 residual: 4.0
mrth: 96.05 cth: 69.35 usage: 81.98 residual: 14.07
mrth: 51.74 cth: 40.05 usage: 41.89 residual: 9.85
mrth: 11.06 cth: 8.66 usage: 8.1 residual: 2.96
mrth: 66.68 cth: 58.37 usage: 43.32 residual: 23.36
mrth: 32.04 cth: 22.84 usage: 31.1 residual: 0.94
mrth: 50.2 cth: 44.39 usage: 46.58 residual: 3.62
mrth: 53.85 cth: 42.26 usage: 27.36 residual: 26.49
mrth: 63.78 cth: 45.83 usage: 51.01 residual: 12.77
mrth: 105.56 cth: 78.59 usage: 101.31 residual: 4.25
mrth: 67.95 cth: 52.34 usage: 55.96 residual: 11.99
mrth: 23.07 cth: 18.01 usage: 12.88 residual: 10.19
mrth: 20.95 cth: 18.46 usage: 20.5 residual: 0.45
mrth: 52.7 cth: 47.39 usage: 36.94 residual: 15.76
mrth: 80.03 cth: 71.18 usage: 47.53 residual: 32.5
mrth: 89.05 cth: 78.34 usage: 45.15 residual: 43.9
mrth: 96.57 cth: 71.23 usage: 56.46 residual: 40.11
mrth: 138.0 cth: 106.42 usage: 124.67 residual: 13.33
mrth: 68.99 cth: 60.88 usage: 46.09 residual: 22.9
mrth: 74.23 cth: 59.64 usage: 53.29 residual: 20.94
mrth: 58.96 cth: 41.3 usage: 49.67 residual: 9.29
mrth: 91.29 cth: 64.97 usage: 88.42 residual: 2.87
mrth: 98.91 cth: 76.18 usage: 60.56 residual: 38.35
mrth: 31.2 cth: 22.63 usage: 19.35 residual: 11.85
mrth: 22.19 cth: 16.15 usage: 21.98 residual: 0.21
mrth: 56.52 cth: 41.25 usage: 41.6 residual: 14.92
mrth: 76.82 cth: 66.83 usage: 63.52 residual: 13.3
mrth: 80.58 cth: 62.6 usage: 71.85 residual: 8.73
mrth: 48.05 cth: 39.92 usage: 40.09 residual: 7.96
mrth: 33.88 cth: 28.34 usage: 25.24 residual: 8.64
mrth: 64.97 cth: 56.13 usage: 33.7 residual: 31.27
mrth: 51.97 cth: 37.22 usage: 50.85 residual: 1.12
mrth: 83.86 cth: 60.76 usage: 61.44 residual: 22.42
mrth: 58.49 cth: 42.18 usage: 36.47 residual: 22.02
mrth: 132.86 cth: 109.89 usage: 98.01 residual: 34.85
mrth: 50.71 cth: 40.87 usage: 37.4 residual: 13.31
mrth: 121.98 cth: 89.79 usage: 108.0 residual: 13.98
mrth: 63.1 cth: 46.63 usage: 53.02 residual: 10.08
mrth: 22.94 cth: 19.1 usage: 12.19 residual: 10.75
mrth: 68.69 cth: 48.56 usage: 49.9 residual: 18.79
mrth: 92.46 cth: 66.72 usage: 82.52 residual: 9.94
mrth: 85.68 cth: 67.76 usage: 54.44 residual: 31.24
mrth: 28.29 cth: 23.81 usage: 16.12 residual: 12.17
mrth: 48.14 cth: 40.97 usage: 37.61 residual: 10.53
mrth: 42.32 cth: 31.15 usage: 37.17 residual: 5.15
mrth: 16.8 cth: 13.33 usage: 12.53 residual: 4.27
mrth: 130.35 cth: 108.34 usage: 124.25 residual: 6.1
mrth: 58.58 cth: 51.06 usage: 40.98 residual: 17.6
mrth: 39.74 cth: 35.07 usage: 29.21 residual: 10.53
mrth: 33.16 cth: 26.88 usage: 32.4 residual: 0.76
mrth: 53.6 cth: 47.79 usage: 51.52 residual: 2.08
mrth: 104.91 cth: 73.8 usage: 66.06 residual: 38.85
mrth: 43.29 cth: 31.28 usage: 29.45 residual: 13.84
mrth: 7.47 cth: 6.08 usage: 6.57 residual: 0.9
mrth: 31.99 cth: 27.42 usage: 24.71 residual: 7.28
mrth: 50.47 cth: 41.93 usage: 39.85 residual: 10.62
mrth: 114.1 cth: 98.93 usage: 86.79 residual: 27.31
mrth: 54.03 cth: 41.3 usage: 37.25 residual: 16.78
mrth: 32.42 cth: 24.67 usage: 19.78 residual: 12.64
mrth: 28.27 cth: 24.51 usage: 25.09 residual: 3.18
mrth: 52.63 cth: 42.13 usage: 45.81 residual: 6.82
mrth: 26.62 cth: 19.9 usage: 22.71 residual: 3.91
mrth: 53.76 cth: 39.33 usage: 45.41 residual: 8.35
mrth: 108.05 cth: 93.91 usage: 70.29 residual: 37.76
mrth: 65.27 cth: 50.7 usage: 57.22 residual: 8.05
mrth: 89.57 cth: 75.13 usage: 66.1 residual: 23.47
mrth: 60.35 cth: 51.17 usage: 42.11 residual: 18.24
mrth: 63.27 cth: 54.35 usage: 33.83 residual: 29.44
mrth: 123.65 cth: 88.07 usage: 109.68 residual: 13.97
mrth: 67.94 cth: 51.87 usage: 41.51 residual: 26.43
mrth: 15.07 cth: 13.41 usage: 11.91 residual: 3.16
mrth: 66.41 cth: 49.07 usage: 59.6 residual: 6.81
mrth: 26.4 cth: 18.58 usage: 14.59 residual: 11.81
mrth: 83.53 cth: 67.71 usage: 50.13 residual: 33.4
mrth: 12.47 cth: 9.66 usage: 8.86 residual: 3.61
mrth: 87.41 cth: 71.3 usage: 67.25 residual: 20.16
mrth: 103.52 cth: 87.23 usage: 58.52 residual: 45.0
mrth: 93.86 cth: 84.23 usage: 52.29 residual: 41.57
mrth: 38.24 cth: 33.58 usage: 26.75 residual: 11.49
mrth: 30.49 cth: 26.19 usage: 24.69 residual: 5.8
mrth: 55.66 cth: 45.37 usage: 43.55 residual: 12.11
mrth: 76.41 cth: 67.75 usage: 49.97 residual: 26.44
mrth: 40.77 cth: 29.68 usage: 29.96 residual: 10.81
mrth: 20.24 cth: 16.03 usage: 18.22 residual: 2.02
mrth: 72.16 cth: 60.42 usage: 50.7 residual: 21.46
mrth: 36.99 cth: 31.74 usage: 28.09 residual: 8.9
mrth: 78.01 cth: 65.51 usage: 71.61 residual: 6.4
mrth: 41.19 cth: 35.99 usage: 37.0 residual: 4.19
mrth: 25.66 cth: 21.12 usage: 23.42 residual: 2.24
mrth: 47.14 cth: 36.67 usage: 40.21 residual: 6.93
mrth: 49.65 cth: 41.73 usage: 36.0 residual: 13.65
mrth: 44.61 cth: 34.35 usage: 34.51 residual: 10.1
mrth: 59.61 cth: 44.82 usage: 46.59 residual: 13.02
mrth: 55.64 cth: 39.87 usage: 51.6 residual: 4.04
mrth: 40.61 cth: 31.1 usage: 35.89 residual: 4.72
mrth: 4.83 cth: 3.75 usage: 3.09 residual: 1.74
mrth: 85.7 cth: 75.03 usage: 58.76 residual: 26.94
mrth: 60.97 cth: 46.48 usage: 39.31 residual: 21.66
mrth: 27.95 cth: 21.0 usage: 23.82 residual: 4.13
mrth: 29.27 cth: 24.85 usage: 28.28 residual: 0.99
mrth: 88.95 cth: 63.98 usage: 61.59 residual: 27.36
mrth: 76.05 cth: 55.59 usage: 42.61 residual: 33.44
mrth: 32.53 cth: 27.45 usage: 16.58 residual: 15.95
mrth: 75.89 cth: 61.01 usage: 49.6 residual: 26.29
mrth: 88.54 cth: 66.73 usage: 75.31 residual: 13.23
mrth: 81.47 cth: 59.49 usage: 63.63 residual: 17.84
mrth: 39.93 cth: 31.15 usage: 23.38 residual: 16.55
mrth: 128.3 cth: 101.66 usage: 127.25 residual: 1.05
mrth: 70.12 cth: 60.7 usage: 50.06 residual: 20.06
mrth: 27.05 cth: 20.05 usage: 18.32 residual: 8.73
mrth: 66.51 cth: 54.95 usage: 41.52 residual: 24.99
mrth: 108.9 cth: 89.92 usage: 68.12 residual: 40.78
mrth: 43.56 cth: 32.05 usage: 29.03 residual: 14.53
mrth: 68.11 cth: 58.83 usage: 39.4 residual: 28.71
mrth: 45.78 cth: 33.85 usage: 39.61 residual: 6.17
mrth: 96.33 cth: 85.0 usage: 50.95 residual: 45.38
mrth: 33.47 cth: 29.35 usage: 18.69 residual: 14.78
mrth: 64.09 cth: 49.55 usage: 44.25 residual: 19.84
mrth: 65.62 cth: 58.09 usage: 36.22 residual: 29.4
mrth: 15.28 cth: 11.94 usage: 11.08 residual: 4.2
mrth: 50.38 cth: 39.1 usage: 34.66 residual: 15.72
mrth: 31.2 cth: 22.45 usage: 23.02 residual: 8.18
mrth: 57.71 cth: 46.7 usage: 47.45 residual: 10.26
mrth: 86.99 cth: 78.19 usage: 71.98 residual: 15.01
mrth: 81.13 cth: 57.2 usage: 41.82 residual: 39.31
mrth: 60.72 cth: 52.28 usage: 59.37 residual: 1.35
mrth: 31.2 cth: 24.91 usage: 27.06 residual: 4.14
mrth: 72.59 cth: 62.75 usage: 70.04 residual: 2.55
mrth: 34.93 cth: 31.09 usage: 25.86 residual: 9.07
mrth: 29.65 cth: 22.84 usage: 20.48 residual: 9.17
mrth: 59.47 cth: 43.77 usage: 55.34 residual: 4.13
mrth: 23.57 cth: 21.17 usage: 13.38 residual: 10.19
mrth: 70.26 cth: 52.8 usage: 68.91 residual: 1.35
mrth: 68.49 cth: 58.37 usage: 35.18 residual: 33.31
mrth: 27.14 cth: 19.85 usage: 17.32 residual: 9.82
mrth: 64.16 cth: 52.65 usage: 61.65 residual: 2.51
mrth: 81.92 cth: 58.77 usage: 72.92 residual: 9.0
mrth: 65.4 cth: 47.56 usage: 42.1 residual: 23.3
mrth: 12.06 cth: 8.71 usage: 7.74 residual: 4.32
mrth: 33.16 cth: 26.53 usage: 20.99 residual: 12.17
mrth: 60.16 cth: 46.91 usage: 53.0 residual: 7.16
mrth: 56.79 cth: 40.12 usage: 34.79 residual: 22.0
mrth: 88.91 cth: 63.08 usage: 72.16 residual: 16.75
mrth: 45.59 cth: 40.63 usage: 25.9 residual: 19.69
mrth: 4.55 cth: 3.94 usage: 3.02 residual: 1.53
mrth: 68.68 cth: 58.2 usage: 39.82 residual: 28.86
mrth: 40.99 cth: 28.97 usage: 34.32 residual: 6.67
mrth: 47.37 cth: 35.04 usage: 32.0 residual: 15.37
mrth: 37.22 cth: 32.54 usage: 20.47 residual: 16.75
mrth: 63.07 cth: 52.49 usage: 58.62 residual: 4.45
mrth: 62.69 cth: 46.81 usage: 42.89 residual: 19.8
mrth: 75.47 cth: 67.78 usage: 52.21 residual: 23.26
mrth: 125.92 cth: 88.95 usage: 83.28 residual: 42.64
mrth: 9.22 cth: 6.56 usage: 5.01 residual: 4.21
mrth: 90.77 cth: 78.8 usage: 56.61 residual: 34.16
mrth: 29.02 cth: 20.55 usage: 16.04 residual: 12.98
mrth: 90.74 cth: 75.74 usage: 65.67 residual: 25.07
mrth: 71.62 cth: 58.27 usage: 56.6 residual: 15.02
mrth: 97.43 cth: 75.22 usage: 88.23 residual: 9.2
mrth: 12.15 cth: 9.64 usage: 11.76 residual: 0.39
mrth: 48.86 cth: 40.64 usage: 24.59 residual: 24.27
mrth: 73.5 cth: 62.11 usage: 62.66 residual: 10.84
mrth: 40.2 cth: 30.77 usage: 26.95 residual: 13.25
mrth: 109.96 cth: 97.19 usage: 64.33 residual: 45.63
mrth: 80.06 cth: 59.18 usage: 45.27 residual: 34.79
mrth: 72.24 cth: 57.17 usage: 50.81 residual: 21.43
mrth: 38.0 cth: 31.44 usage: 23.83 residual: 14.17
mrth: 43.41 cth: 30.69 usage: 29.68 residual: 13.73
mrth: 93.18 cth: 76.74 usage: 61.61 residual: 31.57
mrth: 112.43 cth: 89.11 usage: 60.62 residual: 51.81
mrth: 74.25 cth: 54.63 usage: 56.35 residual: 17.9
mrth: 56.51 cth: 46.16 usage: 37.73 residual: 18.78
mrth: 41.05 cth: 29.77 usage: 30.03 residual: 11.02
mrth: 71.75 cth: 61.35 usage: 59.05 residual: 12.7
mrth: 47.92 cth: 34.74 usage: 26.01 residual: 21.91
mrth: 111.71 cth: 84.28 usage: 56.21 residual: 55.5
mrth: 133.8 cth: 106.04 usage: 121.75 residual: 12.05
mrth: 91.42 cth: 72.29 usage: 81.91 residual: 9.51
mrth: 36.25 cth: 28.18 usage: 33.53 residual: 2.72
mrth: 64.21 cth: 55.79 usage: 61.96 residual: 2.25
mrth: 43.95 cth: 39.52 usage: 39.5 residual: 4.45
mrth: 73.83 cth: 60.35 usage: 55.38 residual: 18.45
mrth: 18.32 cth: 15.92 usage: 15.63 residual: 2.69
mrth: 57.25 cth: 51.3 usage: 41.19 residual: 16.06
mrth: 80.22 cth: 58.11 usage: 57.83 residual: 22.39
mrth: 45.25 cth: 37.82 usage: 33.22 residual: 12.03
mrth: 66.14 cth: 54.31 usage: 61.39 residual: 4.75
mrth: 79.77 cth: 70.47 usage: 55.55 residual: 24.22
mrth: 52.21 cth: 44.33 usage: 45.7 residual: 6.51
mrth: 55.7 cth: 49.14 usage: 47.84 residual: 7.86
mrth: 60.2 cth: 45.06 usage: 47.65 residual: 12.55
mrth: 43.09 cth: 33.4 usage: 43.06 residual: 0.03
mrth: 138.75 cth: 116.07 usage: 110.88 residual: 27.87
mrth: 52.49 cth: 45.94 usage: 35.55 residual: 16.94
mrth: 24.03 cth: 19.78 usage: 13.91 residual: 10.12
mrth: 52.81 cth: 45.93 usage: 48.63 residual: 4.18
mrth: 76.21 cth: 59.98 usage: 60.64 residual: 15.57
mrth: 111.53 cth: 91.11 usage: 100.52 residual: 11.01
mrth: 78.46 cth: 68.07 usage: 58.67 residual: 19.79
mrth: 18.31 cth: 14.41 usage: 17.72 residual: 0.59
mrth: 28.39 cth: 24.76 usage: 24.44 residual: 3.95
mrth: 76.24 cth: 62.35 usage: 44.88 residual: 31.36
mrth: 85.73 cth: 71.6 usage: 80.03 residual: 5.7
mrth: 26.2 cth: 20.43 usage: 14.8 residual: 11.4
mrth: 97.01 cth: 76.67 usage: 62.44 residual: 34.57
mrth: 47.38 cth: 42.35 usage: 29.54 residual: 17.84
mrth: 21.9 cth: 18.44 usage: 18.02 residual: 3.88
mrth: 23.08 cth: 17.86 usage: 12.67 residual: 10.41
mrth: 10.11 cth: 7.4 usage: 6.84 residual: 3.27
mrth: 83.91 cth: 71.27 usage: 50.25 residual: 33.66
mrth: 62.35 cth: 49.2 usage: 62.0 residual: 0.35
mrth: 64.93 cth: 51.73 usage: 55.02 residual: 9.91
mrth: 20.74 cth: 15.34 usage: 12.78 residual: 7.96
mrth: 67.96 cth: 49.67 usage: 39.38 residual: 28.58
mrth: 102.6 cth: 88.16 usage: 79.43 residual: 23.17
mrth: 20.76 cth: 18.44 usage: 14.58 residual: 6.18
mrth: 17.24 cth: 12.35 usage: 13.32 residual: 3.92
mrth: 14.1 cth: 11.55 usage: 10.79 residual: 3.31
mrth: 113.03 cth: 95.43 usage: 70.32 residual: 42.71
mrth: 99.05 cth: 79.17 usage: 54.58 residual: 44.47
mrth: 17.06 cth: 14.82 usage: 13.9 residual: 3.16
mrth: 19.72 cth: 14.3 usage: 10.98 residual: 8.74
mrth: 70.17 cth: 50.15 usage: 65.16 residual: 5.01
mrth: 17.3 cth: 13.09 usage: 16.05 residual: 1.25
mrth: 45.57 cth: 31.97 usage: 28.1 residual: 17.47
mrth: 25.69 cth: 21.8 usage: 24.1 residual: 1.59
mrth: 28.32 cth: 21.84 usage: 27.69 residual: 0.63
mrth: 67.41 cth: 55.44 usage: 34.77 residual: 32.64
mrth: 58.44 cth: 47.51 usage: 52.38 residual: 6.06
mrth: 107.25 cth: 93.55 usage: 63.86 residual: 43.39
mrth: 8.69 cth: 7.73 usage: 7.09 residual: 1.6
mrth: 137.46 cth: 103.35 usage: 131.45 residual: 6.01
mrth: 82.59 cth: 59.02 usage: 57.7 residual: 24.89
mrth: 23.08 cth: 19.79 usage: 15.34 residual: 7.74
mrth: 44.37 cth: 36.19 usage: 36.6 residual: 7.77
mrth: 40.42 cth: 36.37 usage: 27.67 residual: 12.75
mrth: 23.01 cth: 18.17 usage: 17.4 residual: 5.61
mrth: 86.13 cth: 67.21 usage: 72.55 residual: 13.58
mrth: 60.6 cth: 52.41 usage: 51.14 residual: 9.46
mrth: 36.79 cth: 26.3 usage: 29.55 residual: 7.24
mrth: 10.35 cth: 8.6 usage: 8.25 residual: 2.1
mrth: 112.01 cth: 94.71 usage: 95.51 residual: 16.5
mrth: 20.87 cth: 17.54 usage: 15.17 residual: 5.7
mrth: 39.46 cth: 35.2 usage: 28.03 residual: 11.43
mrth: 75.77 cth: 55.01 usage: 46.98 residual: 28.79
mrth: 47.53 cth: 42.57 usage: 25.67 residual: 21.86
mrth: 67.42 cth: 51.45 usage: 35.53 residual: 31.89
mrth: 28.67 cth: 25.05 usage: 21.67 residual: 7.0
mrth: 63.66 cth: 55.42 usage: 45.99 residual: 17.67
mrth: 70.89 cth: 61.73 usage: 65.71 residual: 5.18
mrth: 51.7 cth: 40.75 usage: 48.53 residual: 3.17
mrth: 12.97 cth: 11.47 usage: 10.57 residual: 2.4
mrth: 25.22 cth: 18.73 usage: 14.84 residual: 10.38
mrth: 67.26 cth: 56.06 usage: 53.01 residual: 14.25
mrth: 70.42 cth: 54.41 usage: 54.7 residual: 15.72
mrth: 27.66 cth: 21.68 usage: 21.91 residual: 5.75
mrth: 111.37 cth: 88.79 usage: 107.9 residual: 3.47
mrth: 72.53 cth: 54.3 usage: 52.25 residual: 20.28
mrth: 67.31 cth: 49.58 usage: 37.74 residual: 29.57
mrth: 41.5 cth: 37.09 usage: 21.36 residual: 20.14
mrth: 62.49 cth: 54.93 usage: 38.74 residual: 23.75
mrth: 85.38 cth: 59.95 usage: 76.44 residual: 8.94
mrth: 86.83 cth: 62.51 usage: 60.28 residual: 26.55
mrth: 64.2 cth: 45.35 usage: 34.86 residual: 29.34
mrth: 52.8 cth: 37.27 usage: 31.11 residual: 21.69
mrth: 38.64 cth: 29.69 usage: 31.0 residual: 7.64
mrth: 20.19 cth: 17.57 usage: 16.45 residual: 3.74
mrth: 25.95 cth: 21.94 usage: 21.46 residual: 4.49
mrth: 64.96 cth: 46.54 usage: 44.5 residual: 20.46
mrth: 75.18 cth: 54.97 usage: 41.1 residual: 34.08
mrth: 29.26 cth: 25.99 usage: 21.49 residual: 7.77
mrth: 13.62 cth: 9.74 usage: 9.13 residual: 4.49
mrth: 54.0 cth: 39.78 usage: 40.9 residual: 13.1
mrth: 38.45 cth: 33.04 usage: 22.0 residual: 16.45
mrth: 73.92 cth: 58.49 usage: 65.42 residual: 8.5
mrth: 62.61 cth: 55.81 usage: 40.48 residual: 22.13
mrth: 32.09 cth: 23.88 usage: 16.08 residual: 16.01
mrth: 37.22 cth: 27.92 usage: 25.25 residual: 11.97
mrth: 36.04 cth: 28.31 usage: 30.21 residual: 5.83
mrth: 53.45 cth: 44.22 usage: 49.65 residual: 3.8
mrth: 58.39 cth: 49.71 usage: 51.49 residual: 6.9
mrth: 19.29 cth: 13.64 usage: 13.66 residual: 5.63
mrth: 128.55 cth: 100.11 usage: 107.49 residual: 21.06
mrth: 106.7 cth: 91.98 usage: 90.16 residual: 16.54
mrth: 91.54 cth: 82.18 usage: 67.49 residual: 24.05
mrth: 61.93 cth: 48.84 usage: 40.92 residual: 21.01
mrth: 68.55 cth: 56.1 usage: 49.24 residual: 19.31
mrth: 57.29 cth: 49.2 usage: 56.61 residual: 0.68
mrth: 57.0 cth: 46.54 usage: 52.35 residual: 4.65
mrth: 43.33 cth: 31.34 usage: 32.14 residual: 11.19
mrth: 19.91 cth: 17.34 usage: 15.82 residual: 4.09
mrth: 76.92 cth: 58.23 usage: 54.43 residual: 22.49
mrth: 47.41 cth: 35.45 usage: 38.49 residual: 8.92
mrth: 73.72 cth: 59.89 usage: 56.4 residual: 17.32
mrth: 107.77 cth: 81.97 usage: 91.28 residual: 16.49
mrth: 58.01 cth: 44.4 usage: 38.41 residual: 19.6
mrth: 16.4 cth: 13.72 usage: 10.0 residual: 6.4
mrth: 152.55 cth: 120.19 usage: 128.76 residual: 23.79
mrth: 38.61 cth: 29.35 usage: 22.24 residual: 16.37
mrth: 95.69 cth: 78.85 usage: 69.67 residual: 26.02
mrth: 136.4 cth: 102.65 usage: 92.12 residual: 44.28
mrth: 53.4 cth: 42.57 usage: 46.21 residual: 7.19
mrth: 86.54 cth: 65.08 usage: 80.21 residual: 6.33
mrth: 54.55 cth: 44.83 usage: 43.36 residual: 11.19
mrth: 68.41 cth: 56.85 usage: 50.48 residual: 17.93
mrth: 11.06 cth: 9.55 usage: 8.83 residual: 2.23
mrth: 70.63 cth: 57.0 usage: 46.74 residual: 23.89
mrth: 19.15 cth: 13.62 usage: 15.46 residual: 3.69
mrth: 74.41 cth: 62.68 usage: 61.41 residual: 13.0
mrth: 81.55 cth: 66.54 usage: 69.21 residual: 12.34
mrth: 31.41 cth: 25.73 usage: 26.86 residual: 4.55
mrth: 78.56 cth: 59.39 usage: 48.48 residual: 30.08
mrth: 109.98 cth: 77.6 usage: 70.61 residual: 39.37
mrth: 62.84 cth: 48.86 usage: 35.61 residual: 27.23
mrth: 31.08 cth: 24.28 usage: 23.85 residual: 7.23
mrth: 73.07 cth: 59.72 usage: 68.77 residual: 4.3
mrth: 20.65 cth: 17.98 usage: 13.73 residual: 6.92
mrth: 6.15 cth: 4.79 usage: 4.0 residual: 2.15
mrth: 26.41 cth: 20.39 usage: 17.82 residual: 8.59
mrth: 54.2 cth: 39.18 usage: 37.94 residual: 16.26
mrth: 107.2 cth: 85.9 usage: 79.33 residual: 27.87
mrth: 52.01 cth: 39.92 usage: 48.36 residual: 3.65
mrth: 46.35 cth: 34.83 usage: 29.92 residual: 16.43
mrth: 110.46 cth: 91.97 usage: 89.04 residual: 21.42
mrth: 57.64 cth: 41.06 usage: 40.98 residual: 16.66
mrth: 74.99 cth: 56.99 usage: 59.25 residual: 15.74
mrth: 79.81 cth: 65.82 usage: 62.05 residual: 17.76
mrth: 55.99 cth: 49.64 usage: 40.93 residual: 15.06
mrth: 90.03 cth: 79.64 usage: 75.42 residual: 14.61
mrth: 41.05 cth: 32.57 usage: 27.75 residual: 13.3
mrth: 93.72 cth: 76.97 usage: 60.3 residual: 33.42
mrth: 40.74 cth: 28.94 usage: 33.61 residual: 7.13
mrth: 42.18 cth: 30.79 usage: 33.67 residual: 8.51
mrth: 46.11 cth: 35.06 usage: 29.35 residual: 16.76
mrth: 29.22 cth: 24.72 usage: 21.57 residual: 7.65
mrth: 46.26 cth: 36.34 usage: 37.42 residual: 8.84
mrth: 115.07 cth: 87.23 usage: 99.11 residual: 15.96
mrth: 106.64 cth: 80.9 usage: 98.98 residual: 7.66
mrth: 110.0 cth: 79.22 usage: 70.98 residual: 39.02
mrth: 125.63 cth: 100.93 usage: 111.58 residual: 14.05
mrth: 47.97 cth: 38.45 usage: 33.23 residual: 14.74
mrth: 47.23 cth: 39.03 usage: 30.57 residual: 16.66
mrth: 61.08 cth: 54.81 usage: 58.87 residual: 2.21
mrth: 6.94 cth: 5.88 usage: 4.98 residual: 1.96
mrth: 17.94 cth: 14.56 usage: 16.97 residual: 0.97
mrth: 26.5 cth: 19.87 usage: 22.7 residual: 3.8
mrth: 104.06 cth: 82.21 usage: 95.87 residual: 8.19
mrth: 33.38 cth: 26.99 usage: 24.58 residual: 8.8
mrth: 50.83 cth: 36.02 usage: 47.83 residual: 3.0
mrth: 90.93 cth: 64.01 usage: 55.77 residual: 35.16
mrth: 42.52 cth: 33.11 usage: 30.39 residual: 12.13
mrth: 72.8 cth: 59.2 usage: 39.92 residual: 32.88
mrth: 30.9 cth: 26.59 usage: 25.19 residual: 5.71
mrth: 42.68 cth: 37.72 usage: 29.55 residual: 13.13
mrth: 40.85 cth: 34.74 usage: 34.0 residual: 6.85
mrth: 35.29 cth: 31.69 usage: 29.97 residual: 5.32
mrth: 45.77 cth: 35.2 usage: 34.79 residual: 10.98
mrth: 139.96 cth: 110.24 usage: 136.65 residual: 3.31
mrth: 84.01 cth: 68.24 usage: 43.39 residual: 40.62
mrth: 67.31 cth: 58.97 usage: 42.42 residual: 24.89
mrth: 50.48 cth: 44.92 usage: 31.9 residual: 18.58
mrth: 78.84 cth: 58.98 usage: 78.19 residual: 0.65
mrth: 68.55 cth: 54.63 usage: 35.28 residual: 33.27
mrth: 57.13 cth: 49.63 usage: 44.09 residual: 13.04
mrth: 43.87 cth: 31.95 usage: 26.05 residual: 17.82
mrth: 81.01 cth: 72.14 usage: 50.83 residual: 30.18
mrth: 116.07 cth: 103.75 usage: 87.59 residual: 28.48
mrth: 50.86 cth: 37.28 usage: 26.35 residual: 24.51
mrth: 119.17 cth: 101.89 usage: 86.12 residual: 33.05
mrth: 74.52 cth: 64.02 usage: 54.67 residual: 19.85
mrth: 60.88 cth: 51.3 usage: 52.34 residual: 8.54
mrth: 18.27 cth: 14.32 usage: 16.99 residual: 1.28
mrth: 85.57 cth: 76.3 usage: 43.9 residual: 41.67
mrth: 73.54 cth: 51.67 usage: 72.01 residual: 1.53
mrth: 57.98 cth: 47.85 usage: 30.2 residual: 27.78
mrth: 53.17 cth: 43.08 usage: 32.64 residual: 20.53
mrth: 92.82 cth: 75.75 usage: 86.92 residual: 5.9
mrth: 97.82 cth: 70.28 usage: 59.98 residual: 37.84
mrth: 99.2 cth: 82.97 usage: 66.38 residual: 32.82
mrth: 40.65 cth: 30.89 usage: 22.84 residual: 17.81
mrth: 40.57 cth: 33.94 usage: 34.93 residual: 5.64
mrth: 26.35 cth: 18.68 usage: 16.79 residual: 9.56
mrth: 83.54 cth: 60.95 usage: 68.44 residual: 15.1
mrth: 50.73 cth: 37.14 usage: 48.94 residual: 1.79
mrth: 63.96 cth: 44.96 usage: 41.5 residual: 22.46
mrth: 35.71 cth: 29.13 usage: 22.12 residual: 13.59
mrth: 40.51 cth: 28.75 usage: 38.83 residual: 1.68
mrth: 35.63 cth: 28.12 usage: 31.81 residual: 3.82
mrth: 37.93 cth: 29.04 usage: 20.09 residual: 17.84
mrth: 25.65 cth: 19.91 usage: 14.07 residual: 11.58
mrth: 60.25 cth: 46.13 usage: 31.0 residual: 29.25
mrth: 51.81 cth: 40.02 usage: 30.47 residual: 21.34
mrth: 43.86 cth: 33.44 usage: 36.3 residual: 7.56
mrth: 83.48 cth: 64.32 usage: 75.25 residual: 8.23
mrth: 83.19 cth: 66.96 usage: 54.97 residual: 28.22
mrth: 65.2 cth: 51.15 usage: 62.62 residual: 2.58
mrth: 58.07 cth: 42.36 usage: 39.0 residual: 19.07
mrth: 125.52 cth: 110.45 usage: 79.87 residual: 45.65
mrth: 19.27 cth: 13.65 usage: 16.0 residual: 3.27
mrth: 77.4 cth: 59.73 usage: 75.32 residual: 2.08
mrth: 13.23 cth: 11.49 usage: 12.12 residual: 1.11
mrth: 91.64 cth: 67.98 usage: 66.74 residual: 24.9
mrth: 99.7 cth: 79.63 usage: 89.0 residual: 10.7
mrth: 89.62 cth: 68.97 usage: 62.89 residual: 26.73
mrth: 32.02 cth: 26.57 usage: 30.21 residual: 1.81
mrth: 95.55 cth: 74.46 usage: 72.78 residual: 22.77
mrth: 162.93 cth: 127.46 usage: 115.12 residual: 47.81
mrth: 92.29 cth: 69.47 usage: 86.08 residual: 6.21
mrth: 37.11 cth: 30.24 usage: 27.79 residual: 9.32
mrth: 96.02 cth: 85.5 usage: 78.19 residual: 17.83
mrth: 74.27 cth: 55.1 usage: 60.6 residual: 13.67
mrth: 48.19 cth: 41.18 usage: 27.71 residual: 20.48
mrth: 61.83 cth: 46.75 usage: 36.8 residual: 25.03
mrth: 19.84 cth: 15.02 usage: 13.44 residual: 6.4
mrth: 61.49 cth: 48.23 usage: 35.34 residual: 26.15
mrth: 12.77 cth: 10.01 usage: 6.48 residual: 6.29
mrth: 70.52 cth: 51.55 usage: 70.47 residual: 0.05
mrth: 51.58 cth: 38.95 usage: 30.77 residual: 20.81
mrth: 90.37 cth: 63.83 usage: 86.83 residual: 3.54
mrth: 74.01 cth: 53.7 usage: 43.01 residual: 31.0
mrth: 81.89 cth: 70.12 usage: 72.88 residual: 9.01
mrth: 58.29 cth: 47.7 usage: 44.5 residual: 13.79
mrth: 58.13 cth: 40.92 usage: 34.46 residual: 23.67
mrth: 98.07 cth: 75.33 usage: 78.35 residual: 19.72
mrth: 37.57 cth: 30.25 usage: 25.66 residual: 11.91
mrth: 62.44 cth: 45.46 usage: 33.98 residual: 28.46
mrth: 121.29 cth: 107.17 usage: 96.3 residual: 24.99
mrth: 18.56 cth: 15.51 usage: 11.03 residual: 7.53
mrth: 50.39 cth: 44.04 usage: 43.85 residual: 6.54
mrth: 84.19 cth: 71.21 usage: 53.6 residual: 30.59
mrth: 81.29 cth: 71.35 usage: 55.8 residual: 25.49
mrth: 130.2 cth: 102.59 usage: 68.84 residual: 61.36
mrth: 15.98 cth: 13.26 usage: 15.35 residual: 0.63
mrth: 51.44 cth: 36.43 usage: 29.77 residual: 21.67
mrth: 38.98 cth: 33.4 usage: 24.96 residual: 14.02
mrth: 28.26 cth: 24.23 usage: 19.03 residual: 9.23
mrth: 67.56 cth: 48.04 usage: 42.74 residual: 24.82
mrth: 59.2 cth: 46.85 usage: 49.38 residual: 9.82
mrth: 42.69 cth: 33.95 usage: 23.1 residual: 19.59
mrth: 30.61 cth: 26.62 usage: 25.86 residual: 4.75
mrth: 84.88 cth: 75.71 usage: 45.42 residual: 39.46
mrth: 44.9 cth: 32.3 usage: 23.56 residual: 21.34
mrth: 79.67 cth: 64.78 usage: 60.62 residual: 19.05
mrth: 55.08 cth: 46.95 usage: 49.32 residual: 5.76
mrth: 61.2 cth: 52.02 usage: 46.19 residual: 15.01
mrth: 53.08 cth: 44.5 usage: 40.45 residual: 12.63
mrth: 26.28 cth: 20.02 usage: 15.13 residual: 11.15
mrth: 3.27 cth: 2.33 usage: 1.92 residual: 1.35
mrth: 25.18 cth: 18.32 usage: 22.48 residual: 2.7
mrth: 38.43 cth: 29.86 usage: 27.44 residual: 10.99
mrth: 69.56 cth: 50.93 usage: 43.81 residual: 25.75
mrth: 46.17 cth: 41.43 usage: 23.54 residual: 22.63
mrth: 40.87 cth: 28.91 usage: 32.43 residual: 8.44
mrth: 60.66 cth: 53.36 usage: 34.33 residual: 26.33
mrth: 6.95 cth: 5.27 usage: 5.91 residual: 1.04
mrth: 28.17 cth: 21.32 usage: 16.09 residual: 12.08
mrth: 83.14 cth: 69.32 usage: 54.78 residual: 28.36
mrth: 25.64 cth: 18.99 usage: 24.98 residual: 0.66
mrth: 19.06 cth: 15.47 usage: 12.24 residual: 6.82
mrth: 30.44 cth: 27.37 usage: 25.29 residual: 5.15
mrth: 44.04 cth: 38.19 usage: 25.06 residual: 18.98
mrth: 49.74 cth: 35.61 usage: 29.72 residual: 20.02
mrth: 84.89 cth: 71.55 usage: 81.43 residual: 3.46
mrth: 46.53 cth: 40.66 usage: 32.09 residual: 14.44
mrth: 133.58 cth: 106.42 usage: 123.83 residual: 9.75
mrth: 58.84 cth: 47.73 usage: 30.45 residual: 28.39
mrth: 76.52 cth: 62.35 usage: 57.88 residual: 18.64
mrth: 3.45 cth: 2.83 usage: 2.73 residual: 0.72
mrth: 15.2 cth: 11.4 usage: 11.15 residual: 4.05
mrth: 26.55 cth: 19.81 usage: 17.82 residual: 8.73
mrth: 42.7 cth: 30.2 usage: 38.72 residual: 3.98
mrth: 38.3 cth: 27.62 usage: 31.89 residual: 6.41
mrth: 40.87 cth: 29.99 usage: 30.04 residual: 10.83
mrth: 114.87 cth: 96.03 usage: 67.42 residual: 47.45
mrth: 93.67 cth: 76.78 usage: 87.85 residual: 5.82
mrth: 59.36 cth: 50.03 usage: 41.89 residual: 17.47
mrth: 85.55 cth: 71.36 usage: 52.67 residual: 32.88
mrth: 27.75 cth: 23.37 usage: 26.14 residual: 1.61
mrth: 89.8 cth: 71.67 usage: 84.75 residual: 5.05
mrth: 30.98 cth: 25.07 usage: 20.94 residual: 10.04
mrth: 40.06 cth: 34.54 usage: 21.28 residual: 18.78
mrth: 46.22 cth: 40.71 usage: 45.07 residual: 1.15
mrth: 36.29 cth: 26.71 usage: 19.26 residual: 17.03
mrth: 56.43 cth: 47.83 usage: 39.76 residual: 16.67
mrth: 50.95 cth: 44.14 usage: 39.42 residual: 11.53
mrth: 31.94 cth: 25.4 usage: 26.06 residual: 5.88
mrth: 37.34 cth: 31.07 usage: 32.87 residual: 4.47
mrth: 75.78 cth: 62.26 usage: 53.91 residual: 21.87
mrth: 64.44 cth: 46.64 usage: 50.19 residual: 14.25
mrth: 7.15 cth: 5.85 usage: 5.79 residual: 1.36
mrth: 83.25 cth: 66.2 usage: 70.45 residual: 12.8
mrth: 17.47 cth: 12.92 usage: 17.28 residual: 0.19
mrth: 42.72 cth: 34.52 usage: 28.13 residual: 14.59
mrth: 83.85 cth: 66.43 usage: 82.85 residual: 1.0
mrth: 112.08 cth: 84.04 usage: 81.7 residual: 30.38
mrth: 41.43 cth: 33.47 usage: 28.5 residual: 12.93
mrth: 37.42 cth: 28.52 usage: 25.9 residual: 11.52
mrth: 36.86 cth: 31.46 usage: 35.68 residual: 1.18
mrth: 27.61 cth: 22.31 usage: 22.67 residual: 4.94
mrth: 21.9 cth: 19.09 usage: 18.32 residual: 3.58
mrth: 21.38 cth: 15.39 usage: 14.67 residual: 6.71
mrth: 65.47 cth: 56.67 usage: 34.67 residual: 30.8
mrth: 181.7 cth: 128.92 usage: 105.6 residual: 76.1
mrth: 23.61 cth: 17.91 usage: 12.02 residual: 11.59
mrth: 73.56 cth: 60.3 usage: 60.26 residual: 13.3
mrth: 32.26 cth: 28.34 usage: 16.23 residual: 16.03
mrth: 68.79 cth: 48.61 usage: 45.99 residual: 22.8
mrth: 100.72 cth: 78.67 usage: 93.88 residual: 6.84
mrth: 105.65 cth: 78.62 usage: 64.76 residual: 40.89
mrth: 44.53 cth: 36.34 usage: 34.38 residual: 10.15
mrth: 95.91 cth: 77.91 usage: 77.96 residual: 17.95
mrth: 43.38 cth: 32.56 usage: 33.35 residual: 10.03
mrth: 36.03 cth: 27.4 usage: 26.72 residual: 9.31
mrth: 27.19 cth: 20.75 usage: 21.58 residual: 5.61
mrth: 88.32 cth: 74.49 usage: 49.91 residual: 38.41
mrth: 31.87 cth: 24.62 usage: 18.13 residual: 13.74
mrth: 23.95 cth: 20.56 usage: 18.48 residual: 5.47
mrth: 8.71 cth: 7.11 usage: 5.81 residual: 2.9
mrth: 38.67 cth: 29.6 usage: 21.71 residual: 16.96
mrth: 10.62 cth: 8.14 usage: 7.61 residual: 3.01
mrth: 35.39 cth: 27.47 usage: 17.7 residual: 17.69
mrth: 87.15 cth: 75.59 usage: 84.98 residual: 2.17
mrth: 44.32 cth: 38.71 usage: 37.25 residual: 7.07
mrth: 67.9 cth: 54.6 usage: 55.27 residual: 12.63
mrth: 76.44 cth: 53.57 usage: 64.84 residual: 11.6
mrth: 71.93 cth: 53.21 usage: 51.22 residual: 20.71
mrth: 45.16 cth: 37.35 usage: 28.66 residual: 16.5
mrth: 34.77 cth: 26.28 usage: 31.15 residual: 3.62
mrth: 54.51 cth: 41.64 usage: 28.07 residual: 26.44
mrth: 27.5 cth: 21.06 usage: 20.38 residual: 7.12
mrth: 57.36 cth: 43.02 usage: 42.59 residual: 14.77
mrth: 42.36 cth: 37.35 usage: 24.45 residual: 17.91
mrth: 50.09 cth: 38.25 usage: 34.92 residual: 15.17
mrth: 11.57 cth: 10.11 usage: 10.37 residual: 1.2
mrth: 48.58 cth: 35.02 usage: 39.09 residual: 9.49
mrth: 74.47 cth: 54.21 usage: 55.91 residual: 18.56
mrth: 60.52 cth: 44.36 usage: 34.1 residual: 26.42
mrth: 147.5 cth: 119.63 usage: 87.01 residual: 60.49
mrth: 11.5 cth: 9.69 usage: 8.92 residual: 2.58
mrth: 49.34 cth: 42.59 usage: 31.96 residual: 17.38
mrth: 6.49 cth: 4.9 usage: 5.74 residual: 0.75
mrth: 42.05 cth: 35.77 usage: 32.4 residual: 9.65
mrth: 72.94 cth: 54.29 usage: 42.0 residual: 30.94
mrth: 23.12 cth: 20.68 usage: 13.91 residual: 9.21
mrth: 38.63 cth: 30.64 usage: 28.35 residual: 10.28
mrth: 42.88 cth: 34.54 usage: 27.61 residual: 15.27
mrth: 73.76 cth: 64.41 usage: 49.99 residual: 23.77
mrth: 32.37 cth: 24.79 usage: 16.41 residual: 15.96
mrth: 24.85 cth: 21.94 usage: 17.11 residual: 7.74
mrth: 66.42 cth: 58.72 usage: 48.2 residual: 18.22
mrth: 82.69 cth: 66.7 usage: 46.96 residual: 35.73
mrth: 72.05 cth: 61.97 usage: 58.17 residual: 13.88
mrth: 97.32 cth: 80.71 usage: 67.41 residual: 29.91
mrth: 19.41 cth: 15.31 usage: 17.31 residual: 2.1
mrth: 56.3 cth: 43.57 usage: 34.68 residual: 21.62
mrth: 44.66 cth: 31.45 usage: 37.44 residual: 7.22
mrth: 80.07 cth: 57.12 usage: 62.69 residual: 17.38
mrth: 59.53 cth: 43.97 usage: 39.69 residual: 19.84
mrth: 72.99 cth: 51.15 usage: 42.54 residual: 30.45
mrth: 62.88 cth: 53.44 usage: 37.99 residual: 24.89
mrth: 28.37 cth: 22.8 usage: 16.72 residual: 11.65
mrth: 23.02 cth: 20.34 usage: 21.03 residual: 1.99
mrth: 21.69 cth: 18.89 usage: 16.89 residual: 4.8
mrth: 53.41 cth: 38.32 usage: 30.86 residual: 22.55
mrth: 28.26 cth: 21.24 usage: 16.44 residual: 11.82
mrth: 94.69 cth: 73.84 usage: 93.91 residual: 0.78
mrth: 107.46 cth: 76.2 usage: 76.64 residual: 30.82
mrth: 56.22 cth: 41.18 usage: 30.3 residual: 25.92
mrth: 55.91 cth: 42.4 usage: 51.84 residual: 4.07
mrth: 25.14 cth: 21.97 usage: 24.89 residual: 0.25
mrth: 94.47 cth: 70.47 usage: 65.13 residual: 29.34
mrth: 75.46 cth: 66.38 usage: 51.82 residual: 23.64
mrth: 92.07 cth: 81.9 usage: 91.94 residual: 0.13
mrth: 43.69 cth: 34.81 usage: 38.03 residual: 5.66
mrth: 66.86 cth: 46.95 usage: 55.34 residual: 11.52
mrth: 41.14 cth: 32.27 usage: 40.35 residual: 0.79
mrth: 27.55 cth: 21.85 usage: 18.4 residual: 9.15
mrth: 48.64 cth: 38.85 usage: 25.15 residual: 23.49
mrth: 53.83 cth: 39.03 usage: 31.03 residual: 22.8
mrth: 21.74 cth: 19.13 usage: 21.25 residual: 0.49
mrth: 77.93 cth: 68.86 usage: 44.63 residual: 33.3
mrth: 52.94 cth: 38.28 usage: 37.62 residual: 15.32
mrth: 35.87 cth: 32.08 usage: 20.89 residual: 14.98
mrth: 12.15 cth: 9.02 usage: 12.07 residual: 0.08
mrth: 24.76 cth: 22.01 usage: 17.66 residual: 7.1
mrth: 54.35 cth: 40.32 usage: 44.56 residual: 9.79
mrth: 76.44 cth: 55.12 usage: 66.23 residual: 10.21
mrth: 114.68 cth: 103.08 usage: 75.54 residual: 39.14
mrth: 68.54 cth: 49.3 usage: 53.67 residual: 14.87
mrth: 11.32 cth: 9.44 usage: 11.18 residual: 0.14
mrth: 122.57 cth: 96.83 usage: 106.64 residual: 15.93
mrth: 27.0 cth: 23.5 usage: 25.96 residual: 1.04
mrth: 57.3 cth: 45.5 usage: 38.46 residual: 18.84
mrth: 20.94 cth: 17.63 usage: 14.68 residual: 6.26
mrth: 56.04 cth: 40.81 usage: 34.18 residual: 21.86
mrth: 26.69 cth: 20.7 usage: 14.63 residual: 12.06
mrth: 46.57 cth: 34.64 usage: 36.13 residual: 10.44
mrth: 74.0 cth: 61.98 usage: 60.41 residual: 13.59
mrth: 28.2 cth: 23.18 usage: 19.83 residual: 8.37
mrth: 50.83 cth: 40.34 usage: 42.6 residual: 8.23
mrth: 45.72 cth: 35.28 usage: 31.79 residual: 13.93
mrth: 29.6 cth: 22.67 usage: 27.26 residual: 2.34
mrth: 83.26 cth: 63.04 usage: 61.73 residual: 21.53
mrth: 89.38 cth: 75.57 usage: 67.97 residual: 21.41
mrth: 7.03 cth: 6.23 usage: 6.32 residual: 0.71
mrth: 30.37 cth: 21.32 usage: 24.2 residual: 6.17
mrth: 98.28 cth: 69.71 usage: 81.32 residual: 16.96
mrth: 36.55 cth: 30.6 usage: 26.77 residual: 9.78
mrth: 32.92 cth: 25.72 usage: 20.63 residual: 12.29
mrth: 45.53 cth: 40.64 usage: 24.17 residual: 21.36
mrth: 75.37 cth: 62.29 usage: 57.12 residual: 18.25
mrth: 75.85 cth: 68.18 usage: 75.73 residual: 0.12
mrth: 70.93 cth: 59.24 usage: 69.13 residual: 1.8
mrth: 26.95 cth: 22.56 usage: 21.41 residual: 5.54
mrth: 4.62 cth: 3.26 usage: 4.32 residual: 0.3
mrth: 51.41 cth: 41.4 usage: 46.3 residual: 5.11
mrth: 7.99 cth: 6.4 usage: 4.55 residual: 3.44
mrth: 56.05 cth: 42.1 usage: 55.27 residual: 0.78
mrth: 16.14 cth: 12.43 usage: 8.52 residual: 7.62
mrth: 48.19 cth: 39.44 usage: 30.61 residual: 17.58
mrth: 61.51 cth: 52.81 usage: 39.89 residual: 21.62
mrth: 61.94 cth: 44.09 usage: 41.86 residual: 20.08
mrth: 23.32 cth: 19.05 usage: 13.04 residual: 10.28
mrth: 45.94 cth: 36.21 usage: 26.12 residual: 19.82
mrth: 33.27 cth: 27.34 usage: 18.76 residual: 14.51
mrth: 110.73 cth: 89.26 usage: 72.01 residual: 38.72
mrth: 98.45 cth: 69.46 usage: 50.82 residual: 47.63
mrth: 35.76 cth: 26.99 usage: 25.34 residual: 10.42
mrth: 45.09 cth: 32.87 usage: 24.23 residual: 20.86
mrth: 53.89 cth: 42.86 usage: 30.62 residual: 23.27
mrth: 79.47 cth: 58.65 usage: 43.34 residual: 36.13
mrth: 100.73 cth: 89.63 usage: 91.13 residual: 9.6
mrth: 41.46 cth: 35.9 usage: 35.11 residual: 6.35
mrth: 87.79 cth: 78.53 usage: 71.82 residual: 15.97
mrth: 43.8 cth: 33.05 usage: 38.71 residual: 5.09
mrth: 74.21 cth: 55.97 usage: 49.34 residual: 24.87
mrth: 75.84 cth: 57.08 usage: 70.27 residual: 5.57
mrth: 40.41 cth: 33.83 usage: 28.0 residual: 12.41
mrth: 39.96 cth: 35.64 usage: 37.43 residual: 2.53
mrth: 50.89 cth: 40.28 usage: 32.69 residual: 18.2
mrth: 37.12 cth: 26.75 usage: 31.67 residual: 5.45
mrth: 70.12 cth: 56.95 usage: 48.61 residual: 21.51
mrth: 42.41 cth: 34.71 usage: 21.27 residual: 21.14
mrth: 43.14 cth: 32.26 usage: 27.18 residual: 15.96
mrth: 14.41 cth: 12.57 usage: 9.87 residual: 4.54
mrth: 50.97 cth: 38.31 usage: 33.73 residual: 17.24
mrth: 45.98 cth: 33.35 usage: 26.14 residual: 19.84
mrth: 37.31 cth: 32.43 usage: 19.91 residual: 17.4
mrth: 10.27 cth: 7.6 usage: 6.68 residual: 3.59
mrth: 57.56 cth: 48.51 usage: 40.03 residual: 17.53
mrth: 145.87 cth: 103.04 usage: 90.21 residual: 55.66
mrth: 91.21 cth: 71.2 usage: 52.4 residual: 38.81
mrth: 46.76 cth: 39.73 usage: 28.04 residual: 18.72
mrth: 51.66 cth: 42.14 usage: 30.08 residual: 21.58
mrth: 59.55 cth: 44.91 usage: 34.32 residual: 25.23
mrth: 46.17 cth: 36.93 usage: 41.25 residual: 4.92
mrth: 49.64 cth: 36.5 usage: 31.2 residual: 18.44
mrth: 58.61 cth: 41.54 usage: 51.44 residual: 7.17
mrth: 115.26 cth: 93.96 usage: 91.38 residual: 23.88
mrth: 56.03 cth: 47.4 usage: 45.6 residual: 10.43
mrth: 16.38 cth: 13.42 usage: 12.26 residual: 4.12
mrth: 41.9 cth: 31.12 usage: 41.34 residual: 0.56
mrth: 14.13 cth: 11.0 usage: 12.27 residual: 1.86
mrth: 39.53 cth: 34.15 usage: 23.9 residual: 15.63
mrth: 41.27 cth: 30.05 usage: 30.97 residual: 10.3
mrth: 14.51 cth: 10.94 usage: 11.26 residual: 3.25
mrth: 37.37 cth: 29.47 usage: 35.88 residual: 1.49
mrth: 40.61 cth: 34.92 usage: 29.99 residual: 10.62
mrth: 29.3 cth: 24.64 usage: 26.03 residual: 3.27
mrth: 77.37 cth: 63.15 usage: 47.03 residual: 30.34
mrth: 67.23 cth: 56.32 usage: 66.08 residual: 1.15
mrth: 73.15 cth: 65.41 usage: 49.38 residual: 23.77
mrth: 63.42 cth: 52.35 usage: 32.87 residual: 30.55
mrth: 47.33 cth: 35.62 usage: 25.25 residual: 22.08
mrth: 48.02 cth: 38.75 usage: 47.81 residual: 0.21
mrth: 40.3 cth: 31.02 usage: 26.68 residual: 13.62
mrth: 81.0 cth: 69.29 usage: 54.38 residual: 26.62
mrth: 47.39 cth: 39.0 usage: 45.79 residual: 1.6
mrth: 48.08 cth: 41.6 usage: 30.4 residual: 17.68
mrth: 101.51 cth: 88.08 usage: 101.07 residual: 0.44
mrth: 10.58 cth: 8.07 usage: 6.88 residual: 3.7
mrth: 114.6 cth: 83.32 usage: 107.49 residual: 7.11
mrth: 74.81 cth: 55.44 usage: 44.51 residual: 30.3
mrth: 57.29 cth: 48.93 usage: 45.86 residual: 11.43
mrth: 60.21 cth: 47.79 usage: 58.92 residual: 1.29
mrth: 39.49 cth: 34.57 usage: 20.83 residual: 18.66
mrth: 46.84 cth: 40.65 usage: 33.54 residual: 13.3
mrth: 107.35 cth: 94.98 usage: 62.97 residual: 44.38
mrth: 87.72 cth: 70.34 usage: 79.38 residual: 8.34
mrth: 87.72 cth: 76.33 usage: 62.85 residual: 24.87
mrth: 35.44 cth: 25.05 usage: 33.23 residual: 2.21
mrth: 61.05 cth: 54.71 usage: 55.95 residual: 5.1
mrth: 58.18 cth: 40.95 usage: 56.05 residual: 2.13
mrth: 46.82 cth: 37.78 usage: 35.75 residual: 11.07
mrth: 75.07 cth: 64.61 usage: 65.14 residual: 9.93
mrth: 116.44 cth: 93.68 usage: 84.91 residual: 31.53
mrth: 74.64 cth: 60.83 usage: 49.18 residual: 25.46
mrth: 104.4 cth: 78.62 usage: 94.74 residual: 9.66
mrth: 38.07 cth: 34.18 usage: 21.82 residual: 16.25
mrth: 79.76 cth: 67.64 usage: 60.12 residual: 19.64
mrth: 76.15 cth: 60.97 usage: 52.42 residual: 23.73
mrth: 60.26 cth: 46.28 usage: 43.66 residual: 16.6
mrth: 57.17 cth: 47.07 usage: 48.79 residual: 8.38
mrth: 75.92 cth: 55.13 usage: 69.75 residual: 6.17
mrth: 109.2 cth: 94.07 usage: 70.98 residual: 38.22
mrth: 33.1 cth: 28.58 usage: 28.05 residual: 5.05
mrth: 44.37 cth: 33.19 usage: 31.3 residual: 13.07
mrth: 63.35 cth: 51.35 usage: 47.79 residual: 15.56
mrth: 32.85 cth: 23.77 usage: 26.83 residual: 6.02
mrth: 57.85 cth: 43.46 usage: 49.08 residual: 8.77
mrth: 31.38 cth: 23.25 usage: 21.21 residual: 10.17
mrth: 18.76 cth: 14.02 usage: 14.58 residual: 4.18
mrth: 39.14 cth: 32.34 usage: 25.12 residual: 14.02
mrth: 15.47 cth: 13.32 usage: 12.26 residual: 3.21
mrth: 65.52 cth: 48.14 usage: 36.91 residual: 28.61
mrth: 37.8 cth: 33.38 usage: 36.42 residual: 1.38
mrth: 43.87 cth: 37.82 usage: 24.76 residual: 19.11
mrth: 62.84 cth: 47.15 usage: 34.54 residual: 28.3
mrth: 101.87 cth: 73.18 usage: 96.49 residual: 5.38
mrth: 40.28 cth: 30.5 usage: 27.16 residual: 13.12
mrth: 18.69 cth: 13.67 usage: 17.23 residual: 1.46
mrth: 81.12 cth: 58.55 usage: 48.22 residual: 32.9
mrth: 32.35 cth: 24.62 usage: 27.54 residual: 4.81
mrth: 28.68 cth: 21.95 usage: 15.25 residual: 13.43
mrth: 46.66 cth: 38.34 usage: 41.22 residual: 5.44
mrth: 70.43 cth: 61.5 usage: 63.1 residual: 7.33
mrth: 43.99 cth: 33.98 usage: 31.41 residual: 12.58
mrth: 55.72 cth: 44.93 usage: 38.26 residual: 17.46
mrth: 20.11 cth: 15.81 usage: 17.68 residual: 2.43
mrth: 66.0 cth: 56.58 usage: 36.5 residual: 29.5
mrth: 25.31 cth: 18.02 usage: 16.11 residual: 9.2
mrth: 61.51 cth: 50.19 usage: 37.07 residual: 24.44
mrth: 60.09 cth: 46.8 usage: 54.32 residual: 5.77
mrth: 56.24 cth: 43.69 usage: 44.32 residual: 11.92
mrth: 108.78 cth: 79.48 usage: 87.25 residual: 21.53
mrth: 14.38 cth: 10.8 usage: 10.62 residual: 3.76
mrth: 108.21 cth: 79.7 usage: 106.84 residual: 1.37
mrth: 42.16 cth: 30.53 usage: 24.78 residual: 17.38
mrth: 57.27 cth: 47.42 usage: 54.32 residual: 2.95
mrth: 45.26 cth: 34.51 usage: 24.38 residual: 20.88
mrth: 4.86 cth: 3.59 usage: 3.13 residual: 1.73
mrth: 31.18 cth: 21.91 usage: 29.54 residual: 1.64
mrth: 28.2 cth: 24.4 usage: 26.32 residual: 1.88
mrth: 66.65 cth: 53.67 usage: 53.31 residual: 13.34
mrth: 43.12 cth: 36.51 usage: 25.79 residual: 17.33
mrth: 77.25 cth: 68.05 usage: 56.74 residual: 20.51
mrth: 70.67 cth: 60.3 usage: 62.22 residual: 8.45
mrth: 37.96 cth: 30.05 usage: 30.52 residual: 7.44
mrth: 103.61 cth: 79.23 usage: 65.47 residual: 38.14
mrth: 78.22 cth: 59.6 usage: 69.36 residual: 8.86
mrth: 87.7 cth: 61.4 usage: 52.33 residual: 35.37
mrth: 8.04 cth: 5.9 usage: 6.56 residual: 1.48
mrth: 24.33 cth: 21.45 usage: 23.82 residual: 0.51
mrth: 104.63 cth: 84.28 usage: 69.48 residual: 35.15
mrth: 109.17 cth: 93.29 usage: 82.16 residual: 27.01
mrth: 60.37 cth: 49.96 usage: 53.97 residual: 6.4
mrth: 20.04 cth: 16.79 usage: 16.26 residual: 3.78
mrth: 45.42 cth: 40.32 usage: 30.08 residual: 15.34
mrth: 18.52 cth: 13.61 usage: 9.73 residual: 8.79
mrth: 23.01 cth: 18.43 usage: 15.04 residual: 7.97
mrth: 50.74 cth: 38.12 usage: 47.49 residual: 3.25
mrth: 22.79 cth: 19.28 usage: 21.25 residual: 1.54
mrth: 28.78 cth: 21.09 usage: 22.23 residual: 6.55
mrth: 52.15 cth: 38.54 usage: 32.33 residual: 19.82
mrth: 89.4 cth: 80.17 usage: 65.99 residual: 23.41
mrth: 83.98 cth: 67.65 usage: 71.52 residual: 12.46
mrth: 34.9 cth: 29.02 usage: 19.61 residual: 15.29
mrth: 76.41 cth: 62.65 usage: 67.78 residual: 8.63
mrth: 95.91 cth: 68.61 usage: 94.58 residual: 1.33
mrth: 55.38 cth: 48.3 usage: 54.28 residual: 1.1
mrth: 30.99 cth: 23.77 usage: 24.62 residual: 6.37
mrth: 30.28 cth: 26.84 usage: 15.35 residual: 14.93
mrth: 37.31 cth: 29.16 usage: 26.17 residual: 11.14
mrth: 62.05 cth: 53.22 usage: 49.79 residual: 12.26
mrth: 91.41 cth: 69.08 usage: 83.95 residual: 7.46
mrth: 30.91 cth: 26.72 usage: 25.92 residual: 4.99
mrth: 27.43 cth: 19.77 usage: 20.11 residual: 7.32
mrth: 45.85 cth: 36.99 usage: 44.37 residual: 1.48
mrth: 53.24 cth: 39.87 usage: 38.34 residual: 14.9
mrth: 52.87 cth: 38.44 usage: 47.76 residual: 5.11
mrth: 94.97 cth: 76.91 usage: 68.69 residual: 26.28
mrth: 53.77 cth: 46.85 usage: 44.39 residual: 9.38
mrth: 94.3 cth: 67.11 usage: 57.2 residual: 37.1
mrth: 81.19 cth: 69.6 usage: 64.13 residual: 17.06
mrth: 53.38 cth: 38.5 usage: 43.85 residual: 9.53
mrth: 69.93 cth: 56.09 usage: 40.45 residual: 29.48
mrth: 35.35 cth: 28.47 usage: 30.09 residual: 5.26
mrth: 7.59 cth: 6.24 usage: 5.13 residual: 2.46
mrth: 42.92 cth: 31.87 usage: 27.76 residual: 15.16
mrth: 11.41 cth: 9.04 usage: 6.36 residual: 5.05
mrth: 92.51 cth: 67.7 usage: 71.24 residual: 21.27
mrth: 35.21 cth: 26.5 usage: 21.44 residual: 13.77
mrth: 42.8 cth: 35.72 usage: 29.97 residual: 12.83
mrth: 33.43 cth: 26.49 usage: 19.15 residual: 14.28
mrth: 74.28 cth: 54.03 usage: 57.46 residual: 16.82
mrth: 44.99 cth: 35.52 usage: 31.4 residual: 13.59
mrth: 47.69 cth: 37.57 usage: 33.89 residual: 13.8
mrth: 31.2 cth: 23.35 usage: 28.64 residual: 2.56
mrth: 71.33 cth: 60.74 usage: 60.01 residual: 11.32
mrth: 128.86 cth: 110.69 usage: 85.59 residual: 43.27
mrth: 66.35 cth: 49.92 usage: 35.64 residual: 30.71
mrth: 78.29 cth: 70.11 usage: 58.89 residual: 19.4
mrth: 55.76 cth: 49.36 usage: 53.16 residual: 2.6
mrth: 36.91 cth: 31.14 usage: 20.56 residual: 16.35
mrth: 48.92 cth: 42.28 usage: 33.32 residual: 15.6
mrth: 76.32 cth: 58.55 usage: 41.79 residual: 34.53
mrth: 14.15 cth: 11.77 usage: 8.85 residual: 5.3
mrth: 43.28 cth: 30.3 usage: 40.0 residual: 3.28
mrth: 26.69 cth: 18.93 usage: 16.39 residual: 10.3
mrth: 77.87 cth: 64.18 usage: 54.59 residual: 23.28
mrth: 102.52 cth: 83.47 usage: 98.2 residual: 4.32
mrth: 45.27 cth: 39.77 usage: 27.78 residual: 17.49
mrth: 52.93 cth: 46.32 usage: 26.85 residual: 26.08
mrth: 53.79 cth: 47.74 usage: 47.27 residual: 6.52
mrth: 93.22 cth: 74.07 usage: 81.81 residual: 11.41
mrth: 18.25 cth: 14.91 usage: 14.05 residual: 4.2
mrth: 28.95 cth: 21.2 usage: 23.74 residual: 5.21
mrth: 44.42 cth: 37.52 usage: 39.97 residual: 4.45
mrth: 44.19 cth: 35.89 usage: 37.36 residual: 6.83
mrth: 72.9 cth: 56.78 usage: 36.91 residual: 35.99
mrth: 31.98 cth: 26.9 usage: 20.09 residual: 11.89
mrth: 59.76 cth: 46.68 usage: 51.21 residual: 8.55
mrth: 59.36 cth: 48.94 usage: 45.11 residual: 14.25
mrth: 38.27 cth: 29.5 usage: 35.29 residual: 2.98
mrth: 25.81 cth: 18.79 usage: 17.79 residual: 8.02
mrth: 41.18 cth: 36.66 usage: 25.48 residual: 15.7
mrth: 69.88 cth: 52.24 usage: 65.19 residual: 4.69
mrth: 42.32 cth: 31.59 usage: 30.52 residual: 11.8
mrth: 34.43 cth: 27.91 usage: 17.61 residual: 16.82
mrth: 57.0 cth: 42.87 usage: 53.46 residual: 3.54
mrth: 145.63 cth: 124.53 usage: 137.87 residual: 7.76
mrth: 78.37 cth: 55.31 usage: 40.56 residual: 37.81
mrth: 91.97 cth: 74.5 usage: 88.16 residual: 3.81
mrth: 73.78 cth: 52.18 usage: 54.05 residual: 19.73
mrth: 36.77 cth: 33.09 usage: 30.05 residual: 6.72
mrth: 19.53 cth: 15.12 usage: 11.86 residual: 7.67
mrth: 37.86 cth: 27.26 usage: 30.16 residual: 7.7
mrth: 40.89 cth: 32.16 usage: 31.6 residual: 9.29
mrth: 45.04 cth: 34.35 usage: 42.73 residual: 2.31
mrth: 42.3 cth: 31.21 usage: 27.92 residual: 14.38
mrth: 26.87 cth: 19.3 usage: 14.86 residual: 12.01
mrth: 115.35 cth: 83.28 usage: 77.29 residual: 38.06
mrth: 27.21 cth: 22.38 usage: 17.16 residual: 10.05
mrth: 47.05 cth: 33.15 usage: 33.66 residual: 13.39
mrth: 38.29 cth: 32.45 usage: 25.18 residual: 13.11
mrth: 43.94 cth: 38.92 usage: 36.72 residual: 7.22
mrth: 30.51 cth: 23.58 usage: 17.57 residual: 12.94
mrth: 43.97 cth: 36.29 usage: 27.8 residual: 16.17
mrth: 147.03 cth: 126.29 usage: 81.66 residual: 65.37
mrth: 59.63 cth: 47.01 usage: 46.23 residual: 13.4
mrth: 18.45 cth: 15.29 usage: 12.34 residual: 6.11
mrth: 46.33 cth: 40.57 usage: 44.07 residual: 2.26
mrth: 18.59 cth: 14.83 usage: 13.34 residual: 5.25
mrth: 51.31 cth: 39.64 usage: 29.42 residual: 21.89
mrth: 66.54 cth: 55.15 usage: 53.96 residual: 12.58
mrth: 51.12 cth: 45.7 usage: 35.95 residual: 15.17
mrth: 55.13 cth: 48.16 usage: 36.66 residual: 18.47
mrth: 40.33 cth: 34.83 usage: 26.0 residual: 14.33
mrth: 85.87 cth: 75.63 usage: 79.77 residual: 6.1
mrth: 87.84 cth: 65.73 usage: 49.21 residual: 38.63
mrth: 38.91 cth: 34.22 usage: 36.91 residual: 2.0
mrth: 85.6 cth: 60.98 usage: 54.2 residual: 31.4
mrth: 90.45 cth: 74.86 usage: 57.8 residual: 32.65
mrth: 117.78 cth: 93.3 usage: 63.78 residual: 54.0
mrth: 44.73 cth: 34.24 usage: 43.73 residual: 1.0
