mrth: 107.45 cth: 86.94 usage: 90.12 residual: 17.33
mrth: 70.58 cth: 61.09 usage: 64.07 residual: 6.51
mrth: 31.96 cth: 24.6 usage: 26.33 residual: 5.63
mrth: 44.74 cth: 34.07 usage: 30.95 residual: 13.79
mrth: 62.81 cth: 44.33 usage: 53.17 residual: 9.64
mrth: 23.19 cth: 17.76 usage: 13.7 residual: 9.49
mrth: 72.04 cth: 51.9 usage: 62.52 residual: 9.52
mrth: 116.97 cth: 97.02 usage: 63.89 residual: 53.08
mrth: 56.12 cth: 41.71 usage: 34.45 residual: 21.67
mrth: 80.48 cth: 56.5 usage: 45.1 residual: 35.38
mrth: 79.18 cth: 56.3 usage: 49.42 residual: 29.76
mrth: 94.95 cth: 81.79 usage: 67.6 residual: 27.35
mrth: 81.87 cth: 63.96 usage: 51.75 residual: 30.12
mrth: 27.6 cth: 24.57 usage: 18.79 residual: 8.81
mrth: 105.78 cth: 91.19 usage: 95.97 residual: 9.81
mrth: 61.04 cth: 52.03 usage: 42.28 residual: 18.76
mrth: 29.32 cth: 22.28 usage: 21.19 residual: 8.13
mrth: 53.53 cth: 48.11 usage: 50.65 residual: 2.88
mrth: 59.24 cth: 44.36 usage: 50.46 residual: 8.78
mrth: 61.51 cth: 53.94 usage: 48.24 residual: 13.27
mrth: 45.04 cth: 36.79 usage: 32.9 residual: 12.14
mrth: 20.23 cth: 16.14 usage: 13.59 residual: 6.64
mrth: 36.02 cth: 29.71 usage: 18.71 residual: 17.31
mrth: 12.0 cth: 10.51 usage: 6.8 residual: 5.2
mrth: 53.53 cth: 38.65 usage: 27.32 residual: 26.21
mrth: 44.38 cth: 36.95 usage: 36.85 residual: 7.53
mrth: 27.97 cth: 22.68 usage: 14.11 residual: 13.86
mrth: 37.07 cth: 31.86 usage: 24.35 residual: 12.72
mrth: 32.45 cth: 23.24 usage: 32.27 residual: 0.18
mrth: 65.9 cth: 58.03 usage: 43.73 residual: 22.17
mrth: 103.76 cth: 86.15 usage: 70.34 residual: 33.42
mrth: 22.71 cth: 16.68 usage: 21.07 residual: 1.64
mrth: 56.36 cth: 44.24 usage: 29.71 residual: 26.65
mrth: 27.27 cth: 23.39 usage: 16.9 residual: 10.37
mrth: 3.92 cth: 3.32 usage: 3.39 residual: 0.53
mrth: 56.35 cth: 47.69 usage: 50.84 residual: 5.51
mrth: 41.44 cth: 36.74 usage: 32.61 residual: 8.83
mrth: 50.42 cth: 42.47 usage: 38.25 residual: 12.17
mrth: 71.42 cth: 51.32 usage: 48.62 residual: 22.8
mrth: 83.55 cth: 59.14 usage: 50.32 residual: 33.23
mrth: 71.82 cth: 51.36 usage: 55.08 residual: 16.74
mrth: 77.06 cth: 64.56 usage: 56.91 residual: 20.15
mrth: 54.46 cth: 46.38 usage: 32.72 residual: 21.74
mrth: 58.59 cth: 46.02 usage: 53.63 residual: 4.96
mrth: 57.31 cth: 45.11 usage: 50.5 residual: 6.81
mrth: 81.99 cth: 69.4 usage: 51.16 residual: 30.83
mrth: 43.22 cth: 32.97 usage: 43.11 residual: 0.11
mrth: 39.84 cth: 35.13 usage: 28.83 residual: 11.01
mrth: 93.19 cth: 71.33 usage: 81.76 residual: 11.43
mrth: 83.87 cth: 71.87 usage: 46.62 residual: 37.25
mrth: 36.67 cth: 27.7 usage: 29.23 residual: 7.44
mrth: 82.32 cth: 65.63 usage: 72.01 residual: 10.31
mrth: 30.08 cth: 22.61 usage: 20.95 residual: 9.13
mrth: 30.91 cth: 27.54 usage: 20.19 residual: 10.72
mrth: 56.2 cth: 42.74 usage: 48.56 residual: 7.64
mrth: 14.25 cth: 11.69 usage: 7.87 residual: 6.38
mrth: 41.47 cth: 33.2 usage: 26.45 residual: 15.02
mrth: 55.25 cth: 43.58 usage: 41.42 residual: 13.83
mrth: 54.04 cth: 43.03 usage: 39.96 residual: 14.08
mrth: 30.28 cth: 24.93 usage: 21.69 residual: 8.59
mrth: 81.54 cth: 68.44 usage: 56.77 residual: 24.77
mrth: 46.27 cth: 35.93 usage: 39.85 residual: 6.42
mrth: 54.71 cth: 43.24 usage: 28.46 residual: 26.25
mrth: 21.52 cth: 15.06 usage: 21.28 residual: 0.24
mrth: 45.76 cth: 36.92 usage: 32.96 residual: 12.8
mrth: 29.08 cth: 22.2 usage: 26.44 residual: 2.64
mrth: 66.15 cth: 57.18 usage: 60.15 residual: 6.0
mrth: 52.08 cth: 42.41 usage: 27.14 residual: 24.94
mrth: 187.35 cth: 141.39 usage: 116.91 residual: 70.44
mrth: 20.55 cth: 16.68 usage: 17.23 residual: 3.32
mrth: 62.71 cth: 56.31 usage: 56.85 residual: 5.86
mrth: 73.17 cth: 65.28 usage: 64.69 residual: 8.48
mrth: 100.74 cth: 84.44 usage: 74.42 residual: 26.32
mrth: 55.69 cth: 44.43 usage: 54.78 residual: 0.91
mrth: 103.4 cth: 74.28 usage: 79.57 residual: 23.83
mrth: 76.88 cth: 66.03 usage: 67.99 residual: 8.89
mrth: 82.88 cth: 70.45 usage: 42.85 residual: 40.03
mrth: 70.97 cth: 54.58 usage: 65.14 residual: 5.83
mrth: 39.18 cth: 29.48 usage: 38.26 residual: 0.92
mrth: 19.69 cth: 15.41 usage: 10.76 residual: 8.93
mrth: 45.7 cth: 32.41 usage: 34.06 residual: 11.64
mrth: 25.97 cth: 22.12 usage: 25.51 residual: 0.46
mrth: 126.89 cth: 105.83 usage: 69.49 residual: 57.4
mrth: 60.33 cth: 50.89 usage: 32.48 residual: 27.85
mrth: 82.16 cth: 59.64 usage: 78.83 residual: 3.33
mrth: 44.67 cth: 39.08 usage: 43.38 residual: 1.29
mrth: 96.77 cth: 77.14 usage: 58.85 residual: 37.92
mrth: 47.19 cth: 41.89 usage: 44.63 residual: 2.56
mrth: 36.43 cth: 26.23 usage: 22.84 residual: 13.59
mrth: 85.18 cth: 60.47 usage: 75.15 residual: 10.03
mrth: 40.17 cth: 35.76 usage: 30.17 residual: 10.0
mrth: 31.77 cth: 27.59 usage: 28.93 residual: 2.84
mrth: 21.89 cth: 15.43 usage: 13.32 residual: 8.57
mrth: 101.53 cth: 77.81 usage: 81.58 residual: 19.95
mrth: 35.97 cth: 27.62 usage: 27.96 residual: 8.01
mrth: 77.79 cth: 56.49 usage: 59.76 residual: 18.03
mrth: 55.25 cth: 40.56 usage: 45.22 residual: 10.03
mrth: 49.29 cth: 41.57 usage: 32.61 residual: 16.68
mrth: 85.18 cth: 59.71 usage: 67.42 residual: 17.76
mrth: 32.63 cth: 25.87 usage: 29.03 residual: 3.6
mrth: 62.1 cth: 48.36 usage: 50.73 residual: 11.37
mrth: 81.11 cth: 70.41 usage: 41.74 residual: 39.37
mrth: 100.13 cth: 82.16 usage: 66.15 residual: 33.98
mrth: 40.49 cth: 34.51 usage: 26.43 residual: 14.06
mrth: 75.33 cth: 63.68 usage: 57.61 residual: 17.72
mrth: 57.36 cth: 41.72 usage: 37.02 residual: 20.34
mrth: 54.57 cth: 45.76 usage: 44.33 residual: 10.24
mrth: 71.09 cth: 58.07 usage: 57.56 residual: 13.53
mrth: 43.78 cth: 37.14 usage: 22.8 residual: 20.98
mrth: 3.99 cth: 3.52 usage: 3.13 residual: 0.86
mrth: 48.77 cth: 37.54 usage: 26.96 residual: 21.81
mrth: 74.24 cth: 56.01 usage: 49.84 residual: 24.4
mrth: 66.59 cth: 59.7 usage: 57.86 residual: 8.73
mrth: 74.47 cth: 64.6 usage: 69.2 residual: 5.27
mrth: 59.37 cth: 45.79 usage: 48.77 residual: 10.6
mrth: 51.73 cth: 38.2 usage: 45.26 residual: 6.47
mrth: 114.48 cth: 97.01 usage: 61.36 residual: 53.12
mrth: 12.86 cth: 9.15 usage: 8.46 residual: 4.4
mrth: 12.32 cth: 9.56 usage: 10.2 residual: 2.12
mrth: 130.56 cth: 93.84 usage: 95.09 residual: 35.47
mrth: 37.37 cth: 29.79 usage: 24.84 residual: 12.53
mrth: 100.82 cth: 86.88 usage: 91.68 residual: 9.14
mrth: 26.71 cth: 20.36 usage: 23.21 residual: 3.5
mrth: 76.3 cth: 54.56 usage: 53.99 residual: 22.31
mrth: 43.04 cth: 33.5 usage: 25.96 residual: 17.08
mrth: 61.68 cth: 53.53 usage: 36.93 residual: 24.75
mrth: 57.3 cth: 51.28 usage: 43.34 residual: 13.96
mrth: 75.53 cth: 60.74 usage: 41.12 residual: 34.41
mrth: 84.28 cth: 72.46 usage: 49.11 residual: 35.17
mrth: 105.97 cth: 94.88 usage: 88.65 residual: 17.32
mrth: 55.39 cth: 47.77 usage: 34.58 residual: 20.81
mrth: 50.15 cth: 35.29 usage: 26.89 residual: 23.26
mrth: 29.78 cth: 21.54 usage: 21.73 residual: 8.05
mrth: 80.06 cth: 63.38 usage: 41.72 residual: 38.34
mrth: 116.42 cth: 82.5 usage: 89.91 residual: 26.51
mrth: 38.89 cth: 29.8 usage: 28.38 residual: 10.51
mrth: 25.46 cth: 18.76 usage: 15.34 residual: 10.12
mrth: 75.12 cth: 62.53 usage: 46.24 residual: 28.88
mrth: 31.45 cth: 28.29 usage: 29.9 residual: 1.55
mrth: 59.97 cth: 47.86 usage: 37.54 residual: 22.43
mrth: 90.52 cth: 77.3 usage: 80.44 residual: 10.08
mrth: 43.95 cth: 35.28 usage: 36.94 residual: 7.01
mrth: 71.34 cth: 61.91 usage: 57.61 residual: 13.73
mrth: 22.38 cth: 18.01 usage: 15.74 residual: 6.64
mrth: 72.23 cth: 59.74 usage: 69.66 residual: 2.57
mrth: 51.79 cth: 37.22 usage: 49.97 residual: 1.82
mrth: 23.16 cth: 18.62 usage: 14.99 residual: 8.17
mrth: 9.26 cth: 7.03 usage: 5.8 residual: 3.46
mrth: 38.75 cth: 27.86 usage: 27.46 residual: 11.29
mrth: 26.62 cth: 23.1 usage: 23.19 residual: 3.43
mrth: 57.86 cth: 41.57 usage: 53.5 residual: 4.36
mrth: 73.08 cth: 58.34 usage: 44.99 residual: 28.09
mrth: 83.87 cth: 75.28 usage: 83.86 residual: 0.01
mrth: 37.76 cth: 28.87 usage: 22.0 residual: 15.76
mrth: 29.86 cth: 23.36 usage: 16.08 residual: 13.78
mrth: 56.72 cth: 42.94 usage: 40.83 residual: 15.89
mrth: 135.0 cth: 112.41 usage: 105.49 residual: 29.51
mrth: 4.98 cth: 4.46 usage: 2.69 residual: 2.29
mrth: 34.71 cth: 30.94 usage: 26.58 residual: 8.13
mrth: 95.69 cth: 82.88 usage: 83.01 residual: 12.68
mrth: 56.01 cth: 40.58 usage: 54.27 residual: 1.74
mrth: 85.66 cth: 71.6 usage: 79.6 residual: 6.06
mrth: 23.56 cth: 16.58 usage: 15.67 residual: 7.89
mrth: 87.7 cth: 78.18 usage: 85.64 residual: 2.06
mrth: 37.16 cth: 30.6 usage: 20.53 residual: 16.63
mrth: 32.46 cth: 24.35 usage: 32.2 residual: 0.26
mrth: 41.81 cth: 29.59 usage: 32.46 residual: 9.35
mrth: 54.27 cth: 41.95 usage: 49.93 residual: 4.34
mrth: 6.09 cth: 4.39 usage: 5.35 residual: 0.74
mrth: 95.6 cth: 74.46 usage: 94.06 residual: 1.54
mrth: 67.24 cth: 49.86 usage: 59.77 residual: 7.47
mrth: 110.91 cth: 99.44 usage: 71.26 residual: 39.65
mrth: 95.39 cth: 79.37 usage: 58.79 residual: 36.6
mrth: 87.78 cth: 76.83 usage: 50.01 residual: 37.77
mrth: 98.47 cth: 69.97 usage: 66.71 residual: 31.76
mrth: 39.23 cth: 28.03 usage: 27.18 residual: 12.05
mrth: 17.98 cth: 14.78 usage: 13.37 residual: 4.61
mrth: 0.65 cth: 0.5 usage: 0.42 residual: 0.23
mrth: 40.48 cth: 34.6 usage: 24.28 residual: 16.2
mrth: 33.43 cth: 27.62 usage: 21.19 residual: 12.24
mrth: 64.43 cth: 48.35 usage: 42.12 residual: 22.31
mrth: 64.75 cth: 57.34 usage: 36.96 residual: 27.79
mrth: 68.94 cth: 51.96 usage: 62.39 residual: 6.55
mrth: 31.99 cth: 26.12 usage: 18.05 residual: 13.94
mrth: 68.26 cth: 53.09 usage: 65.79 residual: 2.47
mrth: 33.29 cth: 29.49 usage: 32.24 residual: 1.05
mrth: 116.34 cth: 102.66 usage: 114.56 residual: 1.78
mrth: 41.79 cth: 36.01 usage: 36.06 residual: 5.73
mrth: 52.66 cth: 45.5 usage: 39.36 residual: 13.3
mrth: 10.46 cth: 8.0 usage: 6.51 residual: 3.95
mrth: 54.03 cth: 44.07 usage: 47.7 residual: 6.33
mrth: 50.23 cth: 36.71 usage: 32.11 residual: 18.12
mrth: 49.88 cth: 40.92 usage: 45.25 residual: 4.63
mrth: 17.11 cth: 13.88 usage: 10.92 residual: 6.19
mrth: 79.04 cth: 61.92 usage: 76.05 residual: 2.99
mrth: 28.65 cth: 21.08 usage: 18.73 residual: 9.92
mrth: 97.28 cth: 80.38 usage: 49.41 residual: 47.87
mrth: 8.42 cth: 7.28 usage: 7.94 residual: 0.48
mrth: 34.59 cth: 30.08 usage: 32.88 residual: 1.71
mrth: 57.67 cth: 43.01 usage: 45.74 residual: 11.93
mrth: 71.87 cth: 57.29 usage: 35.94 residual: 35.93
mrth: 47.84 cth: 41.17 usage: 35.66 residual: 12.18
mrth: 87.12 cth: 62.88 usage: 76.53 residual: 10.59
mrth: 50.24 cth: 36.87 usage: 46.35 residual: 3.89
mrth: 33.32 cth: 23.62 usage: 24.91 residual: 8.41
mrth: 79.63 cth: 62.64 usage: 41.73 residual: 37.9
mrth: 45.6 cth: 40.96 usage: 32.62 residual: 12.98
mrth: 51.43 cth: 42.74 usage: 30.83 residual: 20.6
mrth: 32.44 cth: 25.28 usage: 29.16 residual: 3.28
mrth: 72.87 cth: 55.13 usage: 59.03 residual: 13.84
mrth: 97.6 cth: 71.52 usage: 58.59 residual: 39.01
mrth: 47.53 cth: 36.01 usage: 23.77 residual: 23.76
mrth: 53.41 cth: 39.14 usage: 34.73 residual: 18.68
mrth: 53.67 cth: 38.48 usage: 50.34 residual: 3.33
mrth: 37.06 cth: 28.92 usage: 27.12 residual: 9.94
mrth: 44.23 cth: 32.55 usage: 28.09 residual: 16.14
mrth: 48.78 cth: 35.97 usage: 34.81 residual: 13.97
mrth: 15.6 cth: 12.12 usage: 8.47 residual: 7.13
mrth: 29.91 cth: 22.77 usage: 20.21 residual: 9.7
mrth: 49.45 cth: 42.04 usage: 33.77 residual: 15.68
mrth: 21.86 cth: 16.12 usage: 11.9 residual: 9.96
mrth: 41.68 cth: 33.56 usage: 21.65 residual: 20.03
mrth: 109.24 cth: 82.94 usage: 94.13 residual: 15.11
mrth: 10.62 cth: 9.16 usage: 6.05 residual: 4.57
mrth: 32.1 cth: 23.98 usage: 18.77 residual: 13.33
mrth: 75.49 cth: 66.53 usage: 74.64 residual: 0.85
mrth: 22.68 cth: 19.15 usage: 11.37 residual: 11.31
mrth: 62.44 cth: 48.43 usage: 60.95 residual: 1.49
mrth: 54.1 cth: 38.93 usage: 31.14 residual: 22.96
mrth: 55.66 cth: 46.83 usage: 34.91 residual: 20.75
mrth: 68.89 cth: 52.68 usage: 35.08 residual: 33.81
mrth: 55.86 cth: 48.68 usage: 43.51 residual: 12.35
mrth: 71.79 cth: 53.34 usage: 39.01 residual: 32.78
mrth: 57.76 cth: 45.2 usage: 41.14 residual: 16.62
mrth: 59.15 cth: 44.55 usage: 58.12 residual: 1.03
mrth: 29.72 cth: 21.13 usage: 21.52 residual: 8.2
mrth: 26.07 cth: 19.29 usage: 22.71 residual: 3.36
mrth: 30.16 cth: 24.06 usage: 26.39 residual: 3.77
mrth: 107.35 cth: 91.09 usage: 96.26 residual: 11.09
mrth: 44.8 cth: 34.73 usage: 24.67 residual: 20.13
mrth: 65.52 cth: 56.54 usage: 58.64 residual: 6.88
mrth: 22.85 cth: 17.23 usage: 18.47 residual: 4.38
mrth: 30.19 cth: 25.01 usage: 20.13 residual: 10.06
mrth: 13.12 cth: 9.49 usage: 9.15 residual: 3.97
mrth: 107.07 cth: 91.56 usage: 65.43 residual: 41.64
mrth: 100.52 cth: 74.41 usage: 67.46 residual: 33.06
mrth: 101.36 cth: 85.83 usage: 88.81 residual: 12.55
mrth: 24.22 cth: 17.23 usage: 20.28 residual: 3.94
mrth: 26.69 cth: 18.8 usage: 16.84 residual: 9.85
mrth: 117.79 cth: 87.28 usage: 89.28 residual: 28.51
mrth: 44.51 cth: 39.46 usage: 25.2 residual: 19.31
mrth: 4.4 cth: 3.79 usage: 3.16 residual: 1.24
mrth: 74.7 cth: 60.04 usage: 40.26 residual: 34.44
mrth: 40.18 cth: 29.1 usage: 31.43 residual: 8.75
mrth: 32.92 cth: 28.55 usage: 32.88 residual: 0.04
mrth: 7.33 cth: 5.75 usage: 6.83 residual: 0.5
mrth: 55.61 cth: 49.35 usage: 37.75 residual: 17.86
mrth: 38.3 cth: 34.43 usage: 21.38 residual: 16.92
mrth: 36.4 cth: 27.7 usage: 19.21 residual: 17.19
mrth: 58.44 cth: 48.14 usage: 35.91 residual: 22.53
mrth: 56.02 cth: 41.62 usage: 33.77 residual: 22.25
mrth: 37.57 cth: 30.01 usage: 26.08 residual: 11.49
mrth: 53.66 cth: 46.13 usage: 43.64 residual: 10.02
mrth: 61.57 cth: 46.62 usage: 58.68 residual: 2.89
mrth: 82.94 cth: 62.44 usage: 56.33 residual: 26.61
mrth: 30.62 cth: 26.24 usage: 29.25 residual: 1.37
mrth: 50.91 cth: 44.27 usage: 42.17 residual: 8.74
mrth: 91.19 cth: 69.81 usage: 65.31 residual: 25.88
mrth: 5.31 cth: 4.22 usage: 4.15 residual: 1.16
mrth: 10.18 cth: 7.29 usage: 10.05 residual: 0.13
mrth: 10.6 cth: 8.45 usage: 7.83 residual: 2.77
mrth: 62.25 cth: 48.49 usage: 60.19 residual: 2.06
mrth: 24.51 cth: 19.9 usage: 23.11 residual: 1.4
mrth: 18.04 cth: 14.91 usage: 16.51 residual: 1.53
mrth: 13.09 cth: 11.03 usage: 6.94 residual: 6.15
mrth: 116.71 cth: 92.86 usage: 113.15 residual: 3.56
mrth: 41.1 cth: 31.21 usage: 35.67 residual: 5.43
mrth: 53.56 cth: 44.05 usage: 40.78 residual: 12.78
mrth: 54.22 cth: 42.68 usage: 36.76 residual: 17.46
mrth: 49.92 cth: 37.62 usage: 35.05 residual: 14.87
mrth: 115.47 cth: 86.18 usage: 83.71 residual: 31.76
mrth: 45.55 cth: 32.56 usage: 24.72 residual: 20.83
mrth: 23.55 cth: 20.69 usage: 16.03 residual: 7.52
mrth: 25.65 cth: 21.25 usage: 13.32 residual: 12.33
mrth: 45.22 cth: 40.17 usage: 24.98 residual: 20.24
mrth: 88.07 cth: 69.44 usage: 73.89 residual: 14.18
mrth: 19.33 cth: 15.03 usage: 10.39 residual: 8.94
mrth: 92.03 cth: 70.1 usage: 61.24 residual: 30.79
mrth: 78.74 cth: 57.45 usage: 55.88 residual: 22.86
mrth: 98.46 cth: 86.83 usage: 70.75 residual: 27.71
mrth: 65.13 cth: 46.68 usage: 47.18 residual: 17.95
mrth: 8.03 cth: 5.72 usage: 6.44 residual: 1.59
mrth: 40.65 cth: 29.07 usage: 35.5 residual: 5.15
mrth: 70.13 cth: 53.43 usage: 44.31 residual: 25.82
mrth: 66.57 cth: 54.25 usage: 47.97 residual: 18.6
mrth: 55.14 cth: 49.01 usage: 40.35 residual: 14.79
mrth: 16.25 cth: 12.04 usage: 10.77 residual: 5.48
mrth: 62.56 cth: 50.42 usage: 47.28 residual: 15.28
mrth: 56.12 cth: 47.43 usage: 28.12 residual: 28.0
mrth: 51.66 cth: 43.47 usage: 46.87 residual: 4.79
mrth: 75.21 cth: 58.29 usage: 48.55 residual: 26.66
mrth: 34.25 cth: 27.65 usage: 33.4 residual: 0.85
mrth: 66.65 cth: 58.83 usage: 64.76 residual: 1.89
mrth: 12.84 cth: 9.26 usage: 10.57 residual: 2.27
mrth: 30.26 cth: 23.42 usage: 22.03 residual: 8.23
mrth: 102.76 cth: 89.61 usage: 80.63 residual: 22.13
mrth: 52.77 cth: 40.76 usage: 39.48 residual: 13.29
mrth: 23.95 cth: 19.79 usage: 23.45 residual: 0.5
mrth: 49.95 cth: 44.16 usage: 43.76 residual: 6.19
mrth: 63.47 cth: 50.53 usage: 50.17 residual: 13.3
mrth: 75.04 cth: 56.59 usage: 54.93 residual: 20.11
mrth: 38.07 cth: 30.47 usage: 26.33 residual: 11.74
mrth: 52.55 cth: 46.56 usage: 41.74 residual: 10.81
mrth: 83.72 cth: 69.47 usage: 52.59 residual: 31.13
mrth: 11.01 cth: 8.47 usage: 9.75 residual: 1.26
mrth: 65.89 cth: 55.87 usage: 40.44 residual: 25.45
mrth: 88.5 cth: 76.99 usage: 65.23 residual: 23.27
mrth: 24.83 cth: 22.3 usage: 12.58 residual: 12.25
mrth: 20.75 cth: 17.81 usage: 20.3 residual: 0.45
mrth: 27.97 cth: 24.68 usage: 22.9 residual: 5.07
mrth: 66.19 cth: 58.53 usage: 56.44 residual: 9.75
mrth: 57.32 cth: 50.8 usage: 36.83 residual: 20.49
mrth: 67.58 cth: 51.32 usage: 44.0 residual: 23.58
mrth: 33.96 cth: 25.01 usage: 28.36 residual: 5.6
mrth: 52.77 cth: 38.62 usage: 28.53 residual: 24.24
mrth: 39.03 cth: 33.97 usage: 23.27 residual: 15.76
mrth: 2.14 cth: 1.51 usage: 1.45 residual: 0.69
mrth: 96.76 cth: 71.96 usage: 88.65 residual: 8.11
mrth: 72.05 cth: 62.88 usage: 53.61 residual: 18.44
mrth: 48.63 cth: 40.21 usage: 45.35 residual: 3.28
mrth: 79.06 cth: 60.34 usage: 65.28 residual: 13.78
mrth: 58.48 cth: 48.65 usage: 42.22 residual: 16.26
mrth: 70.89 cth: 53.09 usage: 57.1 residual: 13.79
mrth: 53.76 cth: 41.45 usage: 27.39 residual: 26.37
mrth: 28.68 cth: 22.96 usage: 22.3 residual: 6.38
mrth: 81.94 cth: 60.95 usage: 75.04 residual: 6.9
mrth: 28.73 cth: 24.43 usage: 21.06 residual: 7.67
mrth: 15.08 cth: 13.32 usage: 7.88 residual: 7.2
mrth: 82.27 cth: 72.67 usage: 43.09 residual: 39.18
mrth: 35.23 cth: 30.0 usage: 26.41 residual: 8.82
mrth: 41.63 cth: 33.89 usage: 27.5 residual: 14.13
mrth: 9.53 cth: 7.64 usage: 5.56 residual: 3.97
mrth: 26.76 cth: 22.39 usage: 20.53 residual: 6.23
mrth: 68.11 cth: 50.04 usage: 54.51 residual: 13.6
mrth: 70.69 cth: 56.15 usage: 62.32 residual: 8.37
mrth: 27.6 cth: 23.68 usage: 17.76 residual: 9.84
mrth: 41.31 cth: 36.54 usage: 24.7 residual: 16.61
mrth: 49.16 cth: 41.44 usage: 35.12 residual: 14.04
mrth: 46.49 cth: 34.2 usage: 24.49 residual: 22.0
mrth: 112.99 cth: 98.44 usage: 71.92 residual: 41.07
mrth: 35.32 cth: 28.95 usage: 24.06 residual: 11.26
mrth: 42.69 cth: 33.89 usage: 38.03 residual: 4.66
mrth: 50.57 cth: 38.26 usage: 26.16 residual: 24.41
mrth: 78.07 cth: 60.34 usage: 59.75 residual: 18.32
mrth: 51.83 cth: 46.0 usage: 35.0 residual: 16.83
mrth: 77.44 cth: 57.03 usage: 72.92 residual: 4.52
mrth: 36.62 cth: 26.05 usage: 30.37 residual: 6.25
mrth: 55.79 cth: 42.78 usage: 53.45 residual: 2.34
mrth: 100.68 cth: 82.91 usage: 75.66 residual: 25.02
mrth: 22.18 cth: 16.7 usage: 16.98 residual: 5.2
mrth: 49.9 cth: 42.58 usage: 30.39 residual: 19.51
mrth: 12.89 cth: 10.4 usage: 12.22 residual: 0.67
mrth: 45.08 cth: 32.2 usage: 30.64 residual: 14.44
mrth: 22.71 cth: 18.79 usage: 20.09 residual: 2.62
mrth: 48.98 cth: 38.26 usage: 48.92 residual: 0.06
mrth: 53.83 cth: 46.0 usage: 45.02 residual: 8.81
mrth: 65.16 cth: 46.66 usage: 52.78 residual: 12.38
mrth: 97.78 cth: 85.79 usage: 59.38 residual: 38.4
mrth: 91.62 cth: 82.2 usage: 74.0 residual: 17.62
mrth: 61.11 cth: 50.3 usage: 46.12 residual: 14.99
mrth: 51.45 cth: 36.39 usage: 35.46 residual: 15.99
mrth: 50.39 cth: 44.02 usage: 29.27 residual: 21.12
mrth: 31.16 cth: 25.06 usage: 21.11 residual: 10.05
mrth: 30.28 cth: 23.68 usage: 17.18 residual: 13.1
mrth: 113.74 cth: 80.36 usage: 64.41 residual: 49.33
mrth: 97.05 cth: 68.82 usage: 61.75 residual: 35.3
mrth: 37.15 cth: 32.73 usage: 35.15 residual: 2.0
mrth: 8.72 cth: 7.37 usage: 5.48 residual: 3.24
mrth: 140.43 cth: 120.11 usage: 134.17 residual: 6.26
mrth: 14.61 cth: 10.61 usage: 8.51 residual: 6.1
mrth: 82.91 cth: 74.54 usage: 69.31 residual: 13.6
mrth: 24.89 cth: 21.15 usage: 21.71 residual: 3.18
mrth: 35.67 cth: 29.8 usage: 29.76 residual: 5.91
mrth: 51.13 cth: 37.32 usage: 40.4 residual: 10.73
mrth: 39.16 cth: 33.25 usage: 21.73 residual: 17.43
mrth: 37.82 cth: 31.37 usage: 21.9 residual: 15.92
mrth: 70.5 cth: 52.57 usage: 39.37 residual: 31.13
mrth: 40.48 cth: 33.8 usage: 36.64 residual: 3.84
mrth: 47.44 cth: 39.98 usage: 41.91 residual: 5.53
mrth: 89.04 cth: 76.28 usage: 88.88 residual: 0.16
mrth: 80.69 cth: 69.85 usage: 64.99 residual: 15.7
mrth: 52.99 cth: 42.92 usage: 39.42 residual: 13.57
mrth: 34.19 cth: 29.52 usage: 21.82 residual: 12.37
mrth: 97.94 cth: 86.8 usage: 79.06 residual: 18.88
mrth: 63.98 cth: 45.13 usage: 33.49 residual: 30.49
mrth: 3.18 cth: 2.37 usage: 1.66 residual: 1.52
mrth: 83.49 cth: 68.52 usage: 70.79 residual: 12.7
mrth: 61.05 cth: 51.74 usage: 35.95 residual: 25.1
mrth: 85.81 cth: 74.59 usage: 72.59 residual: 13.22
mrth: 63.45 cth: 48.45 usage: 45.08 residual: 18.37
mrth: 65.92 cth: 47.0 usage: 35.12 residual: 30.8
mrth: 76.28 cth: 68.35 usage: 41.01 residual: 35.27
mrth: 16.34 cth: 11.97 usage: 12.41 residual: 3.93
mrth: 21.71 cth: 15.2 usage: 16.64 residual: 5.07
mrth: 28.64 cth: 23.8 usage: 16.41 residual: 12.23
mrth: 75.67 cth: 54.67 usage: 43.79 residual: 31.88
mrth: 7.17 cth: 6.3 usage: 3.82 residual: 3.35
mrth: 57.33 cth: 46.35 usage: 34.55 residual: 22.78
mrth: 38.13 cth: 29.02 usage: 26.67 residual: 11.46
mrth: 81.34 cth: 59.95 usage: 69.24 residual: 12.1
mrth: 77.78 cth: 58.23 usage: 59.63 residual: 18.15
mrth: 58.67 cth: 42.68 usage: 43.49 residual: 15.18
mrth: 35.42 cth: 25.03 usage: 31.34 residual: 4.08
mrth: 82.68 cth: 72.21 usage: 52.31 residual: 30.37
mrth: 52.87 cth: 38.61 usage: 52.8 residual: 0.07
mrth: 165.08 cth: 122.98 usage: 86.31 residual: 78.77
mrth: 36.22 cth: 25.8 usage: 33.82 residual: 2.4
mrth: 40.54 cth: 31.61 usage: 23.54 residual: 17.0
mrth: 49.29 cth: 34.92 usage: 32.7 residual: 16.59
mrth: 51.26 cth: 41.14 usage: 50.36 residual: 0.9
mrth: 25.49 cth: 19.76 usage: 20.31 residual: 5.18
mrth: 59.05 cth: 52.46 usage: 45.23 residual: 13.82
mrth: 63.19 cth: 51.51 usage: 41.66 residual: 21.53
mrth: 102.31 cth: 86.33 usage: 68.78 residual: 33.53
mrth: 17.09 cth: 13.11 usage: 16.31 residual: 0.78
mrth: 48.21 cth: 42.68 usage: 35.64 residual: 12.57
mrth: 80.43 cth: 64.79 usage: 73.36 residual: 7.07
mrth: 40.53 cth: 30.86 usage: 22.23 residual: 18.3
mrth: 67.18 cth: 53.67 usage: 58.01 residual: 9.17
mrth: 83.07 cth: 61.84 usage: 45.45 residual: 37.62
mrth: 84.74 cth: 63.71 usage: 79.22 residual: 5.52
mrth: 73.67 cth: 59.5 usage: 43.72 residual: 29.95
mrth: 60.26 cth: 48.82 usage: 42.68 residual: 17.58
mrth: 51.78 cth: 40.96 usage: 39.65 residual: 12.13
mrth: 28.84 cth: 22.24 usage: 17.8 residual: 11.04
mrth: 125.64 cth: 94.73 usage: 106.68 residual: 18.96
mrth: 39.87 cth: 30.75 usage: 22.51 residual: 17.36
mrth: 86.65 cth: 61.54 usage: 77.3 residual: 9.35
mrth: 33.45 cth: 27.48 usage: 29.17 residual: 4.28
mrth: 56.11 cth: 40.23 usage: 33.9 residual: 22.21
mrth: 53.96 cth: 40.97 usage: 30.76 residual: 23.2
mrth: 47.32 cth: 39.63 usage: 29.76 residual: 17.56
mrth: 18.44 cth: 14.2 usage: 16.78 residual: 1.66
mrth: 59.1 cth: 51.64 usage: 44.9 residual: 14.2
mrth: 32.2 cth: 23.59 usage: 18.75 residual: 13.45
mrth: 79.66 cth: 69.85 usage: 75.83 residual: 3.83
mrth: 44.49 cth: 35.29 usage: 39.12 residual: 5.37
mrth: 37.59 cth: 26.44 usage: 28.75 residual: 8.84
mrth: 46.64 cth: 35.29 usage: 41.48 residual: 5.16
mrth: 15.25 cth: 10.7 usage: 11.45 residual: 3.8
mrth: 41.22 cth: 33.34 usage: 34.21 residual: 7.01
mrth: 43.34 cth: 36.66 usage: 33.15 residual: 10.19
mrth: 77.06 cth: 60.58 usage: 60.23 residual: 16.83
mrth: 123.18 cth: 102.52 usage: 92.38 residual: 30.8
mrth: 79.43 cth: 71.09 usage: 70.86 residual: 8.57
mrth: 80.38 cth: 64.39 usage: 44.17 residual: 36.21
mrth: 60.72 cth: 46.51 usage: 57.12 residual: 3.6
mrth: 44.09 cth: 34.38 usage: 30.53 residual: 13.56
mrth: 61.69 cth: 54.24 usage: 52.8 residual: 8.89
mrth: 84.68 cth: 70.04 usage: 54.55 residual: 30.13
mrth: 129.2 cth: 103.53 usage: 70.62 residual: 58.58
mrth: 47.34 cth: 41.5 usage: 45.62 residual: 1.72
mrth: 53.1 cth: 45.3 usage: 51.55 residual: 1.55
mrth: 9.39 cth: 7.79 usage: 8.65 residual: 0.74
mrth: 44.15 cth: 34.62 usage: 38.46 residual: 5.69
mrth: 43.3 cth: 34.17 usage: 24.7 residual: 18.6
mrth: 18.17 cth: 15.43 usage: 9.38 residual: 8.79
mrth: 26.86 cth: 18.91 usage: 20.74 residual: 6.12
mrth: 59.89 cth: 52.59 usage: 55.24 residual: 4.65
mrth: 26.7 cth: 21.65 usage: 26.23 residual: 0.47
mrth: 101.43 cth: 87.23 usage: 91.12 residual: 10.31
mrth: 120.74 cth: 101.24 usage: 78.79 residual: 41.95
mrth: 62.05 cth: 45.86 usage: 49.66 residual: 12.39
mrth: 73.69 cth: 53.83 usage: 54.81 residual: 18.88
mrth: 59.85 cth: 45.31 usage: 31.27 residual: 28.58
mrth: 52.62 cth: 41.37 usage: 39.89 residual: 12.73
mrth: 71.28 cth: 58.28 usage: 66.27 residual: 5.01
mrth: 55.44 cth: 47.53 usage: 32.61 residual: 22.83
mrth: 48.91 cth: 42.22 usage: 47.47 residual: 1.44
mrth: 45.94 cth: 38.46 usage: 31.85 residual: 14.09
mrth: 31.11 cth: 26.04 usage: 21.92 residual: 9.19
mrth: 50.85 cth: 40.23 usage: 49.21 residual: 1.64
mrth: 50.13 cth: 36.49 usage: 45.01 residual: 5.12
mrth: 21.31 cth: 16.53 usage: 15.75 residual: 5.56
mrth: 93.29 cth: 77.1 usage: 88.92 residual: 4.37
mrth: 78.18 cth: 68.22 usage: 64.33 residual: 13.85
mrth: 42.93 cth: 31.87 usage: 39.08 residual: 3.85
mrth: 74.0 cth: 66.39 usage: 49.56 residual: 24.44
mrth: 63.24 cth: 53.14 usage: 43.44 residual: 19.8
mrth: 77.96 cth: 67.27 usage: 45.87 residual: 32.09
mrth: 39.57 cth: 30.95 usage: 34.61 residual: 4.96
mrth: 104.46 cth: 89.2 usage: 87.76 residual: 16.7
mrth: 79.56 cth: 65.56 usage: 59.25 residual: 20.31
mrth: 52.23 cth: 40.75 usage: 29.17 residual: 23.06
mrth: 67.65 cth: 57.73 usage: 39.54 residual: 28.11
mrth: 69.66 cth: 60.96 usage: 56.07 residual: 13.59
mrth: 86.84 cth: 63.67 usage: 79.02 residual: 7.82
mrth: 68.13 cth: 59.48 usage: 36.52 residual: 31.61
mrth: 125.02 cth: 110.85 usage: 118.14 residual: 6.88
mrth: 46.71 cth: 40.76 usage: 39.39 residual: 7.32
mrth: 99.76 cth: 87.84 usage: 91.46 residual: 8.3
mrth: 6.29 cth: 5.05 usage: 5.43 residual: 0.86
mrth: 84.16 cth: 74.96 usage: 76.55 residual: 7.61
mrth: 20.36 cth: 16.86 usage: 13.28 residual: 7.08
mrth: 69.96 cth: 52.77 usage: 47.0 residual: 22.96
mrth: 25.0 cth: 20.62 usage: 14.14 residual: 10.86
mrth: 71.68 cth: 60.09 usage: 44.51 residual: 27.17
mrth: 60.05 cth: 50.92 usage: 49.91 residual: 10.14
mrth: 60.41 cth: 44.53 usage: 44.59 residual: 15.82
mrth: 79.99 cth: 57.21 usage: 64.28 residual: 15.71
mrth: 7.09 cth: 5.46 usage: 4.89 residual: 2.2
mrth: 49.06 cth: 37.09 usage: 25.02 residual: 24.04
mrth: 78.79 cth: 63.64 usage: 73.3 residual: 5.49
mrth: 80.77 cth: 60.77 usage: 58.23 residual: 22.54
mrth: 15.27 cth: 12.54 usage: 10.82 residual: 4.45
mrth: 31.4 cth: 24.0 usage: 18.45 residual: 12.95
mrth: 99.74 cth: 75.05 usage: 58.02 residual: 41.72
mrth: 46.03 cth: 41.17 usage: 24.81 residual: 21.22
mrth: 60.29 cth: 48.14 usage: 30.3 residual: 29.99
mrth: 29.32 cth: 23.59 usage: 17.44 residual: 11.88
mrth: 82.49 cth: 62.24 usage: 79.62 residual: 2.87
mrth: 93.27 cth: 77.95 usage: 93.21 residual: 0.06
mrth: 45.43 cth: 36.18 usage: 37.93 residual: 7.5
mrth: 20.46 cth: 16.0 usage: 18.75 residual: 1.71
mrth: 105.61 cth: 90.22 usage: 55.26 residual: 50.35
mrth: 43.26 cth: 33.03 usage: 42.59 residual: 0.67
mrth: 19.3 cth: 14.56 usage: 18.38 residual: 0.92
mrth: 82.06 cth: 60.23 usage: 69.45 residual: 12.61
mrth: 58.36 cth: 41.49 usage: 55.43 residual: 2.93
mrth: 31.51 cth: 25.31 usage: 25.41 residual: 6.1
mrth: 90.27 cth: 65.19 usage: 58.75 residual: 31.52
mrth: 99.5 cth: 82.09 usage: 82.43 residual: 17.07
mrth: 35.26 cth: 24.73 usage: 21.52 residual: 13.74
mrth: 43.45 cth: 36.8 usage: 35.74 residual: 7.71
mrth: 36.65 cth: 27.21 usage: 26.54 residual: 10.11
mrth: 62.24 cth: 47.47 usage: 37.29 residual: 24.95
mrth: 23.44 cth: 19.21 usage: 20.99 residual: 2.45
mrth: 15.51 cth: 13.17 usage: 9.22 residual: 6.29
mrth: 48.96 cth: 43.1 usage: 35.17 residual: 13.79
mrth: 110.03 cth: 82.55 usage: 95.47 residual: 14.56
mrth: 76.12 cth: 60.73 usage: 39.11 residual: 37.01
mrth: 38.66 cth: 30.82 usage: 32.77 residual: 5.89
mrth: 58.16 cth: 42.66 usage: 36.79 residual: 21.37
mrth: 39.58 cth: 30.99 usage: 36.76 residual: 2.82
mrth: 105.43 cth: 82.38 usage: 104.48 residual: 0.95
mrth: 17.26 cth: 12.88 usage: 11.12 residual: 6.14
mrth: 84.57 cth: 72.95 usage: 75.44 residual: 9.13
mrth: 44.57 cth: 36.06 usage: 42.81 residual: 1.76
mrth: 97.33 cth: 87.13 usage: 58.53 residual: 38.8
mrth: 80.32 cth: 56.82 usage: 78.95 residual: 1.37
mrth: 40.7 cth: 31.2 usage: 38.91 residual: 1.79
mrth: 16.67 cth: 12.13 usage: 11.17 residual: 5.5
mrth: 66.15 cth: 50.51 usage: 39.11 residual: 27.04
mrth: 51.99 cth: 42.5 usage: 34.57 residual: 17.42
mrth: 74.72 cth: 65.52 usage: 37.94 residual: 36.78
mrth: 35.32 cth: 31.04 usage: 24.39 residual: 10.93
mrth: 41.27 cth: 33.36 usage: 25.0 residual: 16.27
mrth: 80.54 cth: 72.09 usage: 66.64 residual: 13.9
mrth: 131.85 cth: 97.8 usage: 88.06 residual: 43.79
mrth: 66.55 cth: 59.77 usage: 36.39 residual: 30.16
mrth: 41.29 cth: 29.44 usage: 27.63 residual: 13.66
mrth: 30.02 cth: 23.48 usage: 25.12 residual: 4.9
mrth: 71.93 cth: 53.3 usage: 52.4 residual: 19.53
mrth: 49.1 cth: 39.4 usage: 43.44 residual: 5.66
mrth: 27.09 cth: 20.21 usage: 17.73 residual: 9.36
mrth: 97.36 cth: 77.69 usage: 89.97 residual: 7.39
mrth: 22.68 cth: 19.49 usage: 11.52 residual: 11.16
mrth: 26.96 cth: 19.51 usage: 22.09 residual: 4.87
mrth: 52.92 cth: 40.73 usage: 32.86 residual: 20.06
mrth: 20.04 cth: 16.68 usage: 10.83 residual: 9.21
mrth: 54.28 cth: 45.55 usage: 52.19 residual: 2.09
mrth: 25.22 cth: 21.17 usage: 19.87 residual: 5.35
mrth: 63.72 cth: 53.58 usage: 39.51 residual: 24.21
mrth: 38.51 cth: 29.32 usage: 26.93 residual: 11.58
mrth: 106.46 cth: 80.96 usage: 69.24 residual: 37.22
mrth: 61.63 cth: 50.29 usage: 33.56 residual: 28.07
mrth: 38.05 cth: 29.18 usage: 32.63 residual: 5.42
mrth: 73.72 cth: 59.21 usage: 55.37 residual: 18.35
mrth: 105.34 cth: 90.77 usage: 97.89 residual: 7.45
mrth: 25.83 cth: 18.61 usage: 19.56 residual: 6.27
mrth: 36.27 cth: 25.78 usage: 22.89 residual: 13.38
mrth: 6.9 cth: 5.69 usage: 3.88 residual: 3.02
mrth: 49.62 cth: 40.91 usage: 30.52 residual: 19.1
mrth: 67.38 cth: 50.89 usage: 50.17 residual: 17.21
mrth: 72.72 cth: 61.06 usage: 62.21 residual: 10.51
mrth: 18.81 cth: 16.23 usage: 18.59 residual: 0.22
mrth: 59.0 cth: 45.92 usage: 39.62 residual: 19.38
mrth: 78.39 cth: 61.3 usage: 49.23 residual: 29.16
mrth: 39.12 cth: 30.42 usage: 24.59 residual: 14.53
mrth: 25.66 cth: 21.54 usage: 23.76 residual: 1.9
mrth: 20.47 cth: 15.56 usage: 13.04 residual: 7.43
mrth: 37.73 cth: 33.55 usage: 26.03 residual: 11.7
mrth: 23.01 cth: 17.8 usage: 14.39 residual: 8.62
mrth: 26.44 cth: 20.79 usage: 23.15 residual: 3.29
mrth: 51.9 cth: 37.36 usage: 32.09 residual: 19.81
mrth: 32.0 cth: 23.41 usage: 18.28 residual: 13.72
mrth: 18.69 cth: 16.64 usage: 11.91 residual: 6.78
mrth: 35.94 cth: 28.63 usage: 25.99 residual: 9.95
mrth: 20.07 cth: 14.98 usage: 10.11 residual: 9.96
mrth: 81.91 cth: 61.5 usage: 70.61 residual: 11.3
mrth: 94.96 cth: 73.79 usage: 66.5 residual: 28.46
mrth: 14.73 cth: 11.19 usage: 10.56 residual: 4.17
mrth: 59.62 cth: 43.21 usage: 46.32 residual: 13.3
mrth: 75.18 cth: 61.66 usage: 61.56 residual: 13.62
mrth: 36.15 cth: 28.61 usage: 27.96 residual: 8.19
mrth: 63.6 cth: 45.58 usage: 51.8 residual: 11.8
mrth: 50.2 cth: 39.32 usage: 41.08 residual: 9.12
mrth: 104.8 cth: 89.16 usage: 82.32 residual: 22.48
mrth: 27.93 cth: 22.7 usage: 20.09 residual: 7.84
mrth: 67.67 cth: 54.73 usage: 53.0 residual: 14.67
mrth: 37.13 cth: 28.72 usage: 34.49 residual: 2.64
mrth: 51.94 cth: 38.37 usage: 26.73 residual: 25.21
mrth: 72.35 cth: 60.54 usage: 42.99 residual: 29.36
mrth: 12.5 cth: 8.82 usage: 7.13 residual: 5.37
mrth: 100.77 cth: 80.44 usage: 77.67 residual: 23.1
mrth: 43.0 cth: 30.37 usage: 28.35 residual: 14.65
mrth: 56.64 cth: 42.63 usage: 30.68 residual: 25.96
mrth: 83.34 cth: 70.0 usage: 53.72 residual: 29.62
mrth: 17.31 cth: 15.23 usage: 16.11 residual: 1.2
mrth: 70.88 cth: 58.36 usage: 50.3 residual: 20.58
mrth: 36.24 cth: 28.84 usage: 33.95 residual: 2.29
mrth: 29.5 cth: 25.02 usage: 26.9 residual: 2.6
mrth: 54.09 cth: 39.98 usage: 36.21 residual: 17.88
mrth: 107.73 cth: 83.58 usage: 91.38 residual: 16.35
mrth: 76.46 cth: 65.33 usage: 64.03 residual: 12.43
mrth: 66.58 cth: 56.93 usage: 45.44 residual: 21.14
mrth: 81.92 cth: 62.48 usage: 51.97 residual: 29.95
mrth: 65.3 cth: 46.8 usage: 57.78 residual: 7.52
mrth: 82.82 cth: 59.59 usage: 66.29 residual: 16.53
mrth: 84.06 cth: 67.65 usage: 63.15 residual: 20.91
mrth: 74.54 cth: 66.52 usage: 51.92 residual: 22.62
mrth: 66.38 cth: 46.57 usage: 51.66 residual: 14.72
mrth: 13.03 cth: 11.63 usage: 11.97 residual: 1.06
mrth: 113.28 cth: 84.46 usage: 71.12 residual: 42.16
mrth: 106.03 cth: 82.33 usage: 103.44 residual: 2.59
mrth: 49.49 cth: 34.93 usage: 29.55 residual: 19.94
mrth: 51.19 cth: 41.81 usage: 48.11 residual: 3.08
mrth: 64.76 cth: 46.21 usage: 59.0 residual: 5.76
mrth: 66.75 cth: 49.86 usage: 53.97 residual: 12.78
mrth: 55.8 cth: 49.16 usage: 51.49 residual: 4.31
mrth: 43.79 cth: 37.86 usage: 27.77 residual: 16.02
mrth: 35.52 cth: 25.11 usage: 29.1 residual: 6.42
mrth: 120.4 cth: 99.01 usage: 111.61 residual: 8.79
mrth: 84.88 cth: 64.04 usage: 64.35 residual: 20.53
mrth: 80.45 cth: 60.68 usage: 68.65 residual: 11.8
mrth: 74.09 cth: 60.14 usage: 40.14 residual: 33.95
mrth: 47.42 cth: 37.41 usage: 35.84 residual: 11.58
mrth: 51.0 cth: 40.26 usage: 26.43 residual: 24.57
mrth: 69.46 cth: 60.89 usage: 38.58 residual: 30.88
mrth: 2.52 cth: 1.79 usage: 1.77 residual: 0.75
mrth: 56.3 cth: 40.28 usage: 42.39 residual: 13.91
mrth: 18.79 cth: 14.69 usage: 9.95 residual: 8.84
mrth: 61.49 cth: 45.47 usage: 46.29 residual: 15.2
mrth: 68.73 cth: 59.84 usage: 58.33 residual: 10.4
mrth: 26.73 cth: 21.71 usage: 18.57 residual: 8.16
mrth: 27.2 cth: 21.09 usage: 21.18 residual: 6.02
mrth: 60.54 cth: 54.45 usage: 54.93 residual: 5.61
mrth: 51.63 cth: 43.62 usage: 27.22 residual: 24.41
mrth: 79.32 cth: 65.26 usage: 65.79 residual: 13.53
mrth: 22.11 cth: 16.2 usage: 14.91 residual: 7.2
mrth: 9.96 cth: 7.51 usage: 6.94 residual: 3.02
mrth: 32.56 cth: 24.74 usage: 20.47 residual: 12.09
mrth: 79.12 cth: 65.54 usage: 63.15 residual: 15.97
mrth: 90.14 cth: 68.52 usage: 72.04 residual: 18.1
mrth: 38.83 cth: 34.39 usage: 21.64 residual: 17.19
mrth: 72.59 cth: 62.0 usage: 56.22 residual: 16.37
mrth: 102.72 cth: 83.77 usage: 100.92 residual: 1.8
mrth: 12.15 cth: 10.0 usage: 10.93 residual: 1.22
mrth: 78.5 cth: 60.56 usage: 72.38 residual: 6.12
mrth: 83.97 cth: 70.56 usage: 64.69 residual: 19.28
mrth: 24.77 cth: 21.18 usage: 13.72 residual: 11.05
mrth: 86.19 cth: 65.36 usage: 65.44 residual: 20.75
mrth: 26.75 cth: 23.84 usage: 16.51 residual: 10.24
mrth: 87.18 cth: 66.5 usage: 81.25 residual: 5.93
mrth: 11.55 cth: 8.67 usage: 10.72 residual: 0.83
mrth: 47.2 cth: 38.61 usage: 30.37 residual: 16.83
mrth: 33.86 cth: 26.62 usage: 31.04 residual: 2.82
mrth: 23.28 cth: 17.53 usage: 17.91 residual: 5.37
mrth: 30.57 cth: 21.89 usage: 16.28 residual: 14.29
mrth: 28.51 cth: 20.08 usage: 17.64 residual: 10.87
mrth: 21.28 cth: 15.67 usage: 20.8 residual: 0.48
mrth: 82.62 cth: 65.67 usage: 59.36 residual: 23.26
mrth: 62.15 cth: 47.43 usage: 52.53 residual: 9.62
mrth: 65.64 cth: 54.82 usage: 55.76 residual: 9.88
mrth: 25.66 cth: 21.66 usage: 18.64 residual: 7.02
mrth: 69.11 cth: 53.55 usage: 38.99 residual: 30.12
mrth: 40.95 cth: 30.01 usage: 37.52 residual: 3.43
mrth: 111.49 cth: 85.13 usage: 57.07 residual: 54.42
mrth: 36.93 cth: 25.99 usage: 36.72 residual: 0.21
mrth: 48.17 cth: 42.52 usage: 31.19 residual: 16.98
mrth: 26.85 cth: 20.52 usage: 20.36 residual: 6.49
mrth: 43.91 cth: 35.98 usage: 22.63 residual: 21.28
mrth: 24.9 cth: 21.43 usage: 24.68 residual: 0.22
mrth: 60.21 cth: 46.76 usage: 30.17 residual: 30.04
mrth: 80.38 cth: 58.59 usage: 61.76 residual: 18.62
mrth: 36.74 cth: 30.72 usage: 26.88 residual: 9.86
mrth: 15.61 cth: 11.19 usage: 9.13 residual: 6.48
mrth: 23.56 cth: 20.33 usage: 18.49 residual: 5.07
mrth: 93.79 cth: 81.17 usage: 59.43 residual: 34.36
mrth: 77.24 cth: 64.64 usage: 40.0 residual: 37.24
mrth: 33.12 cth: 27.12 usage: 23.38 residual: 9.74
mrth: 87.04 cth: 72.95 usage: 70.98 residual: 16.06
mrth: 35.15 cth: 28.17 usage: 21.64 residual: 13.51
mrth: 92.48 cth: 66.4 usage: 74.64 residual: 17.84
mrth: 39.62 cth: 29.13 usage: 39.18 residual: 0.44
mrth: 52.32 cth: 45.08 usage: 37.11 residual: 15.21
mrth: 31.63 cth: 25.24 usage: 28.48 residual: 3.15
mrth: 42.09 cth: 34.12 usage: 41.93 residual: 0.16
mrth: 57.15 cth: 42.29 usage: 43.1 residual: 14.05
mrth: 47.87 cth: 40.91 usage: 30.52 residual: 17.35
mrth: 81.0 cth: 56.8 usage: 70.24 residual: 10.76
mrth: 35.29 cth: 28.75 usage: 26.61 residual: 8.68
mrth: 55.22 cth: 44.48 usage: 41.64 residual: 13.58
mrth: 17.92 cth: 13.95 usage: 11.19 residual: 6.73
mrth: 100.25 cth: 89.02 usage: 59.17 residual: 41.08
mrth: 35.86 cth: 27.33 usage: 22.59 residual: 13.27
mrth: 54.67 cth: 46.93 usage: 41.2 residual: 13.47
mrth: 40.27 cth: 33.22 usage: 20.81 residual: 19.46
mrth: 31.84 cth: 25.83 usage: 29.91 residual: 1.93
mrth: 130.13 cth: 112.83 usage: 92.66 residual: 37.47
mrth: 54.48 cth: 46.57 usage: 31.63 residual: 22.85
mrth: 79.45 cth: 71.32 usage: 52.13 residual: 27.32
mrth: 28.88 cth: 25.82 usage: 15.72 residual: 13.16
mrth: 59.48 cth: 43.96 usage: 58.18 residual: 1.3
mrth: 110.57 cth: 92.15 usage: 104.51 residual: 6.06
mrth: 13.37 cth: 10.83 usage: 11.92 residual: 1.45
mrth: 54.42 cth: 47.28 usage: 41.46 residual: 12.96
mrth: 16.45 cth: 12.17 usage: 16.14 residual: 0.31
mrth: 119.39 cth: 91.23 usage: 62.92 residual: 56.47
mrth: 23.33 cth: 16.63 usage: 17.93 residual: 5.4
mrth: 70.85 cth: 54.85 usage: 37.0 residual: 33.85
mrth: 47.31 cth: 40.58 usage: 33.03 residual: 14.28
mrth: 105.87 cth: 94.1 usage: 89.29 residual: 16.58
mrth: 66.64 cth: 53.25 usage: 61.47 residual: 5.17
mrth: 20.14 cth: 14.23 usage: 11.16 residual: 8.98
mrth: 113.56 cth: 80.3 usage: 111.05 residual: 2.51
mrth: 106.59 cth: 82.39 usage: 105.85 residual: 0.74
mrth: 37.88 cth: 28.79 usage: 25.17 residual: 12.71
mrth: 69.35 cth: 62.16 usage: 43.89 residual: 25.46
mrth: 29.19 cth: 22.43 usage: 24.18 residual: 5.01
mrth: 68.09 cth: 55.26 usage: 37.44 residual: 30.65
mrth: 41.98 cth: 31.19 usage: 35.57 residual: 6.41
mrth: 119.96 cth: 104.11 usage: 100.54 residual: 19.42
mrth: 58.12 cth: 41.44 usage: 33.29 residual: 24.83
mrth: 52.64 cth: 37.39 usage: 27.65 residual: 24.99
mrth: 39.18 cth: 31.17 usage: 34.04 residual: 5.14
mrth: 44.63 cth: 32.96 usage: 42.54 residual: 2.09
mrth: 44.72 cth: 38.29 usage: 29.28 residual: 15.44
mrth: 62.41 cth: 46.21 usage: 48.31 residual: 14.1
mrth: 72.28 cth: 60.18 usage: 62.73 residual: 9.55
mrth: 50.81 cth: 42.1 usage: 42.64 residual: 8.17
mrth: 50.03 cth: 38.55 usage: 44.43 residual: 5.6
mrth: 52.81 cth: 47.49 usage: 34.63 residual: 18.18
mrth: 28.14 cth: 24.59 usage: 17.23 residual: 10.91
mrth: 61.8 cth: 46.19 usage: 52.57 residual: 9.23
mrth: 33.74 cth: 29.7 usage: 27.77 residual: 5.97
mrth: 81.45 cth: 58.39 usage: 68.62 residual: 12.83
mrth: 4.26 cth: 3.05 usage: 2.63 residual: 1.63
mrth: 83.78 cth: 60.35 usage: 67.81 residual: 15.97
mrth: 81.05 cth: 65.7 usage: 67.21 residual: 13.84
mrth: 51.52 cth: 43.46 usage: 49.44 residual: 2.08
mrth: 62.74 cth: 46.78 usage: 48.2 residual: 14.54
mrth: 61.51 cth: 48.39 usage: 34.7 residual: 26.81
mrth: 36.66 cth: 27.2 usage: 32.9 residual: 3.76
mrth: 25.52 cth: 18.51 usage: 19.84 residual: 5.68
mrth: 12.99 cth: 11.02 usage: 9.66 residual: 3.33
mrth: 86.18 cth: 64.32 usage: 70.19 residual: 15.99
mrth: 36.0 cth: 27.76 usage: 29.79 residual: 6.21
mrth: 37.7 cth: 29.62 usage: 20.5 residual: 17.2
mrth: 79.7 cth: 64.89 usage: 40.55 residual: 39.15
mrth: 83.22 cth: 63.89 usage: 44.14 residual: 39.08
mrth: 98.71 cth: 82.67 usage: 62.74 residual: 35.97
mrth: 98.48 cth: 83.51 usage: 88.36 residual: 10.12
mrth: 28.45 cth: 24.31 usage: 16.13 residual: 12.32
mrth: 16.82 cth: 12.81 usage: 16.72 residual: 0.1
mrth: 44.56 cth: 36.69 usage: 34.77 residual: 9.79
mrth: 108.57 cth: 88.97 usage: 63.19 residual: 45.38
mrth: 42.72 cth: 34.66 usage: 33.39 residual: 9.33
mrth: 9.25 cth: 7.15 usage: 4.92 residual: 4.33
mrth: 46.15 cth: 34.62 usage: 32.03 residual: 14.12
mrth: 37.22 cth: 28.68 usage: 31.25 residual: 5.97
mrth: 45.73 cth: 37.86 usage: 29.45 residual: 16.28
mrth: 55.99 cth: 46.17 usage: 50.71 residual: 5.28
mrth: 10.22 cth: 7.92 usage: 8.22 residual: 2.0
mrth: 54.06 cth: 40.84 usage: 29.14 residual: 24.92
mrth: 74.99 cth: 58.42 usage: 73.84 residual: 1.15
mrth: 77.0 cth: 66.07 usage: 66.46 residual: 10.54
mrth: 145.83 cth: 113.88 usage: 75.56 residual: 70.27
mrth: 36.17 cth: 30.82 usage: 22.69 residual: 13.48
mrth: 14.4 cth: 12.03 usage: 9.25 residual: 5.15
mrth: 24.61 cth: 21.65 usage: 13.99 residual: 10.62
mrth: 68.66 cth: 50.51 usage: 66.32 residual: 2.34
mrth: 87.35 cth: 64.69 usage: 78.97 residual: 8.38
mrth: 29.97 cth: 26.92 usage: 29.11 residual: 0.86
mrth: 7.5 cth: 6.67 usage: 6.18 residual: 1.32
mrth: 44.91 cth: 37.02 usage: 42.29 residual: 2.62
mrth: 40.45 cth: 33.0 usage: 24.92 residual: 15.53
mrth: 48.01 cth: 39.88 usage: 34.92 residual: 13.09
mrth: 85.55 cth: 61.07 usage: 61.64 residual: 23.91
mrth: 42.94 cth: 30.7 usage: 23.01 residual: 19.93
mrth: 42.38 cth: 29.95 usage: 31.49 residual: 10.89
mrth: 95.74 cth: 85.47 usage: 52.63 residual: 43.11
mrth: 82.06 cth: 60.98 usage: 58.36 residual: 23.7
mrth: 42.19 cth: 31.14 usage: 31.2 residual: 10.99
mrth: 32.54 cth: 24.54 usage: 19.14 residual: 13.4
mrth: 45.07 cth: 36.96 usage: 34.77 residual: 10.3
mrth: 40.31 cth: 35.85 usage: 34.83 residual: 5.48
mrth: 77.48 cth: 58.08 usage: 51.4 residual: 26.08
mrth: 46.56 cth: 34.66 usage: 33.27 residual: 13.29
mrth: 70.64 cth: 53.2 usage: 60.73 residual: 9.91
mrth: 74.2 cth: 60.75 usage: 53.41 residual: 20.79
mrth: 67.29 cth: 52.54 usage: 61.48 residual: 5.81
mrth: 52.86 cth: 43.66 usage: 44.81 residual: 8.05
mrth: 81.23 cth: 63.79 usage: 80.73 residual: 0.5
mrth: 38.66 cth: 31.69 usage: 19.53 residual: 19.13
mrth: 112.51 cth: 97.22 usage: 101.08 residual: 11.43
mrth: 49.46 cth: 43.67 usage: 38.13 residual: 11.33
mrth: 38.38 cth: 29.51 usage: 24.02 residual: 14.36
mrth: 63.79 cth: 53.48 usage: 33.75 residual: 30.04
mrth: 23.14 cth: 16.59 usage: 18.82 residual: 4.32
mrth: 33.59 cth: 29.85 usage: 18.09 residual: 15.5
mrth: 70.52 cth: 55.3 usage: 59.42 residual: 11.1
mrth: 24.13 cth: 19.35 usage: 15.93 residual: 8.2
mrth: 67.38 cth: 53.84 usage: 59.67 residual: 7.71
mrth: 89.72 cth: 68.29 usage: 77.4 residual: 12.32
mrth: 76.78 cth: 56.86 usage: 74.65 residual: 2.13
mrth: 15.37 cth: 13.06 usage: 14.98 residual: 0.39
mrth: 59.42 cth: 44.87 usage: 58.43 residual: 0.99
mrth: 12.76 cth: 10.9 usage: 12.44 residual: 0.32
mrth: 70.19 cth: 49.7 usage: 66.21 residual: 3.98
mrth: 81.05 cth: 69.44 usage: 76.31 residual: 4.74
mrth: 85.36 cth: 72.91 usage: 53.89 residual: 31.47
mrth: 47.83 cth: 42.62 usage: 29.43 residual: 18.4
mrth: 62.97 cth: 56.24 usage: 38.29 residual: 24.68
mrth: 9.64 cth: 7.74 usage: 7.49 residual: 2.15
mrth: 37.23 cth: 32.26 usage: 21.9 residual: 15.33
mrth: 35.14 cth: 29.96 usage: 32.85 residual: 2.29
mrth: 91.8 cth: 76.92 usage: 48.7 residual: 43.1
mrth: 35.05 cth: 29.94 usage: 28.66 residual: 6.39
mrth: 29.49 cth: 23.67 usage: 28.83 residual: 0.66
mrth: 107.66 cth: 84.73 usage: 96.75 residual: 10.91
mrth: 6.64 cth: 4.68 usage: 4.6 residual: 2.04
mrth: 37.66 cth: 28.88 usage: 22.71 residual: 14.95
mrth: 76.38 cth: 65.31 usage: 46.96 residual: 29.42
mrth: 130.59 cth: 101.12 usage: 97.02 residual: 33.57
mrth: 49.54 cth: 42.14 usage: 32.17 residual: 17.37
mrth: 83.84 cth: 70.71 usage: 46.93 residual: 36.91
mrth: 12.89 cth: 10.51 usage: 9.99 residual: 2.9
mrth: 62.1 cth: 52.74 usage: 40.71 residual: 21.39
mrth: 91.97 cth: 79.06 usage: 63.54 residual: 28.43
mrth: 35.53 cth: 27.34 usage: 33.55 residual: 1.98
mrth: 40.02 cth: 31.1 usage: 35.64 residual: 4.38
mrth: 36.55 cth: 30.38 usage: 30.46 residual: 6.09
mrth: 108.05 cth: 84.06 usage: 71.17 residual: 36.88
mrth: 61.61 cth: 43.3 usage: 39.72 residual: 21.89
mrth: 51.73 cth: 39.45 usage: 50.23 residual: 1.5
mrth: 45.27 cth: 40.24 usage: 24.34 residual: 20.93
mrth: 52.41 cth: 46.51 usage: 45.31 residual: 7.1
mrth: 61.2 cth: 47.76 usage: 30.7 residual: 30.5
mrth: 16.38 cth: 13.77 usage: 8.48 residual: 7.9
mrth: 27.53 cth: 20.84 usage: 14.62 residual: 12.91
mrth: 39.24 cth: 34.59 usage: 26.98 residual: 12.26
mrth: 75.67 cth: 62.29 usage: 73.89 residual: 1.78
mrth: 53.88 cth: 41.5 usage: 33.15 residual: 20.73
mrth: 27.18 cth: 21.05 usage: 22.62 residual: 4.56
mrth: 73.1 cth: 62.25 usage: 40.58 residual: 32.52
mrth: 72.25 cth: 63.0 usage: 61.48 residual: 10.77
mrth: 81.6 cth: 67.36 usage: 54.36 residual: 27.24
mrth: 52.29 cth: 45.48 usage: 31.66 residual: 20.63
mrth: 69.41 cth: 55.31 usage: 39.02 residual: 30.39
mrth: 96.02 cth: 85.17 usage: 56.28 residual: 39.74
mrth: 85.26 cth: 74.33 usage: 49.81 residual: 35.45
mrth: 24.33 cth: 21.22 usage: 14.95 residual: 9.38
mrth: 24.71 cth: 20.29 usage: 18.73 residual: 5.98
mrth: 20.46 cth: 14.67 usage: 20.36 residual: 0.1
mrth: 50.37 cth: 43.64 usage: 50.34 residual: 0.03
mrth: 67.38 cth: 53.07 usage: 60.75 residual: 6.63
mrth: 28.2 cth: 23.76 usage: 27.74 residual: 0.46
mrth: 83.4 cth: 59.78 usage: 72.8 residual: 10.6
mrth: 28.18 cth: 23.8 usage: 16.13 residual: 12.05
mrth: 34.54 cth: 25.59 usage: 31.8 residual: 2.74
mrth: 20.26 cth: 17.48 usage: 19.99 residual: 0.27
mrth: 77.39 cth: 63.39 usage: 46.9 residual: 30.49
mrth: 54.03 cth: 45.62 usage: 40.88 residual: 13.15
mrth: 89.41 cth: 79.67 usage: 62.32 residual: 27.09
mrth: 109.93 cth: 86.18 usage: 83.98 residual: 25.95
mrth: 70.01 cth: 62.87 usage: 56.52 residual: 13.49
mrth: 70.36 cth: 53.01 usage: 46.73 residual: 23.63
mrth: 16.66 cth: 13.08 usage: 10.18 residual: 6.48
mrth: 172.32 cth: 151.33 usage: 103.5 residual: 68.82
mrth: 47.71 cth: 39.99 usage: 39.05 residual: 8.66
mrth: 53.82 cth: 40.23 usage: 41.2 residual: 12.62
mrth: 112.66 cth: 92.33 usage: 104.31 residual: 8.35
mrth: 29.6 cth: 25.84 usage: 27.88 residual: 1.72
mrth: 49.77 cth: 41.75 usage: 43.68 residual: 6.09
mrth: 88.05 cth: 63.78 usage: 62.8 residual: 25.25
mrth: 66.04 cth: 53.31 usage: 61.88 residual: 4.16
mrth: 150.3 cth: 121.31 usage: 146.16 residual: 4.14
mrth: 39.92 cth: 30.95 usage: 35.06 residual: 4.86
mrth: 32.45 cth: 27.97 usage: 25.3 residual: 7.15
mrth: 74.58 cth: 66.12 usage: 51.94 residual: 22.64
mrth: 51.18 cth: 39.38 usage: 32.46 residual: 18.72
mrth: 97.67 cth: 85.62 usage: 82.03 residual: 15.64
mrth: 88.6 cth: 64.57 usage: 80.69 residual: 7.91
mrth: 188.26 cth: 166.86 usage: 171.28 residual: 16.98
mrth: 89.11 cth: 69.63 usage: 86.28 residual: 2.83
mrth: 20.41 cth: 15.09 usage: 13.88 residual: 6.53
mrth: 35.21 cth: 27.29 usage: 31.67 residual: 3.54
mrth: 18.57 cth: 15.75 usage: 15.32 residual: 3.25
mrth: 73.74 cth: 52.97 usage: 63.11 residual: 10.63
mrth: 19.98 cth: 17.92 usage: 12.3 residual: 7.68
mrth: 69.57 cth: 60.69 usage: 45.35 residual: 24.22
mrth: 58.21 cth: 41.45 usage: 38.52 residual: 19.69
mrth: 51.59 cth: 37.68 usage: 46.14 residual: 5.45
mrth: 64.67 cth: 45.28 usage: 59.29 residual: 5.38
mrth: 81.43 cth: 58.23 usage: 75.13 residual: 6.3
mrth: 43.18 cth: 37.39 usage: 23.09 residual: 20.09
mrth: 40.9 cth: 31.09 usage: 36.03 residual: 4.87
mrth: 58.36 cth: 44.8 usage: 50.97 residual: 7.39
mrth: 70.3 cth: 59.56 usage: 60.78 residual: 9.52
mrth: 54.5 cth: 44.81 usage: 40.86 residual: 13.64
mrth: 31.27 cth: 22.25 usage: 24.38 residual: 6.89
mrth: 51.37 cth: 38.6 usage: 45.97 residual: 5.4
mrth: 95.17 cth: 76.93 usage: 81.54 residual: 13.63
mrth: 28.95 cth: 22.57 usage: 16.2 residual: 12.75
mrth: 53.11 cth: 40.18 usage: 50.22 residual: 2.89
mrth: 22.37 cth: 17.24 usage: 18.55 residual: 3.82
mrth: 29.07 cth: 25.87 usage: 24.93 residual: 4.14
mrth: 103.56 cth: 84.42 usage: 102.18 residual: 1.38
mrth: 22.75 cth: 16.36 usage: 22.29 residual: 0.46
mrth: 33.01 cth: 28.85 usage: 31.12 residual: 1.89
mrth: 72.98 cth: 54.11 usage: 55.8 residual: 17.18
mrth: 57.3 cth: 48.68 usage: 52.56 residual: 4.74
mrth: 65.53 cth: 58.59 usage: 42.38 residual: 23.15
mrth: 36.31 cth: 31.19 usage: 27.42 residual: 8.89
mrth: 75.12 cth: 60.12 usage: 57.15 residual: 17.97
mrth: 128.68 cth: 97.24 usage: 83.39 residual: 45.29
mrth: 36.75 cth: 26.2 usage: 23.17 residual: 13.58
mrth: 31.79 cth: 23.67 usage: 20.64 residual: 11.15
mrth: 89.33 cth: 71.5 usage: 85.2 residual: 4.13
mrth: 24.67 cth: 19.68 usage: 21.92 residual: 2.75
mrth: 75.41 cth: 64.91 usage: 52.3 residual: 23.11
mrth: 31.72 cth: 25.66 usage: 19.57 residual: 12.15
mrth: 49.74 cth: 43.52 usage: 25.6 residual: 24.14
mrth: 109.66 cth: 84.84 usage: 72.05 residual: 37.61
mrth: 66.43 cth: 57.93 usage: 65.17 residual: 1.26
mrth: 19.27 cth: 16.22 usage: 17.79 residual: 1.48
mrth: 57.43 cth: 43.03 usage: 33.48 residual: 23.95
mrth: 94.85 cth: 80.81 usage: 90.81 residual: 4.04
mrth: 87.17 cth: 64.89 usage: 69.71 residual: 17.46
mrth: 56.25 cth: 46.44 usage: 46.47 residual: 9.78
mrth: 35.13 cth: 27.7 usage: 18.07 residual: 17.06
mrth: 38.09 cth: 31.09 usage: 27.78 residual: 10.31
mrth: 67.79 cth: 54.8 usage: 38.73 residual: 29.06
mrth: 24.28 cth: 17.9 usage: 17.15 residual: 7.13
mrth: 63.17 cth: 50.7 usage: 40.3 residual: 22.87
mrth: 30.47 cth: 23.45 usage: 26.95 residual: 3.52
mrth: 36.45 cth: 30.13 usage: 34.45 residual: 2.0
mrth: 56.4 cth: 45.34 usage: 49.26 residual: 7.14
mrth: 51.79 cth: 43.02 usage: 41.14 residual: 10.65
mrth: 21.71 cth: 18.11 usage: 20.52 residual: 1.19
mrth: 62.34 cth: 50.98 usage: 55.38 residual: 6.96
mrth: 87.94 cth: 75.71 usage: 65.29 residual: 22.65
mrth: 63.54 cth: 45.33 usage: 54.86 residual: 8.68
mrth: 46.7 cth: 33.05 usage: 34.52 residual: 12.18
mrth: 58.79 cth: 46.47 usage: 33.65 residual: 25.14
mrth: 39.37 cth: 29.93 usage: 22.76 residual: 16.61
mrth: 57.14 cth: 50.15 usage: 34.27 residual: 22.87
mrth: 48.17 cth: 38.32 usage: 47.76 residual: 0.41
mrth: 45.79 cth: 33.93 usage: 25.16 residual: 20.63
mrth: 50.56 cth: 39.84 usage: 45.23 residual: 5.33
mrth: 43.16 cth: 32.92 usage: 38.27 residual: 4.89
mrth: 26.45 cth: 23.14 usage: 17.19 residual: 9.26
mrth: 65.2 cth: 46.11 usage: 58.02 residual: 7.18
mrth: 60.84 cth: 45.79 usage: 42.03 residual: 18.81
mrth: 40.8 cth: 32.32 usage: 22.89 residual: 17.91
mrth: 4.66 cth: 3.35 usage: 3.2 residual: 1.46
mrth: 78.23 cth: 56.81 usage: 72.28 residual: 5.95
mrth: 24.98 cth: 22.09 usage: 17.57 residual: 7.41
mrth: 51.33 cth: 37.97 usage: 37.43 residual: 13.9
mrth: 97.01 cth: 81.72 usage: 94.47 residual: 2.54
mrth: 62.97 cth: 47.14 usage: 60.42 residual: 2.55
mrth: 52.46 cth: 38.15 usage: 38.76 residual: 13.7
mrth: 64.7 cth: 48.98 usage: 62.9 residual: 1.8
mrth: 33.11 cth: 27.8 usage: 24.2 residual: 8.91
mrth: 80.32 cth: 58.62 usage: 56.45 residual: 23.87
mrth: 29.83 cth: 24.43 usage: 24.04 residual: 5.79
mrth: 14.69 cth: 12.25 usage: 13.86 residual: 0.83
mrth: 41.36 cth: 36.15 usage: 37.07 residual: 4.29
mrth: 50.07 cth: 42.87 usage: 35.07 residual: 15.0
mrth: 42.02 cth: 36.43 usage: 40.68 residual: 1.34
mrth: 63.84 cth: 50.05 usage: 51.55 residual: 12.29
mrth: 93.69 cth: 74.49 usage: 85.17 residual: 8.52
mrth: 54.01 cth: 47.54 usage: 45.96 residual: 8.05
mrth: 63.24 cth: 52.22 usage: 50.7 residual: 12.54
mrth: 42.39 cth: 31.1 usage: 22.47 residual: 19.92
mrth: 23.14 cth: 20.78 usage: 20.6 residual: 2.54
mrth: 77.68 cth: 62.98 usage: 51.7 residual: 25.98
mrth: 17.5 cth: 14.28 usage: 16.23 residual: 1.27
mrth: 49.35 cth: 40.72 usage: 37.98 residual: 11.37
