642.9
1055.35
460.37
1137.69
789.37
913.7
187.11
251.69
480.91
494.15
509.92
1339.93
788.02
620.54
1119.35
1130.72
545.94
1442.85
911.16
1429.2
522.19
891.78
1968.87
268.59
51.56
1827.77
891.65
537.23
914.01
1058.2
1213.7
401.48
350.9
1017.67
756.36
1130.63
248.94
794.67
745.35
406.92
1340.82
329.09
1090.94
1289.72
998.6
284.8
533.28
709.32
770.51
428.35
1022.32
870.15
474.68
1253.47
491.4
836.12
496.87
1347.14
1035.74
401.09
946.47
910.91
543.43
906.04
955.21
657.75
574.46
511.53
927.91
1803.61
1021.75
308.38
973.63
146.46
683.86
806.86
582.91
803.53
479.75
1131.39
686.71
1035.23
651.28
343.01
383.57
353.83
213.37
1465.43
1582.27
166.65
1051.07
1044.94
570.81
1288.2
274.31
372.64
1274.29
1132.38
113.32
407.5
349.24
1421.99
1142.03
825.67
163.53
1160.8
1312.92
396.45
2491.92
751.16
1441.02
414.99
197.5
1499.6
698.3
1216.55
1338.49
567.55
1139.6
1074.74
1879.82
1842.16
423.1
1149.48
440.02
1552.67
282.77
1089.86
1080.79
243.27
1335.78
893.56
456.22
1294.42
751.71
514.42
225.48
349.17
1778.72
869.72
569.13
175.96
171.03
1416.97
982.85
490.38
1548.83
1467.36
1293.88
1191.14
1322.45
2185.87
1673.1
920.89
568.23
143.0
211.8
1034.31
685.86
1728.36
1256.59
1612.96
1903.76
505.49
1976.28
1500.9
1238.77
1078.33
263.73
1284.8
1259.65
1549.09
862.75
1093.49
452.52
298.86
1412.07
649.52
159.28
566.83
797.85
814.41
389.76
1838.02
1178.91
179.82
1231.3
1014.49
703.74
679.83
366.97
909.22
964.61
1014.79
1354.48
570.08
581.55
1385.96
643.8
737.98
679.16
945.7
1455.32
129.42
2439.86
404.54
596.1
1512.81
1423.95
1063.84
163.94
568.16
1060.97
449.85
679.91
1169.56
904.3
507.47
1336.87
1050.18
497.46
1421.35
1306.4
804.48
592.26
572.84
845.56
687.08
895.63
1452.8
314.55
800.3
427.09
561.61
594.62
1036.34
1018.82
1457.16
904.82
1093.45
462.03
924.55
658.18
435.41
483.24
803.13
1574.38
1141.25
1114.16
963.07
1014.22
771.43
168.48
1545.51
664.75
2277.18
246.29
395.19
1096.49
232.13
299.93
859.65
678.91
1033.59
622.96
561.29
553.73
190.45
1883.73
1348.56
1402.11
834.27
979.57
1140.64
1133.84
316.97
833.26
941.86
982.2
1078.05
849.53
768.56
530.37
552.88
198.02
292.9
211.63
1175.19
212.94
172.43
1221.44
1227.7
785.18
1080.26
971.25
444.03
511.05
601.96
412.39
421.95
1317.74
1031.49
1286.23
873.36
709.88
351.12
626.18
2201.2
660.8
747.72
677.26
617.58
1410.86
1092.32
226.26
892.74
1388.51
305.38
993.34
612.5
672.12
1473.27
889.1
859.96
1438.37
1471.39
2129.22
540.78
1071.12
875.24
504.32
630.97
841.92
976.64
594.9
677.0
705.15
1323.36
1838.15
877.09
892.26
649.08
2149.31
859.32
126.64
1674.69
760.73
365.85
618.42
83.83
198.02
1374.8
766.27
774.96
1523.2
635.36
1215.38
420.26
856.61
1118.55
2265.66
1513.13
1948.6
1321.25
434.74
840.58
1321.44
1380.59
433.63
572.07
820.29
994.0
885.76
548.02
599.38
1412.78
1245.73
295.03
1145.96
950.74
461.47
1626.31
1448.87
574.21
2375.34
1500.59
138.87
283.74
1291.45
1096.31
1068.26
1027.8
794.66
731.07
904.87
1272.9
1647.6
998.66
489.36
440.58
347.44
436.79
695.04
1180.55
851.01
1009.56
477.21
1536.3
1352.88
1116.31
208.38
661.62
586.76
610.05
377.78
1305.84
403.2
1043.93
1182.25
246.31
910.91
549.0
1040.45
849.3
1076.64
156.45
635.23
1069.68
1768.63
1193.78
1548.97
1308.27
911.64
153.93
1151.36
891.44
664.71
117.28
738.31
1545.81
1248.34
1339.75
236.66
605.64
662.52
663.82
1419.24
657.65
1238.74
432.34
849.02
695.16
1871.91
485.83
505.97
477.67
415.96
593.82
1930.76
1160.41
962.61
797.62
994.15
1378.23
125.1
233.88
468.51
1303.18
266.6
742.41
1476.01
1101.22
1592.06
403.21
1643.25
549.68
1721.1
426.43
2676.01
1263.23
702.29
1437.61
1071.37
973.88
164.98
373.55
495.68
713.11
1070.97
66.27
931.53
230.39
1588.03
479.21
544.74
1244.77
69.57
397.6
1764.81
1241.5
1427.45
559.39
262.91
1045.44
717.47
1259.41
2007.54
856.04
472.83
1098.09
879.83
1625.15
820.39
520.1
1521.92
786.94
1870.76
691.85
360.51
710.45
587.54
587.81
1751.96
1306.47
1129.72
644.99
1146.92
1146.24
151.43
361.85
522.07
958.89
300.97
692.07
500.33
210.36
2028.19
566.56
1541.26
539.16
1765.76
499.92
161.66
717.54
488.34
1344.84
301.09
1068.13
186.7
355.95
507.11
1072.41
1163.16
608.04
1942.05
2068.89
134.29
753.21
635.88
1762.61
1815.13
269.22
296.3
54.83
689.5
550.54
832.6
1610.31
1165.08
594.94
936.96
1085.76
878.19
873.35
918.39
375.26
1328.1
1941.28
657.25
1007.72
759.47
1768.0
810.33
862.87
340.99
216.99
322.2
1167.58
1610.11
985.58
898.24
1267.8
1145.63
215.06
731.27
1018.39
1177.35
1626.03
329.19
253.82
1651.27
696.01
997.98
982.07
642.33
629.17
584.0
1319.84
688.39
458.84
663.21
1102.46
760.97
1056.63
1213.36
887.93
1490.74
937.83
1482.17
1024.87
1160.16
724.89
203.41
458.26
987.84
583.29
525.98
427.02
762.17
582.7
1751.36
303.11
1330.78
1108.36
605.86
180.91
674.64
936.29
500.58
986.59
531.54
463.36
353.78
610.93
404.24
1893.94
743.44
1894.27
676.42
894.17
720.65
337.32
905.0
1169.12
1695.59
443.4
140.95
807.44
863.25
557.61
1634.17
1191.72
1066.99
1342.8
361.12
2483.72
21.36
1393.57
691.45
384.82
1712.31
258.78
777.59
1085.03
1750.04
1543.63
536.0
1685.74
333.45
621.43
1057.48
617.2
530.59
813.97
520.03
934.88
297.08
708.41
1649.2
484.83
820.46
931.03
1599.74
866.82
1719.44
1054.77
353.3
306.1
962.27
2426.1
843.89
816.21
1079.89
564.53
764.84
971.04
1387.86
850.74
1232.11
894.59
730.2
125.85
933.75
1022.4
180.9
1504.41
1058.37
287.85
669.22
1402.72
479.45
599.56
1292.84
874.51
887.73
496.18
1532.16
543.68
1023.58
1631.43
518.54
286.64
1158.8
873.56
1111.9
1935.76
1696.2
813.68
1363.28
967.06
1051.08
751.97
1256.79
644.11
248.47
514.48
974.76
652.47
1275.94
807.54
697.25
404.58
1504.48
1482.19
1363.11
329.86
364.37
980.16
1124.23
1227.83
849.84
1907.54
1119.86
485.95
530.27
277.19
1646.39
985.88
399.78
599.62
377.02
884.37
1076.14
78.29
1090.45
702.34
956.67
739.5
351.17
670.83
806.19
835.42
181.78
445.06
481.67
424.69
1115.56
2485.24
836.36
458.29
566.99
1333.45
582.56
1556.21
658.58
890.09
242.49
530.31
706.65
694.0
996.33
676.1
323.69
502.41
620.56
597.23
887.47
1100.69
841.48
728.5
1251.79
1049.67
827.15
190.42
502.73
263.88
449.05
479.42
548.46
92.1
1874.8
1193.97
218.08
1161.0
1048.73
1586.04
1165.65
1781.6
681.52
826.37
1362.23
573.05
715.18
542.53
680.77
925.56
180.35
888.23
601.95
294.0
494.38
907.69
842.68
1372.65
988.92
251.8
1411.79
1341.67
376.67
1555.91
373.48
681.04
1185.46
1039.26
1083.43
397.83
797.95
254.54
95.29
1248.68
1810.61
356.41
973.7
940.98
1180.5
1271.94
895.32
321.96
327.09
441.56
399.07
596.61
1076.11
393.03
1285.91
552.33
1252.29
1145.54
1972.43
850.66
634.5
632.66
1121.88
2273.51
880.89
310.5
2257.39
1628.04
695.07
380.89
1198.21
1467.46
698.32
1764.46
634.1
778.58
353.7
932.61
939.21
584.76
326.53
954.77
1107.33
614.68
709.07
148.86
558.78
955.84
882.86
1317.58
1501.84
1197.02
465.86
1017.87
415.89
1236.29
495.51
1159.51
728.44
571.4
702.52
462.79
2030.1
1020.49
640.88
325.28
466.28
298.03
142.01
1212.14
1291.07
754.06
945.85
1317.59
1306.79
442.24
491.17
535.62
706.02
396.59
716.41
949.59
643.74
857.73
394.63
584.89
964.87
1618.24
517.7
566.7
401.99
1936.59
658.32
786.25
329.33
1355.47
978.42
318.38
628.18
933.21
1212.53
543.71
965.63
364.91
1670.73
1318.57
196.54
893.74
397.88
508.95
1120.65
953.72
709.85
547.0
2513.44
436.54
382.01
1709.88
593.15
813.27
1249.31
1200.63
1041.26
991.51
327.29
235.58
968.22
865.79
413.01
1151.85
602.14
912.87
854.69
1401.0
1737.55
959.76
439.25
448.49
383.35
1788.41
