mrth: 185.77 cth: 165.82 usage: 109.57 residual: 76.2
mrth: 171.92 cth: 127.58 usage: 119.72 residual: 52.2
mrth: 163.82 cth: 139.31 usage: 134.23 residual: 29.59
mrth: 58.54 cth: 49.97 usage: 58.0 residual: 0.54
mrth: 267.95 cth: 234.99 usage: 225.4 residual: 42.55
mrth: 113.46 cth: 94.2 usage: 75.39 residual: 38.07
mrth: 222.75 cth: 171.59 usage: 173.54 residual: 49.21
mrth: 115.32 cth: 93.19 usage: 80.08 residual: 35.24
mrth: 187.35 cth: 145.48 usage: 129.77 residual: 57.58
mrth: 254.8 cth: 182.66 usage: 200.85 residual: 53.95
mrth: 320.46 cth: 276.76 usage: 165.79 residual: 154.67
mrth: 297.84 cth: 215.23 usage: 154.59 residual: 143.25
mrth: 145.35 cth: 115.82 usage: 135.12 residual: 10.23
mrth: 154.61 cth: 137.62 usage: 112.14 residual: 42.47
mrth: 75.36 cth: 54.5 usage: 66.28 residual: 9.08
mrth: 127.45 cth: 111.93 usage: 123.85 residual: 3.6
mrth: 166.74 cth: 137.17 usage: 139.96 residual: 26.78
mrth: 308.46 cth: 239.19 usage: 236.9 residual: 71.56
mrth: 95.38 cth: 70.11 usage: 57.0 residual: 38.38
mrth: 33.72 cth: 29.69 usage: 28.85 residual: 4.87
mrth: 158.18 cth: 140.97 usage: 79.44 residual: 78.74
mrth: 347.26 cth: 307.42 usage: 236.86 residual: 110.4
mrth: 313.58 cth: 224.32 usage: 215.08 residual: 98.5
mrth: 199.21 cth: 157.42 usage: 122.08 residual: 77.13
mrth: 328.34 cth: 262.88 usage: 240.48 residual: 87.86
mrth: 122.62 cth: 105.83 usage: 118.84 residual: 3.78
mrth: 108.01 cth: 96.16 usage: 66.27 residual: 41.74
mrth: 314.51 cth: 232.8 usage: 298.55 residual: 15.96
mrth: 378.55 cth: 284.76 usage: 246.32 residual: 132.23
mrth: 265.93 cth: 219.63 usage: 242.04 residual: 23.89
mrth: 235.55 cth: 190.55 usage: 169.96 residual: 65.59
mrth: 52.87 cth: 46.21 usage: 32.44 residual: 20.43
mrth: 319.34 cth: 234.65 usage: 282.31 residual: 37.03
mrth: 169.47 cth: 132.73 usage: 133.32 residual: 36.15
mrth: 166.08 cth: 126.25 usage: 121.96 residual: 44.12
mrth: 200.31 cth: 172.44 usage: 185.39 residual: 14.92
mrth: 443.44 cth: 373.79 usage: 343.01 residual: 100.43
mrth: 125.87 cth: 110.95 usage: 83.41 residual: 42.46
mrth: 338.55 cth: 301.68 usage: 216.09 residual: 122.46
mrth: 88.36 cth: 65.62 usage: 87.04 residual: 1.32
mrth: 247.66 cth: 217.25 usage: 135.27 residual: 112.39
mrth: 220.02 cth: 169.88 usage: 164.28 residual: 55.74
mrth: 87.07 cth: 76.89 usage: 59.03 residual: 28.04
mrth: 203.29 cth: 157.59 usage: 142.73 residual: 60.56
mrth: 349.26 cth: 307.18 usage: 250.74 residual: 98.52
mrth: 166.31 cth: 120.17 usage: 155.93 residual: 10.38
mrth: 107.32 cth: 81.01 usage: 92.67 residual: 14.65
mrth: 178.99 cth: 135.44 usage: 138.2 residual: 40.79
mrth: 262.42 cth: 187.9 usage: 259.1 residual: 3.32
mrth: 141.02 cth: 98.81 usage: 124.74 residual: 16.28
mrth: 88.49 cth: 79.17 usage: 65.91 residual: 22.58
mrth: 243.17 cth: 192.23 usage: 243.04 residual: 0.13
mrth: 271.71 cth: 216.99 usage: 244.41 residual: 27.3
mrth: 132.82 cth: 117.42 usage: 101.38 residual: 31.44
mrth: 459.93 cth: 404.7 usage: 441.8 residual: 18.13
mrth: 187.06 cth: 136.2 usage: 162.75 residual: 24.31
mrth: 315.92 cth: 251.12 usage: 286.67 residual: 29.25
mrth: 150.17 cth: 105.42 usage: 135.72 residual: 14.45
mrth: 227.04 cth: 169.03 usage: 121.32 residual: 105.72
mrth: 101.79 cth: 86.04 usage: 95.96 residual: 5.83
mrth: 301.94 cth: 229.44 usage: 286.98 residual: 14.96
mrth: 133.55 cth: 115.63 usage: 83.83 residual: 49.72
mrth: 102.05 cth: 78.5 usage: 62.41 residual: 39.64
mrth: 118.68 cth: 85.29 usage: 111.43 residual: 7.25
mrth: 98.45 cth: 74.52 usage: 96.57 residual: 1.88
mrth: 243.52 cth: 206.06 usage: 223.17 residual: 20.35
mrth: 109.34 cth: 93.21 usage: 108.11 residual: 1.23
mrth: 153.64 cth: 116.85 usage: 115.43 residual: 38.21
mrth: 156.01 cth: 126.57 usage: 99.73 residual: 56.28
mrth: 275.03 cth: 202.65 usage: 141.6 residual: 133.43
mrth: 198.07 cth: 176.6 usage: 154.81 residual: 43.26
mrth: 154.58 cth: 112.94 usage: 87.26 residual: 67.32
mrth: 126.89 cth: 108.04 usage: 78.84 residual: 48.05
mrth: 448.11 cth: 314.68 usage: 246.55 residual: 201.56
mrth: 137.03 cth: 97.14 usage: 93.47 residual: 43.56
mrth: 58.51 cth: 50.54 usage: 58.11 residual: 0.4
mrth: 174.71 cth: 125.32 usage: 146.21 residual: 28.5
mrth: 128.48 cth: 100.15 usage: 110.33 residual: 18.15
mrth: 289.68 cth: 223.88 usage: 171.02 residual: 118.66
mrth: 230.17 cth: 161.35 usage: 171.68 residual: 58.49
mrth: 277.32 cth: 225.41 usage: 250.76 residual: 26.56
mrth: 129.15 cth: 93.62 usage: 82.4 residual: 46.75
mrth: 176.5 cth: 155.16 usage: 135.61 residual: 40.89
mrth: 112.27 cth: 96.96 usage: 62.06 residual: 50.21
mrth: 90.9 cth: 68.41 usage: 60.16 residual: 30.74
mrth: 20.27 cth: 15.05 usage: 18.5 residual: 1.77
mrth: 38.25 cth: 29.35 usage: 30.18 residual: 8.07
mrth: 101.82 cth: 87.94 usage: 88.21 residual: 13.61
mrth: 181.15 cth: 156.04 usage: 122.28 residual: 58.87
mrth: 131.13 cth: 94.51 usage: 95.55 residual: 35.58
mrth: 211.04 cth: 179.24 usage: 175.95 residual: 35.09
mrth: 389.5 cth: 292.07 usage: 346.16 residual: 43.34
mrth: 269.51 cth: 238.27 usage: 246.38 residual: 23.13
mrth: 169.82 cth: 141.42 usage: 106.79 residual: 63.03
mrth: 226.12 cth: 160.82 usage: 221.58 residual: 4.54
mrth: 192.44 cth: 160.66 usage: 171.43 residual: 21.01
mrth: 231.29 cth: 205.41 usage: 171.86 residual: 59.43
mrth: 416.1 cth: 365.5 usage: 376.64 residual: 39.46
mrth: 140.41 cth: 114.52 usage: 138.52 residual: 1.89
mrth: 185.62 cth: 143.52 usage: 97.29 residual: 88.33
mrth: 118.43 cth: 99.8 usage: 96.07 residual: 22.36
mrth: 69.95 cth: 57.72 usage: 37.86 residual: 32.09
mrth: 294.37 cth: 215.58 usage: 265.11 residual: 29.26
mrth: 263.32 cth: 224.71 usage: 255.95 residual: 7.37
mrth: 51.97 cth: 45.12 usage: 27.52 residual: 24.45
mrth: 122.28 cth: 106.73 usage: 61.88 residual: 60.4
mrth: 14.45 cth: 12.41 usage: 9.5 residual: 4.95
mrth: 64.91 cth: 49.71 usage: 35.17 residual: 29.74
mrth: 175.85 cth: 127.28 usage: 158.12 residual: 17.73
mrth: 9.58 cth: 6.88 usage: 7.25 residual: 2.33
mrth: 30.53 cth: 25.14 usage: 28.92 residual: 1.61
mrth: 240.78 cth: 208.68 usage: 234.97 residual: 5.81
mrth: 135.91 cth: 115.13 usage: 113.81 residual: 22.1
mrth: 89.72 cth: 70.96 usage: 54.54 residual: 35.18
mrth: 207.76 cth: 170.23 usage: 195.48 residual: 12.28
mrth: 130.95 cth: 103.22 usage: 110.86 residual: 20.09
mrth: 273.32 cth: 244.81 usage: 185.29 residual: 88.03
mrth: 210.02 cth: 155.83 usage: 130.35 residual: 79.67
mrth: 138.23 cth: 103.85 usage: 137.28 residual: 0.95
mrth: 141.23 cth: 99.16 usage: 82.75 residual: 58.48
mrth: 110.29 cth: 80.07 usage: 103.37 residual: 6.92
mrth: 377.38 cth: 297.66 usage: 203.3 residual: 174.08
mrth: 80.73 cth: 63.46 usage: 58.01 residual: 22.72
mrth: 210.08 cth: 154.96 usage: 152.57 residual: 57.51
mrth: 93.54 cth: 76.81 usage: 75.38 residual: 18.16
mrth: 168.29 cth: 121.04 usage: 134.44 residual: 33.85
mrth: 275.41 cth: 201.34 usage: 227.3 residual: 48.11
mrth: 271.42 cth: 195.81 usage: 243.25 residual: 28.17
mrth: 131.97 cth: 104.0 usage: 74.55 residual: 57.42
mrth: 120.99 cth: 92.16 usage: 102.96 residual: 18.03
mrth: 419.89 cth: 369.94 usage: 399.6 residual: 20.29
mrth: 137.78 cth: 101.0 usage: 125.55 residual: 12.23
mrth: 148.25 cth: 132.39 usage: 126.64 residual: 21.61
mrth: 300.07 cth: 251.07 usage: 294.12 residual: 5.95
mrth: 210.27 cth: 176.94 usage: 126.53 residual: 83.74
mrth: 272.29 cth: 237.55 usage: 192.5 residual: 79.79
mrth: 167.48 cth: 125.37 usage: 153.29 residual: 14.19
mrth: 168.69 cth: 128.52 usage: 113.52 residual: 55.17
mrth: 235.4 cth: 193.44 usage: 134.2 residual: 101.2
mrth: 196.83 cth: 168.7 usage: 132.38 residual: 64.45
mrth: 208.25 cth: 165.32 usage: 147.73 residual: 60.52
mrth: 137.25 cth: 105.85 usage: 94.04 residual: 43.21
mrth: 154.18 cth: 123.22 usage: 90.24 residual: 63.94
mrth: 265.82 cth: 220.54 usage: 196.24 residual: 69.58
mrth: 221.72 cth: 185.44 usage: 211.4 residual: 10.32
mrth: 182.01 cth: 158.35 usage: 141.13 residual: 40.88
mrth: 133.82 cth: 119.81 usage: 115.77 residual: 18.05
mrth: 172.72 cth: 137.63 usage: 148.4 residual: 24.32
mrth: 37.36 cth: 26.89 usage: 27.64 residual: 9.72
mrth: 67.2 cth: 57.2 usage: 40.69 residual: 26.51
mrth: 349.14 cth: 256.29 usage: 214.27 residual: 134.87
mrth: 169.05 cth: 136.3 usage: 122.13 residual: 46.92
mrth: 238.29 cth: 213.89 usage: 236.0 residual: 2.29
mrth: 197.08 cth: 146.46 usage: 172.83 residual: 24.25
mrth: 294.38 cth: 222.92 usage: 237.48 residual: 56.9
mrth: 255.55 cth: 208.59 usage: 172.99 residual: 82.56
mrth: 158.88 cth: 117.6 usage: 152.36 residual: 6.52
mrth: 83.84 cth: 74.52 usage: 65.73 residual: 18.11
mrth: 167.15 cth: 147.31 usage: 131.46 residual: 35.69
mrth: 184.99 cth: 137.19 usage: 143.28 residual: 41.71
mrth: 37.98 cth: 32.27 usage: 37.36 residual: 0.62
mrth: 250.69 cth: 223.0 usage: 135.79 residual: 114.9
mrth: 54.07 cth: 47.21 usage: 51.45 residual: 2.62
mrth: 175.07 cth: 147.43 usage: 115.11 residual: 59.96
mrth: 191.39 cth: 164.56 usage: 148.83 residual: 42.56
mrth: 139.92 cth: 115.36 usage: 98.67 residual: 41.25
mrth: 140.82 cth: 124.49 usage: 88.36 residual: 52.46
mrth: 162.57 cth: 137.06 usage: 110.5 residual: 52.07
mrth: 357.47 cth: 270.58 usage: 332.42 residual: 25.05
mrth: 74.47 cth: 57.11 usage: 39.8 residual: 34.67
mrth: 83.19 cth: 72.36 usage: 63.3 residual: 19.89
mrth: 249.96 cth: 212.47 usage: 173.72 residual: 76.24
mrth: 99.9 cth: 82.46 usage: 50.58 residual: 49.32
mrth: 199.13 cth: 144.55 usage: 117.18 residual: 81.95
mrth: 276.17 cth: 214.89 usage: 224.17 residual: 52.0
mrth: 316.98 cth: 252.57 usage: 181.98 residual: 135.0
mrth: 92.95 cth: 66.85 usage: 59.65 residual: 33.3
mrth: 81.41 cth: 66.52 usage: 55.02 residual: 26.39
mrth: 210.67 cth: 179.17 usage: 209.99 residual: 0.68
mrth: 284.62 cth: 228.63 usage: 144.74 residual: 139.88
mrth: 93.88 cth: 80.28 usage: 66.22 residual: 27.66
mrth: 122.92 cth: 86.48 usage: 72.83 residual: 50.09
mrth: 287.73 cth: 229.22 usage: 226.3 residual: 61.43
mrth: 302.14 cth: 264.72 usage: 159.66 residual: 142.48
mrth: 347.52 cth: 279.12 usage: 323.97 residual: 23.55
mrth: 87.81 cth: 75.35 usage: 67.1 residual: 20.71
mrth: 412.51 cth: 325.7 usage: 259.59 residual: 152.92
mrth: 246.07 cth: 204.1 usage: 162.79 residual: 83.28
mrth: 249.23 cth: 202.53 usage: 219.08 residual: 30.15
mrth: 186.77 cth: 158.78 usage: 94.39 residual: 92.38
mrth: 71.36 cth: 57.1 usage: 66.69 residual: 4.67
mrth: 147.9 cth: 131.77 usage: 143.21 residual: 4.69
mrth: 175.54 cth: 138.74 usage: 110.37 residual: 65.17
mrth: 383.82 cth: 323.87 usage: 196.04 residual: 187.78
mrth: 272.75 cth: 241.24 usage: 159.87 residual: 112.88
mrth: 80.83 cth: 69.49 usage: 50.72 residual: 30.11
mrth: 109.9 cth: 91.82 usage: 76.21 residual: 33.69
mrth: 192.15 cth: 150.59 usage: 108.93 residual: 83.22
mrth: 243.05 cth: 216.32 usage: 134.69 residual: 108.36
mrth: 452.34 cth: 381.29 usage: 438.2 residual: 14.14
mrth: 453.35 cth: 399.71 usage: 270.14 residual: 183.21
mrth: 103.48 cth: 74.6 usage: 100.35 residual: 3.13
mrth: 192.28 cth: 161.32 usage: 98.47 residual: 93.81
mrth: 57.71 cth: 42.57 usage: 57.46 residual: 0.25
mrth: 87.09 cth: 63.61 usage: 74.23 residual: 12.86
mrth: 164.19 cth: 126.83 usage: 118.44 residual: 45.75
mrth: 157.02 cth: 139.33 usage: 134.64 residual: 22.38
mrth: 175.45 cth: 127.2 usage: 146.21 residual: 29.24
mrth: 286.16 cth: 237.33 usage: 208.15 residual: 78.01
mrth: 142.18 cth: 121.41 usage: 123.09 residual: 19.09
mrth: 92.84 cth: 70.69 usage: 80.2 residual: 12.64
mrth: 197.08 cth: 144.07 usage: 149.41 residual: 47.67
mrth: 221.91 cth: 155.93 usage: 188.98 residual: 32.93
mrth: 235.87 cth: 197.85 usage: 201.5 residual: 34.37
mrth: 312.66 cth: 242.04 usage: 234.83 residual: 77.83
mrth: 258.55 cth: 211.74 usage: 241.08 residual: 17.47
mrth: 177.59 cth: 132.82 usage: 98.68 residual: 78.91
mrth: 347.33 cth: 266.99 usage: 176.91 residual: 170.42
mrth: 190.74 cth: 137.29 usage: 185.72 residual: 5.02
mrth: 58.31 cth: 46.33 usage: 36.69 residual: 21.62
mrth: 318.92 cth: 279.42 usage: 210.54 residual: 108.38
mrth: 183.78 cth: 143.55 usage: 107.43 residual: 76.35
mrth: 65.34 cth: 52.88 usage: 63.67 residual: 1.67
mrth: 207.93 cth: 147.67 usage: 107.84 residual: 100.09
mrth: 116.29 cth: 85.21 usage: 99.86 residual: 16.43
mrth: 85.85 cth: 65.75 usage: 54.31 residual: 31.54
mrth: 327.94 cth: 294.97 usage: 317.09 residual: 10.85
mrth: 120.41 cth: 94.57 usage: 76.45 residual: 43.96
mrth: 292.37 cth: 223.02 usage: 249.08 residual: 43.29
mrth: 115.71 cth: 96.48 usage: 84.92 residual: 30.79
mrth: 187.45 cth: 132.46 usage: 140.9 residual: 46.55
mrth: 175.21 cth: 146.57 usage: 93.23 residual: 81.98
mrth: 21.92 cth: 15.39 usage: 11.15 residual: 10.77
mrth: 356.14 cth: 273.7 usage: 353.31 residual: 2.83
mrth: 265.6 cth: 202.66 usage: 240.84 residual: 24.76
mrth: 128.6 cth: 115.17 usage: 118.56 residual: 10.04
mrth: 387.6 cth: 290.02 usage: 223.49 residual: 164.11
mrth: 391.72 cth: 347.32 usage: 312.92 residual: 78.8
mrth: 143.7 cth: 124.7 usage: 99.03 residual: 44.67
mrth: 270.55 cth: 228.79 usage: 266.81 residual: 3.74
mrth: 105.83 cth: 82.25 usage: 81.26 residual: 24.57
mrth: 302.42 cth: 225.35 usage: 230.46 residual: 71.96
mrth: 237.58 cth: 190.8 usage: 164.62 residual: 72.96
mrth: 128.54 cth: 100.59 usage: 106.0 residual: 22.54
mrth: 139.59 cth: 122.09 usage: 97.8 residual: 41.79
mrth: 184.57 cth: 143.46 usage: 93.81 residual: 90.76
mrth: 141.24 cth: 110.95 usage: 98.65 residual: 42.59
mrth: 353.69 cth: 301.49 usage: 180.14 residual: 173.55
mrth: 46.03 cth: 38.82 usage: 32.9 residual: 13.13
mrth: 76.16 cth: 60.44 usage: 46.49 residual: 29.67
mrth: 41.48 cth: 32.58 usage: 24.63 residual: 16.85
mrth: 323.38 cth: 263.7 usage: 291.78 residual: 31.6
mrth: 81.08 cth: 65.0 usage: 74.59 residual: 6.49
mrth: 207.25 cth: 179.75 usage: 166.34 residual: 40.91
mrth: 193.97 cth: 154.31 usage: 152.56 residual: 41.41
mrth: 209.02 cth: 184.32 usage: 186.88 residual: 22.14
mrth: 295.18 cth: 213.36 usage: 226.2 residual: 68.98
mrth: 172.42 cth: 138.4 usage: 160.87 residual: 11.55
mrth: 167.89 cth: 136.05 usage: 84.7 residual: 83.19
mrth: 237.66 cth: 188.54 usage: 227.31 residual: 10.35
mrth: 113.03 cth: 82.9 usage: 83.56 residual: 29.47
mrth: 225.06 cth: 178.19 usage: 142.63 residual: 82.43
mrth: 304.6 cth: 230.67 usage: 263.31 residual: 41.29
mrth: 261.94 cth: 203.8 usage: 188.21 residual: 73.73
mrth: 316.66 cth: 269.35 usage: 261.77 residual: 54.89
mrth: 253.34 cth: 193.94 usage: 148.53 residual: 104.81
mrth: 142.58 cth: 103.75 usage: 131.61 residual: 10.97
mrth: 221.13 cth: 172.33 usage: 180.67 residual: 40.46
mrth: 60.97 cth: 43.63 usage: 42.69 residual: 18.28
mrth: 155.43 cth: 121.02 usage: 130.96 residual: 24.47
mrth: 183.51 cth: 137.72 usage: 117.95 residual: 65.56
mrth: 124.33 cth: 100.6 usage: 110.98 residual: 13.35
mrth: 256.18 cth: 216.57 usage: 243.87 residual: 12.31
mrth: 120.03 cth: 98.76 usage: 97.97 residual: 22.06
mrth: 210.52 cth: 156.7 usage: 185.95 residual: 24.57
mrth: 118.99 cth: 103.99 usage: 103.82 residual: 15.17
mrth: 112.5 cth: 91.64 usage: 70.17 residual: 42.33
mrth: 140.88 cth: 103.32 usage: 87.87 residual: 53.01
mrth: 137.3 cth: 105.75 usage: 108.84 residual: 28.46
mrth: 141.13 cth: 116.88 usage: 118.7 residual: 22.43
mrth: 193.87 cth: 173.45 usage: 167.14 residual: 26.73
mrth: 237.29 cth: 175.68 usage: 217.02 residual: 20.27
mrth: 103.04 cth: 89.81 usage: 88.89 residual: 14.15
mrth: 79.26 cth: 65.51 usage: 45.77 residual: 33.49
mrth: 168.75 cth: 148.84 usage: 143.32 residual: 25.43
mrth: 130.74 cth: 109.07 usage: 119.02 residual: 11.72
mrth: 221.23 cth: 165.62 usage: 124.14 residual: 97.09
mrth: 138.01 cth: 101.23 usage: 130.67 residual: 7.34
mrth: 248.75 cth: 209.19 usage: 210.34 residual: 38.41
mrth: 162.76 cth: 125.86 usage: 119.87 residual: 42.89
mrth: 197.49 cth: 147.18 usage: 157.37 residual: 40.12
mrth: 151.37 cth: 109.37 usage: 85.7 residual: 65.67
mrth: 250.68 cth: 225.3 usage: 142.02 residual: 108.66
mrth: 172.77 cth: 136.41 usage: 104.58 residual: 68.19
mrth: 200.0 cth: 160.84 usage: 192.08 residual: 7.92
mrth: 113.45 cth: 99.51 usage: 103.83 residual: 9.62
mrth: 46.79 cth: 34.32 usage: 31.68 residual: 15.11
mrth: 167.76 cth: 129.46 usage: 90.4 residual: 77.36
mrth: 202.64 cth: 175.56 usage: 171.4 residual: 31.24
mrth: 424.23 cth: 314.88 usage: 385.98 residual: 38.25
mrth: 239.82 cth: 210.81 usage: 129.09 residual: 110.73
mrth: 37.0 cth: 28.47 usage: 23.71 residual: 13.29
mrth: 231.36 cth: 199.76 usage: 171.54 residual: 59.82
mrth: 259.33 cth: 216.68 usage: 152.41 residual: 106.92
mrth: 118.27 cth: 85.76 usage: 81.46 residual: 36.81
mrth: 461.71 cth: 412.45 usage: 408.16 residual: 53.55
mrth: 305.9 cth: 228.22 usage: 250.39 residual: 55.51
mrth: 299.69 cth: 223.97 usage: 288.98 residual: 10.71
mrth: 233.83 cth: 182.09 usage: 151.68 residual: 82.15
mrth: 74.28 cth: 59.59 usage: 53.6 residual: 20.68
mrth: 496.93 cth: 414.72 usage: 260.35 residual: 236.58
mrth: 278.2 cth: 231.25 usage: 245.13 residual: 33.07
mrth: 203.98 cth: 177.46 usage: 195.68 residual: 8.3
mrth: 70.0 cth: 53.13 usage: 58.37 residual: 11.63
mrth: 292.92 cth: 244.08 usage: 236.49 residual: 56.43
mrth: 117.79 cth: 87.22 usage: 113.72 residual: 4.07
mrth: 240.33 cth: 213.53 usage: 194.46 residual: 45.87
mrth: 234.58 cth: 179.65 usage: 176.24 residual: 58.34
mrth: 184.41 cth: 156.75 usage: 145.4 residual: 39.01
mrth: 332.05 cth: 296.58 usage: 218.97 residual: 113.08
mrth: 15.23 cth: 10.76 usage: 14.84 residual: 0.39
mrth: 231.13 cth: 163.14 usage: 124.47 residual: 106.66
mrth: 262.43 cth: 224.78 usage: 160.66 residual: 101.77
mrth: 220.4 cth: 188.85 usage: 206.57 residual: 13.83
mrth: 226.61 cth: 178.72 usage: 212.15 residual: 14.46
mrth: 185.99 cth: 162.02 usage: 106.08 residual: 79.91
mrth: 64.73 cth: 45.61 usage: 63.16 residual: 1.57
mrth: 140.14 cth: 115.71 usage: 85.99 residual: 54.15
mrth: 201.9 cth: 178.79 usage: 124.93 residual: 76.97
mrth: 288.1 cth: 244.84 usage: 233.67 residual: 54.43
mrth: 129.91 cth: 114.94 usage: 103.09 residual: 26.82
mrth: 175.49 cth: 142.32 usage: 131.2 residual: 44.29
mrth: 164.24 cth: 123.14 usage: 102.09 residual: 62.15
mrth: 291.8 cth: 250.69 usage: 234.76 residual: 57.04
mrth: 157.71 cth: 140.4 usage: 128.97 residual: 28.74
mrth: 112.48 cth: 89.09 usage: 70.15 residual: 42.33
mrth: 127.93 cth: 112.85 usage: 92.76 residual: 35.17
mrth: 56.45 cth: 49.42 usage: 49.66 residual: 6.79
mrth: 178.38 cth: 147.84 usage: 146.58 residual: 31.8
mrth: 307.17 cth: 268.04 usage: 259.05 residual: 48.12
mrth: 165.15 cth: 137.67 usage: 145.79 residual: 19.36
mrth: 199.05 cth: 156.09 usage: 163.91 residual: 35.14
mrth: 319.55 cth: 282.03 usage: 241.37 residual: 78.18
mrth: 196.36 cth: 148.3 usage: 151.89 residual: 44.47
mrth: 229.0 cth: 171.08 usage: 179.6 residual: 49.4
mrth: 273.34 cth: 202.16 usage: 259.9 residual: 13.44
mrth: 228.85 cth: 195.94 usage: 188.71 residual: 40.14
mrth: 377.14 cth: 310.3 usage: 250.69 residual: 126.45
mrth: 212.06 cth: 182.71 usage: 178.77 residual: 33.29
mrth: 83.2 cth: 65.58 usage: 41.81 residual: 41.39
mrth: 447.67 cth: 366.47 usage: 233.53 residual: 214.14
mrth: 205.92 cth: 182.65 usage: 171.51 residual: 34.41
mrth: 106.37 cth: 95.35 usage: 75.79 residual: 30.58
mrth: 389.17 cth: 328.88 usage: 198.13 residual: 191.04
mrth: 264.82 cth: 230.21 usage: 210.72 residual: 54.1
mrth: 67.95 cth: 55.39 usage: 47.2 residual: 20.75
mrth: 497.84 cth: 382.01 usage: 337.91 residual: 159.93
mrth: 139.53 cth: 98.19 usage: 80.82 residual: 58.71
mrth: 160.17 cth: 118.5 usage: 155.22 residual: 4.95
mrth: 253.17 cth: 193.23 usage: 193.44 residual: 59.73
mrth: 92.06 cth: 75.44 usage: 52.73 residual: 39.33
mrth: 165.91 cth: 124.45 usage: 125.83 residual: 40.08
mrth: 53.86 cth: 41.06 usage: 39.51 residual: 14.35
mrth: 95.46 cth: 74.04 usage: 58.78 residual: 36.68
mrth: 256.8 cth: 226.58 usage: 135.06 residual: 121.74
mrth: 126.62 cth: 91.29 usage: 98.64 residual: 27.98
mrth: 131.47 cth: 114.49 usage: 97.33 residual: 34.14
mrth: 119.12 cth: 97.99 usage: 62.75 residual: 56.37
mrth: 161.94 cth: 116.66 usage: 159.8 residual: 2.14
mrth: 246.81 cth: 216.24 usage: 221.52 residual: 25.29
mrth: 66.35 cth: 59.51 usage: 52.07 residual: 14.28
mrth: 159.11 cth: 129.74 usage: 154.97 residual: 4.14
mrth: 417.97 cth: 362.34 usage: 399.68 residual: 18.29
mrth: 196.31 cth: 154.09 usage: 127.96 residual: 68.35
mrth: 420.34 cth: 365.45 usage: 266.27 residual: 154.07
mrth: 404.61 cth: 317.48 usage: 244.6 residual: 160.01
mrth: 166.09 cth: 135.22 usage: 91.42 residual: 74.67
mrth: 162.22 cth: 126.87 usage: 141.08 residual: 21.14
mrth: 258.51 cth: 217.63 usage: 251.01 residual: 7.5
mrth: 108.86 cth: 80.1 usage: 88.84 residual: 20.02
mrth: 83.52 cth: 60.39 usage: 44.28 residual: 39.24
mrth: 59.67 cth: 49.08 usage: 45.43 residual: 14.24
mrth: 226.86 cth: 173.22 usage: 225.76 residual: 1.1
mrth: 194.92 cth: 161.92 usage: 129.34 residual: 65.58
mrth: 87.33 cth: 65.07 usage: 67.64 residual: 19.69
mrth: 151.09 cth: 119.56 usage: 84.16 residual: 66.93
mrth: 420.89 cth: 343.3 usage: 415.29 residual: 5.6
mrth: 128.66 cth: 109.04 usage: 74.74 residual: 53.92
mrth: 105.23 cth: 80.22 usage: 63.37 residual: 41.86
mrth: 96.34 cth: 82.93 usage: 73.97 residual: 22.37
mrth: 342.33 cth: 256.84 usage: 264.34 residual: 77.99
mrth: 459.07 cth: 394.79 usage: 339.47 residual: 119.6
mrth: 257.06 cth: 230.36 usage: 216.31 residual: 40.75
mrth: 144.73 cth: 107.93 usage: 72.42 residual: 72.31
mrth: 297.67 cth: 217.08 usage: 182.55 residual: 115.12
mrth: 283.91 cth: 206.51 usage: 154.8 residual: 129.11
mrth: 57.12 cth: 40.93 usage: 40.42 residual: 16.7
mrth: 302.1 cth: 243.54 usage: 263.99 residual: 38.11
mrth: 185.6 cth: 165.17 usage: 122.7 residual: 62.9
mrth: 247.82 cth: 175.81 usage: 224.75 residual: 23.07
mrth: 62.91 cth: 55.7 usage: 56.22 residual: 6.69
mrth: 35.74 cth: 25.89 usage: 27.42 residual: 8.32
mrth: 191.85 cth: 135.88 usage: 108.77 residual: 83.08
mrth: 200.66 cth: 141.91 usage: 172.56 residual: 28.1
mrth: 151.13 cth: 118.9 usage: 76.3 residual: 74.83
mrth: 308.8 cth: 230.62 usage: 202.72 residual: 106.08
mrth: 154.44 cth: 134.69 usage: 129.06 residual: 25.38
mrth: 154.2 cth: 111.4 usage: 148.7 residual: 5.5
mrth: 218.11 cth: 167.02 usage: 166.7 residual: 51.41
mrth: 80.19 cth: 65.43 usage: 43.98 residual: 36.21
mrth: 120.0 cth: 87.71 usage: 63.31 residual: 56.69
mrth: 208.29 cth: 178.67 usage: 193.42 residual: 14.87
mrth: 211.56 cth: 152.12 usage: 169.39 residual: 42.17
mrth: 247.88 cth: 187.66 usage: 150.12 residual: 97.76
mrth: 59.37 cth: 51.52 usage: 39.63 residual: 19.74
mrth: 221.39 cth: 186.28 usage: 170.44 residual: 50.95
mrth: 314.79 cth: 222.19 usage: 289.53 residual: 25.26
mrth: 106.02 cth: 78.52 usage: 94.12 residual: 11.9
mrth: 153.75 cth: 128.63 usage: 77.1 residual: 76.65
mrth: 235.14 cth: 180.23 usage: 137.88 residual: 97.26
mrth: 157.25 cth: 112.9 usage: 140.19 residual: 17.06
mrth: 178.96 cth: 140.93 usage: 135.58 residual: 43.38
mrth: 34.45 cth: 30.29 usage: 20.05 residual: 14.4
mrth: 142.07 cth: 124.79 usage: 121.47 residual: 20.6
mrth: 154.07 cth: 137.89 usage: 111.77 residual: 42.3
mrth: 3.65 cth: 2.57 usage: 2.37 residual: 1.28
mrth: 200.22 cth: 150.66 usage: 174.99 residual: 25.23
mrth: 105.72 cth: 84.08 usage: 74.81 residual: 30.91
mrth: 158.04 cth: 126.43 usage: 136.15 residual: 21.89
mrth: 162.09 cth: 117.44 usage: 91.27 residual: 70.82
mrth: 159.08 cth: 139.81 usage: 100.52 residual: 58.56
mrth: 141.15 cth: 114.92 usage: 76.87 residual: 64.28
mrth: 453.94 cth: 374.46 usage: 279.2 residual: 174.74
mrth: 284.86 cth: 230.85 usage: 170.2 residual: 114.66
mrth: 324.13 cth: 239.2 usage: 181.91 residual: 142.22
mrth: 70.46 cth: 60.23 usage: 54.85 residual: 15.61
mrth: 139.76 cth: 110.3 usage: 78.14 residual: 61.62
mrth: 237.87 cth: 174.12 usage: 129.74 residual: 108.13
mrth: 180.05 cth: 138.35 usage: 110.56 residual: 69.49
mrth: 148.88 cth: 123.74 usage: 86.12 residual: 62.76
mrth: 174.9 cth: 147.48 usage: 108.73 residual: 66.17
mrth: 150.6 cth: 119.07 usage: 142.67 residual: 7.93
mrth: 406.72 cth: 341.34 usage: 253.7 residual: 153.02
mrth: 54.79 cth: 39.31 usage: 37.39 residual: 17.4
mrth: 51.74 cth: 38.11 usage: 26.8 residual: 24.94
mrth: 233.44 cth: 167.02 usage: 121.13 residual: 112.31
mrth: 268.56 cth: 241.52 usage: 213.27 residual: 55.29
mrth: 275.04 cth: 221.52 usage: 223.09 residual: 51.95
mrth: 126.83 cth: 95.11 usage: 109.02 residual: 17.81
mrth: 154.61 cth: 129.79 usage: 87.33 residual: 67.28
mrth: 61.27 cth: 44.89 usage: 38.81 residual: 22.46
mrth: 302.53 cth: 253.84 usage: 297.85 residual: 4.68
mrth: 187.54 cth: 135.15 usage: 145.84 residual: 41.7
mrth: 306.3 cth: 224.01 usage: 256.19 residual: 50.11
mrth: 324.28 cth: 256.45 usage: 310.79 residual: 13.49
mrth: 192.38 cth: 160.98 usage: 152.77 residual: 39.61
mrth: 105.5 cth: 81.1 usage: 96.14 residual: 9.36
mrth: 206.11 cth: 170.5 usage: 202.44 residual: 3.67
mrth: 242.37 cth: 174.39 usage: 148.31 residual: 94.06
mrth: 236.3 cth: 180.04 usage: 200.91 residual: 35.39
mrth: 298.37 cth: 256.59 usage: 287.75 residual: 10.62
mrth: 311.14 cth: 245.39 usage: 254.46 residual: 56.68
mrth: 212.43 cth: 154.8 usage: 205.08 residual: 7.35
mrth: 133.82 cth: 100.05 usage: 96.62 residual: 37.2
mrth: 334.91 cth: 274.48 usage: 330.86 residual: 4.05
mrth: 285.02 cth: 225.44 usage: 155.38 residual: 129.64
mrth: 244.61 cth: 209.79 usage: 241.19 residual: 3.42
mrth: 286.59 cth: 244.4 usage: 212.38 residual: 74.21
mrth: 42.37 cth: 37.13 usage: 35.93 residual: 6.44
mrth: 127.26 cth: 95.77 usage: 89.57 residual: 37.69
mrth: 105.48 cth: 82.7 usage: 73.1 residual: 32.38
mrth: 213.83 cth: 187.29 usage: 135.04 residual: 78.79
mrth: 355.65 cth: 313.63 usage: 258.76 residual: 96.89
mrth: 212.36 cth: 168.01 usage: 205.54 residual: 6.82
mrth: 127.27 cth: 101.39 usage: 85.95 residual: 41.32
mrth: 203.85 cth: 152.38 usage: 194.02 residual: 9.83
mrth: 279.93 cth: 204.55 usage: 141.9 residual: 138.03
mrth: 366.19 cth: 261.99 usage: 228.77 residual: 137.42
mrth: 315.42 cth: 235.93 usage: 190.72 residual: 124.7
mrth: 102.55 cth: 86.47 usage: 99.81 residual: 2.74
mrth: 291.2 cth: 228.37 usage: 234.19 residual: 57.01
mrth: 185.6 cth: 161.56 usage: 176.08 residual: 9.52
mrth: 69.95 cth: 58.27 usage: 42.38 residual: 27.57
mrth: 70.0 cth: 54.78 usage: 48.09 residual: 21.91
mrth: 72.46 cth: 51.77 usage: 47.05 residual: 25.41
mrth: 106.35 cth: 78.03 usage: 103.12 residual: 3.23
mrth: 165.35 cth: 129.48 usage: 87.18 residual: 78.17
mrth: 139.57 cth: 118.64 usage: 112.67 residual: 26.9
mrth: 107.79 cth: 82.9 usage: 62.88 residual: 44.91
mrth: 99.87 cth: 72.62 usage: 68.06 residual: 31.81
mrth: 34.52 cth: 26.52 usage: 31.82 residual: 2.7
mrth: 330.43 cth: 281.8 usage: 298.1 residual: 32.33
mrth: 153.04 cth: 129.41 usage: 97.14 residual: 55.9
mrth: 123.48 cth: 104.81 usage: 98.82 residual: 24.66
mrth: 229.15 cth: 171.08 usage: 124.69 residual: 104.46
mrth: 114.4 cth: 99.1 usage: 67.68 residual: 46.72
mrth: 291.16 cth: 249.31 usage: 244.07 residual: 47.09
mrth: 128.46 cth: 111.32 usage: 87.43 residual: 41.03
mrth: 162.0 cth: 121.94 usage: 141.63 residual: 20.37
mrth: 81.33 cth: 60.42 usage: 70.09 residual: 11.24
mrth: 418.06 cth: 325.8 usage: 372.69 residual: 45.37
mrth: 158.34 cth: 116.58 usage: 115.8 residual: 42.54
mrth: 305.12 cth: 265.46 usage: 176.9 residual: 128.22
mrth: 202.03 cth: 160.65 usage: 152.62 residual: 49.41
mrth: 308.1 cth: 226.73 usage: 241.99 residual: 66.11
mrth: 140.84 cth: 114.78 usage: 118.63 residual: 22.21
mrth: 209.85 cth: 171.33 usage: 180.11 residual: 29.74
mrth: 329.98 cth: 259.15 usage: 265.44 residual: 64.54
mrth: 419.15 cth: 368.75 usage: 283.7 residual: 135.45
mrth: 277.47 cth: 203.1 usage: 245.28 residual: 32.19
mrth: 108.75 cth: 90.99 usage: 94.42 residual: 14.33
mrth: 473.43 cth: 348.67 usage: 313.14 residual: 160.29
mrth: 119.47 cth: 93.14 usage: 92.45 residual: 27.02
mrth: 98.91 cth: 71.73 usage: 97.13 residual: 1.78
mrth: 145.33 cth: 128.51 usage: 94.26 residual: 51.07
mrth: 65.84 cth: 58.16 usage: 36.32 residual: 29.52
mrth: 78.21 cth: 65.87 usage: 63.25 residual: 14.96
mrth: 308.3 cth: 241.67 usage: 162.28 residual: 146.02
mrth: 158.04 cth: 139.49 usage: 156.91 residual: 1.13
mrth: 123.7 cth: 89.23 usage: 86.59 residual: 37.11
mrth: 149.18 cth: 107.86 usage: 84.14 residual: 65.04
mrth: 241.34 cth: 208.03 usage: 140.18 residual: 101.16
mrth: 182.88 cth: 158.07 usage: 180.56 residual: 2.32
mrth: 367.03 cth: 279.93 usage: 232.96 residual: 134.07
mrth: 8.19 cth: 7.09 usage: 4.65 residual: 3.54
mrth: 377.36 cth: 286.05 usage: 265.2 residual: 112.16
mrth: 242.37 cth: 203.28 usage: 193.98 residual: 48.39
mrth: 373.11 cth: 291.16 usage: 256.29 residual: 116.82
mrth: 222.55 cth: 183.0 usage: 220.23 residual: 2.32
mrth: 111.67 cth: 91.31 usage: 94.15 residual: 17.52
mrth: 181.6 cth: 154.55 usage: 170.87 residual: 10.73
mrth: 203.84 cth: 158.24 usage: 128.39 residual: 75.45
mrth: 235.2 cth: 180.72 usage: 126.85 residual: 108.35
mrth: 307.26 cth: 217.19 usage: 280.47 residual: 26.79
mrth: 129.66 cth: 94.19 usage: 118.68 residual: 10.98
mrth: 377.16 cth: 321.45 usage: 317.96 residual: 59.2
mrth: 25.95 cth: 18.86 usage: 22.48 residual: 3.47
mrth: 305.53 cth: 227.87 usage: 240.88 residual: 64.65
mrth: 209.3 cth: 177.92 usage: 114.0 residual: 95.3
mrth: 357.99 cth: 279.01 usage: 236.2 residual: 121.79
mrth: 69.68 cth: 56.01 usage: 38.62 residual: 31.06
mrth: 97.49 cth: 72.38 usage: 74.19 residual: 23.3
mrth: 173.55 cth: 121.61 usage: 107.58 residual: 65.97
mrth: 276.27 cth: 206.5 usage: 147.58 residual: 128.69
mrth: 115.64 cth: 82.35 usage: 59.94 residual: 55.7
mrth: 262.34 cth: 234.9 usage: 255.55 residual: 6.79
mrth: 288.87 cth: 209.71 usage: 202.94 residual: 85.93
mrth: 329.91 cth: 246.56 usage: 223.42 residual: 106.49
mrth: 209.86 cth: 153.35 usage: 168.31 residual: 41.55
mrth: 123.93 cth: 90.01 usage: 85.7 residual: 38.23
mrth: 135.25 cth: 106.36 usage: 86.44 residual: 48.81
mrth: 125.03 cth: 111.97 usage: 118.99 residual: 6.04
mrth: 366.14 cth: 320.94 usage: 183.77 residual: 182.37
mrth: 360.02 cth: 267.75 usage: 213.37 residual: 146.65
mrth: 371.35 cth: 305.2 usage: 270.71 residual: 100.64
mrth: 224.18 cth: 176.85 usage: 184.87 residual: 39.31
mrth: 147.67 cth: 115.66 usage: 118.5 residual: 29.17
mrth: 305.04 cth: 244.5 usage: 295.19 residual: 9.85
mrth: 286.22 cth: 206.1 usage: 191.34 residual: 94.88
mrth: 259.21 cth: 187.75 usage: 221.71 residual: 37.5
mrth: 354.73 cth: 305.08 usage: 182.7 residual: 172.03
mrth: 171.01 cth: 122.02 usage: 150.81 residual: 20.2
mrth: 337.05 cth: 238.0 usage: 212.3 residual: 124.75
mrth: 383.11 cth: 311.75 usage: 369.44 residual: 13.67
mrth: 172.94 cth: 129.48 usage: 127.8 residual: 45.14
mrth: 198.6 cth: 148.24 usage: 175.11 residual: 23.49
mrth: 140.3 cth: 121.37 usage: 137.71 residual: 2.59
mrth: 101.9 cth: 83.63 usage: 54.66 residual: 47.24
mrth: 84.25 cth: 74.2 usage: 70.03 residual: 14.22
mrth: 138.94 cth: 123.97 usage: 136.1 residual: 2.84
mrth: 44.52 cth: 34.89 usage: 34.56 residual: 9.96
mrth: 205.12 cth: 175.07 usage: 126.58 residual: 78.54
mrth: 285.7 cth: 240.75 usage: 262.81 residual: 22.89
mrth: 65.34 cth: 47.59 usage: 43.69 residual: 21.65
mrth: 198.34 cth: 173.76 usage: 102.81 residual: 95.53
mrth: 18.04 cth: 14.68 usage: 12.46 residual: 5.58
mrth: 110.2 cth: 93.44 usage: 106.6 residual: 3.6
mrth: 70.15 cth: 58.26 usage: 65.18 residual: 4.97
mrth: 149.39 cth: 111.52 usage: 115.01 residual: 34.38
mrth: 299.59 cth: 213.3 usage: 169.53 residual: 130.06
mrth: 111.57 cth: 89.73 usage: 104.06 residual: 7.51
mrth: 31.38 cth: 27.1 usage: 30.52 residual: 0.86
mrth: 194.21 cth: 141.51 usage: 191.78 residual: 2.43
mrth: 235.25 cth: 168.52 usage: 183.42 residual: 51.83
mrth: 87.72 cth: 76.83 usage: 73.47 residual: 14.25
mrth: 99.78 cth: 73.06 usage: 76.66 residual: 23.12
mrth: 474.54 cth: 415.21 usage: 279.01 residual: 195.53
mrth: 302.38 cth: 225.29 usage: 191.38 residual: 111.0
mrth: 124.8 cth: 92.0 usage: 103.82 residual: 20.98
mrth: 140.35 cth: 109.34 usage: 122.26 residual: 18.09
mrth: 158.55 cth: 126.42 usage: 81.0 residual: 77.55
mrth: 245.13 cth: 194.96 usage: 133.59 residual: 111.54
mrth: 128.16 cth: 109.53 usage: 92.41 residual: 35.75
mrth: 286.93 cth: 243.78 usage: 285.68 residual: 1.25
mrth: 496.09 cth: 444.09 usage: 350.29 residual: 145.8
mrth: 245.34 cth: 186.02 usage: 243.15 residual: 2.19
mrth: 239.09 cth: 196.24 usage: 172.25 residual: 66.84
mrth: 122.22 cth: 101.08 usage: 76.95 residual: 45.27
mrth: 318.3 cth: 262.37 usage: 277.56 residual: 40.74
mrth: 121.46 cth: 102.93 usage: 107.43 residual: 14.03
mrth: 337.73 cth: 247.72 usage: 330.94 residual: 6.79
mrth: 155.2 cth: 113.98 usage: 104.13 residual: 51.07
mrth: 102.94 cth: 77.18 usage: 55.09 residual: 47.85
mrth: 295.32 cth: 264.78 usage: 278.98 residual: 16.34
mrth: 309.96 cth: 218.7 usage: 294.84 residual: 15.12
mrth: 266.01 cth: 216.55 usage: 169.74 residual: 96.27
mrth: 218.32 cth: 185.1 usage: 153.23 residual: 65.09
mrth: 194.59 cth: 142.81 usage: 136.28 residual: 58.31
mrth: 213.57 cth: 150.35 usage: 141.65 residual: 71.92
mrth: 304.86 cth: 250.68 usage: 160.63 residual: 144.23
mrth: 223.93 cth: 186.52 usage: 123.01 residual: 100.92
mrth: 290.62 cth: 230.44 usage: 246.89 residual: 43.73
mrth: 116.36 cth: 87.68 usage: 115.42 residual: 0.94
mrth: 171.72 cth: 131.26 usage: 145.9 residual: 25.82
mrth: 326.0 cth: 233.37 usage: 204.87 residual: 121.13
mrth: 102.76 cth: 73.39 usage: 80.96 residual: 21.8
mrth: 512.88 cth: 401.3 usage: 282.43 residual: 230.45
mrth: 268.52 cth: 225.23 usage: 143.17 residual: 125.35
mrth: 78.4 cth: 61.53 usage: 45.42 residual: 32.98
mrth: 132.67 cth: 97.47 usage: 97.17 residual: 35.5
mrth: 264.17 cth: 186.4 usage: 228.12 residual: 36.05
mrth: 272.58 cth: 231.04 usage: 143.34 residual: 129.24
mrth: 151.8 cth: 107.7 usage: 146.04 residual: 5.76
mrth: 289.36 cth: 213.85 usage: 166.17 residual: 123.19
mrth: 259.11 cth: 217.31 usage: 256.5 residual: 2.61
mrth: 128.53 cth: 95.76 usage: 123.7 residual: 4.83
mrth: 208.48 cth: 157.7 usage: 143.63 residual: 64.85
mrth: 163.46 cth: 119.48 usage: 135.5 residual: 27.96
mrth: 69.39 cth: 52.88 usage: 53.35 residual: 16.04
mrth: 73.94 cth: 55.13 usage: 46.02 residual: 27.92
mrth: 40.94 cth: 35.37 usage: 25.58 residual: 15.36
mrth: 108.03 cth: 92.26 usage: 56.25 residual: 51.78
mrth: 459.9 cth: 369.54 usage: 433.77 residual: 26.13
mrth: 220.93 cth: 171.51 usage: 132.98 residual: 87.95
mrth: 49.26 cth: 36.09 usage: 44.26 residual: 5.0
mrth: 361.36 cth: 276.44 usage: 335.26 residual: 26.1
mrth: 277.75 cth: 219.2 usage: 175.66 residual: 102.09
mrth: 98.62 cth: 80.73 usage: 81.95 residual: 16.67
mrth: 83.44 cth: 66.07 usage: 52.97 residual: 30.47
mrth: 119.28 cth: 100.21 usage: 80.44 residual: 38.84
mrth: 123.56 cth: 96.22 usage: 64.61 residual: 58.95
mrth: 175.98 cth: 128.64 usage: 125.27 residual: 50.71
mrth: 61.42 cth: 54.12 usage: 35.71 residual: 25.71
mrth: 72.68 cth: 64.89 usage: 58.98 residual: 13.7
mrth: 143.36 cth: 115.84 usage: 132.92 residual: 10.44
mrth: 327.83 cth: 270.44 usage: 309.07 residual: 18.76
mrth: 236.02 cth: 171.29 usage: 187.17 residual: 48.85
mrth: 60.34 cth: 43.85 usage: 33.37 residual: 26.97
mrth: 124.94 cth: 94.82 usage: 117.68 residual: 7.26
mrth: 296.93 cth: 219.42 usage: 250.78 residual: 46.15
mrth: 178.58 cth: 135.88 usage: 149.25 residual: 29.33
mrth: 57.93 cth: 45.19 usage: 42.5 residual: 15.43
mrth: 330.41 cth: 236.14 usage: 168.59 residual: 161.82
mrth: 207.18 cth: 168.82 usage: 134.94 residual: 72.24
mrth: 263.7 cth: 216.33 usage: 144.7 residual: 119.0
mrth: 293.18 cth: 236.94 usage: 191.36 residual: 101.82
mrth: 242.94 cth: 177.03 usage: 137.81 residual: 105.13
mrth: 456.43 cth: 366.86 usage: 410.93 residual: 45.5
mrth: 112.93 cth: 96.38 usage: 82.28 residual: 30.65
mrth: 120.89 cth: 107.74 usage: 109.38 residual: 11.51
mrth: 342.91 cth: 248.62 usage: 230.28 residual: 112.63
mrth: 179.56 cth: 160.79 usage: 157.07 residual: 22.49
mrth: 169.86 cth: 128.61 usage: 108.27 residual: 61.59
mrth: 159.9 cth: 122.8 usage: 112.18 residual: 47.72
mrth: 276.34 cth: 211.55 usage: 227.9 residual: 48.44
mrth: 137.47 cth: 121.52 usage: 105.46 residual: 32.01
mrth: 184.8 cth: 141.25 usage: 105.96 residual: 78.84
mrth: 125.28 cth: 103.19 usage: 121.37 residual: 3.91
mrth: 332.87 cth: 249.94 usage: 216.35 residual: 116.52
mrth: 143.05 cth: 104.29 usage: 124.18 residual: 18.87
mrth: 278.53 cth: 246.85 usage: 235.46 residual: 43.07
mrth: 144.28 cth: 128.18 usage: 94.14 residual: 50.14
mrth: 209.76 cth: 156.61 usage: 159.77 residual: 49.99
mrth: 250.49 cth: 201.63 usage: 242.59 residual: 7.9
mrth: 59.57 cth: 45.41 usage: 53.48 residual: 6.09
mrth: 158.64 cth: 128.52 usage: 138.9 residual: 19.74
mrth: 181.78 cth: 155.25 usage: 147.61 residual: 34.17
mrth: 100.96 cth: 71.78 usage: 100.24 residual: 0.72
mrth: 282.09 cth: 225.52 usage: 260.38 residual: 21.71
mrth: 264.34 cth: 228.04 usage: 140.14 residual: 124.2
mrth: 122.23 cth: 94.74 usage: 91.66 residual: 30.57
mrth: 108.61 cth: 77.19 usage: 88.8 residual: 19.81
mrth: 194.43 cth: 166.14 usage: 145.26 residual: 49.17
mrth: 434.66 cth: 308.04 usage: 412.58 residual: 22.08
mrth: 467.68 cth: 403.03 usage: 348.78 residual: 118.9
mrth: 150.52 cth: 123.72 usage: 97.85 residual: 52.67
mrth: 298.81 cth: 231.53 usage: 252.21 residual: 46.6
mrth: 251.67 cth: 214.04 usage: 166.9 residual: 84.77
mrth: 147.55 cth: 113.22 usage: 114.32 residual: 33.23
mrth: 235.63 cth: 204.21 usage: 207.48 residual: 28.15
mrth: 492.94 cth: 376.6 usage: 373.85 residual: 119.09
mrth: 175.67 cth: 151.4 usage: 175.12 residual: 0.55
mrth: 86.63 cth: 75.22 usage: 82.33 residual: 4.3
mrth: 143.71 cth: 105.23 usage: 106.22 residual: 37.49
mrth: 30.35 cth: 22.41 usage: 21.0 residual: 9.35
mrth: 114.92 cth: 89.8 usage: 109.1 residual: 5.82
mrth: 34.32 cth: 27.68 usage: 28.22 residual: 6.1
mrth: 129.04 cth: 96.46 usage: 91.88 residual: 37.16
mrth: 49.95 cth: 40.24 usage: 45.21 residual: 4.74
mrth: 92.12 cth: 82.24 usage: 83.34 residual: 8.78
mrth: 358.58 cth: 307.75 usage: 285.64 residual: 72.94
mrth: 283.43 cth: 244.4 usage: 155.21 residual: 128.22
mrth: 89.31 cth: 75.01 usage: 62.36 residual: 26.95
mrth: 312.48 cth: 280.21 usage: 259.49 residual: 52.99
mrth: 299.65 cth: 218.86 usage: 294.12 residual: 5.53
mrth: 95.17 cth: 69.69 usage: 71.98 residual: 23.19
mrth: 460.76 cth: 387.02 usage: 420.54 residual: 40.22
mrth: 303.8 cth: 249.95 usage: 283.99 residual: 19.81
mrth: 144.7 cth: 121.74 usage: 101.79 residual: 42.91
mrth: 60.62 cth: 46.1 usage: 59.02 residual: 1.6
mrth: 155.27 cth: 123.06 usage: 95.99 residual: 59.28
mrth: 412.05 cth: 337.78 usage: 228.29 residual: 183.76
mrth: 276.64 cth: 224.8 usage: 243.61 residual: 33.03
mrth: 359.18 cth: 317.34 usage: 353.99 residual: 5.19
mrth: 401.81 cth: 343.27 usage: 397.89 residual: 3.92
mrth: 126.26 cth: 103.25 usage: 119.78 residual: 6.48
mrth: 142.26 cth: 125.2 usage: 94.02 residual: 48.24
mrth: 176.03 cth: 126.48 usage: 135.57 residual: 40.46
mrth: 54.15 cth: 46.63 usage: 31.59 residual: 22.56
mrth: 310.5 cth: 249.62 usage: 182.99 residual: 127.51
mrth: 155.99 cth: 114.21 usage: 148.14 residual: 7.85
mrth: 274.49 cth: 244.86 usage: 181.42 residual: 93.07
mrth: 223.13 cth: 159.01 usage: 130.16 residual: 92.97
mrth: 30.09 cth: 22.64 usage: 22.14 residual: 7.95
mrth: 128.16 cth: 103.43 usage: 91.83 residual: 36.33
mrth: 142.31 cth: 127.96 usage: 88.69 residual: 53.62
mrth: 163.18 cth: 134.99 usage: 109.63 residual: 53.55
mrth: 97.22 cth: 80.59 usage: 93.23 residual: 3.99
mrth: 87.08 cth: 74.71 usage: 46.61 residual: 40.47
mrth: 252.69 cth: 222.2 usage: 189.25 residual: 63.44
mrth: 139.66 cth: 105.13 usage: 134.06 residual: 5.6
mrth: 182.21 cth: 136.03 usage: 99.74 residual: 82.47
mrth: 209.06 cth: 153.72 usage: 195.05 residual: 14.01
mrth: 358.96 cth: 280.53 usage: 269.13 residual: 89.83
mrth: 105.08 cth: 91.81 usage: 89.49 residual: 15.59
mrth: 129.45 cth: 96.09 usage: 84.35 residual: 45.1
mrth: 71.93 cth: 58.42 usage: 53.81 residual: 18.12
mrth: 228.16 cth: 184.2 usage: 205.86 residual: 22.3
mrth: 433.7 cth: 307.02 usage: 273.13 residual: 160.57
mrth: 261.67 cth: 190.89 usage: 244.69 residual: 16.98
mrth: 68.53 cth: 61.48 usage: 49.82 residual: 18.71
mrth: 97.92 cth: 78.2 usage: 77.36 residual: 20.56
mrth: 271.08 cth: 198.36 usage: 229.35 residual: 41.73
mrth: 182.49 cth: 134.6 usage: 99.88 residual: 82.61
mrth: 217.59 cth: 171.98 usage: 136.39 residual: 81.2
mrth: 316.64 cth: 228.95 usage: 225.16 residual: 91.48
mrth: 170.67 cth: 136.96 usage: 140.23 residual: 30.44
mrth: 87.06 cth: 73.91 usage: 53.15 residual: 33.91
mrth: 245.2 cth: 205.92 usage: 126.73 residual: 118.47
mrth: 98.58 cth: 79.49 usage: 84.37 residual: 14.21
mrth: 236.46 cth: 206.75 usage: 228.93 residual: 7.53
mrth: 192.73 cth: 149.47 usage: 179.34 residual: 13.39
mrth: 28.21 cth: 22.28 usage: 14.14 residual: 14.07
mrth: 198.37 cth: 153.95 usage: 142.61 residual: 55.76
mrth: 36.33 cth: 32.61 usage: 36.0 residual: 0.33
mrth: 276.52 cth: 216.26 usage: 193.57 residual: 82.95
mrth: 182.21 cth: 152.21 usage: 101.86 residual: 80.35
mrth: 178.28 cth: 140.65 usage: 141.5 residual: 36.78
mrth: 246.96 cth: 218.76 usage: 233.92 residual: 13.04
mrth: 180.41 cth: 127.15 usage: 142.55 residual: 37.86
mrth: 385.65 cth: 318.97 usage: 221.72 residual: 163.93
mrth: 133.78 cth: 101.34 usage: 123.61 residual: 10.17
mrth: 155.21 cth: 137.82 usage: 93.82 residual: 61.39
mrth: 303.59 cth: 265.09 usage: 270.14 residual: 33.45
mrth: 152.91 cth: 118.82 usage: 131.47 residual: 21.44
mrth: 334.1 cth: 283.04 usage: 183.15 residual: 150.95
mrth: 348.89 cth: 276.38 usage: 313.35 residual: 35.54
mrth: 84.06 cth: 63.17 usage: 57.18 residual: 26.88
mrth: 127.44 cth: 104.77 usage: 118.86 residual: 8.58
mrth: 122.53 cth: 100.86 usage: 101.93 residual: 20.6
mrth: 197.98 cth: 170.78 usage: 108.68 residual: 89.3
mrth: 296.52 cth: 220.12 usage: 161.03 residual: 135.49
mrth: 256.18 cth: 185.64 usage: 195.09 residual: 61.09
mrth: 412.02 cth: 308.56 usage: 305.04 residual: 106.98
mrth: 121.4 cth: 108.02 usage: 89.08 residual: 32.32
mrth: 170.73 cth: 152.53 usage: 157.29 residual: 13.44
mrth: 354.57 cth: 273.29 usage: 190.2 residual: 164.37
mrth: 238.89 cth: 194.26 usage: 210.69 residual: 28.2
mrth: 230.79 cth: 182.3 usage: 217.45 residual: 13.34
mrth: 170.91 cth: 150.06 usage: 116.98 residual: 53.93
mrth: 445.78 cth: 383.78 usage: 293.6 residual: 152.18
mrth: 282.18 cth: 206.96 usage: 173.11 residual: 109.07
mrth: 232.76 cth: 183.48 usage: 173.78 residual: 58.98
mrth: 142.92 cth: 118.6 usage: 96.95 residual: 45.97
mrth: 480.41 cth: 399.61 usage: 475.18 residual: 5.23
mrth: 449.99 cth: 343.82 usage: 336.05 residual: 113.94
mrth: 322.42 cth: 226.88 usage: 189.82 residual: 132.6
mrth: 249.08 cth: 195.62 usage: 214.67 residual: 34.41
mrth: 193.44 cth: 161.92 usage: 110.74 residual: 82.7
mrth: 131.59 cth: 116.18 usage: 93.02 residual: 38.57
mrth: 199.72 cth: 174.53 usage: 136.99 residual: 62.73
mrth: 431.63 cth: 357.4 usage: 258.18 residual: 173.45
mrth: 338.57 cth: 245.6 usage: 205.81 residual: 132.76
mrth: 278.14 cth: 210.77 usage: 193.81 residual: 84.33
mrth: 32.09 cth: 24.74 usage: 26.23 residual: 5.86
mrth: 409.6 cth: 298.23 usage: 336.7 residual: 72.9
mrth: 296.54 cth: 218.09 usage: 209.63 residual: 86.91
mrth: 48.95 cth: 39.06 usage: 35.58 residual: 13.37
mrth: 266.4 cth: 212.54 usage: 197.44 residual: 68.96
mrth: 41.75 cth: 36.42 usage: 38.46 residual: 3.29
mrth: 74.24 cth: 63.02 usage: 49.25 residual: 24.99
mrth: 183.03 cth: 140.46 usage: 92.0 residual: 91.03
mrth: 242.94 cth: 189.99 usage: 238.61 residual: 4.33
mrth: 281.44 cth: 244.97 usage: 200.85 residual: 80.59
mrth: 376.38 cth: 268.29 usage: 288.0 residual: 88.38
mrth: 292.52 cth: 224.05 usage: 233.8 residual: 58.72
mrth: 257.47 cth: 198.23 usage: 199.79 residual: 57.68
mrth: 46.36 cth: 34.18 usage: 44.56 residual: 1.8
mrth: 150.8 cth: 115.53 usage: 138.38 residual: 12.42
mrth: 222.3 cth: 181.81 usage: 184.57 residual: 37.73
mrth: 241.23 cth: 188.28 usage: 182.79 residual: 58.44
mrth: 299.58 cth: 248.09 usage: 225.4 residual: 74.18
mrth: 82.96 cth: 65.96 usage: 76.66 residual: 6.3
mrth: 168.87 cth: 141.38 usage: 87.89 residual: 80.98
mrth: 94.39 cth: 78.03 usage: 83.19 residual: 11.2
mrth: 18.74 cth: 16.42 usage: 10.09 residual: 8.65
mrth: 54.02 cth: 41.24 usage: 41.78 residual: 12.24
mrth: 442.45 cth: 318.73 usage: 302.62 residual: 139.83
mrth: 93.95 cth: 78.69 usage: 49.0 residual: 44.95
mrth: 96.46 cth: 81.06 usage: 74.3 residual: 22.16
mrth: 193.46 cth: 161.22 usage: 154.96 residual: 38.5
mrth: 69.09 cth: 52.51 usage: 57.3 residual: 11.79
mrth: 162.49 cth: 121.04 usage: 140.12 residual: 22.37
mrth: 145.22 cth: 108.09 usage: 126.42 residual: 18.8
mrth: 96.62 cth: 77.61 usage: 91.18 residual: 5.44
mrth: 125.09 cth: 87.65 usage: 110.64 residual: 14.45
mrth: 37.21 cth: 29.8 usage: 29.89 residual: 7.32
mrth: 242.16 cth: 192.59 usage: 217.53 residual: 24.63
mrth: 164.52 cth: 137.52 usage: 110.64 residual: 53.88
mrth: 257.7 cth: 225.22 usage: 203.39 residual: 54.31
mrth: 127.18 cth: 102.73 usage: 102.24 residual: 24.94
mrth: 42.59 cth: 30.75 usage: 28.17 residual: 14.42
mrth: 63.06 cth: 53.55 usage: 46.92 residual: 16.14
mrth: 42.92 cth: 36.66 usage: 38.82 residual: 4.1
mrth: 214.99 cth: 169.13 usage: 169.84 residual: 45.15
mrth: 143.54 cth: 117.56 usage: 112.67 residual: 30.87
mrth: 11.43 cth: 8.45 usage: 8.55 residual: 2.88
mrth: 285.03 cth: 211.19 usage: 248.63 residual: 36.4
mrth: 282.58 cth: 244.64 usage: 188.26 residual: 94.32
mrth: 198.51 cth: 175.92 usage: 124.13 residual: 74.38
mrth: 165.92 cth: 125.28 usage: 158.38 residual: 7.54
mrth: 95.21 cth: 74.75 usage: 83.3 residual: 11.91
mrth: 97.76 cth: 83.79 usage: 83.41 residual: 14.35
mrth: 35.38 cth: 28.81 usage: 24.17 residual: 11.21
mrth: 194.87 cth: 158.86 usage: 135.03 residual: 59.84
mrth: 219.77 cth: 182.19 usage: 144.83 residual: 74.94
mrth: 146.0 cth: 119.23 usage: 144.14 residual: 1.86
mrth: 358.35 cth: 298.64 usage: 192.51 residual: 165.84
mrth: 167.42 cth: 134.11 usage: 166.83 residual: 0.59
mrth: 234.4 cth: 185.37 usage: 206.41 residual: 27.99
mrth: 298.52 cth: 232.13 usage: 216.72 residual: 81.8
mrth: 385.64 cth: 324.12 usage: 351.9 residual: 33.74
mrth: 104.35 cth: 89.36 usage: 53.34 residual: 51.01
mrth: 344.16 cth: 279.33 usage: 264.16 residual: 80.0
mrth: 209.02 cth: 160.32 usage: 203.25 residual: 5.77
mrth: 194.49 cth: 172.23 usage: 151.1 residual: 43.39
mrth: 123.86 cth: 92.96 usage: 71.63 residual: 52.23
mrth: 60.43 cth: 43.45 usage: 38.52 residual: 21.91
mrth: 70.63 cth: 60.14 usage: 49.68 residual: 20.95
mrth: 137.55 cth: 121.44 usage: 96.79 residual: 40.76
mrth: 157.55 cth: 125.08 usage: 148.22 residual: 9.33
mrth: 177.48 cth: 130.18 usage: 167.12 residual: 10.36
mrth: 135.36 cth: 118.98 usage: 110.65 residual: 24.71
mrth: 191.81 cth: 138.84 usage: 168.79 residual: 23.02
mrth: 260.97 cth: 232.93 usage: 237.68 residual: 23.29
mrth: 54.18 cth: 40.92 usage: 31.36 residual: 22.82
mrth: 26.63 cth: 23.91 usage: 21.44 residual: 5.19
mrth: 355.25 cth: 278.19 usage: 238.91 residual: 116.34
mrth: 163.75 cth: 131.39 usage: 84.33 residual: 79.42
mrth: 103.17 cth: 80.75 usage: 81.75 residual: 21.42
mrth: 105.57 cth: 79.7 usage: 83.05 residual: 22.52
mrth: 172.06 cth: 129.07 usage: 156.31 residual: 15.75
mrth: 211.03 cth: 175.42 usage: 184.68 residual: 26.35
mrth: 306.65 cth: 233.79 usage: 196.34 residual: 110.31
mrth: 340.72 cth: 243.69 usage: 189.59 residual: 151.13
mrth: 198.54 cth: 177.87 usage: 103.61 residual: 94.93
mrth: 180.86 cth: 126.86 usage: 167.24 residual: 13.62
mrth: 137.43 cth: 108.37 usage: 121.48 residual: 15.95
mrth: 228.14 cth: 175.86 usage: 122.64 residual: 105.5
mrth: 190.41 cth: 163.49 usage: 120.73 residual: 69.68
mrth: 100.6 cth: 89.15 usage: 66.23 residual: 34.37
mrth: 280.8 cth: 209.72 usage: 265.28 residual: 15.52
mrth: 280.99 cth: 234.32 usage: 145.64 residual: 135.35
mrth: 341.62 cth: 273.54 usage: 198.28 residual: 143.34
mrth: 218.43 cth: 192.29 usage: 135.93 residual: 82.5
mrth: 298.41 cth: 268.1 usage: 149.38 residual: 149.03
mrth: 199.32 cth: 145.43 usage: 104.94 residual: 94.38
mrth: 236.06 cth: 170.8 usage: 140.37 residual: 95.69
mrth: 266.66 cth: 193.19 usage: 193.41 residual: 73.25
mrth: 249.14 cth: 214.84 usage: 195.61 residual: 53.53
mrth: 355.59 cth: 265.46 usage: 333.96 residual: 21.63
mrth: 107.73 cth: 87.37 usage: 67.56 residual: 40.17
mrth: 223.9 cth: 197.98 usage: 140.83 residual: 83.07
mrth: 291.63 cth: 226.04 usage: 280.9 residual: 10.73
mrth: 150.11 cth: 115.26 usage: 120.26 residual: 29.85
mrth: 173.72 cth: 128.38 usage: 103.02 residual: 70.7
mrth: 152.02 cth: 132.23 usage: 122.19 residual: 29.83
mrth: 161.64 cth: 144.18 usage: 128.91 residual: 32.73
mrth: 98.44 cth: 74.58 usage: 91.98 residual: 6.46
mrth: 254.51 cth: 184.18 usage: 238.33 residual: 16.18
mrth: 96.59 cth: 84.03 usage: 60.7 residual: 35.89
mrth: 73.4 cth: 59.44 usage: 48.63 residual: 24.77
mrth: 159.82 cth: 140.45 usage: 144.63 residual: 15.19
mrth: 82.13 cth: 68.85 usage: 48.0 residual: 34.13
mrth: 14.14 cth: 11.4 usage: 12.91 residual: 1.23
mrth: 172.33 cth: 136.72 usage: 126.13 residual: 46.2
mrth: 50.88 cth: 41.21 usage: 44.34 residual: 6.54
mrth: 347.36 cth: 294.99 usage: 176.74 residual: 170.62
mrth: 56.69 cth: 42.62 usage: 41.88 residual: 14.81
mrth: 366.72 cth: 290.34 usage: 252.71 residual: 114.01
mrth: 275.96 cth: 223.81 usage: 253.63 residual: 22.33
mrth: 212.37 cth: 165.83 usage: 137.46 residual: 74.91
mrth: 415.83 cth: 367.63 usage: 303.94 residual: 111.89
mrth: 217.13 cth: 158.93 usage: 186.57 residual: 30.56
mrth: 104.14 cth: 83.99 usage: 84.14 residual: 20.0
mrth: 148.23 cth: 133.23 usage: 76.55 residual: 71.68
mrth: 297.99 cth: 212.37 usage: 218.37 residual: 79.62
mrth: 283.21 cth: 210.13 usage: 142.95 residual: 140.26
mrth: 292.32 cth: 215.44 usage: 281.04 residual: 11.28
mrth: 73.29 cth: 52.08 usage: 42.45 residual: 30.84
mrth: 142.33 cth: 113.02 usage: 119.01 residual: 23.32
mrth: 159.58 cth: 133.75 usage: 136.62 residual: 22.96
mrth: 197.37 cth: 158.99 usage: 128.16 residual: 69.21
mrth: 253.52 cth: 203.51 usage: 200.49 residual: 53.03
mrth: 167.4 cth: 134.38 usage: 123.63 residual: 43.77
mrth: 260.7 cth: 219.38 usage: 160.59 residual: 100.11
mrth: 201.67 cth: 153.67 usage: 135.76 residual: 65.91
mrth: 361.79 cth: 311.86 usage: 355.24 residual: 6.55
mrth: 226.44 cth: 167.02 usage: 188.48 residual: 37.96
mrth: 167.21 cth: 120.29 usage: 159.54 residual: 7.67
mrth: 69.04 cth: 56.96 usage: 61.33 residual: 7.71
mrth: 164.79 cth: 117.22 usage: 83.76 residual: 81.03
mrth: 207.08 cth: 165.12 usage: 127.34 residual: 79.74
mrth: 153.12 cth: 112.36 usage: 120.9 residual: 32.22
mrth: 196.15 cth: 170.51 usage: 123.49 residual: 72.66
mrth: 135.85 cth: 102.62 usage: 86.78 residual: 49.07
mrth: 120.18 cth: 87.66 usage: 110.59 residual: 9.59
mrth: 186.64 cth: 133.34 usage: 144.88 residual: 41.76
mrth: 123.47 cth: 108.79 usage: 91.59 residual: 31.88
mrth: 50.54 cth: 45.37 usage: 34.67 residual: 15.87
mrth: 193.92 cth: 150.46 usage: 145.72 residual: 48.2
mrth: 381.97 cth: 313.18 usage: 312.82 residual: 69.15
mrth: 229.85 cth: 203.94 usage: 166.13 residual: 63.72
mrth: 513.53 cth: 430.0 usage: 282.53 residual: 231.0
mrth: 70.83 cth: 56.79 usage: 54.29 residual: 16.54
mrth: 205.48 cth: 163.5 usage: 162.71 residual: 42.77
mrth: 194.77 cth: 153.0 usage: 157.84 residual: 36.93
mrth: 659.47 cth: 494.79 usage: 405.44 residual: 254.03
mrth: 104.64 cth: 81.99 usage: 98.44 residual: 6.2
mrth: 58.85 cth: 47.36 usage: 30.0 residual: 28.85
mrth: 360.19 cth: 292.89 usage: 270.81 residual: 89.38
mrth: 231.42 cth: 165.07 usage: 199.47 residual: 31.95
mrth: 215.26 cth: 174.71 usage: 175.35 residual: 39.91
mrth: 363.92 cth: 263.28 usage: 205.84 residual: 158.08
mrth: 396.17 cth: 341.16 usage: 251.09 residual: 145.08
mrth: 334.74 cth: 300.57 usage: 201.03 residual: 133.71
mrth: 153.21 cth: 121.02 usage: 134.7 residual: 18.51
mrth: 104.64 cth: 78.59 usage: 61.09 residual: 43.55
mrth: 118.4 cth: 88.53 usage: 68.31 residual: 50.09
mrth: 218.23 cth: 158.82 usage: 162.35 residual: 55.88
mrth: 318.48 cth: 233.15 usage: 260.16 residual: 58.32
mrth: 136.57 cth: 118.04 usage: 103.41 residual: 33.16
mrth: 145.37 cth: 110.25 usage: 80.78 residual: 64.59
mrth: 178.74 cth: 156.4 usage: 134.61 residual: 44.13
mrth: 238.22 cth: 197.41 usage: 191.27 residual: 46.95
mrth: 188.3 cth: 149.91 usage: 127.73 residual: 60.57
mrth: 329.65 cth: 294.93 usage: 218.15 residual: 111.5
mrth: 452.8 cth: 343.0 usage: 287.38 residual: 165.42
mrth: 30.21 cth: 21.39 usage: 23.78 residual: 6.43
mrth: 147.55 cth: 114.14 usage: 74.76 residual: 72.79
mrth: 252.08 cth: 218.3 usage: 183.71 residual: 68.37
mrth: 103.61 cth: 82.14 usage: 82.44 residual: 21.17
mrth: 135.18 cth: 107.14 usage: 116.35 residual: 18.83
mrth: 201.34 cth: 179.93 usage: 119.47 residual: 81.87
mrth: 267.29 cth: 196.75 usage: 248.58 residual: 18.71
mrth: 23.27 cth: 19.15 usage: 12.2 residual: 11.07
mrth: 150.42 cth: 109.77 usage: 148.75 residual: 1.67
mrth: 112.37 cth: 87.06 usage: 72.49 residual: 39.88
mrth: 79.02 cth: 61.72 usage: 44.1 residual: 34.92
mrth: 280.99 cth: 214.95 usage: 185.16 residual: 95.83
mrth: 28.24 cth: 20.58 usage: 18.27 residual: 9.97
mrth: 98.78 cth: 86.83 usage: 88.25 residual: 10.53
mrth: 264.76 cth: 189.53 usage: 246.0 residual: 18.76
mrth: 267.83 cth: 221.26 usage: 194.78 residual: 73.05
mrth: 157.38 cth: 137.74 usage: 127.83 residual: 29.55
mrth: 297.29 cth: 218.94 usage: 164.4 residual: 132.89
mrth: 169.8 cth: 130.48 usage: 133.83 residual: 35.97
mrth: 21.87 cth: 16.7 usage: 20.36 residual: 1.51
mrth: 356.69 cth: 267.58 usage: 256.52 residual: 100.17
mrth: 285.05 cth: 256.36 usage: 160.32 residual: 124.73
mrth: 545.3 cth: 446.33 usage: 386.79 residual: 158.51
mrth: 101.37 cth: 82.12 usage: 98.95 residual: 2.42
mrth: 146.95 cth: 115.27 usage: 124.95 residual: 22.0
mrth: 88.09 cth: 62.32 usage: 80.86 residual: 7.23
mrth: 51.72 cth: 46.4 usage: 35.3 residual: 16.42
mrth: 253.3 cth: 225.19 usage: 231.14 residual: 22.16
mrth: 208.04 cth: 186.09 usage: 187.04 residual: 21.0
mrth: 468.97 cth: 338.46 usage: 302.64 residual: 166.33
mrth: 173.02 cth: 130.12 usage: 108.16 residual: 64.86
mrth: 143.19 cth: 126.45 usage: 138.91 residual: 4.28
