mrth: 346.88 cth: 251.22 usage: 238.1 residual: 108.78
mrth: 162.62 cth: 118.44 usage: 114.83 residual: 47.79
mrth: 163.69 cth: 139.87 usage: 95.7 residual: 67.99
mrth: 9.09 cth: 7.24 usage: 8.78 residual: 0.31
mrth: 109.9 cth: 93.47 usage: 57.1 residual: 52.8
mrth: 239.39 cth: 214.23 usage: 169.94 residual: 69.45
mrth: 83.99 cth: 68.75 usage: 69.31 residual: 14.68
mrth: 222.4 cth: 182.98 usage: 217.26 residual: 5.14
mrth: 76.42 cth: 62.03 usage: 52.12 residual: 24.3
mrth: 320.16 cth: 273.8 usage: 285.34 residual: 34.82
mrth: 123.88 cth: 102.07 usage: 119.98 residual: 3.9
mrth: 150.7 cth: 115.28 usage: 93.1 residual: 57.6
mrth: 156.29 cth: 128.59 usage: 111.31 residual: 44.98
mrth: 149.37 cth: 118.5 usage: 125.5 residual: 23.87
mrth: 77.97 cth: 62.6 usage: 70.05 residual: 7.92
mrth: 140.96 cth: 123.37 usage: 82.71 residual: 58.25
mrth: 353.51 cth: 273.67 usage: 256.14 residual: 97.37
mrth: 212.66 cth: 173.14 usage: 151.26 residual: 61.4
mrth: 182.65 cth: 143.94 usage: 102.81 residual: 79.84
mrth: 113.76 cth: 80.99 usage: 103.43 residual: 10.33
mrth: 174.06 cth: 135.33 usage: 144.9 residual: 29.16
mrth: 190.92 cth: 151.05 usage: 132.28 residual: 58.64
mrth: 338.1 cth: 261.2 usage: 242.74 residual: 95.36
mrth: 207.8 cth: 154.22 usage: 185.18 residual: 22.62
mrth: 264.34 cth: 222.22 usage: 255.81 residual: 8.53
mrth: 279.35 cth: 207.08 usage: 247.73 residual: 31.62
mrth: 113.44 cth: 84.46 usage: 82.8 residual: 30.64
mrth: 118.92 cth: 97.01 usage: 101.25 residual: 17.67
mrth: 374.88 cth: 269.59 usage: 235.84 residual: 139.04
mrth: 383.1 cth: 269.54 usage: 271.29 residual: 111.81
mrth: 122.92 cth: 107.41 usage: 92.28 residual: 30.64
mrth: 83.99 cth: 61.37 usage: 53.15 residual: 30.84
mrth: 106.47 cth: 76.02 usage: 104.99 residual: 1.48
mrth: 342.93 cth: 305.56 usage: 290.21 residual: 52.72
mrth: 315.51 cth: 267.81 usage: 193.05 residual: 122.46
mrth: 149.85 cth: 116.62 usage: 117.5 residual: 32.35
mrth: 103.35 cth: 81.52 usage: 52.56 residual: 50.79
mrth: 401.51 cth: 348.0 usage: 294.43 residual: 107.08
mrth: 230.36 cth: 187.27 usage: 218.02 residual: 12.34
mrth: 163.7 cth: 119.76 usage: 90.54 residual: 73.16
mrth: 231.19 cth: 165.58 usage: 152.84 residual: 78.35
mrth: 442.54 cth: 356.98 usage: 259.43 residual: 183.11
mrth: 222.13 cth: 176.46 usage: 121.05 residual: 101.08
mrth: 446.43 cth: 365.81 usage: 224.44 residual: 221.99
mrth: 411.26 cth: 309.3 usage: 407.19 residual: 4.07
mrth: 102.78 cth: 73.99 usage: 74.94 residual: 27.84
mrth: 23.65 cth: 17.68 usage: 16.58 residual: 7.07
mrth: 107.43 cth: 76.0 usage: 60.06 residual: 47.37
mrth: 379.75 cth: 305.92 usage: 316.86 residual: 62.89
mrth: 261.3 cth: 228.82 usage: 177.41 residual: 83.89
mrth: 192.81 cth: 147.81 usage: 116.43 residual: 76.38
mrth: 68.08 cth: 57.68 usage: 59.04 residual: 9.04
mrth: 269.11 cth: 216.37 usage: 171.65 residual: 97.46
mrth: 177.27 cth: 147.24 usage: 137.16 residual: 40.11
mrth: 166.5 cth: 124.88 usage: 162.18 residual: 4.32
mrth: 160.97 cth: 119.34 usage: 90.38 residual: 70.59
mrth: 373.26 cth: 313.2 usage: 278.35 residual: 94.91
mrth: 148.08 cth: 118.24 usage: 125.53 residual: 22.55
mrth: 93.67 cth: 70.59 usage: 83.78 residual: 9.89
mrth: 409.74 cth: 338.47 usage: 253.23 residual: 156.51
mrth: 53.54 cth: 45.57 usage: 44.97 residual: 8.57
mrth: 260.5 cth: 204.18 usage: 203.78 residual: 56.72
mrth: 212.73 cth: 161.22 usage: 183.01 residual: 29.72
mrth: 187.89 cth: 150.27 usage: 103.83 residual: 84.06
mrth: 188.11 cth: 151.57 usage: 140.1 residual: 48.01
mrth: 283.77 cth: 233.42 usage: 215.54 residual: 68.23
mrth: 231.57 cth: 205.08 usage: 190.02 residual: 41.55
mrth: 110.76 cth: 96.6 usage: 66.62 residual: 44.14
mrth: 194.66 cth: 158.16 usage: 191.26 residual: 3.4
mrth: 178.22 cth: 158.21 usage: 114.52 residual: 63.7
mrth: 298.22 cth: 243.44 usage: 149.71 residual: 148.51
mrth: 113.83 cth: 81.12 usage: 98.5 residual: 15.33
mrth: 344.14 cth: 250.09 usage: 298.79 residual: 45.35
mrth: 96.76 cth: 74.1 usage: 89.25 residual: 7.51
mrth: 324.83 cth: 259.89 usage: 197.63 residual: 127.2
mrth: 120.45 cth: 87.89 usage: 72.41 residual: 48.04
mrth: 202.95 cth: 176.8 usage: 142.84 residual: 60.11
mrth: 1.98 cth: 1.42 usage: 1.5 residual: 0.48
mrth: 174.25 cth: 147.45 usage: 101.27 residual: 72.98
mrth: 223.54 cth: 176.09 usage: 204.71 residual: 18.83
mrth: 383.14 cth: 273.31 usage: 370.95 residual: 12.19
mrth: 339.23 cth: 266.47 usage: 211.3 residual: 127.93
mrth: 203.41 cth: 176.6 usage: 122.22 residual: 81.19
mrth: 272.81 cth: 216.89 usage: 254.9 residual: 17.91
mrth: 149.63 cth: 131.39 usage: 75.76 residual: 73.87
mrth: 78.64 cth: 63.55 usage: 54.02 residual: 24.62
mrth: 64.46 cth: 55.08 usage: 35.71 residual: 28.75
mrth: 134.78 cth: 109.39 usage: 130.58 residual: 4.2
mrth: 208.04 cth: 165.4 usage: 153.75 residual: 54.29
mrth: 182.81 cth: 151.79 usage: 167.38 residual: 15.43
mrth: 176.78 cth: 126.06 usage: 94.7 residual: 82.08
mrth: 561.2 cth: 423.77 usage: 522.13 residual: 39.07
mrth: 315.39 cth: 228.3 usage: 299.06 residual: 16.33
mrth: 206.33 cth: 167.53 usage: 198.89 residual: 7.44
mrth: 284.39 cth: 206.77 usage: 253.21 residual: 31.18
mrth: 221.21 cth: 168.26 usage: 160.05 residual: 61.16
mrth: 122.2 cth: 86.08 usage: 83.92 residual: 38.28
mrth: 199.12 cth: 145.49 usage: 114.83 residual: 84.29
mrth: 76.17 cth: 58.26 usage: 57.85 residual: 18.32
mrth: 112.42 cth: 84.37 usage: 90.32 residual: 22.1
mrth: 114.17 cth: 98.52 usage: 69.94 residual: 44.23
mrth: 89.34 cth: 70.08 usage: 57.46 residual: 31.88
mrth: 224.04 cth: 168.28 usage: 144.97 residual: 79.07
mrth: 187.15 cth: 152.61 usage: 155.75 residual: 31.4
mrth: 164.37 cth: 143.84 usage: 120.23 residual: 44.14
mrth: 131.27 cth: 102.04 usage: 104.55 residual: 26.72
mrth: 310.33 cth: 244.24 usage: 304.86 residual: 5.47
mrth: 48.9 cth: 38.25 usage: 34.18 residual: 14.72
mrth: 186.49 cth: 163.85 usage: 162.02 residual: 24.47
mrth: 290.04 cth: 249.63 usage: 271.93 residual: 18.11
mrth: 213.15 cth: 176.88 usage: 144.24 residual: 68.91
mrth: 103.9 cth: 88.44 usage: 99.36 residual: 4.54
mrth: 52.86 cth: 41.91 usage: 31.08 residual: 21.78
mrth: 231.03 cth: 164.01 usage: 151.28 residual: 79.75
mrth: 213.78 cth: 191.03 usage: 166.02 residual: 47.76
mrth: 138.59 cth: 121.55 usage: 106.7 residual: 31.89
mrth: 255.98 cth: 208.79 usage: 148.0 residual: 107.98
mrth: 228.31 cth: 199.42 usage: 177.51 residual: 50.8
mrth: 238.44 cth: 178.25 usage: 175.44 residual: 63.0
mrth: 265.9 cth: 216.46 usage: 144.6 residual: 121.3
mrth: 243.29 cth: 205.61 usage: 210.68 residual: 32.61
mrth: 430.17 cth: 343.69 usage: 260.39 residual: 169.78
mrth: 353.51 cth: 267.68 usage: 276.35 residual: 77.16
mrth: 188.82 cth: 156.36 usage: 182.65 residual: 6.17
mrth: 136.43 cth: 101.18 usage: 86.54 residual: 49.89
mrth: 381.24 cth: 337.02 usage: 216.95 residual: 164.29
mrth: 193.07 cth: 158.66 usage: 141.75 residual: 51.32
mrth: 206.88 cth: 150.49 usage: 107.28 residual: 99.6
mrth: 211.04 cth: 155.93 usage: 195.14 residual: 15.9
mrth: 85.45 cth: 64.66 usage: 55.45 residual: 30.0
mrth: 223.09 cth: 190.78 usage: 173.12 residual: 49.97
mrth: 396.88 cth: 305.28 usage: 364.26 residual: 32.62
mrth: 282.1 cth: 229.06 usage: 212.56 residual: 69.54
mrth: 255.28 cth: 182.43 usage: 133.64 residual: 121.64
mrth: 137.87 cth: 118.45 usage: 109.47 residual: 28.4
mrth: 238.58 cth: 202.99 usage: 186.34 residual: 52.24
mrth: 187.42 cth: 153.18 usage: 154.75 residual: 32.67
mrth: 175.26 cth: 155.89 usage: 146.54 residual: 28.72
mrth: 54.1 cth: 42.31 usage: 49.31 residual: 4.79
mrth: 427.71 cth: 321.61 usage: 312.54 residual: 115.17
mrth: 85.34 cth: 73.46 usage: 56.22 residual: 29.12
mrth: 54.76 cth: 40.18 usage: 38.63 residual: 16.13
mrth: 364.08 cth: 266.17 usage: 264.06 residual: 100.02
mrth: 113.23 cth: 95.19 usage: 96.84 residual: 16.39
mrth: 89.8 cth: 74.46 usage: 79.16 residual: 10.64
mrth: 196.5 cth: 149.34 usage: 159.85 residual: 36.65
mrth: 172.94 cth: 143.4 usage: 151.54 residual: 21.4
mrth: 309.06 cth: 231.04 usage: 194.57 residual: 114.49
mrth: 243.27 cth: 181.5 usage: 234.17 residual: 9.1
mrth: 137.25 cth: 117.13 usage: 74.37 residual: 62.88
mrth: 184.69 cth: 131.82 usage: 136.03 residual: 48.66
mrth: 75.96 cth: 65.08 usage: 53.59 residual: 22.37
mrth: 402.68 cth: 341.4 usage: 278.19 residual: 124.49
mrth: 171.29 cth: 139.68 usage: 156.69 residual: 14.6
mrth: 268.23 cth: 209.75 usage: 153.07 residual: 115.16
mrth: 92.41 cth: 79.33 usage: 51.17 residual: 41.24
mrth: 179.78 cth: 138.57 usage: 171.96 residual: 7.82
mrth: 141.63 cth: 115.4 usage: 73.02 residual: 68.61
mrth: 290.98 cth: 216.66 usage: 243.75 residual: 47.23
mrth: 157.27 cth: 124.89 usage: 148.94 residual: 8.33
mrth: 126.36 cth: 102.19 usage: 72.13 residual: 54.23
mrth: 328.9 cth: 276.8 usage: 286.28 residual: 42.62
mrth: 220.95 cth: 164.56 usage: 187.42 residual: 33.53
mrth: 69.9 cth: 62.6 usage: 56.63 residual: 13.27
mrth: 109.41 cth: 81.25 usage: 80.08 residual: 29.33
mrth: 273.32 cth: 243.16 usage: 184.94 residual: 88.38
mrth: 271.76 cth: 194.14 usage: 260.78 residual: 10.98
mrth: 55.02 cth: 48.77 usage: 38.08 residual: 16.94
mrth: 82.67 cth: 69.57 usage: 51.05 residual: 31.62
mrth: 240.2 cth: 198.92 usage: 219.97 residual: 20.23
mrth: 102.85 cth: 91.8 usage: 95.93 residual: 6.92
mrth: 28.45 cth: 23.63 usage: 14.42 residual: 14.03
mrth: 351.09 cth: 289.71 usage: 215.69 residual: 135.4
mrth: 262.87 cth: 229.76 usage: 147.34 residual: 115.53
mrth: 348.75 cth: 255.3 usage: 344.8 residual: 3.95
mrth: 122.75 cth: 86.42 usage: 121.64 residual: 1.11
mrth: 151.55 cth: 108.71 usage: 115.8 residual: 35.75
mrth: 149.1 cth: 128.34 usage: 124.61 residual: 24.49
mrth: 228.66 cth: 183.29 usage: 185.73 residual: 42.93
mrth: 227.63 cth: 196.56 usage: 130.69 residual: 96.94
mrth: 457.5 cth: 379.69 usage: 253.99 residual: 203.51
mrth: 232.12 cth: 197.66 usage: 180.99 residual: 51.13
mrth: 309.98 cth: 236.13 usage: 217.96 residual: 92.02
mrth: 310.98 cth: 245.76 usage: 160.63 residual: 150.35
mrth: 213.26 cth: 184.88 usage: 207.03 residual: 6.23
mrth: 343.79 cth: 293.4 usage: 199.06 residual: 144.73
mrth: 122.85 cth: 89.16 usage: 83.56 residual: 39.29
mrth: 113.62 cth: 83.84 usage: 74.11 residual: 39.51
mrth: 152.96 cth: 108.74 usage: 119.83 residual: 33.13
mrth: 28.29 cth: 23.19 usage: 16.91 residual: 11.38
mrth: 192.14 cth: 165.41 usage: 179.81 residual: 12.33
mrth: 238.01 cth: 208.3 usage: 193.76 residual: 44.25
mrth: 104.28 cth: 85.28 usage: 55.48 residual: 48.8
mrth: 295.48 cth: 221.41 usage: 149.93 residual: 145.55
mrth: 252.4 cth: 218.46 usage: 139.9 residual: 112.5
mrth: 124.14 cth: 98.45 usage: 89.86 residual: 34.28
mrth: 222.66 cth: 200.33 usage: 129.44 residual: 93.22
mrth: 393.68 cth: 338.7 usage: 240.45 residual: 153.23
mrth: 584.82 cth: 421.36 usage: 529.66 residual: 55.16
mrth: 175.42 cth: 146.54 usage: 92.34 residual: 83.08
mrth: 104.78 cth: 87.4 usage: 86.05 residual: 18.73
mrth: 49.3 cth: 36.83 usage: 27.6 residual: 21.7
mrth: 78.89 cth: 66.6 usage: 74.11 residual: 4.78
mrth: 215.96 cth: 152.99 usage: 135.36 residual: 80.6
mrth: 72.88 cth: 59.5 usage: 40.61 residual: 32.27
mrth: 158.81 cth: 119.03 usage: 89.41 residual: 69.4
mrth: 261.3 cth: 218.31 usage: 146.28 residual: 115.02
mrth: 313.92 cth: 236.78 usage: 279.11 residual: 34.81
mrth: 108.11 cth: 75.85 usage: 62.65 residual: 45.46
mrth: 111.71 cth: 97.72 usage: 88.12 residual: 23.59
mrth: 232.6 cth: 197.36 usage: 205.8 residual: 26.8
mrth: 94.85 cth: 78.96 usage: 59.22 residual: 35.63
mrth: 109.76 cth: 82.03 usage: 82.44 residual: 27.32
mrth: 76.3 cth: 58.29 usage: 56.28 residual: 20.02
mrth: 164.79 cth: 127.03 usage: 109.44 residual: 55.35
mrth: 184.44 cth: 145.71 usage: 154.47 residual: 29.97
mrth: 272.52 cth: 240.59 usage: 272.09 residual: 0.43
mrth: 162.86 cth: 143.42 usage: 95.84 residual: 67.02
mrth: 92.76 cth: 76.65 usage: 62.02 residual: 30.74
mrth: 189.5 cth: 140.05 usage: 144.74 residual: 44.76
mrth: 283.4 cth: 249.62 usage: 151.65 residual: 131.75
mrth: 116.52 cth: 81.93 usage: 112.54 residual: 3.98
mrth: 198.82 cth: 152.5 usage: 100.31 residual: 98.51
mrth: 94.48 cth: 80.47 usage: 83.47 residual: 11.01
mrth: 86.9 cth: 65.62 usage: 86.53 residual: 0.37
mrth: 229.76 cth: 184.78 usage: 219.02 residual: 10.74
mrth: 24.76 cth: 19.37 usage: 19.97 residual: 4.79
mrth: 182.3 cth: 158.35 usage: 167.54 residual: 14.76
mrth: 86.02 cth: 70.77 usage: 61.6 residual: 24.42
mrth: 371.58 cth: 298.96 usage: 307.37 residual: 64.21
mrth: 271.27 cth: 207.54 usage: 209.24 residual: 62.03
mrth: 126.03 cth: 101.12 usage: 115.02 residual: 11.01
mrth: 146.15 cth: 122.0 usage: 122.81 residual: 23.34
mrth: 208.7 cth: 170.19 usage: 127.1 residual: 81.6
mrth: 200.64 cth: 169.77 usage: 177.83 residual: 22.81
mrth: 185.26 cth: 150.31 usage: 130.59 residual: 54.67
mrth: 494.71 cth: 381.87 usage: 346.09 residual: 148.62
mrth: 164.12 cth: 123.72 usage: 153.61 residual: 10.51
mrth: 191.25 cth: 144.57 usage: 118.98 residual: 72.27
mrth: 281.18 cth: 214.16 usage: 218.73 residual: 62.45
mrth: 135.86 cth: 117.92 usage: 68.22 residual: 67.64
mrth: 109.59 cth: 92.68 usage: 67.11 residual: 42.48
mrth: 82.27 cth: 58.46 usage: 74.28 residual: 7.99
mrth: 176.12 cth: 125.97 usage: 98.99 residual: 77.13
mrth: 275.74 cth: 202.25 usage: 150.64 residual: 125.1
mrth: 220.96 cth: 192.11 usage: 147.49 residual: 73.47
mrth: 96.52 cth: 68.62 usage: 70.69 residual: 25.83
mrth: 218.49 cth: 182.62 usage: 113.4 residual: 105.09
mrth: 300.88 cth: 215.83 usage: 178.65 residual: 122.23
mrth: 370.79 cth: 324.94 usage: 274.7 residual: 96.09
mrth: 127.6 cth: 111.02 usage: 95.47 residual: 32.13
mrth: 98.87 cth: 71.78 usage: 84.75 residual: 14.12
mrth: 85.66 cth: 64.8 usage: 80.93 residual: 4.73
mrth: 228.13 cth: 186.24 usage: 152.54 residual: 75.59
mrth: 178.65 cth: 143.47 usage: 97.82 residual: 80.83
mrth: 102.37 cth: 75.88 usage: 71.27 residual: 31.1
mrth: 177.62 cth: 151.02 usage: 149.45 residual: 28.17
mrth: 87.48 cth: 66.69 usage: 56.99 residual: 30.49
mrth: 443.94 cth: 377.77 usage: 332.21 residual: 111.73
mrth: 392.48 cth: 311.6 usage: 275.72 residual: 116.76
mrth: 35.29 cth: 28.2 usage: 26.99 residual: 8.3
mrth: 75.16 cth: 53.78 usage: 54.47 residual: 20.69
mrth: 202.43 cth: 143.58 usage: 173.83 residual: 28.6
mrth: 118.82 cth: 87.81 usage: 115.93 residual: 2.89
mrth: 71.0 cth: 57.32 usage: 61.24 residual: 9.76
mrth: 200.11 cth: 166.58 usage: 120.91 residual: 79.2
mrth: 259.25 cth: 217.71 usage: 163.24 residual: 96.01
mrth: 188.1 cth: 155.59 usage: 100.91 residual: 87.19
mrth: 232.0 cth: 178.91 usage: 162.17 residual: 69.83
mrth: 24.71 cth: 21.02 usage: 15.95 residual: 8.76
mrth: 294.84 cth: 224.43 usage: 148.67 residual: 146.17
mrth: 120.22 cth: 93.8 usage: 71.44 residual: 48.78
mrth: 327.62 cth: 246.14 usage: 311.23 residual: 16.39
mrth: 139.86 cth: 117.71 usage: 107.45 residual: 32.41
mrth: 191.58 cth: 135.89 usage: 114.79 residual: 76.79
mrth: 91.29 cth: 70.72 usage: 77.76 residual: 13.53
mrth: 73.48 cth: 51.86 usage: 38.97 residual: 34.51
mrth: 120.76 cth: 97.93 usage: 62.42 residual: 58.34
mrth: 222.68 cth: 190.53 usage: 201.37 residual: 21.31
mrth: 269.09 cth: 188.96 usage: 223.34 residual: 45.75
mrth: 205.33 cth: 144.44 usage: 105.69 residual: 99.64
mrth: 70.31 cth: 57.69 usage: 45.32 residual: 24.99
mrth: 168.36 cth: 123.03 usage: 164.31 residual: 4.05
mrth: 321.01 cth: 274.5 usage: 316.21 residual: 4.8
mrth: 429.5 cth: 335.37 usage: 427.11 residual: 2.39
mrth: 149.12 cth: 115.56 usage: 88.36 residual: 60.76
mrth: 74.03 cth: 57.38 usage: 38.71 residual: 35.32
mrth: 13.04 cth: 9.24 usage: 10.3 residual: 2.74
mrth: 59.81 cth: 46.99 usage: 45.08 residual: 14.73
mrth: 131.72 cth: 97.51 usage: 115.34 residual: 16.38
mrth: 166.76 cth: 124.42 usage: 84.77 residual: 81.99
mrth: 303.1 cth: 217.2 usage: 259.88 residual: 43.22
mrth: 114.22 cth: 102.38 usage: 73.85 residual: 40.37
mrth: 438.48 cth: 389.62 usage: 419.28 residual: 19.2
mrth: 285.26 cth: 247.75 usage: 161.87 residual: 123.39
mrth: 253.72 cth: 206.93 usage: 132.61 residual: 121.11
mrth: 184.54 cth: 144.79 usage: 126.38 residual: 58.16
mrth: 292.47 cth: 241.64 usage: 155.52 residual: 136.95
mrth: 116.03 cth: 82.69 usage: 107.21 residual: 8.82
mrth: 138.7 cth: 106.78 usage: 86.86 residual: 51.84
mrth: 162.88 cth: 124.61 usage: 88.61 residual: 74.27
mrth: 265.45 cth: 233.97 usage: 204.78 residual: 60.67
mrth: 196.92 cth: 174.54 usage: 98.52 residual: 98.4
mrth: 269.41 cth: 194.94 usage: 172.53 residual: 96.88
mrth: 145.08 cth: 117.47 usage: 104.03 residual: 41.05
mrth: 170.8 cth: 143.54 usage: 126.9 residual: 43.9
mrth: 292.65 cth: 207.44 usage: 260.49 residual: 32.16
mrth: 314.63 cth: 257.34 usage: 233.42 residual: 81.21
mrth: 111.04 cth: 80.03 usage: 108.76 residual: 2.28
mrth: 122.18 cth: 96.41 usage: 89.83 residual: 32.35
mrth: 16.6 cth: 14.46 usage: 15.46 residual: 1.14
mrth: 129.43 cth: 92.95 usage: 75.1 residual: 54.33
mrth: 184.74 cth: 136.01 usage: 165.38 residual: 19.36
mrth: 350.34 cth: 267.09 usage: 268.86 residual: 81.48
mrth: 155.94 cth: 129.92 usage: 141.58 residual: 14.36
mrth: 128.53 cth: 103.37 usage: 102.9 residual: 25.63
mrth: 203.91 cth: 162.04 usage: 174.3 residual: 29.61
mrth: 270.29 cth: 220.21 usage: 184.48 residual: 85.81
mrth: 167.22 cth: 132.27 usage: 125.59 residual: 41.63
mrth: 170.23 cth: 149.37 usage: 145.71 residual: 24.52
mrth: 202.31 cth: 158.26 usage: 161.62 residual: 40.69
mrth: 107.67 cth: 83.16 usage: 73.59 residual: 34.08
mrth: 224.84 cth: 180.88 usage: 204.27 residual: 20.57
mrth: 64.58 cth: 53.67 usage: 43.91 residual: 20.67
mrth: 51.06 cth: 43.94 usage: 31.01 residual: 20.05
mrth: 102.54 cth: 74.74 usage: 56.3 residual: 46.24
mrth: 318.68 cth: 249.94 usage: 254.51 residual: 64.17
mrth: 214.64 cth: 192.22 usage: 180.95 residual: 33.69
mrth: 154.2 cth: 135.89 usage: 107.69 residual: 46.51
mrth: 95.85 cth: 75.31 usage: 77.62 residual: 18.23
mrth: 45.54 cth: 38.22 usage: 45.28 residual: 0.26
mrth: 224.85 cth: 181.35 usage: 197.72 residual: 27.13
mrth: 221.88 cth: 170.99 usage: 191.74 residual: 30.14
mrth: 281.93 cth: 220.49 usage: 219.98 residual: 61.95
mrth: 208.61 cth: 181.11 usage: 148.39 residual: 60.22
mrth: 269.69 cth: 207.46 usage: 148.38 residual: 121.31
mrth: 137.88 cth: 114.84 usage: 135.1 residual: 2.78
mrth: 186.16 cth: 132.56 usage: 158.61 residual: 27.55
mrth: 232.43 cth: 183.98 usage: 189.36 residual: 43.07
mrth: 182.23 cth: 155.22 usage: 119.02 residual: 63.21
mrth: 196.96 cth: 161.35 usage: 110.17 residual: 86.79
mrth: 148.32 cth: 109.5 usage: 100.78 residual: 47.54
mrth: 175.12 cth: 124.01 usage: 153.14 residual: 21.98
mrth: 356.23 cth: 269.59 usage: 287.66 residual: 68.57
mrth: 77.03 cth: 54.47 usage: 62.6 residual: 14.43
mrth: 327.68 cth: 265.1 usage: 241.52 residual: 86.16
mrth: 189.78 cth: 152.8 usage: 183.34 residual: 6.44
mrth: 306.53 cth: 255.55 usage: 236.03 residual: 70.5
mrth: 81.93 cth: 72.61 usage: 78.14 residual: 3.79
mrth: 14.08 cth: 12.48 usage: 8.45 residual: 5.63
mrth: 341.15 cth: 293.46 usage: 190.29 residual: 150.86
mrth: 122.72 cth: 89.53 usage: 70.22 residual: 52.5
mrth: 421.37 cth: 307.87 usage: 224.94 residual: 196.43
mrth: 472.33 cth: 364.25 usage: 436.15 residual: 36.18
mrth: 77.37 cth: 61.49 usage: 46.65 residual: 30.72
mrth: 293.51 cth: 222.04 usage: 179.11 residual: 114.4
mrth: 318.91 cth: 275.57 usage: 251.29 residual: 67.62
mrth: 313.25 cth: 266.73 usage: 241.46 residual: 71.79
mrth: 199.95 cth: 143.46 usage: 183.38 residual: 16.57
mrth: 79.46 cth: 57.5 usage: 49.71 residual: 29.75
mrth: 208.55 cth: 171.91 usage: 117.9 residual: 90.65
mrth: 272.41 cth: 243.28 usage: 190.83 residual: 81.58
mrth: 321.23 cth: 234.94 usage: 236.74 residual: 84.49
mrth: 109.91 cth: 92.66 usage: 92.19 residual: 17.72
mrth: 158.54 cth: 121.8 usage: 122.26 residual: 36.28
mrth: 164.32 cth: 120.97 usage: 146.27 residual: 18.05
mrth: 140.52 cth: 99.92 usage: 127.23 residual: 13.29
mrth: 219.97 cth: 184.33 usage: 112.09 residual: 107.88
mrth: 232.16 cth: 167.56 usage: 224.89 residual: 7.27
mrth: 244.18 cth: 188.13 usage: 160.23 residual: 83.95
mrth: 243.29 cth: 177.76 usage: 215.13 residual: 28.16
mrth: 222.61 cth: 177.52 usage: 170.41 residual: 52.2
mrth: 330.98 cth: 257.3 usage: 316.92 residual: 14.06
mrth: 157.89 cth: 122.24 usage: 140.4 residual: 17.49
mrth: 80.61 cth: 57.39 usage: 43.07 residual: 37.54
mrth: 24.61 cth: 21.01 usage: 17.07 residual: 7.54
mrth: 69.33 cth: 60.7 usage: 41.54 residual: 27.79
mrth: 187.97 cth: 141.46 usage: 114.35 residual: 73.62
mrth: 86.85 cth: 62.49 usage: 82.71 residual: 4.14
mrth: 251.17 cth: 190.06 usage: 249.98 residual: 1.19
mrth: 146.22 cth: 107.09 usage: 91.43 residual: 54.79
mrth: 211.05 cth: 181.88 usage: 156.98 residual: 54.07
mrth: 293.22 cth: 219.91 usage: 278.1 residual: 15.12
mrth: 343.35 cth: 251.59 usage: 305.77 residual: 37.58
mrth: 40.19 cth: 31.18 usage: 35.8 residual: 4.39
mrth: 145.78 cth: 105.87 usage: 113.85 residual: 31.93
mrth: 228.89 cth: 187.11 usage: 228.41 residual: 0.48
mrth: 153.32 cth: 117.16 usage: 99.2 residual: 54.12
mrth: 185.94 cth: 157.43 usage: 134.99 residual: 50.95
mrth: 97.57 cth: 82.6 usage: 67.9 residual: 29.67
mrth: 242.02 cth: 212.86 usage: 228.77 residual: 13.25
mrth: 213.07 cth: 184.14 usage: 193.75 residual: 19.32
mrth: 146.0 cth: 112.92 usage: 88.7 residual: 57.3
mrth: 228.65 cth: 185.13 usage: 224.97 residual: 3.68
mrth: 327.48 cth: 276.55 usage: 212.59 residual: 114.89
mrth: 143.33 cth: 102.66 usage: 77.63 residual: 65.7
mrth: 180.14 cth: 144.37 usage: 124.7 residual: 55.44
mrth: 309.25 cth: 270.55 usage: 196.58 residual: 112.67
mrth: 285.71 cth: 244.61 usage: 199.06 residual: 86.65
mrth: 44.43 cth: 38.48 usage: 36.97 residual: 7.46
mrth: 99.76 cth: 83.86 usage: 79.2 residual: 20.56
mrth: 186.06 cth: 131.22 usage: 158.8 residual: 27.26
mrth: 192.45 cth: 170.95 usage: 156.93 residual: 35.52
mrth: 284.22 cth: 250.24 usage: 169.03 residual: 115.19
mrth: 202.89 cth: 178.24 usage: 161.27 residual: 41.62
mrth: 238.46 cth: 166.93 usage: 190.28 residual: 48.18
mrth: 325.74 cth: 263.17 usage: 253.23 residual: 72.51
mrth: 326.08 cth: 288.87 usage: 200.21 residual: 125.87
mrth: 297.63 cth: 247.07 usage: 244.6 residual: 53.03
mrth: 274.83 cth: 222.07 usage: 269.44 residual: 5.39
mrth: 145.5 cth: 104.29 usage: 80.78 residual: 64.72
mrth: 286.63 cth: 203.41 usage: 205.75 residual: 80.88
mrth: 214.08 cth: 160.4 usage: 141.61 residual: 72.47
mrth: 325.74 cth: 270.82 usage: 301.61 residual: 24.13
mrth: 191.37 cth: 144.65 usage: 121.9 residual: 69.47
mrth: 226.42 cth: 175.42 usage: 167.66 residual: 58.76
mrth: 192.51 cth: 143.84 usage: 171.81 residual: 20.7
mrth: 85.02 cth: 73.66 usage: 74.02 residual: 11.0
mrth: 211.25 cth: 152.8 usage: 161.66 residual: 49.59
mrth: 173.72 cth: 140.26 usage: 126.1 residual: 47.62
mrth: 200.85 cth: 155.54 usage: 178.74 residual: 22.11
mrth: 153.48 cth: 135.1 usage: 143.0 residual: 10.48
mrth: 141.24 cth: 111.47 usage: 83.05 residual: 58.19
mrth: 249.53 cth: 220.71 usage: 216.58 residual: 32.95
mrth: 192.41 cth: 163.62 usage: 181.98 residual: 10.43
mrth: 194.02 cth: 172.75 usage: 149.7 residual: 44.32
mrth: 47.07 cth: 39.09 usage: 29.2 residual: 17.87
mrth: 355.9 cth: 306.8 usage: 335.95 residual: 19.95
mrth: 97.13 cth: 78.67 usage: 86.83 residual: 10.3
mrth: 327.77 cth: 250.2 usage: 213.48 residual: 114.29
mrth: 27.13 cth: 19.96 usage: 21.58 residual: 5.55
mrth: 189.93 cth: 142.95 usage: 120.61 residual: 69.32
mrth: 168.75 cth: 139.78 usage: 88.96 residual: 79.79
mrth: 214.75 cth: 185.22 usage: 113.9 residual: 100.85
mrth: 324.56 cth: 230.3 usage: 203.97 residual: 120.59
mrth: 271.24 cth: 207.12 usage: 152.54 residual: 118.7
mrth: 144.99 cth: 104.06 usage: 131.36 residual: 13.63
mrth: 66.64 cth: 47.23 usage: 61.33 residual: 5.31
mrth: 65.27 cth: 52.6 usage: 59.32 residual: 5.95
mrth: 214.6 cth: 190.21 usage: 132.81 residual: 81.79
mrth: 313.96 cth: 254.67 usage: 206.0 residual: 107.96
mrth: 253.04 cth: 195.81 usage: 168.69 residual: 84.35
mrth: 245.34 cth: 198.92 usage: 239.26 residual: 6.08
mrth: 201.07 cth: 168.79 usage: 120.75 residual: 80.32
mrth: 216.49 cth: 181.28 usage: 115.88 residual: 100.61
mrth: 53.59 cth: 37.53 usage: 30.67 residual: 22.92
mrth: 138.98 cth: 124.96 usage: 90.78 residual: 48.2
mrth: 240.82 cth: 173.54 usage: 237.92 residual: 2.9
mrth: 120.63 cth: 93.12 usage: 91.07 residual: 29.56
mrth: 231.34 cth: 187.15 usage: 197.38 residual: 33.96
mrth: 112.63 cth: 78.85 usage: 110.37 residual: 2.26
mrth: 189.08 cth: 154.44 usage: 148.07 residual: 41.01
mrth: 82.17 cth: 69.29 usage: 76.94 residual: 5.23
mrth: 30.11 cth: 25.71 usage: 23.46 residual: 6.65
mrth: 290.07 cth: 214.27 usage: 166.09 residual: 123.98
mrth: 120.23 cth: 107.16 usage: 98.04 residual: 22.19
mrth: 286.18 cth: 205.28 usage: 277.45 residual: 8.73
mrth: 102.91 cth: 85.15 usage: 52.76 residual: 50.15
mrth: 124.82 cth: 90.29 usage: 86.85 residual: 37.97
mrth: 244.58 cth: 173.29 usage: 203.83 residual: 40.75
mrth: 238.63 cth: 206.01 usage: 225.77 residual: 12.86
mrth: 121.53 cth: 109.38 usage: 77.65 residual: 43.88
mrth: 248.75 cth: 223.68 usage: 192.69 residual: 56.06
mrth: 136.03 cth: 109.32 usage: 97.85 residual: 38.18
mrth: 112.6 cth: 100.15 usage: 66.08 residual: 46.52
mrth: 159.27 cth: 124.7 usage: 149.68 residual: 9.59
mrth: 179.9 cth: 160.14 usage: 123.58 residual: 56.32
mrth: 114.26 cth: 83.23 usage: 90.9 residual: 23.36
mrth: 22.89 cth: 16.64 usage: 19.52 residual: 3.37
mrth: 279.79 cth: 251.61 usage: 142.13 residual: 137.66
mrth: 184.75 cth: 159.43 usage: 112.63 residual: 72.12
mrth: 234.68 cth: 178.14 usage: 196.84 residual: 37.84
mrth: 119.3 cth: 107.27 usage: 62.91 residual: 56.39
mrth: 80.33 cth: 70.12 usage: 47.01 residual: 33.32
mrth: 207.59 cth: 145.54 usage: 161.67 residual: 45.92
mrth: 163.72 cth: 124.64 usage: 104.45 residual: 59.27
mrth: 376.19 cth: 330.95 usage: 290.77 residual: 85.42
mrth: 350.79 cth: 268.96 usage: 306.92 residual: 43.87
mrth: 157.12 cth: 136.64 usage: 108.1 residual: 49.02
mrth: 144.5 cth: 103.56 usage: 97.77 residual: 46.73
mrth: 60.92 cth: 50.59 usage: 55.55 residual: 5.37
mrth: 158.59 cth: 141.8 usage: 106.11 residual: 52.48
mrth: 214.92 cth: 174.48 usage: 207.55 residual: 7.37
mrth: 71.4 cth: 50.84 usage: 50.46 residual: 20.94
mrth: 257.44 cth: 188.97 usage: 240.02 residual: 17.42
mrth: 274.23 cth: 213.53 usage: 182.57 residual: 91.66
mrth: 106.7 cth: 91.02 usage: 87.87 residual: 18.83
mrth: 362.34 cth: 310.8 usage: 293.44 residual: 68.9
mrth: 349.27 cth: 290.66 usage: 259.09 residual: 90.18
mrth: 228.28 cth: 204.64 usage: 224.53 residual: 3.75
mrth: 125.53 cth: 100.04 usage: 64.46 residual: 61.07
mrth: 197.38 cth: 153.8 usage: 144.19 residual: 53.19
mrth: 361.97 cth: 274.0 usage: 287.58 residual: 74.39
mrth: 202.49 cth: 163.31 usage: 104.73 residual: 97.76
mrth: 105.45 cth: 93.84 usage: 87.95 residual: 17.5
mrth: 47.19 cth: 41.05 usage: 30.28 residual: 16.91
mrth: 158.27 cth: 141.09 usage: 82.47 residual: 75.8
mrth: 60.97 cth: 43.43 usage: 50.56 residual: 10.41
mrth: 194.42 cth: 172.01 usage: 191.56 residual: 2.86
mrth: 181.38 cth: 151.89 usage: 108.49 residual: 72.89
mrth: 292.49 cth: 243.23 usage: 171.75 residual: 120.74
mrth: 380.59 cth: 294.28 usage: 349.81 residual: 30.78
mrth: 200.92 cth: 162.61 usage: 188.56 residual: 12.36
mrth: 79.7 cth: 60.29 usage: 41.95 residual: 37.75
mrth: 337.07 cth: 250.2 usage: 321.22 residual: 15.85
mrth: 207.12 cth: 151.6 usage: 131.17 residual: 75.95
mrth: 291.65 cth: 252.15 usage: 175.12 residual: 116.53
mrth: 128.6 cth: 110.0 usage: 85.6 residual: 43.0
mrth: 176.06 cth: 158.16 usage: 168.86 residual: 7.2
mrth: 117.12 cth: 87.11 usage: 110.02 residual: 7.1
mrth: 172.11 cth: 134.23 usage: 101.66 residual: 70.45
mrth: 198.67 cth: 145.81 usage: 142.8 residual: 55.87
mrth: 142.8 cth: 124.43 usage: 75.85 residual: 66.95
mrth: 119.05 cth: 104.36 usage: 63.29 residual: 55.76
mrth: 24.02 cth: 21.13 usage: 12.42 residual: 11.6
mrth: 400.18 cth: 299.1 usage: 338.77 residual: 61.41
mrth: 128.87 cth: 106.21 usage: 90.58 residual: 38.29
mrth: 283.92 cth: 202.3 usage: 212.85 residual: 71.07
mrth: 330.3 cth: 273.36 usage: 180.77 residual: 149.53
mrth: 151.12 cth: 127.85 usage: 137.35 residual: 13.77
mrth: 333.1 cth: 251.33 usage: 308.07 residual: 25.03
mrth: 271.28 cth: 192.19 usage: 260.77 residual: 10.51
mrth: 303.66 cth: 236.26 usage: 196.73 residual: 106.93
mrth: 56.34 cth: 45.68 usage: 36.86 residual: 19.48
mrth: 161.52 cth: 117.42 usage: 138.26 residual: 23.26
mrth: 153.81 cth: 137.16 usage: 150.45 residual: 3.36
mrth: 288.54 cth: 207.44 usage: 254.33 residual: 34.21
mrth: 133.85 cth: 104.54 usage: 129.85 residual: 4.0
mrth: 149.17 cth: 108.32 usage: 103.33 residual: 45.84
mrth: 134.04 cth: 100.42 usage: 101.15 residual: 32.89
mrth: 175.06 cth: 134.1 usage: 93.45 residual: 81.61
mrth: 134.65 cth: 106.07 usage: 128.42 residual: 6.23
mrth: 151.96 cth: 110.37 usage: 92.92 residual: 59.04
mrth: 208.38 cth: 147.04 usage: 131.83 residual: 76.55
mrth: 275.63 cth: 220.49 usage: 233.41 residual: 42.22
mrth: 310.61 cth: 251.38 usage: 179.89 residual: 130.72
mrth: 178.79 cth: 140.86 usage: 106.8 residual: 71.99
mrth: 13.28 cth: 10.17 usage: 7.11 residual: 6.17
mrth: 155.21 cth: 139.53 usage: 103.3 residual: 51.91
mrth: 117.56 cth: 85.87 usage: 64.48 residual: 53.08
mrth: 173.84 cth: 129.44 usage: 125.79 residual: 48.05
mrth: 188.67 cth: 157.48 usage: 176.22 residual: 12.45
mrth: 226.56 cth: 196.04 usage: 183.98 residual: 42.58
mrth: 183.51 cth: 159.32 usage: 145.66 residual: 37.85
mrth: 92.66 cth: 76.33 usage: 63.45 residual: 29.21
mrth: 200.39 cth: 151.39 usage: 132.25 residual: 68.14
mrth: 134.21 cth: 112.53 usage: 77.3 residual: 56.91
mrth: 320.59 cth: 245.21 usage: 245.64 residual: 74.95
mrth: 192.79 cth: 151.83 usage: 164.19 residual: 28.6
mrth: 368.28 cth: 316.85 usage: 272.33 residual: 95.95
mrth: 215.12 cth: 163.2 usage: 168.73 residual: 46.39
mrth: 165.02 cth: 142.62 usage: 84.44 residual: 80.58
mrth: 201.63 cth: 151.69 usage: 143.32 residual: 58.31
mrth: 125.22 cth: 112.63 usage: 78.59 residual: 46.63
mrth: 165.72 cth: 122.82 usage: 132.67 residual: 33.05
mrth: 75.62 cth: 57.65 usage: 52.97 residual: 22.65
mrth: 80.1 cth: 67.71 usage: 70.91 residual: 9.19
mrth: 99.65 cth: 77.44 usage: 90.51 residual: 9.14
mrth: 166.81 cth: 146.98 usage: 107.02 residual: 59.79
mrth: 82.42 cth: 70.67 usage: 47.51 residual: 34.91
mrth: 63.38 cth: 47.82 usage: 52.41 residual: 10.97
mrth: 453.91 cth: 374.77 usage: 438.1 residual: 15.81
mrth: 198.79 cth: 174.94 usage: 195.49 residual: 3.3
mrth: 134.46 cth: 109.87 usage: 108.71 residual: 25.75
mrth: 102.02 cth: 81.99 usage: 73.46 residual: 28.56
mrth: 202.38 cth: 155.8 usage: 116.18 residual: 86.2
mrth: 231.39 cth: 182.44 usage: 223.15 residual: 8.24
mrth: 124.99 cth: 104.2 usage: 74.37 residual: 50.62
mrth: 216.3 cth: 176.1 usage: 152.82 residual: 63.48
mrth: 294.98 cth: 229.62 usage: 262.99 residual: 31.99
mrth: 100.19 cth: 82.2 usage: 94.57 residual: 5.62
mrth: 260.63 cth: 196.75 usage: 139.49 residual: 121.14
mrth: 189.29 cth: 143.85 usage: 122.9 residual: 66.39
mrth: 136.78 cth: 102.99 usage: 83.33 residual: 53.45
mrth: 128.05 cth: 108.25 usage: 67.03 residual: 61.02
mrth: 209.1 cth: 154.2 usage: 202.88 residual: 6.22
mrth: 286.71 cth: 230.42 usage: 168.36 residual: 118.35
mrth: 36.7 cth: 30.63 usage: 23.52 residual: 13.18
mrth: 100.82 cth: 74.6 usage: 74.23 residual: 26.59
mrth: 77.48 cth: 66.87 usage: 71.39 residual: 6.09
mrth: 324.13 cth: 277.43 usage: 212.17 residual: 111.96
mrth: 166.01 cth: 143.71 usage: 138.01 residual: 28.0
mrth: 24.26 cth: 21.56 usage: 12.4 residual: 11.86
mrth: 12.74 cth: 9.37 usage: 11.08 residual: 1.66
mrth: 116.88 cth: 99.44 usage: 97.49 residual: 19.39
mrth: 116.31 cth: 92.76 usage: 78.29 residual: 38.02
mrth: 118.62 cth: 106.67 usage: 98.3 residual: 20.32
mrth: 214.47 cth: 173.58 usage: 153.24 residual: 61.23
mrth: 342.02 cth: 286.5 usage: 257.62 residual: 84.4
mrth: 174.46 cth: 133.37 usage: 117.87 residual: 56.59
mrth: 237.91 cth: 199.1 usage: 202.77 residual: 35.14
mrth: 453.15 cth: 351.26 usage: 253.5 residual: 199.65
mrth: 94.55 cth: 74.66 usage: 80.23 residual: 14.32
mrth: 464.26 cth: 398.44 usage: 360.5 residual: 103.76
mrth: 190.55 cth: 163.61 usage: 127.05 residual: 63.5
mrth: 117.18 cth: 89.76 usage: 86.06 residual: 31.12
mrth: 202.66 cth: 159.97 usage: 193.54 residual: 9.12
mrth: 470.58 cth: 419.11 usage: 440.63 residual: 29.95
mrth: 92.06 cth: 67.33 usage: 46.29 residual: 45.77
mrth: 290.96 cth: 241.96 usage: 203.48 residual: 87.48
mrth: 112.48 cth: 89.43 usage: 67.81 residual: 44.67
mrth: 130.03 cth: 95.93 usage: 86.82 residual: 43.21
mrth: 182.76 cth: 131.83 usage: 121.24 residual: 61.52
mrth: 141.12 cth: 100.93 usage: 111.72 residual: 29.4
mrth: 102.63 cth: 77.85 usage: 52.95 residual: 49.68
mrth: 73.31 cth: 62.84 usage: 61.25 residual: 12.06
mrth: 72.58 cth: 60.03 usage: 65.7 residual: 6.88
mrth: 43.89 cth: 35.42 usage: 29.56 residual: 14.33
mrth: 275.35 cth: 219.32 usage: 251.86 residual: 23.49
mrth: 172.43 cth: 148.79 usage: 120.95 residual: 51.48
mrth: 332.13 cth: 266.31 usage: 208.17 residual: 123.96
mrth: 288.02 cth: 223.78 usage: 161.32 residual: 126.7
mrth: 158.95 cth: 130.02 usage: 154.82 residual: 4.13
mrth: 126.07 cth: 93.97 usage: 72.86 residual: 53.21
mrth: 141.41 cth: 113.97 usage: 83.61 residual: 57.8
mrth: 155.09 cth: 116.92 usage: 89.05 residual: 66.04
mrth: 261.07 cth: 183.75 usage: 145.72 residual: 115.35
mrth: 332.26 cth: 252.64 usage: 292.07 residual: 40.19
mrth: 301.88 cth: 214.32 usage: 221.08 residual: 80.8
mrth: 232.83 cth: 189.09 usage: 225.07 residual: 7.76
mrth: 146.61 cth: 123.51 usage: 134.76 residual: 11.85
mrth: 394.27 cth: 307.68 usage: 347.26 residual: 47.01
mrth: 184.11 cth: 157.64 usage: 144.95 residual: 39.16
mrth: 253.69 cth: 217.43 usage: 220.45 residual: 33.24
mrth: 88.54 cth: 75.56 usage: 58.44 residual: 30.1
mrth: 152.26 cth: 121.36 usage: 77.16 residual: 75.1
mrth: 357.56 cth: 287.21 usage: 356.31 residual: 1.25
mrth: 167.12 cth: 134.33 usage: 116.72 residual: 50.4
mrth: 187.97 cth: 142.24 usage: 175.72 residual: 12.25
mrth: 351.02 cth: 286.75 usage: 350.57 residual: 0.45
mrth: 116.55 cth: 95.54 usage: 82.64 residual: 33.91
mrth: 153.1 cth: 116.36 usage: 131.75 residual: 21.35
mrth: 29.97 cth: 25.67 usage: 29.78 residual: 0.19
mrth: 169.48 cth: 144.8 usage: 88.53 residual: 80.95
mrth: 36.19 cth: 27.36 usage: 21.66 residual: 14.53
mrth: 77.67 cth: 58.73 usage: 64.47 residual: 13.2
mrth: 91.78 cth: 72.17 usage: 78.15 residual: 13.63
mrth: 276.51 cth: 242.25 usage: 266.41 residual: 10.1
mrth: 322.09 cth: 261.19 usage: 177.97 residual: 144.12
mrth: 143.96 cth: 128.58 usage: 96.98 residual: 46.98
mrth: 136.72 cth: 103.75 usage: 86.77 residual: 49.95
mrth: 184.47 cth: 165.34 usage: 159.18 residual: 25.29
mrth: 125.21 cth: 90.48 usage: 124.06 residual: 1.15
mrth: 174.9 cth: 157.11 usage: 109.41 residual: 65.49
mrth: 327.71 cth: 282.12 usage: 220.66 residual: 107.05
mrth: 294.27 cth: 209.51 usage: 158.36 residual: 135.91
mrth: 178.53 cth: 157.75 usage: 126.81 residual: 51.72
mrth: 182.75 cth: 138.86 usage: 132.28 residual: 50.47
mrth: 252.58 cth: 192.24 usage: 211.45 residual: 41.13
mrth: 217.01 cth: 191.34 usage: 193.24 residual: 23.77
mrth: 325.43 cth: 232.22 usage: 200.29 residual: 125.14
mrth: 294.28 cth: 256.88 usage: 212.93 residual: 81.35
mrth: 97.19 cth: 70.46 usage: 91.15 residual: 6.04
mrth: 292.49 cth: 218.18 usage: 220.26 residual: 72.23
mrth: 134.41 cth: 101.05 usage: 107.31 residual: 27.1
mrth: 217.84 cth: 167.17 usage: 195.66 residual: 22.18
mrth: 60.23 cth: 50.57 usage: 34.21 residual: 26.02
mrth: 274.4 cth: 245.21 usage: 227.75 residual: 46.65
mrth: 386.89 cth: 328.96 usage: 264.09 residual: 122.8
mrth: 102.53 cth: 75.83 usage: 96.65 residual: 5.88
mrth: 168.27 cth: 132.01 usage: 95.25 residual: 73.02
mrth: 97.63 cth: 84.1 usage: 94.53 residual: 3.1
mrth: 239.35 cth: 177.68 usage: 134.18 residual: 105.17
mrth: 107.43 cth: 79.09 usage: 74.66 residual: 32.77
mrth: 298.03 cth: 210.78 usage: 198.98 residual: 99.05
mrth: 217.34 cth: 155.46 usage: 184.98 residual: 32.36
mrth: 274.73 cth: 246.38 usage: 259.75 residual: 14.98
mrth: 353.17 cth: 258.09 usage: 237.52 residual: 115.65
mrth: 287.38 cth: 216.14 usage: 224.78 residual: 62.6
mrth: 99.06 cth: 72.6 usage: 75.95 residual: 23.11
mrth: 36.45 cth: 32.64 usage: 25.61 residual: 10.84
mrth: 196.85 cth: 148.08 usage: 193.13 residual: 3.72
mrth: 289.4 cth: 216.69 usage: 186.62 residual: 102.78
mrth: 121.46 cth: 96.12 usage: 74.17 residual: 47.29
mrth: 199.3 cth: 169.15 usage: 114.39 residual: 84.91
mrth: 257.61 cth: 230.69 usage: 254.86 residual: 2.75
mrth: 152.13 cth: 127.31 usage: 86.95 residual: 65.18
mrth: 155.56 cth: 119.11 usage: 116.91 residual: 38.65
mrth: 44.07 cth: 39.41 usage: 25.04 residual: 19.03
mrth: 299.58 cth: 241.04 usage: 212.79 residual: 86.79
mrth: 50.74 cth: 39.65 usage: 32.07 residual: 18.67
mrth: 292.48 cth: 227.99 usage: 249.79 residual: 42.69
mrth: 58.61 cth: 48.23 usage: 54.9 residual: 3.71
mrth: 147.53 cth: 107.75 usage: 133.11 residual: 14.42
mrth: 117.64 cth: 102.89 usage: 87.68 residual: 29.96
mrth: 249.41 cth: 203.55 usage: 159.32 residual: 90.09
mrth: 282.27 cth: 243.44 usage: 270.44 residual: 11.83
mrth: 458.71 cth: 378.78 usage: 440.55 residual: 18.16
mrth: 61.99 cth: 53.47 usage: 52.98 residual: 9.01
mrth: 63.67 cth: 46.48 usage: 38.45 residual: 25.22
mrth: 197.46 cth: 161.23 usage: 115.81 residual: 81.65
mrth: 316.94 cth: 261.09 usage: 300.21 residual: 16.73
mrth: 120.86 cth: 85.52 usage: 96.43 residual: 24.43
mrth: 127.48 cth: 91.56 usage: 104.06 residual: 23.42
mrth: 39.26 cth: 28.32 usage: 30.18 residual: 9.08
mrth: 179.73 cth: 135.42 usage: 170.74 residual: 8.99
mrth: 187.83 cth: 165.29 usage: 167.13 residual: 20.7
mrth: 135.13 cth: 115.62 usage: 118.81 residual: 16.32
mrth: 147.8 cth: 107.94 usage: 142.52 residual: 5.28
mrth: 153.12 cth: 122.46 usage: 99.57 residual: 53.55
mrth: 217.64 cth: 183.0 usage: 152.58 residual: 65.06
mrth: 329.69 cth: 266.99 usage: 308.83 residual: 20.86
mrth: 107.45 cth: 92.06 usage: 104.65 residual: 2.8
mrth: 332.52 cth: 278.52 usage: 209.87 residual: 122.65
mrth: 104.67 cth: 87.77 usage: 79.09 residual: 25.58
mrth: 423.71 cth: 330.58 usage: 417.19 residual: 6.52
mrth: 87.01 cth: 69.94 usage: 54.51 residual: 32.5
mrth: 214.67 cth: 177.25 usage: 195.68 residual: 18.99
mrth: 196.09 cth: 155.59 usage: 185.06 residual: 11.03
mrth: 467.72 cth: 390.91 usage: 333.87 residual: 133.85
mrth: 234.01 cth: 176.97 usage: 218.09 residual: 15.92
mrth: 234.7 cth: 169.21 usage: 148.4 residual: 86.3
mrth: 126.86 cth: 103.03 usage: 116.67 residual: 10.19
mrth: 168.94 cth: 147.53 usage: 111.26 residual: 57.68
mrth: 304.54 cth: 241.79 usage: 200.02 residual: 104.52
mrth: 343.05 cth: 268.64 usage: 190.17 residual: 152.88
mrth: 120.73 cth: 86.81 usage: 89.92 residual: 30.81
mrth: 68.14 cth: 56.49 usage: 47.76 residual: 20.38
mrth: 177.2 cth: 150.98 usage: 147.72 residual: 29.48
mrth: 361.11 cth: 282.09 usage: 322.48 residual: 38.63
mrth: 155.53 cth: 117.4 usage: 129.68 residual: 25.85
mrth: 255.92 cth: 228.86 usage: 173.96 residual: 81.96
mrth: 157.59 cth: 132.22 usage: 115.09 residual: 42.5
mrth: 86.74 cth: 67.59 usage: 51.55 residual: 35.19
mrth: 200.64 cth: 179.99 usage: 116.05 residual: 84.59
mrth: 73.83 cth: 58.39 usage: 52.61 residual: 21.22
mrth: 427.46 cth: 358.11 usage: 244.39 residual: 183.07
mrth: 148.34 cth: 111.04 usage: 118.34 residual: 30.0
mrth: 64.85 cth: 52.05 usage: 52.47 residual: 12.38
mrth: 162.83 cth: 130.09 usage: 94.76 residual: 68.07
mrth: 285.6 cth: 248.6 usage: 217.72 residual: 67.88
mrth: 360.14 cth: 296.47 usage: 241.2 residual: 118.94
mrth: 280.23 cth: 206.8 usage: 181.62 residual: 98.61
mrth: 122.17 cth: 97.22 usage: 81.31 residual: 40.86
mrth: 61.06 cth: 43.17 usage: 53.03 residual: 8.03
mrth: 296.98 cth: 241.8 usage: 259.9 residual: 37.08
mrth: 332.63 cth: 264.19 usage: 173.41 residual: 159.22
mrth: 123.79 cth: 104.28 usage: 89.26 residual: 34.53
mrth: 138.95 cth: 124.67 usage: 114.09 residual: 24.86
mrth: 300.54 cth: 236.74 usage: 262.44 residual: 38.1
mrth: 131.45 cth: 104.07 usage: 107.82 residual: 23.63
mrth: 413.39 cth: 300.46 usage: 281.81 residual: 131.58
mrth: 159.5 cth: 123.72 usage: 156.79 residual: 2.71
mrth: 233.3 cth: 197.89 usage: 131.01 residual: 102.29
mrth: 157.96 cth: 110.63 usage: 141.0 residual: 16.96
mrth: 139.43 cth: 122.6 usage: 70.23 residual: 69.2
mrth: 186.23 cth: 142.71 usage: 122.13 residual: 64.1
mrth: 146.49 cth: 110.91 usage: 82.97 residual: 63.52
mrth: 404.06 cth: 350.97 usage: 329.37 residual: 74.69
mrth: 233.88 cth: 191.29 usage: 204.86 residual: 29.02
mrth: 81.32 cth: 66.22 usage: 78.29 residual: 3.03
mrth: 83.46 cth: 59.78 usage: 47.63 residual: 35.83
mrth: 164.54 cth: 138.97 usage: 147.31 residual: 17.23
mrth: 436.06 cth: 329.33 usage: 272.82 residual: 163.24
mrth: 227.38 cth: 202.59 usage: 212.99 residual: 14.39
mrth: 309.81 cth: 241.67 usage: 272.45 residual: 37.36
mrth: 214.84 cth: 186.43 usage: 151.09 residual: 63.75
mrth: 323.49 cth: 248.97 usage: 246.48 residual: 77.01
mrth: 128.79 cth: 110.31 usage: 99.63 residual: 29.16
mrth: 178.31 cth: 127.23 usage: 99.79 residual: 78.52
mrth: 39.13 cth: 32.31 usage: 34.17 residual: 4.96
mrth: 56.81 cth: 40.93 usage: 29.65 residual: 27.16
mrth: 222.51 cth: 175.13 usage: 122.93 residual: 99.58
mrth: 359.58 cth: 253.72 usage: 207.98 residual: 151.6
mrth: 162.36 cth: 118.02 usage: 109.48 residual: 52.88
mrth: 269.91 cth: 193.23 usage: 189.93 residual: 79.98
mrth: 216.31 cth: 186.7 usage: 214.17 residual: 2.14
mrth: 98.59 cth: 75.08 usage: 85.73 residual: 12.86
mrth: 246.71 cth: 219.37 usage: 235.53 residual: 11.18
mrth: 236.63 cth: 198.99 usage: 131.49 residual: 105.14
mrth: 146.88 cth: 116.08 usage: 92.0 residual: 54.88
mrth: 233.76 cth: 186.92 usage: 137.89 residual: 95.87
mrth: 243.24 cth: 205.09 usage: 208.24 residual: 35.0
mrth: 174.92 cth: 129.55 usage: 88.97 residual: 85.95
mrth: 153.8 cth: 129.07 usage: 99.5 residual: 54.3
mrth: 128.01 cth: 91.8 usage: 118.51 residual: 9.5
mrth: 144.96 cth: 120.63 usage: 128.3 residual: 16.66
mrth: 423.88 cth: 377.48 usage: 266.5 residual: 157.38
mrth: 303.42 cth: 268.47 usage: 295.43 residual: 7.99
mrth: 154.61 cth: 125.42 usage: 121.43 residual: 33.18
mrth: 246.35 cth: 186.32 usage: 218.26 residual: 28.09
mrth: 205.87 cth: 176.1 usage: 119.85 residual: 86.02
mrth: 220.69 cth: 189.78 usage: 136.99 residual: 83.7
mrth: 228.84 cth: 172.27 usage: 145.82 residual: 83.02
mrth: 302.23 cth: 217.89 usage: 270.98 residual: 31.25
mrth: 178.42 cth: 148.34 usage: 172.25 residual: 6.17
mrth: 148.8 cth: 119.38 usage: 124.84 residual: 23.96
mrth: 318.8 cth: 254.89 usage: 279.13 residual: 39.67
mrth: 250.84 cth: 185.07 usage: 250.33 residual: 0.51
mrth: 196.0 cth: 173.18 usage: 174.62 residual: 21.38
mrth: 409.53 cth: 340.15 usage: 239.35 residual: 170.18
mrth: 275.8 cth: 235.3 usage: 273.47 residual: 2.33
mrth: 270.21 cth: 208.51 usage: 252.75 residual: 17.46
mrth: 88.5 cth: 72.42 usage: 78.83 residual: 9.67
mrth: 158.33 cth: 141.27 usage: 140.83 residual: 17.5
mrth: 261.11 cth: 206.95 usage: 142.53 residual: 118.58
mrth: 191.76 cth: 160.82 usage: 170.06 residual: 21.7
mrth: 233.19 cth: 184.87 usage: 223.34 residual: 9.85
mrth: 201.44 cth: 154.79 usage: 141.51 residual: 59.93
mrth: 430.43 cth: 347.9 usage: 248.45 residual: 181.98
mrth: 97.8 cth: 71.75 usage: 90.42 residual: 7.38
mrth: 271.51 cth: 199.18 usage: 224.85 residual: 46.66
mrth: 90.21 cth: 74.07 usage: 46.8 residual: 43.41
mrth: 70.72 cth: 62.52 usage: 49.52 residual: 21.2
mrth: 93.8 cth: 78.58 usage: 66.21 residual: 27.59
mrth: 115.91 cth: 101.81 usage: 100.49 residual: 15.42
mrth: 249.25 cth: 220.48 usage: 198.93 residual: 50.32
mrth: 38.06 cth: 28.14 usage: 26.51 residual: 11.55
mrth: 161.59 cth: 120.7 usage: 92.03 residual: 69.56
mrth: 320.04 cth: 275.67 usage: 317.88 residual: 2.16
mrth: 312.81 cth: 221.82 usage: 226.88 residual: 85.93
mrth: 201.68 cth: 159.85 usage: 183.35 residual: 18.33
mrth: 186.4 cth: 167.71 usage: 136.65 residual: 49.75
mrth: 69.42 cth: 60.58 usage: 61.98 residual: 7.44
mrth: 202.83 cth: 175.78 usage: 121.02 residual: 81.81
mrth: 244.21 cth: 210.31 usage: 220.69 residual: 23.52
mrth: 137.07 cth: 97.81 usage: 122.37 residual: 14.7
mrth: 177.39 cth: 124.93 usage: 117.27 residual: 60.12
mrth: 311.06 cth: 241.2 usage: 303.2 residual: 7.86
mrth: 209.17 cth: 160.95 usage: 114.24 residual: 94.93
mrth: 95.81 cth: 77.13 usage: 49.62 residual: 46.19
mrth: 315.26 cth: 255.28 usage: 189.12 residual: 126.14
mrth: 255.03 cth: 220.94 usage: 233.83 residual: 21.2
mrth: 311.48 cth: 231.88 usage: 260.07 residual: 51.41
mrth: 235.49 cth: 201.92 usage: 212.34 residual: 23.15
mrth: 96.18 cth: 76.51 usage: 91.3 residual: 4.88
mrth: 223.7 cth: 166.84 usage: 115.84 residual: 107.86
mrth: 124.9 cth: 111.45 usage: 104.09 residual: 20.81
mrth: 90.45 cth: 68.0 usage: 65.42 residual: 25.03
mrth: 27.59 cth: 21.74 usage: 18.31 residual: 9.28
mrth: 81.15 cth: 72.69 usage: 57.89 residual: 23.26
mrth: 184.97 cth: 132.07 usage: 153.83 residual: 31.14
mrth: 156.85 cth: 118.5 usage: 150.83 residual: 6.02
mrth: 337.77 cth: 254.73 usage: 182.93 residual: 154.84
mrth: 52.2 cth: 46.24 usage: 49.05 residual: 3.15
mrth: 379.4 cth: 277.21 usage: 374.65 residual: 4.75
mrth: 71.57 cth: 57.16 usage: 69.67 residual: 1.9
mrth: 332.43 cth: 278.86 usage: 275.37 residual: 57.06
mrth: 272.51 cth: 220.38 usage: 171.68 residual: 100.83
mrth: 407.42 cth: 301.74 usage: 357.42 residual: 50.0
mrth: 84.58 cth: 75.29 usage: 74.28 residual: 10.3
mrth: 180.51 cth: 128.73 usage: 95.13 residual: 85.38
mrth: 239.76 cth: 211.28 usage: 137.55 residual: 102.21
mrth: 508.17 cth: 433.08 usage: 503.7 residual: 4.47
mrth: 242.84 cth: 186.72 usage: 203.63 residual: 39.21
mrth: 233.32 cth: 190.55 usage: 192.55 residual: 40.77
mrth: 313.78 cth: 230.14 usage: 249.15 residual: 64.63
mrth: 174.33 cth: 143.69 usage: 172.45 residual: 1.88
mrth: 130.81 cth: 106.04 usage: 98.99 residual: 31.82
mrth: 33.8 cth: 25.03 usage: 24.07 residual: 9.73
mrth: 68.4 cth: 56.97 usage: 50.91 residual: 17.49
mrth: 228.19 cth: 167.79 usage: 143.05 residual: 85.14
mrth: 89.98 cth: 71.91 usage: 65.79 residual: 24.19
mrth: 463.76 cth: 353.37 usage: 392.7 residual: 71.06
mrth: 359.24 cth: 283.14 usage: 247.82 residual: 111.42
mrth: 313.25 cth: 264.53 usage: 188.57 residual: 124.68
mrth: 238.74 cth: 197.47 usage: 207.32 residual: 31.42
mrth: 215.4 cth: 170.44 usage: 162.51 residual: 52.89
mrth: 92.38 cth: 80.12 usage: 61.6 residual: 30.78
mrth: 209.37 cth: 178.22 usage: 177.13 residual: 32.24
mrth: 172.74 cth: 151.59 usage: 133.8 residual: 38.94
mrth: 169.99 cth: 132.79 usage: 153.16 residual: 16.83
mrth: 256.74 cth: 202.33 usage: 237.85 residual: 18.89
mrth: 202.57 cth: 179.12 usage: 159.09 residual: 43.48
mrth: 315.72 cth: 222.83 usage: 239.16 residual: 76.56
mrth: 243.56 cth: 186.9 usage: 174.68 residual: 68.88
mrth: 125.21 cth: 89.15 usage: 113.95 residual: 11.26
mrth: 143.84 cth: 103.58 usage: 91.81 residual: 52.03
mrth: 299.28 cth: 241.82 usage: 291.03 residual: 8.25
mrth: 159.71 cth: 134.4 usage: 135.81 residual: 23.9
mrth: 340.09 cth: 264.01 usage: 202.58 residual: 137.51
mrth: 487.7 cth: 365.25 usage: 313.32 residual: 174.38
mrth: 303.79 cth: 268.99 usage: 288.69 residual: 15.1
mrth: 133.58 cth: 116.17 usage: 128.38 residual: 5.2
mrth: 282.85 cth: 244.78 usage: 152.76 residual: 130.09
mrth: 117.48 cth: 85.57 usage: 68.74 residual: 48.74
mrth: 98.32 cth: 70.75 usage: 62.56 residual: 35.76
mrth: 58.93 cth: 42.35 usage: 55.17 residual: 3.76
mrth: 223.33 cth: 182.48 usage: 123.86 residual: 99.47
mrth: 379.08 cth: 330.47 usage: 236.86 residual: 142.22
mrth: 183.68 cth: 147.34 usage: 147.92 residual: 35.76
mrth: 183.38 cth: 128.55 usage: 182.01 residual: 1.37
mrth: 133.44 cth: 100.24 usage: 112.18 residual: 21.26
mrth: 193.9 cth: 167.4 usage: 120.44 residual: 73.46
mrth: 193.78 cth: 164.3 usage: 102.44 residual: 91.34
mrth: 76.7 cth: 64.68 usage: 56.05 residual: 20.65
mrth: 184.25 cth: 144.76 usage: 164.96 residual: 19.29
mrth: 285.02 cth: 231.36 usage: 178.03 residual: 106.99
mrth: 207.99 cth: 158.71 usage: 109.55 residual: 98.44
mrth: 207.43 cth: 147.62 usage: 140.8 residual: 66.63
mrth: 31.35 cth: 23.98 usage: 30.66 residual: 0.69
mrth: 316.81 cth: 256.26 usage: 221.41 residual: 95.4
mrth: 160.93 cth: 143.57 usage: 116.51 residual: 44.42
mrth: 324.74 cth: 257.6 usage: 323.09 residual: 1.65
mrth: 45.86 cth: 38.28 usage: 30.24 residual: 15.62
mrth: 218.24 cth: 165.67 usage: 218.07 residual: 0.17
mrth: 146.67 cth: 119.44 usage: 74.66 residual: 72.01
mrth: 190.28 cth: 134.32 usage: 120.56 residual: 69.72
mrth: 250.51 cth: 201.38 usage: 184.98 residual: 65.53
mrth: 258.26 cth: 217.73 usage: 173.01 residual: 85.25
mrth: 49.55 cth: 35.79 usage: 32.1 residual: 17.45
mrth: 155.45 cth: 119.31 usage: 90.29 residual: 65.16
mrth: 135.3 cth: 110.34 usage: 86.01 residual: 49.29
mrth: 182.29 cth: 149.5 usage: 140.52 residual: 41.77
mrth: 158.77 cth: 135.72 usage: 138.94 residual: 19.83
mrth: 189.36 cth: 136.05 usage: 155.16 residual: 34.2
mrth: 161.84 cth: 139.83 usage: 102.73 residual: 59.11
mrth: 101.41 cth: 87.92 usage: 51.38 residual: 50.03
mrth: 183.96 cth: 158.33 usage: 121.19 residual: 62.77
mrth: 103.97 cth: 77.22 usage: 94.69 residual: 9.28
mrth: 193.72 cth: 170.32 usage: 123.52 residual: 70.2
mrth: 131.96 cth: 96.57 usage: 78.02 residual: 53.94
mrth: 99.57 cth: 87.07 usage: 72.07 residual: 27.5
mrth: 210.7 cth: 169.74 usage: 147.08 residual: 63.62
mrth: 449.48 cth: 388.78 usage: 411.03 residual: 38.45
mrth: 144.99 cth: 106.53 usage: 121.0 residual: 23.99
mrth: 729.45 cth: 550.95 usage: 458.25 residual: 271.2
mrth: 295.37 cth: 247.8 usage: 279.87 residual: 15.5
mrth: 228.77 cth: 191.86 usage: 152.02 residual: 76.75
mrth: 214.65 cth: 183.94 usage: 140.38 residual: 74.27
mrth: 133.43 cth: 115.51 usage: 69.52 residual: 63.91
mrth: 158.39 cth: 137.0 usage: 122.57 residual: 35.82
mrth: 55.5 cth: 46.34 usage: 35.19 residual: 20.31
mrth: 81.02 cth: 65.51 usage: 72.39 residual: 8.63
mrth: 109.49 cth: 91.63 usage: 77.52 residual: 31.97
mrth: 328.35 cth: 268.31 usage: 175.96 residual: 152.39
mrth: 130.86 cth: 97.91 usage: 121.75 residual: 9.11
mrth: 136.69 cth: 96.08 usage: 136.57 residual: 0.12
mrth: 358.63 cth: 304.53 usage: 187.51 residual: 171.12
mrth: 330.15 cth: 295.1 usage: 249.03 residual: 81.12
mrth: 198.49 cth: 175.72 usage: 188.04 residual: 10.45
mrth: 236.95 cth: 195.6 usage: 217.27 residual: 19.68
mrth: 243.31 cth: 215.51 usage: 179.61 residual: 63.7
mrth: 222.21 cth: 160.49 usage: 172.66 residual: 49.55
mrth: 255.89 cth: 180.67 usage: 239.63 residual: 16.26
mrth: 218.35 cth: 154.79 usage: 216.68 residual: 1.67
mrth: 175.27 cth: 141.51 usage: 145.87 residual: 29.4
mrth: 232.17 cth: 199.21 usage: 129.18 residual: 102.99
mrth: 248.59 cth: 192.29 usage: 208.8 residual: 39.79
mrth: 305.27 cth: 252.38 usage: 233.19 residual: 72.08
mrth: 397.19 cth: 342.51 usage: 341.91 residual: 55.28
mrth: 166.51 cth: 146.18 usage: 164.52 residual: 1.99
mrth: 298.1 cth: 253.1 usage: 279.05 residual: 19.05
mrth: 206.01 cth: 183.98 usage: 168.26 residual: 37.75
mrth: 68.33 cth: 59.74 usage: 58.75 residual: 9.58
mrth: 52.09 cth: 37.36 usage: 47.59 residual: 4.5
mrth: 68.07 cth: 53.47 usage: 54.76 residual: 13.31
mrth: 283.91 cth: 254.27 usage: 243.38 residual: 40.53
mrth: 136.26 cth: 106.54 usage: 103.43 residual: 32.83
mrth: 139.3 cth: 119.95 usage: 84.05 residual: 55.25
mrth: 153.48 cth: 113.84 usage: 118.25 residual: 35.23
mrth: 224.5 cth: 174.83 usage: 134.92 residual: 89.58
mrth: 244.84 cth: 216.71 usage: 241.77 residual: 3.07
mrth: 297.32 cth: 264.85 usage: 226.06 residual: 71.26
mrth: 203.87 cth: 152.09 usage: 195.46 residual: 8.41
mrth: 53.56 cth: 38.12 usage: 27.83 residual: 25.73
mrth: 216.97 cth: 154.88 usage: 140.39 residual: 76.58
mrth: 75.28 cth: 63.78 usage: 70.16 residual: 5.12
mrth: 105.85 cth: 77.56 usage: 56.29 residual: 49.56
mrth: 208.61 cth: 155.16 usage: 179.26 residual: 29.35
mrth: 398.62 cth: 341.44 usage: 239.12 residual: 159.5
mrth: 256.19 cth: 229.31 usage: 164.5 residual: 91.69
mrth: 164.7 cth: 128.5 usage: 99.62 residual: 65.08
mrth: 235.83 cth: 191.24 usage: 172.61 residual: 63.22
mrth: 233.86 cth: 198.47 usage: 148.88 residual: 84.98
mrth: 245.0 cth: 176.39 usage: 142.61 residual: 102.39
mrth: 118.52 cth: 83.58 usage: 109.12 residual: 9.4
mrth: 133.87 cth: 96.12 usage: 99.44 residual: 34.43
mrth: 136.19 cth: 105.89 usage: 77.11 residual: 59.08
mrth: 119.04 cth: 103.22 usage: 60.17 residual: 58.87
mrth: 219.28 cth: 159.78 usage: 212.42 residual: 6.86
mrth: 206.41 cth: 151.61 usage: 175.46 residual: 30.95
mrth: 387.81 cth: 329.93 usage: 314.21 residual: 73.6
mrth: 199.45 cth: 144.03 usage: 156.24 residual: 43.21
mrth: 102.92 cth: 87.82 usage: 86.62 residual: 16.3
mrth: 354.02 cth: 275.9 usage: 319.02 residual: 35.0
mrth: 157.51 cth: 113.5 usage: 80.67 residual: 76.84
mrth: 165.86 cth: 148.76 usage: 141.63 residual: 24.23
mrth: 218.81 cth: 184.71 usage: 149.37 residual: 69.44
mrth: 95.79 cth: 80.04 usage: 94.75 residual: 1.04
mrth: 216.96 cth: 169.53 usage: 186.02 residual: 30.94
mrth: 222.82 cth: 195.34 usage: 146.36 residual: 76.46
mrth: 219.96 cth: 197.03 usage: 219.1 residual: 0.86
mrth: 225.63 cth: 162.12 usage: 221.7 residual: 3.93
mrth: 450.06 cth: 324.89 usage: 349.88 residual: 100.18
mrth: 178.88 cth: 138.58 usage: 126.09 residual: 52.79
mrth: 223.68 cth: 185.91 usage: 212.48 residual: 11.2
mrth: 139.5 cth: 99.33 usage: 72.43 residual: 67.07
mrth: 188.58 cth: 154.16 usage: 150.9 residual: 37.68
mrth: 382.68 cth: 308.94 usage: 332.85 residual: 49.83
mrth: 107.06 cth: 84.13 usage: 92.11 residual: 14.95
mrth: 27.94 cth: 23.05 usage: 27.67 residual: 0.27
mrth: 211.73 cth: 149.14 usage: 114.53 residual: 97.2
mrth: 341.37 cth: 254.72 usage: 301.99 residual: 39.38
mrth: 316.72 cth: 275.79 usage: 212.15 residual: 104.57
mrth: 433.07 cth: 367.14 usage: 351.83 residual: 81.24
mrth: 51.01 cth: 43.47 usage: 26.14 residual: 24.87
mrth: 64.08 cth: 50.89 usage: 36.32 residual: 27.76
mrth: 333.46 cth: 276.02 usage: 221.89 residual: 111.57
mrth: 258.76 cth: 181.83 usage: 161.96 residual: 96.8
