mrth: 188.24 cth: 135.65 usage: 101.39 residual: 86.85
mrth: 284.13 cth: 200.55 usage: 192.1 residual: 92.03
mrth: 245.43 cth: 186.25 usage: 199.13 residual: 46.3
mrth: 130.06 cth: 101.92 usage: 105.51 residual: 24.55
mrth: 333.15 cth: 278.97 usage: 328.4 residual: 4.75
mrth: 128.38 cth: 109.52 usage: 106.62 residual: 21.76
mrth: 251.22 cth: 178.28 usage: 201.67 residual: 49.55
mrth: 88.23 cth: 70.26 usage: 85.82 residual: 2.41
mrth: 212.17 cth: 152.49 usage: 167.24 residual: 44.93
mrth: 130.76 cth: 102.71 usage: 104.48 residual: 26.28
mrth: 211.08 cth: 180.93 usage: 187.99 residual: 23.09
mrth: 56.59 cth: 49.84 usage: 42.48 residual: 14.11
mrth: 207.29 cth: 164.36 usage: 198.13 residual: 9.16
mrth: 165.08 cth: 118.25 usage: 153.68 residual: 11.4
mrth: 140.89 cth: 110.86 usage: 101.0 residual: 39.89
mrth: 50.36 cth: 39.9 usage: 47.28 residual: 3.08
mrth: 83.98 cth: 64.59 usage: 76.03 residual: 7.95
mrth: 442.31 cth: 346.65 usage: 326.69 residual: 115.62
mrth: 486.91 cth: 410.61 usage: 271.17 residual: 215.74
mrth: 65.46 cth: 51.45 usage: 36.08 residual: 29.38
mrth: 159.91 cth: 125.84 usage: 159.53 residual: 0.38
mrth: 265.69 cth: 224.37 usage: 145.07 residual: 120.62
mrth: 110.82 cth: 97.11 usage: 103.05 residual: 7.77
mrth: 477.71 cth: 360.96 usage: 416.29 residual: 61.42
mrth: 8.58 cth: 7.29 usage: 7.74 residual: 0.84
mrth: 240.91 cth: 183.61 usage: 196.65 residual: 44.26
mrth: 153.51 cth: 113.74 usage: 103.22 residual: 50.29
mrth: 57.53 cth: 50.56 usage: 51.62 residual: 5.91
mrth: 100.69 cth: 76.38 usage: 100.3 residual: 0.39
mrth: 149.64 cth: 132.62 usage: 83.27 residual: 66.37
mrth: 167.19 cth: 146.03 usage: 151.53 residual: 15.66
mrth: 218.59 cth: 182.13 usage: 208.5 residual: 10.09
mrth: 209.31 cth: 175.76 usage: 177.8 residual: 31.51
mrth: 205.22 cth: 147.16 usage: 139.61 residual: 65.61
mrth: 115.15 cth: 99.78 usage: 59.21 residual: 55.94
mrth: 143.2 cth: 117.79 usage: 125.3 residual: 17.9
mrth: 150.17 cth: 110.98 usage: 118.02 residual: 32.15
mrth: 288.59 cth: 202.38 usage: 223.64 residual: 64.95
mrth: 243.56 cth: 178.87 usage: 238.25 residual: 5.31
mrth: 233.76 cth: 175.48 usage: 131.71 residual: 102.05
mrth: 232.79 cth: 188.3 usage: 162.67 residual: 70.12
mrth: 128.62 cth: 99.29 usage: 96.61 residual: 32.01
mrth: 292.77 cth: 235.92 usage: 219.2 residual: 73.57
mrth: 149.5 cth: 114.9 usage: 100.56 residual: 48.94
mrth: 44.31 cth: 31.54 usage: 40.76 residual: 3.55
mrth: 46.35 cth: 36.04 usage: 36.42 residual: 9.93
mrth: 214.13 cth: 189.2 usage: 150.63 residual: 63.5
mrth: 334.23 cth: 263.22 usage: 250.22 residual: 84.01
mrth: 248.88 cth: 175.47 usage: 127.95 residual: 120.93
mrth: 186.63 cth: 148.29 usage: 106.6 residual: 80.03
mrth: 109.19 cth: 76.61 usage: 70.87 residual: 38.32
mrth: 155.18 cth: 129.37 usage: 133.92 residual: 21.26
mrth: 169.34 cth: 145.48 usage: 102.98 residual: 66.36
mrth: 245.05 cth: 177.81 usage: 133.58 residual: 111.47
mrth: 173.62 cth: 153.54 usage: 148.24 residual: 25.38
mrth: 342.51 cth: 293.37 usage: 298.34 residual: 44.17
mrth: 70.68 cth: 62.12 usage: 43.5 residual: 27.18
mrth: 112.22 cth: 79.68 usage: 57.56 residual: 54.66
mrth: 109.23 cth: 77.57 usage: 88.89 residual: 20.34
mrth: 101.39 cth: 84.15 usage: 88.28 residual: 13.11
mrth: 402.96 cth: 324.34 usage: 378.77 residual: 24.19
mrth: 226.31 cth: 182.75 usage: 143.97 residual: 82.34
mrth: 38.95 cth: 29.75 usage: 20.14 residual: 18.81
mrth: 51.83 cth: 37.46 usage: 37.37 residual: 14.46
mrth: 158.77 cth: 131.02 usage: 129.92 residual: 28.85
mrth: 399.88 cth: 338.22 usage: 335.46 residual: 64.42
mrth: 53.46 cth: 43.2 usage: 38.78 residual: 14.68
mrth: 377.93 cth: 326.01 usage: 272.68 residual: 105.25
mrth: 133.21 cth: 115.87 usage: 69.07 residual: 64.14
mrth: 109.45 cth: 85.04 usage: 105.86 residual: 3.59
mrth: 124.32 cth: 97.74 usage: 110.57 residual: 13.75
mrth: 284.82 cth: 212.89 usage: 194.04 residual: 90.78
mrth: 122.82 cth: 92.97 usage: 102.31 residual: 20.51
mrth: 28.31 cth: 20.81 usage: 19.42 residual: 8.89
mrth: 295.94 cth: 259.56 usage: 228.41 residual: 67.53
mrth: 124.35 cth: 101.83 usage: 117.9 residual: 6.45
mrth: 211.62 cth: 164.86 usage: 171.94 residual: 39.68
mrth: 87.81 cth: 68.41 usage: 86.83 residual: 0.98
mrth: 111.01 cth: 96.89 usage: 77.32 residual: 33.69
mrth: 188.19 cth: 151.03 usage: 132.5 residual: 55.69
mrth: 322.01 cth: 229.7 usage: 295.05 residual: 26.96
mrth: 176.6 cth: 136.31 usage: 102.06 residual: 74.54
mrth: 269.94 cth: 200.69 usage: 159.16 residual: 110.78
mrth: 220.87 cth: 173.06 usage: 133.36 residual: 87.51
mrth: 151.29 cth: 111.58 usage: 116.23 residual: 35.06
mrth: 98.42 cth: 87.17 usage: 95.77 residual: 2.65
mrth: 60.36 cth: 47.47 usage: 57.76 residual: 2.6
mrth: 176.42 cth: 137.71 usage: 113.74 residual: 62.68
mrth: 176.8 cth: 143.87 usage: 161.3 residual: 15.5
mrth: 206.02 cth: 168.68 usage: 133.98 residual: 72.04
mrth: 238.83 cth: 176.9 usage: 142.17 residual: 96.66
mrth: 257.93 cth: 230.48 usage: 177.46 residual: 80.47
mrth: 160.48 cth: 130.06 usage: 139.44 residual: 21.04
mrth: 235.3 cth: 176.95 usage: 233.39 residual: 1.91
mrth: 201.24 cth: 147.45 usage: 164.84 residual: 36.4
mrth: 143.46 cth: 124.14 usage: 110.16 residual: 33.3
mrth: 91.21 cth: 66.48 usage: 72.82 residual: 18.39
mrth: 143.45 cth: 118.88 usage: 127.28 residual: 16.17
mrth: 354.24 cth: 315.51 usage: 201.27 residual: 152.97
mrth: 171.89 cth: 141.41 usage: 106.87 residual: 65.02
mrth: 177.93 cth: 136.07 usage: 95.95 residual: 81.98
mrth: 88.73 cth: 72.54 usage: 60.65 residual: 28.08
mrth: 288.8 cth: 214.4 usage: 286.88 residual: 1.92
mrth: 173.05 cth: 132.83 usage: 137.02 residual: 36.03
mrth: 170.38 cth: 131.11 usage: 86.24 residual: 84.14
mrth: 208.57 cth: 151.43 usage: 155.11 residual: 53.46
mrth: 202.6 cth: 163.76 usage: 158.17 residual: 44.43
mrth: 155.92 cth: 113.27 usage: 107.85 residual: 48.07
mrth: 317.21 cth: 251.37 usage: 310.84 residual: 6.37
mrth: 105.83 cth: 88.11 usage: 57.78 residual: 48.05
mrth: 165.21 cth: 138.69 usage: 99.53 residual: 65.68
mrth: 131.47 cth: 109.54 usage: 108.81 residual: 22.66
mrth: 85.86 cth: 68.11 usage: 79.16 residual: 6.7
mrth: 362.47 cth: 272.42 usage: 345.3 residual: 17.17
mrth: 190.75 cth: 162.42 usage: 109.86 residual: 80.89
mrth: 156.45 cth: 133.01 usage: 150.36 residual: 6.09
mrth: 144.96 cth: 130.17 usage: 103.09 residual: 41.87
mrth: 106.18 cth: 75.51 usage: 65.5 residual: 40.68
mrth: 332.56 cth: 268.73 usage: 261.59 residual: 70.97
mrth: 235.42 cth: 198.38 usage: 219.4 residual: 16.02
mrth: 372.23 cth: 299.77 usage: 296.65 residual: 75.58
mrth: 219.73 cth: 164.33 usage: 119.71 residual: 100.02
mrth: 241.96 cth: 191.37 usage: 211.72 residual: 30.24
mrth: 244.78 cth: 198.39 usage: 180.63 residual: 64.15
mrth: 136.7 cth: 105.64 usage: 86.63 residual: 50.07
mrth: 168.8 cth: 145.1 usage: 157.94 residual: 10.86
mrth: 232.51 cth: 170.27 usage: 147.09 residual: 85.42
mrth: 135.27 cth: 121.52 usage: 85.92 residual: 49.35
mrth: 238.68 cth: 172.98 usage: 213.16 residual: 25.52
mrth: 136.66 cth: 102.29 usage: 72.89 residual: 63.77
mrth: 211.53 cth: 166.42 usage: 196.69 residual: 14.84
mrth: 198.95 cth: 177.36 usage: 154.27 residual: 44.68
mrth: 352.24 cth: 279.04 usage: 254.7 residual: 97.54
mrth: 25.31 cth: 22.66 usage: 24.31 residual: 1.0
mrth: 221.08 cth: 184.45 usage: 166.57 residual: 54.51
mrth: 50.03 cth: 40.18 usage: 40.28 residual: 9.75
mrth: 260.93 cth: 205.65 usage: 198.62 residual: 62.31
mrth: 200.42 cth: 171.61 usage: 150.44 residual: 49.98
mrth: 130.85 cth: 98.66 usage: 70.26 residual: 60.59
mrth: 67.84 cth: 58.19 usage: 46.15 residual: 21.69
mrth: 194.2 cth: 145.08 usage: 178.0 residual: 16.2
mrth: 325.1 cth: 240.29 usage: 233.62 residual: 91.48
mrth: 89.21 cth: 68.45 usage: 74.65 residual: 14.56
mrth: 246.4 cth: 196.31 usage: 185.69 residual: 60.71
mrth: 45.87 cth: 34.69 usage: 39.82 residual: 6.05
mrth: 275.46 cth: 239.26 usage: 180.41 residual: 95.05
mrth: 118.8 cth: 100.37 usage: 95.14 residual: 23.66
mrth: 385.12 cth: 344.44 usage: 356.34 residual: 28.78
mrth: 165.12 cth: 118.66 usage: 160.85 residual: 4.27
mrth: 276.86 cth: 206.52 usage: 211.03 residual: 65.83
mrth: 132.78 cth: 103.64 usage: 76.9 residual: 55.88
mrth: 426.39 cth: 382.39 usage: 398.91 residual: 27.48
mrth: 477.58 cth: 407.99 usage: 253.61 residual: 223.97
mrth: 224.8 cth: 197.76 usage: 170.91 residual: 53.89
mrth: 161.5 cth: 132.04 usage: 109.54 residual: 51.96
mrth: 84.83 cth: 60.73 usage: 67.18 residual: 17.65
mrth: 233.05 cth: 171.6 usage: 212.4 residual: 20.65
mrth: 191.47 cth: 147.52 usage: 137.22 residual: 54.25
mrth: 267.75 cth: 193.18 usage: 199.56 residual: 68.19
mrth: 139.63 cth: 120.03 usage: 87.13 residual: 52.5
mrth: 253.03 cth: 225.24 usage: 164.18 residual: 88.85
mrth: 275.19 cth: 207.69 usage: 238.39 residual: 36.8
mrth: 159.65 cth: 136.21 usage: 150.62 residual: 9.03
mrth: 370.33 cth: 297.43 usage: 218.59 residual: 151.74
mrth: 210.83 cth: 171.88 usage: 154.11 residual: 56.72
mrth: 177.13 cth: 138.98 usage: 140.29 residual: 36.84
mrth: 242.51 cth: 210.04 usage: 170.43 residual: 72.08
mrth: 368.38 cth: 307.63 usage: 307.05 residual: 61.33
mrth: 244.32 cth: 190.64 usage: 214.26 residual: 30.06
mrth: 114.78 cth: 92.34 usage: 79.89 residual: 34.89
mrth: 86.64 cth: 68.7 usage: 52.02 residual: 34.62
mrth: 193.03 cth: 157.89 usage: 143.29 residual: 49.74
mrth: 133.22 cth: 114.79 usage: 116.06 residual: 17.16
mrth: 316.67 cth: 276.67 usage: 169.61 residual: 147.06
mrth: 234.79 cth: 178.54 usage: 193.71 residual: 41.08
mrth: 426.7 cth: 321.18 usage: 396.02 residual: 30.68
mrth: 281.1 cth: 224.85 usage: 238.87 residual: 42.23
mrth: 40.73 cth: 34.76 usage: 25.84 residual: 14.89
mrth: 182.1 cth: 160.38 usage: 177.85 residual: 4.25
mrth: 117.44 cth: 85.12 usage: 106.2 residual: 11.24
mrth: 107.97 cth: 93.59 usage: 76.86 residual: 31.11
mrth: 76.15 cth: 54.77 usage: 71.94 residual: 4.21
mrth: 160.87 cth: 136.21 usage: 106.33 residual: 54.54
mrth: 91.34 cth: 74.2 usage: 76.91 residual: 14.43
mrth: 174.69 cth: 153.45 usage: 105.16 residual: 69.53
mrth: 278.8 cth: 209.83 usage: 223.47 residual: 55.33
mrth: 165.4 cth: 128.12 usage: 150.78 residual: 14.62
mrth: 219.63 cth: 162.36 usage: 132.36 residual: 87.27
mrth: 55.89 cth: 48.06 usage: 43.99 residual: 11.9
mrth: 140.0 cth: 110.72 usage: 77.17 residual: 62.83
mrth: 264.97 cth: 228.08 usage: 210.58 residual: 54.39
mrth: 138.0 cth: 107.45 usage: 86.68 residual: 51.32
mrth: 315.89 cth: 243.91 usage: 293.85 residual: 22.04
mrth: 114.06 cth: 98.28 usage: 104.14 residual: 9.92
mrth: 126.55 cth: 97.52 usage: 73.32 residual: 53.23
mrth: 136.18 cth: 119.8 usage: 80.65 residual: 55.53
mrth: 127.29 cth: 100.61 usage: 125.27 residual: 2.02
mrth: 111.23 cth: 84.09 usage: 94.01 residual: 17.22
mrth: 236.64 cth: 202.14 usage: 199.53 residual: 37.11
mrth: 147.84 cth: 126.27 usage: 140.63 residual: 7.21
mrth: 266.36 cth: 226.33 usage: 210.52 residual: 55.84
mrth: 99.08 cth: 83.89 usage: 62.81 residual: 36.27
mrth: 174.26 cth: 145.84 usage: 110.66 residual: 63.6
mrth: 44.99 cth: 34.01 usage: 32.1 residual: 12.89
mrth: 265.38 cth: 211.02 usage: 176.21 residual: 89.17
mrth: 282.9 cth: 219.06 usage: 196.91 residual: 85.99
mrth: 551.69 cth: 441.84 usage: 395.54 residual: 156.15
mrth: 188.21 cth: 160.9 usage: 95.76 residual: 92.45
mrth: 533.42 cth: 459.07 usage: 511.1 residual: 22.32
mrth: 209.66 cth: 173.41 usage: 174.04 residual: 35.62
mrth: 145.48 cth: 110.42 usage: 140.09 residual: 5.39
mrth: 70.62 cth: 50.5 usage: 48.58 residual: 22.04
mrth: 333.73 cth: 297.06 usage: 212.2 residual: 121.53
mrth: 173.64 cth: 130.32 usage: 97.77 residual: 75.87
mrth: 277.18 cth: 227.88 usage: 175.31 residual: 101.87
mrth: 259.14 cth: 189.86 usage: 244.72 residual: 14.42
mrth: 38.64 cth: 34.37 usage: 26.18 residual: 12.46
mrth: 252.01 cth: 193.53 usage: 198.74 residual: 53.27
mrth: 124.45 cth: 101.43 usage: 65.98 residual: 58.47
mrth: 188.29 cth: 157.79 usage: 104.58 residual: 83.71
mrth: 260.99 cth: 232.95 usage: 148.3 residual: 112.69
mrth: 214.57 cth: 175.54 usage: 133.42 residual: 81.15
mrth: 244.63 cth: 218.82 usage: 188.92 residual: 55.71
mrth: 158.47 cth: 142.34 usage: 138.96 residual: 19.51
mrth: 246.12 cth: 202.02 usage: 195.04 residual: 51.08
mrth: 139.72 cth: 121.05 usage: 124.49 residual: 15.23
mrth: 200.45 cth: 146.05 usage: 164.42 residual: 36.03
mrth: 66.33 cth: 46.75 usage: 33.82 residual: 32.51
mrth: 495.8 cth: 393.96 usage: 371.08 residual: 124.72
mrth: 131.22 cth: 96.8 usage: 76.49 residual: 54.73
mrth: 159.39 cth: 123.84 usage: 99.94 residual: 59.45
mrth: 238.9 cth: 191.48 usage: 219.12 residual: 19.78
mrth: 228.32 cth: 203.71 usage: 121.91 residual: 106.41
mrth: 130.05 cth: 116.6 usage: 98.36 residual: 31.69
mrth: 298.75 cth: 226.19 usage: 197.72 residual: 101.03
mrth: 187.01 cth: 149.92 usage: 93.66 residual: 93.35
mrth: 391.52 cth: 316.65 usage: 318.64 residual: 72.88
mrth: 226.19 cth: 178.4 usage: 193.33 residual: 32.86
mrth: 112.46 cth: 83.66 usage: 96.65 residual: 15.81
mrth: 538.9 cth: 388.77 usage: 516.0 residual: 22.9
mrth: 306.87 cth: 219.62 usage: 300.98 residual: 5.89
mrth: 213.2 cth: 174.87 usage: 120.15 residual: 93.05
mrth: 42.61 cth: 29.87 usage: 24.14 residual: 18.47
mrth: 212.53 cth: 173.57 usage: 130.84 residual: 81.69
mrth: 116.25 cth: 90.82 usage: 96.28 residual: 19.97
mrth: 123.66 cth: 89.81 usage: 72.17 residual: 51.49
mrth: 199.93 cth: 173.76 usage: 178.14 residual: 21.79
mrth: 83.68 cth: 67.88 usage: 73.63 residual: 10.05
mrth: 319.82 cth: 234.91 usage: 307.57 residual: 12.25
mrth: 259.8 cth: 199.86 usage: 155.87 residual: 103.93
mrth: 145.81 cth: 113.82 usage: 87.68 residual: 58.13
mrth: 102.87 cth: 86.79 usage: 71.58 residual: 31.29
mrth: 197.65 cth: 152.06 usage: 138.49 residual: 59.16
mrth: 113.01 cth: 100.71 usage: 92.18 residual: 20.83
mrth: 116.2 cth: 89.94 usage: 102.72 residual: 13.48
mrth: 12.88 cth: 9.11 usage: 8.7 residual: 4.18
mrth: 245.34 cth: 191.64 usage: 168.7 residual: 76.64
mrth: 185.0 cth: 157.89 usage: 136.03 residual: 48.97
mrth: 158.54 cth: 137.44 usage: 127.36 residual: 31.18
mrth: 296.5 cth: 245.82 usage: 257.75 residual: 38.75
mrth: 179.85 cth: 160.04 usage: 111.7 residual: 68.15
mrth: 232.25 cth: 195.82 usage: 196.46 residual: 35.79
mrth: 94.3 cth: 78.78 usage: 77.01 residual: 17.29
mrth: 280.55 cth: 200.14 usage: 168.51 residual: 112.04
mrth: 142.5 cth: 121.42 usage: 108.1 residual: 34.4
mrth: 425.16 cth: 371.82 usage: 305.6 residual: 119.56
mrth: 381.8 cth: 336.87 usage: 317.21 residual: 64.59
mrth: 21.41 cth: 19.12 usage: 12.69 residual: 8.72
mrth: 249.92 cth: 223.97 usage: 227.69 residual: 22.23
mrth: 161.19 cth: 129.33 usage: 83.83 residual: 77.36
mrth: 164.41 cth: 115.82 usage: 86.61 residual: 77.8
mrth: 260.27 cth: 184.76 usage: 212.71 residual: 47.56
mrth: 241.22 cth: 211.33 usage: 170.11 residual: 71.11
mrth: 270.44 cth: 200.33 usage: 200.52 residual: 69.92
mrth: 84.27 cth: 67.97 usage: 64.56 residual: 19.71
mrth: 331.9 cth: 291.49 usage: 190.57 residual: 141.33
mrth: 28.64 cth: 25.16 usage: 24.2 residual: 4.44
mrth: 74.89 cth: 64.36 usage: 43.49 residual: 31.4
mrth: 115.28 cth: 95.48 usage: 98.17 residual: 17.11
mrth: 324.97 cth: 248.05 usage: 171.11 residual: 153.86
mrth: 250.82 cth: 219.62 usage: 200.03 residual: 50.79
mrth: 244.68 cth: 184.93 usage: 177.18 residual: 67.5
mrth: 206.26 cth: 155.34 usage: 160.66 residual: 45.6
mrth: 163.08 cth: 135.82 usage: 110.31 residual: 52.77
mrth: 110.89 cth: 89.25 usage: 107.19 residual: 3.7
mrth: 427.26 cth: 326.37 usage: 384.12 residual: 43.14
mrth: 469.38 cth: 378.43 usage: 311.08 residual: 158.3
mrth: 158.9 cth: 111.37 usage: 144.97 residual: 13.93
mrth: 85.3 cth: 70.88 usage: 55.37 residual: 29.93
mrth: 151.94 cth: 126.1 usage: 123.33 residual: 28.61
mrth: 191.0 cth: 164.28 usage: 138.39 residual: 52.61
mrth: 230.44 cth: 193.16 usage: 188.65 residual: 41.79
mrth: 329.84 cth: 279.14 usage: 221.72 residual: 108.12
mrth: 200.11 cth: 162.22 usage: 187.45 residual: 12.66
mrth: 135.85 cth: 119.04 usage: 77.94 residual: 57.91
mrth: 409.18 cth: 333.82 usage: 292.79 residual: 116.39
mrth: 211.92 cth: 188.53 usage: 107.09 residual: 104.83
mrth: 282.92 cth: 213.55 usage: 205.83 residual: 77.09
mrth: 272.06 cth: 193.9 usage: 170.38 residual: 101.68
mrth: 92.3 cth: 77.59 usage: 77.75 residual: 14.55
mrth: 22.88 cth: 18.01 usage: 20.25 residual: 2.63
mrth: 269.51 cth: 204.02 usage: 261.8 residual: 7.71
mrth: 214.26 cth: 151.28 usage: 184.78 residual: 29.48
mrth: 153.86 cth: 129.87 usage: 82.41 residual: 71.45
mrth: 329.0 cth: 236.32 usage: 194.2 residual: 134.8
mrth: 280.46 cth: 251.6 usage: 196.36 residual: 84.1
mrth: 194.98 cth: 154.64 usage: 194.07 residual: 0.91
mrth: 140.56 cth: 107.71 usage: 128.72 residual: 11.84
mrth: 299.55 cth: 230.59 usage: 265.91 residual: 33.64
mrth: 40.95 cth: 34.65 usage: 34.52 residual: 6.43
mrth: 244.73 cth: 173.73 usage: 194.21 residual: 50.52
mrth: 102.32 cth: 76.64 usage: 98.24 residual: 4.08
mrth: 110.37 cth: 98.63 usage: 104.62 residual: 5.75
mrth: 25.01 cth: 21.49 usage: 17.62 residual: 7.39
mrth: 159.39 cth: 138.7 usage: 117.45 residual: 41.94
mrth: 87.79 cth: 64.61 usage: 80.65 residual: 7.14
mrth: 63.74 cth: 56.48 usage: 48.64 residual: 15.1
mrth: 52.32 cth: 43.7 usage: 30.83 residual: 21.49
mrth: 142.8 cth: 114.38 usage: 141.36 residual: 1.44
mrth: 297.25 cth: 262.26 usage: 204.24 residual: 93.01
mrth: 292.82 cth: 222.66 usage: 159.61 residual: 133.21
mrth: 328.39 cth: 240.55 usage: 276.16 residual: 52.23
mrth: 336.13 cth: 263.09 usage: 201.94 residual: 134.19
mrth: 65.21 cth: 57.71 usage: 37.31 residual: 27.9
mrth: 85.8 cth: 71.76 usage: 80.82 residual: 4.98
mrth: 233.77 cth: 202.8 usage: 157.02 residual: 76.75
mrth: 245.59 cth: 176.79 usage: 168.66 residual: 76.93
mrth: 213.26 cth: 173.15 usage: 148.04 residual: 65.22
mrth: 154.9 cth: 134.29 usage: 151.51 residual: 3.39
mrth: 214.39 cth: 188.34 usage: 153.71 residual: 60.68
mrth: 112.94 cth: 89.32 usage: 73.12 residual: 39.82
mrth: 189.77 cth: 146.22 usage: 164.76 residual: 25.01
mrth: 223.91 cth: 177.84 usage: 207.59 residual: 16.32
mrth: 54.18 cth: 41.75 usage: 42.07 residual: 12.11
mrth: 287.71 cth: 257.56 usage: 284.04 residual: 3.67
mrth: 217.88 cth: 193.12 usage: 191.0 residual: 26.88
mrth: 118.4 cth: 91.28 usage: 85.55 residual: 32.85
mrth: 334.52 cth: 288.85 usage: 213.08 residual: 121.44
mrth: 513.46 cth: 364.06 usage: 364.04 residual: 149.42
mrth: 289.98 cth: 233.78 usage: 163.77 residual: 126.21
mrth: 110.2 cth: 86.87 usage: 86.93 residual: 23.27
mrth: 357.51 cth: 255.9 usage: 282.8 residual: 74.71
mrth: 605.5 cth: 438.34 usage: 484.44 residual: 121.06
mrth: 193.12 cth: 160.53 usage: 177.41 residual: 15.71
mrth: 429.05 cth: 347.78 usage: 331.81 residual: 97.24
mrth: 143.55 cth: 114.75 usage: 137.27 residual: 6.28
mrth: 163.43 cth: 145.05 usage: 81.87 residual: 81.56
mrth: 216.64 cth: 176.72 usage: 180.58 residual: 36.06
mrth: 84.73 cth: 70.58 usage: 55.62 residual: 29.11
mrth: 238.38 cth: 181.48 usage: 120.29 residual: 118.09
mrth: 147.49 cth: 108.38 usage: 132.68 residual: 14.81
mrth: 73.74 cth: 64.35 usage: 63.67 residual: 10.07
mrth: 221.5 cth: 176.91 usage: 196.08 residual: 25.42
mrth: 78.55 cth: 63.13 usage: 68.14 residual: 10.41
mrth: 132.65 cth: 108.08 usage: 107.57 residual: 25.08
mrth: 107.94 cth: 95.58 usage: 65.73 residual: 42.21
mrth: 359.37 cth: 288.67 usage: 277.56 residual: 81.81
mrth: 18.68 cth: 16.36 usage: 18.49 residual: 0.19
mrth: 109.29 cth: 89.5 usage: 107.62 residual: 1.67
mrth: 312.86 cth: 247.69 usage: 311.02 residual: 1.84
mrth: 131.73 cth: 92.83 usage: 97.38 residual: 34.35
mrth: 152.42 cth: 118.48 usage: 107.44 residual: 44.98
mrth: 163.2 cth: 130.65 usage: 120.85 residual: 42.35
mrth: 284.09 cth: 211.99 usage: 194.27 residual: 89.82
mrth: 115.44 cth: 88.93 usage: 99.25 residual: 16.19
mrth: 87.32 cth: 63.01 usage: 81.78 residual: 5.54
mrth: 331.74 cth: 291.11 usage: 323.48 residual: 8.26
mrth: 70.34 cth: 55.92 usage: 57.42 residual: 12.92
mrth: 97.93 cth: 68.74 usage: 53.85 residual: 44.08
mrth: 112.94 cth: 88.26 usage: 109.09 residual: 3.85
mrth: 55.49 cth: 43.62 usage: 47.36 residual: 8.13
mrth: 134.3 cth: 96.43 usage: 119.16 residual: 15.14
mrth: 99.8 cth: 81.81 usage: 56.67 residual: 43.13
mrth: 249.83 cth: 193.2 usage: 175.36 residual: 74.47
mrth: 160.97 cth: 115.06 usage: 81.18 residual: 79.79
mrth: 290.28 cth: 256.37 usage: 209.83 residual: 80.45
mrth: 89.1 cth: 64.09 usage: 86.16 residual: 2.94
mrth: 102.52 cth: 79.3 usage: 81.04 residual: 21.48
mrth: 357.82 cth: 316.0 usage: 351.07 residual: 6.75
mrth: 180.82 cth: 145.79 usage: 165.21 residual: 15.61
mrth: 180.89 cth: 153.81 usage: 166.6 residual: 14.29
mrth: 75.17 cth: 56.11 usage: 39.92 residual: 35.25
mrth: 171.26 cth: 151.95 usage: 123.23 residual: 48.03
mrth: 11.55 cth: 9.08 usage: 7.27 residual: 4.28
mrth: 193.63 cth: 140.19 usage: 150.65 residual: 42.98
mrth: 177.62 cth: 144.92 usage: 88.89 residual: 88.73
mrth: 127.8 cth: 94.76 usage: 111.79 residual: 16.01
mrth: 248.92 cth: 206.73 usage: 129.7 residual: 119.22
mrth: 260.33 cth: 215.84 usage: 203.43 residual: 56.9
mrth: 207.07 cth: 166.68 usage: 138.18 residual: 68.89
mrth: 141.85 cth: 100.47 usage: 97.49 residual: 44.36
mrth: 37.96 cth: 26.82 usage: 29.02 residual: 8.94
mrth: 177.63 cth: 129.6 usage: 102.57 residual: 75.06
mrth: 158.92 cth: 123.49 usage: 145.09 residual: 13.83
mrth: 173.43 cth: 121.63 usage: 156.63 residual: 16.8
mrth: 217.43 cth: 153.97 usage: 125.23 residual: 92.2
mrth: 296.84 cth: 231.46 usage: 199.77 residual: 97.07
mrth: 191.43 cth: 165.94 usage: 95.75 residual: 95.68
mrth: 11.84 cth: 10.4 usage: 6.44 residual: 5.4
mrth: 422.64 cth: 344.24 usage: 323.46 residual: 99.18
mrth: 197.53 cth: 171.17 usage: 140.54 residual: 56.99
mrth: 186.65 cth: 142.05 usage: 130.83 residual: 55.82
mrth: 213.24 cth: 160.34 usage: 146.92 residual: 66.32
mrth: 223.97 cth: 188.66 usage: 214.15 residual: 9.82
mrth: 31.05 cth: 25.86 usage: 24.78 residual: 6.27
mrth: 99.36 cth: 73.71 usage: 90.65 residual: 8.71
mrth: 193.83 cth: 158.66 usage: 171.38 residual: 22.45
mrth: 267.94 cth: 241.04 usage: 157.12 residual: 110.82
mrth: 15.35 cth: 12.23 usage: 14.94 residual: 0.41
mrth: 153.87 cth: 113.29 usage: 116.69 residual: 37.18
mrth: 14.66 cth: 12.22 usage: 10.38 residual: 4.28
mrth: 270.83 cth: 239.72 usage: 241.44 residual: 29.39
mrth: 260.08 cth: 216.02 usage: 181.25 residual: 78.83
mrth: 227.55 cth: 191.68 usage: 169.49 residual: 58.06
mrth: 140.27 cth: 123.06 usage: 73.0 residual: 67.27
mrth: 112.6 cth: 81.59 usage: 92.67 residual: 19.93
mrth: 166.55 cth: 123.01 usage: 157.89 residual: 8.66
mrth: 245.88 cth: 207.77 usage: 229.25 residual: 16.63
mrth: 188.15 cth: 143.91 usage: 120.98 residual: 67.17
mrth: 351.51 cth: 270.76 usage: 214.16 residual: 137.35
mrth: 226.92 cth: 197.39 usage: 205.29 residual: 21.63
mrth: 172.37 cth: 146.77 usage: 95.1 residual: 77.27
mrth: 44.68 cth: 34.4 usage: 27.38 residual: 17.3
mrth: 419.82 cth: 350.24 usage: 274.76 residual: 145.06
mrth: 164.65 cth: 130.62 usage: 161.83 residual: 2.82
mrth: 311.44 cth: 228.97 usage: 202.4 residual: 109.04
mrth: 320.92 cth: 250.0 usage: 288.05 residual: 32.87
mrth: 225.06 cth: 174.29 usage: 118.81 residual: 106.25
mrth: 196.23 cth: 139.77 usage: 183.08 residual: 13.15
mrth: 261.8 cth: 221.21 usage: 249.21 residual: 12.59
mrth: 74.0 cth: 55.2 usage: 67.69 residual: 6.31
mrth: 75.12 cth: 57.3 usage: 46.2 residual: 28.92
mrth: 217.9 cth: 180.14 usage: 191.39 residual: 26.51
mrth: 112.3 cth: 82.2 usage: 97.51 residual: 14.79
mrth: 254.95 cth: 214.99 usage: 153.93 residual: 101.02
mrth: 249.85 cth: 196.03 usage: 152.49 residual: 97.36
mrth: 168.04 cth: 150.62 usage: 130.55 residual: 37.49
mrth: 286.37 cth: 221.76 usage: 220.04 residual: 66.33
mrth: 357.42 cth: 320.45 usage: 289.52 residual: 67.9
mrth: 325.62 cth: 242.65 usage: 321.68 residual: 3.94
mrth: 256.01 cth: 207.06 usage: 245.31 residual: 10.7
mrth: 216.41 cth: 178.33 usage: 159.08 residual: 57.33
mrth: 292.14 cth: 210.77 usage: 146.43 residual: 145.71
mrth: 505.91 cth: 426.23 usage: 330.98 residual: 174.93
mrth: 152.74 cth: 127.26 usage: 115.4 residual: 37.34
mrth: 126.08 cth: 94.68 usage: 97.42 residual: 28.66
mrth: 101.27 cth: 74.44 usage: 71.29 residual: 29.98
mrth: 167.88 cth: 137.99 usage: 140.92 residual: 26.96
mrth: 146.66 cth: 105.49 usage: 142.35 residual: 4.31
mrth: 256.18 cth: 187.56 usage: 231.23 residual: 24.95
mrth: 275.51 cth: 194.94 usage: 163.68 residual: 111.83
mrth: 171.51 cth: 147.49 usage: 99.69 residual: 71.82
mrth: 132.23 cth: 112.53 usage: 73.61 residual: 58.62
mrth: 107.13 cth: 84.95 usage: 72.49 residual: 34.64
mrth: 32.37 cth: 24.76 usage: 24.11 residual: 8.26
mrth: 94.85 cth: 76.44 usage: 77.7 residual: 17.15
mrth: 179.44 cth: 145.34 usage: 124.89 residual: 54.55
mrth: 140.12 cth: 104.96 usage: 109.19 residual: 30.93
mrth: 45.82 cth: 36.54 usage: 27.03 residual: 18.79
mrth: 182.1 cth: 134.48 usage: 117.75 residual: 64.35
mrth: 427.02 cth: 356.79 usage: 312.19 residual: 114.83
mrth: 335.68 cth: 248.4 usage: 170.49 residual: 165.19
mrth: 155.23 cth: 111.38 usage: 92.73 residual: 62.5
mrth: 129.37 cth: 102.73 usage: 82.96 residual: 46.41
mrth: 87.26 cth: 69.78 usage: 76.97 residual: 10.29
mrth: 82.23 cth: 63.09 usage: 57.95 residual: 24.28
mrth: 174.48 cth: 143.6 usage: 174.35 residual: 0.13
mrth: 73.45 cth: 60.48 usage: 53.46 residual: 19.99
mrth: 306.12 cth: 255.05 usage: 230.35 residual: 75.77
mrth: 229.9 cth: 172.8 usage: 212.43 residual: 17.47
mrth: 180.18 cth: 126.53 usage: 141.4 residual: 38.78
mrth: 84.07 cth: 62.72 usage: 54.09 residual: 29.98
mrth: 92.71 cth: 68.67 usage: 91.07 residual: 1.64
mrth: 153.49 cth: 112.54 usage: 88.41 residual: 65.08
mrth: 154.71 cth: 130.13 usage: 116.77 residual: 37.94
mrth: 126.69 cth: 94.89 usage: 71.5 residual: 55.19
mrth: 123.89 cth: 91.89 usage: 112.74 residual: 11.15
mrth: 170.44 cth: 136.11 usage: 141.76 residual: 28.68
mrth: 439.97 cth: 327.07 usage: 382.14 residual: 57.83
mrth: 298.77 cth: 245.22 usage: 227.87 residual: 70.9
mrth: 89.35 cth: 76.43 usage: 80.44 residual: 8.91
mrth: 254.94 cth: 214.76 usage: 136.06 residual: 118.88
mrth: 80.43 cth: 61.04 usage: 66.66 residual: 13.77
mrth: 213.59 cth: 166.28 usage: 134.49 residual: 79.1
mrth: 261.08 cth: 186.56 usage: 144.44 residual: 116.64
mrth: 202.12 cth: 167.62 usage: 137.03 residual: 65.09
mrth: 178.71 cth: 135.16 usage: 108.98 residual: 69.73
mrth: 68.36 cth: 56.66 usage: 56.38 residual: 11.98
mrth: 114.31 cth: 90.09 usage: 74.14 residual: 40.17
mrth: 206.37 cth: 157.59 usage: 175.61 residual: 30.76
mrth: 83.96 cth: 70.51 usage: 57.58 residual: 26.38
mrth: 165.36 cth: 132.59 usage: 122.66 residual: 42.7
mrth: 213.39 cth: 153.66 usage: 196.65 residual: 16.74
mrth: 98.14 cth: 82.94 usage: 52.52 residual: 45.62
mrth: 85.91 cth: 64.48 usage: 61.0 residual: 24.91
mrth: 186.93 cth: 159.69 usage: 149.18 residual: 37.75
mrth: 145.95 cth: 127.44 usage: 89.69 residual: 56.26
mrth: 180.88 cth: 130.64 usage: 138.17 residual: 42.71
mrth: 191.57 cth: 165.56 usage: 168.21 residual: 23.36
mrth: 404.79 cth: 314.94 usage: 300.68 residual: 104.11
mrth: 130.22 cth: 106.38 usage: 79.39 residual: 50.83
mrth: 383.67 cth: 276.74 usage: 296.98 residual: 86.69
mrth: 180.11 cth: 140.13 usage: 90.22 residual: 89.89
mrth: 255.95 cth: 189.72 usage: 205.56 residual: 50.39
mrth: 281.87 cth: 202.78 usage: 263.98 residual: 17.89
mrth: 241.91 cth: 211.69 usage: 132.75 residual: 109.16
mrth: 196.84 cth: 147.74 usage: 196.63 residual: 0.21
mrth: 142.59 cth: 125.61 usage: 87.2 residual: 55.39
mrth: 212.34 cth: 190.17 usage: 143.83 residual: 68.51
mrth: 136.97 cth: 109.93 usage: 95.49 residual: 41.48
mrth: 78.41 cth: 62.2 usage: 60.1 residual: 18.31
mrth: 271.32 cth: 212.54 usage: 181.29 residual: 90.03
mrth: 144.47 cth: 127.73 usage: 142.41 residual: 2.06
mrth: 139.27 cth: 115.26 usage: 109.52 residual: 29.75
mrth: 187.53 cth: 157.04 usage: 155.58 residual: 31.95
mrth: 51.88 cth: 39.28 usage: 39.46 residual: 12.42
mrth: 110.42 cth: 93.35 usage: 102.71 residual: 7.71
mrth: 156.61 cth: 133.07 usage: 130.02 residual: 26.59
mrth: 133.6 cth: 114.25 usage: 131.92 residual: 1.68
mrth: 336.79 cth: 284.57 usage: 231.97 residual: 104.82
mrth: 426.34 cth: 374.76 usage: 341.51 residual: 84.83
mrth: 123.48 cth: 96.4 usage: 104.55 residual: 18.93
mrth: 230.55 cth: 200.7 usage: 172.16 residual: 58.39
mrth: 266.1 cth: 192.78 usage: 241.03 residual: 25.07
mrth: 302.55 cth: 235.08 usage: 301.21 residual: 1.34
mrth: 118.39 cth: 88.35 usage: 91.5 residual: 26.89
mrth: 388.5 cth: 325.93 usage: 266.52 residual: 121.98
mrth: 195.67 cth: 167.81 usage: 98.52 residual: 97.15
mrth: 143.28 cth: 110.79 usage: 118.51 residual: 24.77
mrth: 62.45 cth: 44.39 usage: 37.32 residual: 25.13
mrth: 96.68 cth: 76.85 usage: 62.79 residual: 33.89
mrth: 165.98 cth: 140.83 usage: 141.26 residual: 24.72
mrth: 260.27 cth: 197.83 usage: 176.58 residual: 83.69
mrth: 90.79 cth: 76.32 usage: 75.56 residual: 15.23
mrth: 120.66 cth: 104.2 usage: 72.37 residual: 48.29
mrth: 205.48 cth: 145.81 usage: 122.69 residual: 82.79
mrth: 266.44 cth: 235.29 usage: 155.25 residual: 111.19
mrth: 154.13 cth: 138.58 usage: 146.56 residual: 7.57
mrth: 178.83 cth: 128.86 usage: 166.58 residual: 12.25
mrth: 99.67 cth: 74.07 usage: 53.24 residual: 46.43
mrth: 265.72 cth: 231.6 usage: 162.91 residual: 102.81
mrth: 190.82 cth: 169.27 usage: 137.7 residual: 53.12
mrth: 152.64 cth: 132.62 usage: 97.13 residual: 55.51
mrth: 132.38 cth: 93.88 usage: 127.8 residual: 4.58
mrth: 115.06 cth: 86.74 usage: 72.51 residual: 42.55
mrth: 266.31 cth: 211.7 usage: 243.58 residual: 22.73
mrth: 109.36 cth: 77.13 usage: 75.21 residual: 34.15
mrth: 189.34 cth: 158.15 usage: 163.37 residual: 25.97
mrth: 334.27 cth: 276.26 usage: 289.53 residual: 44.74
mrth: 506.79 cth: 375.68 usage: 405.9 residual: 100.89
mrth: 129.7 cth: 103.89 usage: 127.4 residual: 2.3
mrth: 217.34 cth: 157.81 usage: 157.07 residual: 60.27
mrth: 146.55 cth: 125.87 usage: 88.31 residual: 58.24
mrth: 192.32 cth: 139.09 usage: 164.29 residual: 28.03
mrth: 25.73 cth: 21.12 usage: 17.89 residual: 7.84
mrth: 244.78 cth: 187.48 usage: 210.98 residual: 33.8
mrth: 210.47 cth: 153.0 usage: 194.9 residual: 15.57
mrth: 272.99 cth: 220.34 usage: 166.78 residual: 106.21
mrth: 143.34 cth: 117.92 usage: 122.17 residual: 21.17
mrth: 213.91 cth: 161.59 usage: 165.53 residual: 48.38
mrth: 229.16 cth: 193.68 usage: 219.76 residual: 9.4
mrth: 286.56 cth: 208.21 usage: 244.06 residual: 42.5
mrth: 39.23 cth: 30.59 usage: 28.63 residual: 10.6
mrth: 342.35 cth: 305.11 usage: 286.47 residual: 55.88
mrth: 226.02 cth: 196.15 usage: 114.0 residual: 112.02
mrth: 179.1 cth: 158.71 usage: 119.93 residual: 59.17
mrth: 248.85 cth: 217.98 usage: 238.3 residual: 10.55
mrth: 50.86 cth: 45.36 usage: 36.49 residual: 14.37
mrth: 14.78 cth: 10.54 usage: 12.46 residual: 2.32
mrth: 202.0 cth: 180.39 usage: 150.7 residual: 51.3
mrth: 326.45 cth: 234.77 usage: 181.71 residual: 144.74
mrth: 258.58 cth: 204.43 usage: 221.58 residual: 37.0
mrth: 86.95 cth: 62.43 usage: 52.73 residual: 34.22
mrth: 334.92 cth: 292.79 usage: 203.1 residual: 131.82
mrth: 79.4 cth: 65.32 usage: 63.56 residual: 15.84
mrth: 262.27 cth: 232.66 usage: 260.21 residual: 2.06
mrth: 144.62 cth: 114.56 usage: 83.07 residual: 61.55
mrth: 288.21 cth: 216.55 usage: 237.11 residual: 51.1
mrth: 123.86 cth: 109.19 usage: 78.49 residual: 45.37
mrth: 111.81 cth: 86.14 usage: 58.03 residual: 53.78
mrth: 272.0 cth: 218.91 usage: 136.97 residual: 135.03
mrth: 166.79 cth: 123.97 usage: 92.42 residual: 74.37
mrth: 250.18 cth: 221.39 usage: 203.79 residual: 46.39
mrth: 101.05 cth: 83.34 usage: 88.8 residual: 12.25
mrth: 97.92 cth: 86.66 usage: 84.96 residual: 12.96
mrth: 420.22 cth: 363.27 usage: 223.79 residual: 196.43
mrth: 216.65 cth: 185.77 usage: 130.66 residual: 85.99
mrth: 492.02 cth: 411.36 usage: 418.18 residual: 73.84
mrth: 168.07 cth: 125.24 usage: 135.56 residual: 32.51
mrth: 296.2 cth: 210.54 usage: 224.6 residual: 71.6
mrth: 89.75 cth: 70.95 usage: 75.65 residual: 14.1
mrth: 279.8 cth: 198.88 usage: 213.88 residual: 65.92
mrth: 172.47 cth: 127.5 usage: 156.21 residual: 16.26
mrth: 167.77 cth: 131.49 usage: 136.78 residual: 30.99
mrth: 59.93 cth: 47.33 usage: 57.56 residual: 2.37
mrth: 181.43 cth: 154.67 usage: 111.16 residual: 70.27
mrth: 392.32 cth: 281.75 usage: 198.12 residual: 194.2
mrth: 407.27 cth: 285.39 usage: 246.03 residual: 161.24
mrth: 57.21 cth: 49.75 usage: 52.26 residual: 4.95
mrth: 229.56 cth: 168.03 usage: 152.92 residual: 76.64
mrth: 336.15 cth: 247.01 usage: 224.33 residual: 111.82
mrth: 129.69 cth: 108.4 usage: 80.1 residual: 49.59
mrth: 247.12 cth: 209.6 usage: 228.15 residual: 18.97
mrth: 209.6 cth: 167.49 usage: 183.19 residual: 26.41
mrth: 176.69 cth: 152.48 usage: 90.28 residual: 86.41
mrth: 232.17 cth: 192.17 usage: 116.36 residual: 115.81
mrth: 466.48 cth: 329.2 usage: 422.82 residual: 43.66
mrth: 70.92 cth: 59.44 usage: 63.46 residual: 7.46
mrth: 59.71 cth: 47.89 usage: 58.9 residual: 0.81
mrth: 228.62 cth: 170.75 usage: 136.11 residual: 92.51
mrth: 305.86 cth: 223.73 usage: 291.58 residual: 14.28
mrth: 202.04 cth: 161.76 usage: 122.65 residual: 79.39
mrth: 79.8 cth: 65.99 usage: 48.79 residual: 31.01
mrth: 198.41 cth: 178.46 usage: 178.24 residual: 20.17
mrth: 311.75 cth: 244.16 usage: 225.52 residual: 86.23
mrth: 131.51 cth: 112.42 usage: 128.68 residual: 2.83
mrth: 77.9 cth: 65.83 usage: 40.26 residual: 37.64
mrth: 142.36 cth: 117.01 usage: 73.28 residual: 69.08
mrth: 231.0 cth: 168.56 usage: 151.33 residual: 79.67
mrth: 277.3 cth: 207.59 usage: 240.62 residual: 36.68
mrth: 275.48 cth: 218.19 usage: 204.75 residual: 70.73
mrth: 263.26 cth: 184.58 usage: 226.6 residual: 36.66
mrth: 126.54 cth: 107.49 usage: 81.53 residual: 45.01
mrth: 212.35 cth: 189.93 usage: 204.66 residual: 7.69
mrth: 36.59 cth: 32.8 usage: 21.73 residual: 14.86
mrth: 254.03 cth: 191.01 usage: 188.73 residual: 65.3
mrth: 120.18 cth: 98.05 usage: 65.03 residual: 55.15
mrth: 239.49 cth: 206.59 usage: 229.77 residual: 9.72
mrth: 228.63 cth: 205.06 usage: 223.31 residual: 5.32
mrth: 168.94 cth: 134.21 usage: 99.34 residual: 69.6
mrth: 231.22 cth: 162.09 usage: 224.99 residual: 6.23
mrth: 200.35 cth: 149.87 usage: 119.68 residual: 80.67
mrth: 227.2 cth: 159.45 usage: 187.34 residual: 39.86
mrth: 160.35 cth: 126.89 usage: 121.89 residual: 38.46
mrth: 221.67 cth: 192.7 usage: 114.04 residual: 107.63
mrth: 332.77 cth: 294.06 usage: 219.28 residual: 113.49
mrth: 97.91 cth: 82.4 usage: 95.82 residual: 2.09
mrth: 55.37 cth: 43.38 usage: 49.51 residual: 5.86
mrth: 5.93 cth: 4.54 usage: 4.42 residual: 1.51
mrth: 95.39 cth: 70.28 usage: 81.62 residual: 13.77
mrth: 133.03 cth: 97.24 usage: 123.6 residual: 9.43
mrth: 336.23 cth: 271.82 usage: 288.37 residual: 47.86
mrth: 30.43 cth: 23.7 usage: 28.2 residual: 2.23
mrth: 556.78 cth: 418.62 usage: 518.82 residual: 37.96
mrth: 220.74 cth: 172.06 usage: 209.06 residual: 11.68
mrth: 58.93 cth: 51.15 usage: 58.54 residual: 0.39
mrth: 202.86 cth: 163.6 usage: 153.08 residual: 49.78
mrth: 128.11 cth: 95.26 usage: 107.24 residual: 20.87
mrth: 256.75 cth: 218.82 usage: 137.78 residual: 118.97
mrth: 94.45 cth: 77.87 usage: 61.27 residual: 33.18
mrth: 281.64 cth: 251.16 usage: 161.79 residual: 119.85
mrth: 187.36 cth: 165.53 usage: 152.68 residual: 34.68
mrth: 36.68 cth: 30.49 usage: 27.29 residual: 9.39
mrth: 163.99 cth: 120.05 usage: 136.46 residual: 27.53
mrth: 79.83 cth: 58.19 usage: 61.16 residual: 18.67
mrth: 41.98 cth: 31.18 usage: 34.88 residual: 7.1
mrth: 105.43 cth: 86.47 usage: 68.54 residual: 36.89
mrth: 281.11 cth: 228.44 usage: 160.81 residual: 120.3
mrth: 185.95 cth: 142.79 usage: 148.92 residual: 37.03
mrth: 116.65 cth: 95.4 usage: 86.0 residual: 30.65
mrth: 222.28 cth: 183.74 usage: 177.15 residual: 45.13
mrth: 158.45 cth: 128.41 usage: 87.26 residual: 71.19
mrth: 43.39 cth: 37.73 usage: 40.48 residual: 2.91
mrth: 227.69 cth: 187.89 usage: 190.97 residual: 36.72
mrth: 108.34 cth: 77.04 usage: 57.85 residual: 50.49
mrth: 351.7 cth: 247.93 usage: 342.08 residual: 9.62
mrth: 84.77 cth: 73.77 usage: 43.25 residual: 41.52
mrth: 143.27 cth: 121.84 usage: 87.12 residual: 56.15
mrth: 135.82 cth: 106.17 usage: 134.38 residual: 1.44
mrth: 123.64 cth: 98.04 usage: 78.71 residual: 44.93
mrth: 161.58 cth: 137.26 usage: 130.2 residual: 31.38
mrth: 266.8 cth: 203.73 usage: 155.5 residual: 111.3
mrth: 233.93 cth: 201.92 usage: 219.91 residual: 14.02
mrth: 227.05 cth: 201.33 usage: 208.54 residual: 18.51
mrth: 174.55 cth: 139.01 usage: 116.53 residual: 58.02
mrth: 296.79 cth: 210.87 usage: 274.16 residual: 22.63
mrth: 17.91 cth: 14.45 usage: 11.18 residual: 6.73
mrth: 104.03 cth: 73.77 usage: 91.72 residual: 12.31
mrth: 181.66 cth: 145.89 usage: 108.9 residual: 72.76
mrth: 579.85 cth: 410.17 usage: 511.61 residual: 68.24
mrth: 181.02 cth: 157.26 usage: 176.18 residual: 4.84
mrth: 99.53 cth: 84.44 usage: 72.25 residual: 27.28
mrth: 208.67 cth: 172.7 usage: 183.55 residual: 25.12
mrth: 556.64 cth: 428.08 usage: 326.2 residual: 230.44
mrth: 337.87 cth: 247.8 usage: 190.76 residual: 147.11
mrth: 309.42 cth: 245.15 usage: 172.7 residual: 136.72
mrth: 251.66 cth: 197.5 usage: 134.07 residual: 117.59
mrth: 170.47 cth: 142.26 usage: 158.36 residual: 12.11
mrth: 80.31 cth: 58.64 usage: 58.72 residual: 21.59
mrth: 395.52 cth: 332.92 usage: 330.97 residual: 64.55
mrth: 168.98 cth: 131.05 usage: 124.56 residual: 44.42
mrth: 234.57 cth: 182.17 usage: 212.71 residual: 21.86
mrth: 336.71 cth: 262.55 usage: 270.5 residual: 66.21
mrth: 239.57 cth: 167.89 usage: 192.33 residual: 47.24
mrth: 139.58 cth: 100.53 usage: 84.44 residual: 55.14
mrth: 200.0 cth: 154.51 usage: 180.61 residual: 19.39
mrth: 204.14 cth: 162.84 usage: 146.25 residual: 57.89
mrth: 79.14 cth: 64.43 usage: 65.98 residual: 13.16
mrth: 163.0 cth: 120.85 usage: 97.33 residual: 65.67
mrth: 27.72 cth: 20.73 usage: 14.71 residual: 13.01
mrth: 363.81 cth: 292.13 usage: 338.7 residual: 25.11
mrth: 202.84 cth: 157.32 usage: 187.97 residual: 14.87
mrth: 175.5 cth: 142.72 usage: 94.96 residual: 80.54
mrth: 344.14 cth: 272.48 usage: 196.44 residual: 147.7
mrth: 88.23 cth: 68.27 usage: 82.29 residual: 5.94
mrth: 323.37 cth: 249.65 usage: 207.71 residual: 115.66
mrth: 44.94 cth: 37.2 usage: 29.91 residual: 15.03
mrth: 126.64 cth: 93.51 usage: 98.15 residual: 28.49
mrth: 232.71 cth: 190.67 usage: 211.06 residual: 21.65
mrth: 284.71 cth: 236.06 usage: 265.57 residual: 19.14
mrth: 252.62 cth: 215.5 usage: 160.56 residual: 92.06
mrth: 99.03 cth: 74.27 usage: 98.82 residual: 0.21
mrth: 108.27 cth: 85.63 usage: 103.88 residual: 4.39
mrth: 105.62 cth: 86.04 usage: 87.93 residual: 17.69
mrth: 299.32 cth: 210.64 usage: 239.9 residual: 59.42
mrth: 175.57 cth: 133.31 usage: 170.57 residual: 5.0
mrth: 124.38 cth: 102.84 usage: 108.78 residual: 15.6
mrth: 270.64 cth: 229.37 usage: 255.49 residual: 15.15
mrth: 148.32 cth: 114.35 usage: 137.02 residual: 11.3
mrth: 273.24 cth: 236.1 usage: 155.88 residual: 117.36
mrth: 13.15 cth: 11.08 usage: 7.48 residual: 5.67
mrth: 117.71 cth: 88.52 usage: 74.32 residual: 43.39
mrth: 9.64 cth: 8.32 usage: 5.09 residual: 4.55
mrth: 29.68 cth: 23.98 usage: 25.03 residual: 4.65
mrth: 52.83 cth: 39.0 usage: 30.49 residual: 22.34
mrth: 246.93 cth: 200.28 usage: 152.97 residual: 93.96
mrth: 223.15 cth: 182.93 usage: 201.63 residual: 21.52
mrth: 220.08 cth: 159.14 usage: 152.96 residual: 67.12
mrth: 72.3 cth: 59.85 usage: 63.07 residual: 9.23
mrth: 98.3 cth: 74.09 usage: 94.96 residual: 3.34
mrth: 104.45 cth: 80.26 usage: 99.52 residual: 4.93
mrth: 236.66 cth: 178.81 usage: 170.41 residual: 66.25
mrth: 162.15 cth: 125.51 usage: 110.16 residual: 51.99
mrth: 299.73 cth: 261.95 usage: 277.48 residual: 22.25
mrth: 333.0 cth: 243.63 usage: 195.08 residual: 137.92
mrth: 297.13 cth: 265.51 usage: 224.62 residual: 72.51
mrth: 29.74 cth: 24.55 usage: 20.88 residual: 8.86
mrth: 225.77 cth: 182.05 usage: 133.78 residual: 91.99
mrth: 331.47 cth: 250.39 usage: 268.56 residual: 62.91
mrth: 113.56 cth: 88.85 usage: 79.18 residual: 34.38
mrth: 167.23 cth: 141.98 usage: 141.95 residual: 25.28
mrth: 23.4 cth: 17.8 usage: 17.78 residual: 5.62
mrth: 336.47 cth: 278.76 usage: 206.19 residual: 130.28
mrth: 299.87 cth: 257.62 usage: 299.39 residual: 0.48
mrth: 252.33 cth: 194.72 usage: 135.69 residual: 116.64
mrth: 255.05 cth: 214.36 usage: 214.57 residual: 40.48
mrth: 15.12 cth: 12.26 usage: 14.25 residual: 0.87
mrth: 267.35 cth: 225.6 usage: 228.9 residual: 38.45
mrth: 360.88 cth: 286.58 usage: 204.18 residual: 156.7
mrth: 55.28 cth: 45.81 usage: 34.3 residual: 20.98
mrth: 83.15 cth: 61.28 usage: 71.91 residual: 11.24
mrth: 214.18 cth: 152.91 usage: 144.56 residual: 69.62
mrth: 168.05 cth: 133.86 usage: 161.38 residual: 6.67
mrth: 154.52 cth: 112.37 usage: 153.65 residual: 0.87
mrth: 326.37 cth: 235.59 usage: 277.46 residual: 48.91
mrth: 151.41 cth: 126.96 usage: 147.43 residual: 3.98
mrth: 100.99 cth: 80.3 usage: 77.49 residual: 23.5
mrth: 167.44 cth: 142.3 usage: 90.18 residual: 77.26
mrth: 342.88 cth: 306.04 usage: 291.78 residual: 51.1
mrth: 285.25 cth: 232.06 usage: 225.27 residual: 59.98
mrth: 196.68 cth: 172.14 usage: 189.4 residual: 7.28
mrth: 156.44 cth: 120.53 usage: 138.96 residual: 17.48
mrth: 243.06 cth: 176.05 usage: 145.26 residual: 97.8
mrth: 312.12 cth: 254.89 usage: 160.0 residual: 152.12
mrth: 111.85 cth: 98.47 usage: 105.86 residual: 5.99
mrth: 179.68 cth: 144.81 usage: 114.44 residual: 65.24
mrth: 123.48 cth: 98.37 usage: 74.03 residual: 49.45
mrth: 232.66 cth: 172.27 usage: 137.92 residual: 94.74
mrth: 211.52 cth: 154.9 usage: 186.65 residual: 24.87
mrth: 171.89 cth: 130.45 usage: 152.06 residual: 19.83
mrth: 125.27 cth: 107.73 usage: 99.93 residual: 25.34
mrth: 177.06 cth: 137.08 usage: 89.42 residual: 87.64
mrth: 119.88 cth: 94.96 usage: 100.15 residual: 19.73
mrth: 191.98 cth: 157.0 usage: 135.19 residual: 56.79
mrth: 198.47 cth: 160.44 usage: 151.15 residual: 47.32
mrth: 183.56 cth: 131.47 usage: 124.15 residual: 59.41
mrth: 105.97 cth: 85.0 usage: 101.3 residual: 4.67
mrth: 152.86 cth: 120.33 usage: 150.99 residual: 1.87
mrth: 206.5 cth: 148.48 usage: 154.7 residual: 51.8
mrth: 104.9 cth: 89.68 usage: 101.98 residual: 2.92
mrth: 140.39 cth: 99.01 usage: 79.5 residual: 60.89
mrth: 51.04 cth: 39.16 usage: 43.84 residual: 7.2
mrth: 208.47 cth: 172.81 usage: 147.81 residual: 60.66
mrth: 189.11 cth: 136.13 usage: 113.7 residual: 75.41
mrth: 33.14 cth: 23.57 usage: 31.78 residual: 1.36
mrth: 118.41 cth: 98.88 usage: 67.4 residual: 51.01
mrth: 234.35 cth: 179.6 usage: 119.81 residual: 114.54
mrth: 158.19 cth: 122.29 usage: 112.38 residual: 45.81
mrth: 142.47 cth: 100.56 usage: 105.49 residual: 36.98
mrth: 72.14 cth: 55.72 usage: 68.45 residual: 3.69
mrth: 186.6 cth: 163.32 usage: 104.66 residual: 81.94
mrth: 343.76 cth: 277.21 usage: 271.79 residual: 71.97
mrth: 206.42 cth: 145.86 usage: 137.82 residual: 68.6
mrth: 308.85 cth: 219.03 usage: 260.8 residual: 48.05
mrth: 72.51 cth: 55.82 usage: 60.27 residual: 12.24
mrth: 414.74 cth: 328.65 usage: 225.28 residual: 189.46
mrth: 94.78 cth: 78.53 usage: 52.34 residual: 42.44
mrth: 154.8 cth: 131.28 usage: 117.48 residual: 37.32
mrth: 210.35 cth: 166.29 usage: 158.36 residual: 51.99
mrth: 18.74 cth: 16.18 usage: 13.02 residual: 5.72
mrth: 216.49 cth: 156.59 usage: 207.13 residual: 9.36
mrth: 297.22 cth: 215.11 usage: 286.58 residual: 10.64
mrth: 109.82 cth: 83.16 usage: 80.37 residual: 29.45
mrth: 294.93 cth: 231.05 usage: 191.88 residual: 103.05
mrth: 219.76 cth: 161.91 usage: 196.34 residual: 23.42
mrth: 235.12 cth: 207.7 usage: 226.41 residual: 8.71
mrth: 194.85 cth: 149.79 usage: 151.13 residual: 43.72
mrth: 174.62 cth: 129.42 usage: 156.35 residual: 18.27
mrth: 115.55 cth: 84.3 usage: 77.82 residual: 37.73
mrth: 152.54 cth: 122.18 usage: 138.74 residual: 13.8
mrth: 39.91 cth: 33.02 usage: 36.28 residual: 3.63
mrth: 222.75 cth: 169.41 usage: 190.55 residual: 32.2
mrth: 364.09 cth: 277.28 usage: 309.73 residual: 54.36
mrth: 125.51 cth: 97.92 usage: 81.11 residual: 44.4
mrth: 109.47 cth: 86.5 usage: 88.71 residual: 20.76
mrth: 153.07 cth: 116.48 usage: 145.3 residual: 7.77
mrth: 429.25 cth: 318.89 usage: 354.99 residual: 74.26
mrth: 246.37 cth: 177.36 usage: 155.79 residual: 90.58
mrth: 410.4 cth: 298.52 usage: 277.93 residual: 132.47
mrth: 162.5 cth: 129.34 usage: 126.32 residual: 36.18
mrth: 200.47 cth: 153.89 usage: 167.65 residual: 32.82
mrth: 221.7 cth: 190.58 usage: 197.4 residual: 24.3
mrth: 152.17 cth: 123.69 usage: 90.46 residual: 61.71
mrth: 306.34 cth: 225.14 usage: 230.48 residual: 75.86
mrth: 61.61 cth: 50.66 usage: 38.16 residual: 23.45
mrth: 252.17 cth: 196.06 usage: 240.45 residual: 11.72
mrth: 166.84 cth: 122.94 usage: 133.1 residual: 33.74
mrth: 134.01 cth: 103.5 usage: 107.65 residual: 26.36
mrth: 398.61 cth: 309.25 usage: 335.9 residual: 62.71
mrth: 24.65 cth: 19.56 usage: 18.83 residual: 5.82
mrth: 147.35 cth: 111.59 usage: 117.43 residual: 29.92
mrth: 52.33 cth: 43.59 usage: 33.0 residual: 19.33
mrth: 274.79 cth: 216.51 usage: 242.36 residual: 32.43
mrth: 205.29 cth: 182.44 usage: 141.55 residual: 63.74
mrth: 209.89 cth: 177.53 usage: 115.46 residual: 94.43
mrth: 90.46 cth: 64.58 usage: 84.86 residual: 5.6
mrth: 232.51 cth: 191.64 usage: 138.23 residual: 94.28
mrth: 138.14 cth: 109.45 usage: 99.63 residual: 38.51
mrth: 142.19 cth: 107.5 usage: 121.07 residual: 21.12
mrth: 10.56 cth: 7.92 usage: 8.69 residual: 1.87
mrth: 298.48 cth: 238.25 usage: 183.0 residual: 115.48
mrth: 198.36 cth: 158.1 usage: 180.89 residual: 17.47
mrth: 149.91 cth: 129.69 usage: 139.63 residual: 10.28
mrth: 391.13 cth: 306.5 usage: 271.25 residual: 119.88
mrth: 259.08 cth: 207.69 usage: 179.88 residual: 79.2
mrth: 262.11 cth: 225.97 usage: 250.29 residual: 11.82
mrth: 147.44 cth: 109.15 usage: 111.25 residual: 36.19
mrth: 64.17 cth: 53.8 usage: 63.69 residual: 0.48
mrth: 49.77 cth: 40.97 usage: 27.07 residual: 22.7
mrth: 102.8 cth: 76.07 usage: 75.06 residual: 27.74
mrth: 326.22 cth: 289.33 usage: 234.67 residual: 91.55
mrth: 176.46 cth: 153.85 usage: 95.87 residual: 80.59
mrth: 269.49 cth: 203.97 usage: 189.53 residual: 79.96
mrth: 205.31 cth: 163.18 usage: 192.55 residual: 12.76
mrth: 88.88 cth: 70.85 usage: 76.27 residual: 12.61
mrth: 284.9 cth: 240.38 usage: 180.27 residual: 104.63
mrth: 213.02 cth: 191.47 usage: 182.08 residual: 30.94
mrth: 385.2 cth: 318.07 usage: 205.55 residual: 179.65
mrth: 210.47 cth: 148.24 usage: 164.68 residual: 45.79
mrth: 196.73 cth: 174.72 usage: 192.61 residual: 4.12
mrth: 319.43 cth: 241.64 usage: 165.65 residual: 153.78
mrth: 136.72 cth: 115.36 usage: 99.74 residual: 36.98
mrth: 178.1 cth: 156.08 usage: 144.16 residual: 33.94
mrth: 269.09 cth: 237.66 usage: 221.5 residual: 47.59
mrth: 170.48 cth: 134.43 usage: 89.04 residual: 81.44
mrth: 210.96 cth: 169.53 usage: 110.77 residual: 100.19
mrth: 201.93 cth: 149.54 usage: 191.64 residual: 10.29
mrth: 78.61 cth: 61.3 usage: 59.76 residual: 18.85
mrth: 122.46 cth: 106.0 usage: 62.27 residual: 60.19
mrth: 146.86 cth: 103.33 usage: 81.16 residual: 65.7
mrth: 209.67 cth: 169.16 usage: 129.28 residual: 80.39
mrth: 120.58 cth: 96.32 usage: 89.37 residual: 31.21
mrth: 353.42 cth: 302.18 usage: 198.01 residual: 155.41
mrth: 22.32 cth: 19.47 usage: 13.49 residual: 8.83
mrth: 209.39 cth: 146.89 usage: 117.4 residual: 91.99
mrth: 205.55 cth: 153.8 usage: 201.89 residual: 3.66
mrth: 217.74 cth: 166.28 usage: 122.32 residual: 95.42
mrth: 123.4 cth: 90.51 usage: 70.32 residual: 53.08
mrth: 82.82 cth: 70.56 usage: 68.8 residual: 14.02
mrth: 296.42 cth: 223.51 usage: 287.23 residual: 9.19
mrth: 178.87 cth: 153.78 usage: 145.12 residual: 33.75
mrth: 87.85 cth: 69.26 usage: 71.18 residual: 16.67
mrth: 99.19 cth: 75.19 usage: 78.3 residual: 20.89
mrth: 530.44 cth: 470.46 usage: 459.79 residual: 70.65
mrth: 44.57 cth: 31.53 usage: 28.62 residual: 15.95
mrth: 163.51 cth: 119.31 usage: 89.61 residual: 73.9
mrth: 156.99 cth: 117.79 usage: 130.55 residual: 26.44
mrth: 186.53 cth: 151.37 usage: 167.73 residual: 18.8
mrth: 127.1 cth: 89.15 usage: 107.74 residual: 19.36
mrth: 327.48 cth: 269.94 usage: 218.76 residual: 108.72
mrth: 90.55 cth: 66.0 usage: 82.64 residual: 7.91
mrth: 138.08 cth: 108.34 usage: 71.75 residual: 66.33
mrth: 273.34 cth: 200.21 usage: 199.86 residual: 73.48
mrth: 136.86 cth: 112.21 usage: 77.26 residual: 59.6
mrth: 169.05 cth: 122.33 usage: 118.19 residual: 50.86
mrth: 407.41 cth: 323.82 usage: 241.02 residual: 166.39
mrth: 202.6 cth: 181.88 usage: 144.55 residual: 58.05
mrth: 412.19 cth: 341.42 usage: 313.05 residual: 99.14
mrth: 132.17 cth: 104.2 usage: 99.0 residual: 33.17
mrth: 413.35 cth: 304.12 usage: 304.42 residual: 108.93
mrth: 39.98 cth: 32.76 usage: 28.27 residual: 11.71
mrth: 180.2 cth: 156.15 usage: 141.62 residual: 38.58
mrth: 113.5 cth: 87.12 usage: 89.55 residual: 23.95
mrth: 214.08 cth: 159.06 usage: 167.02 residual: 47.06
mrth: 292.14 cth: 245.6 usage: 223.7 residual: 68.44
mrth: 113.24 cth: 95.72 usage: 84.1 residual: 29.14
mrth: 304.54 cth: 249.36 usage: 287.93 residual: 16.61
mrth: 275.53 cth: 197.62 usage: 209.35 residual: 66.18
mrth: 81.98 cth: 65.33 usage: 71.33 residual: 10.65
mrth: 114.75 cth: 85.84 usage: 88.88 residual: 25.87
mrth: 176.21 cth: 143.2 usage: 111.61 residual: 64.6
mrth: 532.66 cth: 435.07 usage: 514.74 residual: 17.92
mrth: 219.11 cth: 188.11 usage: 145.64 residual: 73.47
mrth: 90.54 cth: 66.45 usage: 55.73 residual: 34.81
mrth: 115.92 cth: 98.83 usage: 112.93 residual: 2.99
mrth: 144.68 cth: 113.94 usage: 84.86 residual: 59.82
mrth: 59.74 cth: 47.6 usage: 36.94 residual: 22.8
mrth: 174.19 cth: 134.22 usage: 139.55 residual: 34.64
mrth: 371.36 cth: 306.48 usage: 241.82 residual: 129.54
mrth: 7.48 cth: 6.26 usage: 7.08 residual: 0.4
mrth: 14.98 cth: 12.39 usage: 12.72 residual: 2.26
mrth: 307.53 cth: 251.73 usage: 295.84 residual: 11.69
mrth: 284.29 cth: 248.97 usage: 156.72 residual: 127.57
mrth: 130.34 cth: 108.7 usage: 85.64 residual: 44.7
mrth: 95.26 cth: 73.6 usage: 84.88 residual: 10.38
mrth: 427.92 cth: 342.63 usage: 327.07 residual: 100.85
mrth: 177.71 cth: 139.05 usage: 94.4 residual: 83.31
mrth: 238.24 cth: 188.53 usage: 221.93 residual: 16.31
mrth: 261.5 cth: 183.76 usage: 218.79 residual: 42.71
mrth: 145.91 cth: 128.02 usage: 81.12 residual: 64.79
mrth: 155.91 cth: 127.26 usage: 119.61 residual: 36.3
mrth: 214.26 cth: 176.67 usage: 126.92 residual: 87.34
mrth: 222.08 cth: 171.46 usage: 125.28 residual: 96.8
mrth: 182.68 cth: 137.98 usage: 95.69 residual: 86.99
mrth: 230.43 cth: 181.6 usage: 151.46 residual: 78.97
mrth: 153.44 cth: 110.41 usage: 112.86 residual: 40.58
mrth: 234.01 cth: 187.39 usage: 205.22 residual: 28.79
mrth: 395.61 cth: 298.8 usage: 380.55 residual: 15.06
mrth: 357.16 cth: 262.97 usage: 329.97 residual: 27.19
mrth: 154.97 cth: 136.44 usage: 95.56 residual: 59.41
mrth: 143.81 cth: 122.16 usage: 78.26 residual: 65.55
mrth: 69.64 cth: 57.9 usage: 68.32 residual: 1.32
mrth: 94.49 cth: 82.52 usage: 88.98 residual: 5.51
mrth: 330.4 cth: 260.07 usage: 330.06 residual: 0.34
mrth: 200.64 cth: 171.39 usage: 158.61 residual: 42.03
mrth: 227.44 cth: 183.15 usage: 191.91 residual: 35.53
mrth: 255.9 cth: 191.78 usage: 158.82 residual: 97.08
mrth: 125.09 cth: 100.5 usage: 64.93 residual: 60.16
mrth: 191.56 cth: 161.98 usage: 135.77 residual: 55.79
mrth: 287.78 cth: 237.65 usage: 146.69 residual: 141.09
mrth: 382.2 cth: 299.57 usage: 355.36 residual: 26.84
mrth: 190.79 cth: 139.56 usage: 138.44 residual: 52.35
mrth: 415.75 cth: 373.0 usage: 370.28 residual: 45.47
mrth: 38.29 cth: 33.39 usage: 29.86 residual: 8.43
mrth: 311.11 cth: 271.95 usage: 182.51 residual: 128.6
mrth: 173.49 cth: 154.3 usage: 92.17 residual: 81.32
mrth: 140.73 cth: 118.08 usage: 111.41 residual: 29.32
mrth: 219.9 cth: 159.08 usage: 115.77 residual: 104.13
mrth: 194.37 cth: 140.34 usage: 114.98 residual: 79.39
mrth: 285.44 cth: 205.57 usage: 248.26 residual: 37.18
mrth: 178.59 cth: 131.74 usage: 113.23 residual: 65.36
mrth: 270.14 cth: 206.35 usage: 161.33 residual: 108.81
mrth: 101.66 cth: 75.04 usage: 51.9 residual: 49.76
mrth: 150.76 cth: 119.85 usage: 107.36 residual: 43.4
mrth: 84.36 cth: 66.54 usage: 63.42 residual: 20.94
mrth: 181.33 cth: 138.09 usage: 168.66 residual: 12.67
mrth: 244.64 cth: 184.56 usage: 154.91 residual: 89.73
mrth: 76.34 cth: 59.84 usage: 73.82 residual: 2.52
mrth: 99.95 cth: 87.56 usage: 55.25 residual: 44.7
mrth: 46.85 cth: 39.52 usage: 23.43 residual: 23.42
mrth: 96.4 cth: 76.8 usage: 70.6 residual: 25.8
mrth: 124.23 cth: 101.45 usage: 100.64 residual: 23.59
mrth: 284.53 cth: 212.6 usage: 259.85 residual: 24.68
mrth: 503.79 cth: 433.04 usage: 270.19 residual: 233.6
mrth: 239.24 cth: 183.87 usage: 180.5 residual: 58.74
mrth: 395.65 cth: 305.98 usage: 228.01 residual: 167.64
mrth: 72.29 cth: 62.01 usage: 57.39 residual: 14.9
mrth: 139.15 cth: 109.59 usage: 132.25 residual: 6.9
mrth: 66.43 cth: 56.15 usage: 62.79 residual: 3.64
mrth: 35.71 cth: 28.01 usage: 34.63 residual: 1.08
mrth: 175.62 cth: 133.23 usage: 156.72 residual: 18.9
mrth: 132.89 cth: 112.43 usage: 123.07 residual: 9.82
mrth: 176.78 cth: 127.26 usage: 97.07 residual: 79.71
mrth: 78.23 cth: 68.38 usage: 58.91 residual: 19.32
mrth: 344.05 cth: 292.54 usage: 332.32 residual: 11.73
mrth: 95.1 cth: 79.58 usage: 90.12 residual: 4.98
mrth: 164.57 cth: 133.48 usage: 131.57 residual: 33.0
mrth: 122.66 cth: 97.39 usage: 110.71 residual: 11.95
mrth: 284.69 cth: 243.25 usage: 202.2 residual: 82.49
mrth: 123.34 cth: 87.84 usage: 63.96 residual: 59.38
mrth: 148.15 cth: 131.69 usage: 147.4 residual: 0.75
mrth: 443.04 cth: 336.35 usage: 412.51 residual: 30.53
mrth: 404.62 cth: 336.18 usage: 303.2 residual: 101.42
mrth: 140.48 cth: 105.29 usage: 120.68 residual: 19.8
mrth: 217.7 cth: 162.8 usage: 166.05 residual: 51.65
mrth: 195.34 cth: 138.01 usage: 154.98 residual: 40.36
mrth: 186.24 cth: 137.53 usage: 146.73 residual: 39.51
mrth: 255.82 cth: 206.86 usage: 146.27 residual: 109.55
mrth: 63.41 cth: 51.85 usage: 33.04 residual: 30.37
mrth: 161.59 cth: 132.02 usage: 160.86 residual: 0.73
