mrth: 519.8 cth: 453.01 usage: 432.74 residual: 87.06
mrth: 190.32 cth: 159.56 usage: 113.94 residual: 76.38
mrth: 158.73 cth: 135.94 usage: 148.06 residual: 10.67
mrth: 64.28 cth: 51.78 usage: 50.64 residual: 13.64
mrth: 111.75 cth: 91.14 usage: 63.09 residual: 48.66
mrth: 303.93 cth: 244.98 usage: 262.75 residual: 41.18
mrth: 264.81 cth: 229.41 usage: 238.52 residual: 26.29
mrth: 143.22 cth: 120.54 usage: 107.72 residual: 35.5
mrth: 155.69 cth: 124.12 usage: 108.06 residual: 47.63
mrth: 260.66 cth: 215.09 usage: 222.11 residual: 38.55
mrth: 51.36 cth: 38.93 usage: 39.89 residual: 11.47
mrth: 66.21 cth: 50.87 usage: 58.64 residual: 7.57
mrth: 419.67 cth: 358.85 usage: 383.8 residual: 35.87
mrth: 150.01 cth: 119.1 usage: 100.21 residual: 49.8
mrth: 533.98 cth: 380.67 usage: 303.33 residual: 230.65
mrth: 200.85 cth: 177.88 usage: 131.78 residual: 69.07
mrth: 167.49 cth: 118.0 usage: 91.29 residual: 76.2
mrth: 185.78 cth: 158.72 usage: 176.13 residual: 9.65
mrth: 139.53 cth: 100.17 usage: 124.15 residual: 15.38
mrth: 399.61 cth: 333.24 usage: 370.72 residual: 28.89
mrth: 157.32 cth: 132.7 usage: 89.03 residual: 68.29
mrth: 316.24 cth: 281.02 usage: 279.04 residual: 37.2
mrth: 203.98 cth: 169.79 usage: 154.28 residual: 49.7
mrth: 413.77 cth: 344.15 usage: 398.12 residual: 15.65
mrth: 203.07 cth: 161.99 usage: 150.98 residual: 52.09
mrth: 192.71 cth: 153.17 usage: 147.58 residual: 45.13
mrth: 311.79 cth: 262.4 usage: 261.39 residual: 50.4
mrth: 176.41 cth: 147.8 usage: 125.72 residual: 50.69
mrth: 95.89 cth: 76.37 usage: 70.3 residual: 25.59
mrth: 308.21 cth: 236.93 usage: 207.99 residual: 100.22
mrth: 200.08 cth: 143.54 usage: 132.86 residual: 67.22
mrth: 407.95 cth: 331.54 usage: 325.46 residual: 82.49
mrth: 183.08 cth: 142.87 usage: 113.87 residual: 69.21
mrth: 154.04 cth: 117.86 usage: 96.31 residual: 57.73
mrth: 211.4 cth: 183.98 usage: 187.91 residual: 23.49
mrth: 35.42 cth: 27.85 usage: 35.14 residual: 0.28
mrth: 156.36 cth: 120.77 usage: 129.12 residual: 27.24
mrth: 245.41 cth: 184.24 usage: 126.88 residual: 118.53
mrth: 240.19 cth: 213.87 usage: 133.33 residual: 106.86
mrth: 78.98 cth: 63.48 usage: 54.75 residual: 24.23
mrth: 96.04 cth: 69.47 usage: 58.79 residual: 37.25
mrth: 287.03 cth: 256.92 usage: 167.57 residual: 119.46
mrth: 275.36 cth: 195.02 usage: 184.87 residual: 90.49
mrth: 533.79 cth: 405.26 usage: 481.45 residual: 52.34
mrth: 242.56 cth: 203.54 usage: 139.01 residual: 103.55
mrth: 143.66 cth: 127.08 usage: 99.99 residual: 43.67
mrth: 99.14 cth: 69.63 usage: 57.22 residual: 41.92
mrth: 300.32 cth: 215.69 usage: 157.2 residual: 143.12
mrth: 203.63 cth: 177.96 usage: 153.47 residual: 50.16
mrth: 161.08 cth: 132.48 usage: 128.9 residual: 32.18
mrth: 409.04 cth: 301.31 usage: 242.5 residual: 166.54
mrth: 241.75 cth: 195.35 usage: 196.88 residual: 44.87
mrth: 145.09 cth: 129.91 usage: 127.4 residual: 17.69
mrth: 259.15 cth: 187.54 usage: 213.79 residual: 45.36
mrth: 174.36 cth: 132.16 usage: 173.01 residual: 1.35
mrth: 98.05 cth: 85.7 usage: 96.16 residual: 1.89
mrth: 158.51 cth: 138.59 usage: 122.66 residual: 35.85
mrth: 41.46 cth: 33.91 usage: 31.12 residual: 10.34
mrth: 6.49 cth: 5.62 usage: 6.32 residual: 0.17
mrth: 29.52 cth: 26.5 usage: 20.66 residual: 8.86
mrth: 496.94 cth: 377.81 usage: 496.31 residual: 0.63
mrth: 117.97 cth: 106.09 usage: 69.37 residual: 48.6
mrth: 237.23 cth: 208.68 usage: 209.62 residual: 27.61
mrth: 228.78 cth: 177.8 usage: 134.08 residual: 94.7
mrth: 201.72 cth: 164.78 usage: 140.12 residual: 61.6
mrth: 346.44 cth: 258.98 usage: 262.09 residual: 84.35
mrth: 71.55 cth: 54.87 usage: 61.3 residual: 10.25
mrth: 82.96 cth: 58.16 usage: 81.6 residual: 1.36
mrth: 25.24 cth: 19.71 usage: 15.07 residual: 10.17
mrth: 478.41 cth: 384.73 usage: 478.02 residual: 0.39
mrth: 245.55 cth: 197.0 usage: 167.41 residual: 78.14
mrth: 149.41 cth: 114.83 usage: 132.13 residual: 17.28
mrth: 108.37 cth: 85.8 usage: 88.53 residual: 19.84
mrth: 120.05 cth: 102.14 usage: 64.54 residual: 55.51
mrth: 127.2 cth: 99.99 usage: 125.9 residual: 1.3
mrth: 303.72 cth: 263.97 usage: 203.82 residual: 99.9
mrth: 190.78 cth: 137.16 usage: 107.7 residual: 83.08
mrth: 219.71 cth: 156.29 usage: 210.29 residual: 9.42
mrth: 64.11 cth: 51.46 usage: 63.78 residual: 0.33
mrth: 438.01 cth: 347.47 usage: 437.27 residual: 0.74
mrth: 117.26 cth: 104.51 usage: 101.74 residual: 15.52
mrth: 183.97 cth: 162.91 usage: 138.36 residual: 45.61
mrth: 308.58 cth: 241.06 usage: 200.61 residual: 107.97
mrth: 156.78 cth: 119.6 usage: 110.46 residual: 46.32
mrth: 150.54 cth: 111.06 usage: 140.51 residual: 10.03
mrth: 252.8 cth: 198.73 usage: 132.14 residual: 120.66
mrth: 62.67 cth: 51.76 usage: 37.6 residual: 25.07
mrth: 145.77 cth: 104.76 usage: 86.87 residual: 58.9
mrth: 72.99 cth: 59.67 usage: 69.54 residual: 3.45
mrth: 355.05 cth: 255.48 usage: 275.03 residual: 80.02
mrth: 326.19 cth: 267.11 usage: 198.15 residual: 128.04
mrth: 274.45 cth: 192.2 usage: 273.75 residual: 0.7
mrth: 340.38 cth: 280.49 usage: 288.33 residual: 52.05
mrth: 127.77 cth: 105.74 usage: 70.5 residual: 57.27
mrth: 101.48 cth: 88.13 usage: 54.11 residual: 47.37
mrth: 414.09 cth: 369.92 usage: 330.08 residual: 84.01
mrth: 52.68 cth: 41.94 usage: 31.44 residual: 21.24
mrth: 408.22 cth: 303.25 usage: 339.16 residual: 69.06
mrth: 164.97 cth: 147.02 usage: 119.88 residual: 45.09
mrth: 161.09 cth: 138.27 usage: 151.25 residual: 9.84
mrth: 229.74 cth: 169.84 usage: 118.3 residual: 111.44
mrth: 188.74 cth: 157.96 usage: 137.16 residual: 51.58
mrth: 350.78 cth: 293.2 usage: 189.82 residual: 160.96
mrth: 144.6 cth: 116.63 usage: 80.97 residual: 63.63
mrth: 356.46 cth: 299.67 usage: 356.43 residual: 0.03
mrth: 97.47 cth: 70.13 usage: 73.29 residual: 24.18
mrth: 181.33 cth: 142.85 usage: 104.34 residual: 76.99
mrth: 469.57 cth: 362.18 usage: 368.21 residual: 101.36
mrth: 355.08 cth: 257.9 usage: 287.0 residual: 68.08
mrth: 220.16 cth: 190.83 usage: 200.48 residual: 19.68
mrth: 294.72 cth: 209.0 usage: 238.76 residual: 55.96
mrth: 314.06 cth: 227.1 usage: 199.55 residual: 114.51
mrth: 278.51 cth: 204.5 usage: 256.26 residual: 22.25
mrth: 328.49 cth: 282.48 usage: 173.25 residual: 155.24
mrth: 232.3 cth: 186.77 usage: 226.89 residual: 5.41
mrth: 365.64 cth: 326.65 usage: 188.59 residual: 177.05
mrth: 82.52 cth: 59.56 usage: 69.42 residual: 13.1
mrth: 370.72 cth: 265.22 usage: 352.86 residual: 17.86
mrth: 212.87 cth: 188.43 usage: 137.09 residual: 75.78
mrth: 287.3 cth: 217.53 usage: 250.12 residual: 37.18
mrth: 344.39 cth: 270.63 usage: 174.07 residual: 170.32
mrth: 128.18 cth: 109.58 usage: 111.8 residual: 16.38
mrth: 76.39 cth: 58.44 usage: 57.85 residual: 18.54
mrth: 369.62 cth: 319.97 usage: 247.25 residual: 122.37
mrth: 196.02 cth: 148.42 usage: 121.8 residual: 74.22
mrth: 307.01 cth: 233.76 usage: 214.21 residual: 92.8
mrth: 260.82 cth: 185.3 usage: 199.26 residual: 61.56
mrth: 278.69 cth: 238.28 usage: 248.6 residual: 30.09
mrth: 255.88 cth: 214.13 usage: 148.44 residual: 107.44
mrth: 100.49 cth: 73.67 usage: 96.48 residual: 4.01
mrth: 168.13 cth: 134.57 usage: 110.86 residual: 57.27
mrth: 215.83 cth: 176.41 usage: 173.48 residual: 42.35
mrth: 337.25 cth: 290.66 usage: 291.18 residual: 46.07
mrth: 144.05 cth: 100.87 usage: 119.47 residual: 24.58
mrth: 223.56 cth: 198.4 usage: 200.46 residual: 23.1
mrth: 59.75 cth: 47.42 usage: 35.06 residual: 24.69
mrth: 70.76 cth: 51.36 usage: 37.83 residual: 32.93
mrth: 142.9 cth: 107.07 usage: 123.93 residual: 18.97
mrth: 80.8 cth: 64.49 usage: 77.54 residual: 3.26
mrth: 156.18 cth: 112.51 usage: 132.29 residual: 23.89
mrth: 511.9 cth: 408.02 usage: 486.8 residual: 25.1
mrth: 264.98 cth: 228.72 usage: 174.32 residual: 90.66
mrth: 314.2 cth: 237.32 usage: 159.32 residual: 154.88
mrth: 133.01 cth: 96.62 usage: 95.3 residual: 37.71
mrth: 381.45 cth: 334.96 usage: 263.56 residual: 117.89
mrth: 88.92 cth: 68.92 usage: 55.04 residual: 33.88
mrth: 141.66 cth: 122.07 usage: 119.53 residual: 22.13
mrth: 223.32 cth: 156.71 usage: 222.09 residual: 1.23
mrth: 210.16 cth: 185.75 usage: 143.71 residual: 66.45
mrth: 316.04 cth: 256.6 usage: 158.04 residual: 158.0
mrth: 255.06 cth: 203.56 usage: 178.27 residual: 76.79
mrth: 118.88 cth: 103.8 usage: 91.83 residual: 27.05
mrth: 71.4 cth: 51.84 usage: 51.58 residual: 19.82
mrth: 195.54 cth: 172.77 usage: 106.96 residual: 88.58
mrth: 104.43 cth: 89.87 usage: 102.88 residual: 1.55
mrth: 160.99 cth: 125.98 usage: 95.22 residual: 65.77
mrth: 51.22 cth: 41.67 usage: 28.79 residual: 22.43
mrth: 60.84 cth: 50.38 usage: 42.92 residual: 17.92
mrth: 94.79 cth: 68.39 usage: 65.25 residual: 29.54
mrth: 284.46 cth: 224.65 usage: 212.0 residual: 72.46
mrth: 246.62 cth: 179.39 usage: 132.86 residual: 113.76
mrth: 59.29 cth: 53.29 usage: 30.75 residual: 28.54
mrth: 518.39 cth: 461.46 usage: 307.36 residual: 211.03
mrth: 217.89 cth: 183.6 usage: 125.31 residual: 92.58
mrth: 71.5 cth: 60.3 usage: 70.97 residual: 0.53
mrth: 179.43 cth: 126.45 usage: 102.95 residual: 76.48
mrth: 404.99 cth: 289.81 usage: 283.78 residual: 121.21
mrth: 311.56 cth: 232.3 usage: 260.53 residual: 51.03
mrth: 154.84 cth: 111.09 usage: 125.25 residual: 29.59
mrth: 301.76 cth: 264.2 usage: 247.18 residual: 54.58
mrth: 274.15 cth: 222.04 usage: 140.52 residual: 133.63
mrth: 126.51 cth: 109.75 usage: 123.43 residual: 3.08
mrth: 23.65 cth: 19.93 usage: 17.58 residual: 6.07
mrth: 369.35 cth: 313.57 usage: 308.08 residual: 61.27
mrth: 63.36 cth: 53.9 usage: 32.52 residual: 30.84
mrth: 319.06 cth: 280.62 usage: 296.37 residual: 22.69
mrth: 168.68 cth: 119.21 usage: 167.76 residual: 0.92
mrth: 127.09 cth: 89.96 usage: 112.62 residual: 14.47
mrth: 133.86 cth: 98.12 usage: 106.34 residual: 27.52
mrth: 305.75 cth: 273.27 usage: 228.37 residual: 77.38
mrth: 67.22 cth: 52.69 usage: 35.69 residual: 31.53
mrth: 277.5 cth: 214.53 usage: 218.18 residual: 59.32
mrth: 197.66 cth: 141.0 usage: 161.47 residual: 36.19
mrth: 106.03 cth: 82.76 usage: 66.6 residual: 39.43
mrth: 134.02 cth: 120.46 usage: 109.23 residual: 24.79
mrth: 101.98 cth: 84.34 usage: 64.42 residual: 37.56
mrth: 227.35 cth: 175.03 usage: 200.36 residual: 26.99
mrth: 188.88 cth: 156.47 usage: 108.74 residual: 80.14
mrth: 191.97 cth: 161.54 usage: 120.2 residual: 71.77
mrth: 121.38 cth: 96.83 usage: 65.73 residual: 55.65
mrth: 119.66 cth: 100.06 usage: 105.29 residual: 14.37
mrth: 154.48 cth: 120.13 usage: 79.91 residual: 74.57
mrth: 8.14 cth: 7.16 usage: 7.14 residual: 1.0
mrth: 343.23 cth: 278.17 usage: 268.31 residual: 74.92
mrth: 208.12 cth: 152.57 usage: 110.95 residual: 97.17
mrth: 207.42 cth: 165.16 usage: 138.66 residual: 68.76
mrth: 164.06 cth: 126.37 usage: 162.6 residual: 1.46
mrth: 355.83 cth: 305.89 usage: 309.39 residual: 46.44
mrth: 293.55 cth: 236.49 usage: 269.16 residual: 24.39
mrth: 268.18 cth: 229.38 usage: 243.32 residual: 24.86
mrth: 218.85 cth: 194.75 usage: 127.72 residual: 91.13
mrth: 364.44 cth: 277.64 usage: 332.42 residual: 32.02
mrth: 99.83 cth: 86.23 usage: 90.24 residual: 9.59
mrth: 151.02 cth: 128.05 usage: 111.26 residual: 39.76
mrth: 267.07 cth: 236.02 usage: 172.6 residual: 94.47
mrth: 140.09 cth: 102.07 usage: 96.92 residual: 43.17
mrth: 225.55 cth: 187.57 usage: 210.92 residual: 14.63
mrth: 203.26 cth: 161.86 usage: 160.01 residual: 43.25
mrth: 207.26 cth: 183.84 usage: 120.8 residual: 86.46
mrth: 171.6 cth: 136.92 usage: 120.82 residual: 50.78
mrth: 398.32 cth: 353.28 usage: 291.97 residual: 106.35
mrth: 19.81 cth: 16.96 usage: 18.0 residual: 1.81
mrth: 192.79 cth: 168.0 usage: 191.11 residual: 1.68
mrth: 84.06 cth: 58.91 usage: 70.15 residual: 13.91
mrth: 61.67 cth: 43.47 usage: 40.92 residual: 20.75
mrth: 213.65 cth: 188.57 usage: 181.38 residual: 32.27
mrth: 27.15 cth: 22.43 usage: 24.43 residual: 2.72
mrth: 87.23 cth: 68.79 usage: 61.28 residual: 25.95
mrth: 49.96 cth: 43.66 usage: 38.31 residual: 11.65
mrth: 143.24 cth: 102.18 usage: 75.11 residual: 68.13
mrth: 248.92 cth: 216.24 usage: 142.88 residual: 106.04
mrth: 215.22 cth: 188.85 usage: 113.34 residual: 101.88
mrth: 498.59 cth: 349.83 usage: 439.53 residual: 59.06
mrth: 141.23 cth: 113.03 usage: 136.35 residual: 4.88
mrth: 433.31 cth: 367.86 usage: 222.86 residual: 210.45
mrth: 204.58 cth: 155.1 usage: 133.46 residual: 71.12
mrth: 168.08 cth: 147.38 usage: 90.09 residual: 77.99
mrth: 152.4 cth: 117.95 usage: 141.63 residual: 10.77
mrth: 161.38 cth: 130.33 usage: 122.11 residual: 39.27
mrth: 32.54 cth: 26.07 usage: 29.75 residual: 2.79
mrth: 330.91 cth: 241.73 usage: 172.13 residual: 158.78
mrth: 97.18 cth: 78.42 usage: 87.04 residual: 10.14
mrth: 228.85 cth: 182.77 usage: 118.57 residual: 110.28
mrth: 131.06 cth: 101.91 usage: 107.88 residual: 23.18
mrth: 190.84 cth: 155.74 usage: 114.66 residual: 76.18
mrth: 552.91 cth: 474.67 usage: 411.41 residual: 141.5
mrth: 243.47 cth: 200.62 usage: 155.43 residual: 88.04
mrth: 72.29 cth: 59.91 usage: 50.52 residual: 21.77
mrth: 252.88 cth: 212.82 usage: 245.69 residual: 7.19
mrth: 412.02 cth: 302.65 usage: 305.87 residual: 106.15
mrth: 49.91 cth: 38.61 usage: 42.18 residual: 7.73
mrth: 81.12 cth: 71.21 usage: 77.94 residual: 3.18
mrth: 47.69 cth: 38.3 usage: 44.76 residual: 2.93
mrth: 141.79 cth: 108.62 usage: 112.12 residual: 29.67
mrth: 150.65 cth: 109.25 usage: 136.67 residual: 13.98
mrth: 355.06 cth: 298.66 usage: 280.36 residual: 74.7
mrth: 283.11 cth: 241.06 usage: 175.04 residual: 108.07
mrth: 408.38 cth: 346.1 usage: 236.29 residual: 172.09
mrth: 178.64 cth: 159.0 usage: 169.98 residual: 8.66
mrth: 82.78 cth: 59.13 usage: 67.02 residual: 15.76
mrth: 141.03 cth: 111.58 usage: 120.29 residual: 20.74
mrth: 160.77 cth: 139.25 usage: 106.48 residual: 54.29
mrth: 207.98 cth: 178.02 usage: 164.61 residual: 43.37
mrth: 211.03 cth: 186.77 usage: 151.07 residual: 59.96
mrth: 332.71 cth: 251.59 usage: 282.93 residual: 49.78
mrth: 99.36 cth: 83.9 usage: 71.77 residual: 27.59
mrth: 64.78 cth: 46.7 usage: 57.27 residual: 7.51
mrth: 169.83 cth: 141.02 usage: 168.85 residual: 0.98
mrth: 111.43 cth: 83.79 usage: 89.92 residual: 21.51
mrth: 99.86 cth: 80.61 usage: 92.01 residual: 7.85
mrth: 186.45 cth: 143.41 usage: 97.94 residual: 88.51
mrth: 214.02 cth: 176.06 usage: 186.43 residual: 27.59
mrth: 160.52 cth: 119.91 usage: 136.54 residual: 23.98
mrth: 430.18 cth: 328.18 usage: 374.39 residual: 55.79
mrth: 70.52 cth: 59.71 usage: 50.23 residual: 20.29
mrth: 83.41 cth: 63.48 usage: 68.6 residual: 14.81
mrth: 283.02 cth: 227.34 usage: 201.1 residual: 81.92
mrth: 267.47 cth: 193.79 usage: 144.46 residual: 123.01
mrth: 176.86 cth: 128.4 usage: 104.97 residual: 71.89
mrth: 221.6 cth: 183.53 usage: 195.62 residual: 25.98
mrth: 113.37 cth: 83.92 usage: 72.25 residual: 41.12
mrth: 239.04 cth: 167.83 usage: 212.84 residual: 26.2
mrth: 182.74 cth: 137.7 usage: 123.73 residual: 59.01
mrth: 341.78 cth: 250.82 usage: 322.85 residual: 18.93
mrth: 274.42 cth: 237.36 usage: 198.65 residual: 75.77
mrth: 155.63 cth: 120.06 usage: 105.68 residual: 49.95
mrth: 38.37 cth: 32.73 usage: 19.49 residual: 18.88
mrth: 157.37 cth: 112.69 usage: 109.26 residual: 48.11
mrth: 55.68 cth: 45.76 usage: 42.71 residual: 12.97
mrth: 285.38 cth: 243.83 usage: 234.01 residual: 51.37
mrth: 168.12 cth: 119.76 usage: 128.64 residual: 39.48
mrth: 232.32 cth: 182.76 usage: 161.13 residual: 71.19
mrth: 143.65 cth: 122.12 usage: 129.98 residual: 13.67
mrth: 137.8 cth: 107.01 usage: 85.15 residual: 52.65
mrth: 234.96 cth: 210.95 usage: 134.19 residual: 100.77
mrth: 60.62 cth: 53.3 usage: 44.56 residual: 16.06
mrth: 128.69 cth: 95.41 usage: 90.58 residual: 38.11
mrth: 265.72 cth: 215.06 usage: 242.75 residual: 22.97
mrth: 214.6 cth: 153.25 usage: 194.64 residual: 19.96
mrth: 295.72 cth: 220.43 usage: 280.27 residual: 15.45
mrth: 94.84 cth: 78.5 usage: 73.75 residual: 21.09
mrth: 236.98 cth: 195.86 usage: 137.11 residual: 99.87
mrth: 153.8 cth: 127.56 usage: 100.46 residual: 53.34
mrth: 345.04 cth: 256.38 usage: 192.7 residual: 152.34
mrth: 70.95 cth: 52.51 usage: 54.38 residual: 16.57
mrth: 279.37 cth: 245.28 usage: 163.2 residual: 116.17
mrth: 53.79 cth: 38.39 usage: 45.73 residual: 8.06
mrth: 75.7 cth: 59.89 usage: 44.37 residual: 31.33
mrth: 187.33 cth: 139.16 usage: 120.51 residual: 66.82
mrth: 479.18 cth: 357.8 usage: 253.06 residual: 226.12
mrth: 242.54 cth: 181.02 usage: 182.37 residual: 60.17
mrth: 157.91 cth: 113.08 usage: 148.65 residual: 9.26
mrth: 97.64 cth: 70.33 usage: 90.95 residual: 6.69
mrth: 523.12 cth: 404.29 usage: 330.57 residual: 192.55
mrth: 104.58 cth: 74.41 usage: 84.01 residual: 20.57
mrth: 225.41 cth: 182.84 usage: 143.23 residual: 82.18
mrth: 119.35 cth: 98.37 usage: 76.02 residual: 43.33
mrth: 75.87 cth: 56.83 usage: 38.25 residual: 37.62
mrth: 81.19 cth: 70.74 usage: 44.99 residual: 36.2
mrth: 287.03 cth: 222.23 usage: 167.11 residual: 119.92
mrth: 146.48 cth: 111.26 usage: 105.57 residual: 40.91
mrth: 64.54 cth: 48.61 usage: 43.62 residual: 20.92
mrth: 278.11 cth: 245.34 usage: 153.83 residual: 124.28
mrth: 441.9 cth: 371.07 usage: 420.36 residual: 21.54
mrth: 297.63 cth: 230.8 usage: 284.94 residual: 12.69
mrth: 254.32 cth: 202.5 usage: 153.5 residual: 100.82
mrth: 194.55 cth: 151.96 usage: 111.92 residual: 82.63
mrth: 263.58 cth: 214.87 usage: 162.3 residual: 101.28
mrth: 88.28 cth: 71.14 usage: 76.64 residual: 11.64
mrth: 125.51 cth: 99.92 usage: 106.29 residual: 19.22
mrth: 111.14 cth: 81.12 usage: 81.29 residual: 29.85
mrth: 145.77 cth: 129.95 usage: 73.18 residual: 72.59
mrth: 212.69 cth: 152.35 usage: 199.6 residual: 13.09
mrth: 162.25 cth: 116.72 usage: 130.15 residual: 32.1
mrth: 326.8 cth: 232.74 usage: 198.02 residual: 128.78
mrth: 138.47 cth: 113.25 usage: 118.34 residual: 20.13
mrth: 154.91 cth: 124.08 usage: 96.36 residual: 58.55
mrth: 238.69 cth: 206.82 usage: 140.0 residual: 98.69
mrth: 272.44 cth: 241.45 usage: 262.43 residual: 10.01
mrth: 60.93 cth: 52.76 usage: 45.86 residual: 15.07
mrth: 135.11 cth: 118.96 usage: 87.45 residual: 47.66
mrth: 137.36 cth: 120.34 usage: 106.41 residual: 30.95
mrth: 275.23 cth: 247.23 usage: 227.8 residual: 47.43
mrth: 168.4 cth: 149.08 usage: 102.66 residual: 65.74
mrth: 66.24 cth: 50.84 usage: 51.9 residual: 14.34
mrth: 244.04 cth: 207.91 usage: 168.69 residual: 75.35
mrth: 273.76 cth: 221.76 usage: 143.94 residual: 129.82
mrth: 282.66 cth: 208.41 usage: 195.39 residual: 87.27
mrth: 153.48 cth: 129.51 usage: 133.95 residual: 19.53
mrth: 125.75 cth: 91.38 usage: 88.44 residual: 37.31
mrth: 340.81 cth: 300.33 usage: 301.59 residual: 39.22
mrth: 80.91 cth: 67.95 usage: 68.81 residual: 12.1
mrth: 20.52 cth: 14.87 usage: 20.1 residual: 0.42
mrth: 210.37 cth: 154.73 usage: 195.8 residual: 14.57
mrth: 188.64 cth: 161.99 usage: 160.1 residual: 28.54
mrth: 246.6 cth: 185.9 usage: 146.02 residual: 100.58
mrth: 124.42 cth: 106.66 usage: 67.01 residual: 57.41
mrth: 59.17 cth: 48.01 usage: 42.52 residual: 16.65
mrth: 215.75 cth: 178.04 usage: 202.03 residual: 13.72
mrth: 79.91 cth: 71.06 usage: 63.82 residual: 16.09
mrth: 227.79 cth: 185.79 usage: 207.43 residual: 20.36
mrth: 227.02 cth: 169.34 usage: 150.91 residual: 76.11
mrth: 215.7 cth: 180.55 usage: 175.17 residual: 40.53
mrth: 183.38 cth: 163.64 usage: 169.92 residual: 13.46
mrth: 171.64 cth: 128.44 usage: 94.38 residual: 77.26
mrth: 76.68 cth: 63.62 usage: 66.85 residual: 9.83
mrth: 169.68 cth: 140.0 usage: 145.7 residual: 23.98
mrth: 469.72 cth: 348.09 usage: 467.64 residual: 2.08
mrth: 78.47 cth: 60.68 usage: 55.04 residual: 23.43
mrth: 285.64 cth: 207.12 usage: 148.75 residual: 136.89
mrth: 201.78 cth: 180.61 usage: 150.32 residual: 51.46
mrth: 121.64 cth: 104.86 usage: 62.81 residual: 58.83
mrth: 233.56 cth: 191.37 usage: 208.76 residual: 24.8
mrth: 204.97 cth: 156.42 usage: 150.65 residual: 54.32
mrth: 185.34 cth: 159.06 usage: 133.89 residual: 51.45
mrth: 358.63 cth: 306.9 usage: 229.21 residual: 129.42
mrth: 278.39 cth: 197.5 usage: 154.87 residual: 123.52
mrth: 135.0 cth: 115.23 usage: 93.62 residual: 41.38
mrth: 159.6 cth: 139.7 usage: 98.76 residual: 60.84
mrth: 252.83 cth: 199.67 usage: 187.03 residual: 65.8
mrth: 75.58 cth: 66.28 usage: 71.58 residual: 4.0
mrth: 211.71 cth: 168.74 usage: 160.97 residual: 50.74
mrth: 102.05 cth: 75.7 usage: 99.86 residual: 2.19
mrth: 122.98 cth: 104.55 usage: 97.29 residual: 25.69
mrth: 326.24 cth: 260.83 usage: 283.24 residual: 43.0
mrth: 156.84 cth: 128.49 usage: 118.1 residual: 38.74
mrth: 212.59 cth: 163.29 usage: 129.94 residual: 82.65
mrth: 130.23 cth: 109.76 usage: 112.77 residual: 17.46
mrth: 290.1 cth: 239.23 usage: 156.5 residual: 133.6
mrth: 206.95 cth: 151.19 usage: 120.59 residual: 86.36
mrth: 171.21 cth: 127.13 usage: 100.28 residual: 70.93
mrth: 233.81 cth: 176.19 usage: 182.81 residual: 51.0
mrth: 249.92 cth: 219.23 usage: 167.84 residual: 82.08
mrth: 136.04 cth: 100.35 usage: 124.74 residual: 11.3
mrth: 195.87 cth: 155.63 usage: 174.11 residual: 21.76
mrth: 238.18 cth: 209.02 usage: 146.67 residual: 91.51
mrth: 468.8 cth: 392.12 usage: 398.34 residual: 70.46
mrth: 83.6 cth: 59.05 usage: 77.54 residual: 6.06
mrth: 179.98 cth: 139.58 usage: 149.21 residual: 30.77
mrth: 450.42 cth: 319.02 usage: 440.65 residual: 9.77
mrth: 194.04 cth: 169.38 usage: 137.14 residual: 56.9
mrth: 392.28 cth: 345.05 usage: 368.15 residual: 24.13
mrth: 176.43 cth: 124.06 usage: 167.71 residual: 8.72
mrth: 131.68 cth: 104.76 usage: 74.27 residual: 57.41
mrth: 26.75 cth: 20.05 usage: 22.95 residual: 3.8
mrth: 241.86 cth: 216.15 usage: 127.64 residual: 114.22
mrth: 113.05 cth: 82.25 usage: 81.87 residual: 31.18
mrth: 59.86 cth: 48.03 usage: 41.3 residual: 18.56
mrth: 188.13 cth: 165.85 usage: 149.78 residual: 38.35
mrth: 327.95 cth: 279.93 usage: 302.45 residual: 25.5
mrth: 135.86 cth: 119.06 usage: 93.41 residual: 42.45
mrth: 37.8 cth: 30.55 usage: 29.98 residual: 7.82
mrth: 225.31 cth: 199.39 usage: 199.58 residual: 25.73
mrth: 277.14 cth: 227.86 usage: 223.65 residual: 53.49
mrth: 36.96 cth: 33.2 usage: 32.96 residual: 4.0
mrth: 342.61 cth: 291.45 usage: 195.95 residual: 146.66
mrth: 216.97 cth: 166.09 usage: 128.77 residual: 88.2
mrth: 188.86 cth: 146.63 usage: 102.7 residual: 86.16
mrth: 197.17 cth: 142.97 usage: 163.23 residual: 33.94
mrth: 124.93 cth: 100.67 usage: 69.37 residual: 55.56
mrth: 178.9 cth: 130.93 usage: 145.48 residual: 33.42
mrth: 160.75 cth: 143.62 usage: 159.99 residual: 0.76
mrth: 278.03 cth: 241.16 usage: 173.48 residual: 104.55
mrth: 126.13 cth: 94.57 usage: 75.5 residual: 50.63
mrth: 88.46 cth: 73.19 usage: 71.2 residual: 17.26
mrth: 270.89 cth: 236.95 usage: 263.15 residual: 7.74
mrth: 100.79 cth: 80.04 usage: 66.4 residual: 34.39
mrth: 128.99 cth: 109.67 usage: 78.3 residual: 50.69
mrth: 141.6 cth: 118.52 usage: 79.24 residual: 62.36
mrth: 284.56 cth: 242.21 usage: 207.49 residual: 77.07
mrth: 172.18 cth: 126.5 usage: 109.31 residual: 62.87
mrth: 123.18 cth: 98.71 usage: 109.24 residual: 13.94
mrth: 205.26 cth: 145.89 usage: 202.41 residual: 2.85
mrth: 164.44 cth: 132.49 usage: 126.51 residual: 37.93
mrth: 40.36 cth: 31.57 usage: 36.03 residual: 4.33
mrth: 259.61 cth: 208.57 usage: 177.59 residual: 82.02
mrth: 90.33 cth: 67.99 usage: 72.95 residual: 17.38
mrth: 157.93 cth: 134.81 usage: 85.27 residual: 72.66
mrth: 86.77 cth: 67.81 usage: 59.74 residual: 27.03
mrth: 108.47 cth: 93.37 usage: 106.11 residual: 2.36
mrth: 124.52 cth: 88.06 usage: 97.2 residual: 27.32
mrth: 121.22 cth: 90.4 usage: 120.11 residual: 1.11
mrth: 203.23 cth: 166.08 usage: 124.69 residual: 78.54
mrth: 208.02 cth: 151.81 usage: 119.98 residual: 88.04
mrth: 50.74 cth: 44.47 usage: 44.29 residual: 6.45
mrth: 201.31 cth: 164.51 usage: 143.92 residual: 57.39
mrth: 305.14 cth: 237.59 usage: 243.5 residual: 61.64
mrth: 141.36 cth: 107.48 usage: 134.83 residual: 6.53
mrth: 203.05 cth: 155.02 usage: 186.61 residual: 16.44
mrth: 304.62 cth: 215.01 usage: 186.83 residual: 117.79
mrth: 300.75 cth: 215.24 usage: 188.06 residual: 112.69
mrth: 140.95 cth: 99.68 usage: 119.13 residual: 21.82
mrth: 56.15 cth: 39.77 usage: 43.16 residual: 12.99
mrth: 261.42 cth: 219.69 usage: 181.14 residual: 80.28
mrth: 299.23 cth: 244.95 usage: 160.55 residual: 138.68
mrth: 178.78 cth: 157.63 usage: 113.36 residual: 65.42
mrth: 197.38 cth: 141.81 usage: 131.55 residual: 65.83
mrth: 118.15 cth: 95.47 usage: 78.3 residual: 39.85
mrth: 171.16 cth: 153.48 usage: 116.47 residual: 54.69
mrth: 266.1 cth: 238.17 usage: 169.87 residual: 96.23
mrth: 173.8 cth: 149.62 usage: 148.54 residual: 25.26
mrth: 65.06 cth: 47.94 usage: 54.87 residual: 10.19
mrth: 155.46 cth: 130.05 usage: 89.97 residual: 65.49
mrth: 193.57 cth: 140.65 usage: 155.31 residual: 38.26
mrth: 68.71 cth: 59.99 usage: 68.71 residual: 0.0
mrth: 174.45 cth: 140.82 usage: 110.52 residual: 63.93
mrth: 153.17 cth: 129.96 usage: 126.72 residual: 26.45
mrth: 89.88 cth: 79.01 usage: 71.94 residual: 17.94
mrth: 243.57 cth: 205.63 usage: 225.55 residual: 18.02
mrth: 87.44 cth: 77.2 usage: 66.19 residual: 21.25
mrth: 80.26 cth: 66.97 usage: 44.86 residual: 35.4
mrth: 249.59 cth: 180.11 usage: 222.66 residual: 26.93
mrth: 276.95 cth: 209.12 usage: 220.93 residual: 56.02
mrth: 161.93 cth: 125.29 usage: 155.01 residual: 6.92
mrth: 257.46 cth: 226.04 usage: 146.33 residual: 111.13
mrth: 160.75 cth: 120.78 usage: 112.87 residual: 47.88
mrth: 97.69 cth: 80.41 usage: 75.81 residual: 21.88
mrth: 209.19 cth: 183.98 usage: 127.61 residual: 81.58
mrth: 337.24 cth: 279.85 usage: 231.56 residual: 105.68
mrth: 130.66 cth: 111.43 usage: 112.64 residual: 18.02
mrth: 184.74 cth: 162.06 usage: 104.41 residual: 80.33
mrth: 170.82 cth: 140.88 usage: 151.97 residual: 18.85
mrth: 273.89 cth: 205.83 usage: 237.47 residual: 36.42
mrth: 245.54 cth: 216.51 usage: 145.25 residual: 100.29
mrth: 164.76 cth: 116.71 usage: 160.68 residual: 4.08
mrth: 133.07 cth: 99.7 usage: 119.06 residual: 14.01
mrth: 157.54 cth: 126.75 usage: 126.96 residual: 30.58
mrth: 274.45 cth: 193.19 usage: 201.82 residual: 72.63
mrth: 372.13 cth: 262.33 usage: 213.56 residual: 158.57
mrth: 102.8 cth: 78.89 usage: 98.75 residual: 4.05
mrth: 156.52 cth: 115.56 usage: 111.77 residual: 44.75
mrth: 163.61 cth: 122.0 usage: 101.49 residual: 62.12
mrth: 128.5 cth: 91.96 usage: 70.65 residual: 57.85
mrth: 45.82 cth: 32.79 usage: 24.55 residual: 21.27
mrth: 230.95 cth: 171.6 usage: 180.29 residual: 50.66
mrth: 190.7 cth: 136.67 usage: 149.57 residual: 41.13
mrth: 60.18 cth: 42.95 usage: 39.68 residual: 20.5
mrth: 213.46 cth: 183.5 usage: 192.21 residual: 21.25
mrth: 146.72 cth: 114.5 usage: 93.19 residual: 53.53
mrth: 284.32 cth: 238.35 usage: 194.65 residual: 89.67
mrth: 145.71 cth: 125.67 usage: 143.51 residual: 2.2
mrth: 91.26 cth: 73.41 usage: 55.09 residual: 36.17
mrth: 136.21 cth: 116.87 usage: 133.02 residual: 3.19
mrth: 254.38 cth: 218.9 usage: 229.46 residual: 24.92
mrth: 276.2 cth: 242.05 usage: 268.47 residual: 7.73
mrth: 43.5 cth: 31.79 usage: 24.21 residual: 19.29
mrth: 129.76 cth: 102.85 usage: 65.62 residual: 64.14
mrth: 203.25 cth: 159.57 usage: 165.24 residual: 38.01
mrth: 245.03 cth: 179.52 usage: 243.79 residual: 1.24
mrth: 160.13 cth: 136.49 usage: 90.0 residual: 70.13
mrth: 280.45 cth: 242.7 usage: 189.54 residual: 90.91
mrth: 565.52 cth: 450.35 usage: 290.13 residual: 275.39
mrth: 189.62 cth: 133.29 usage: 169.58 residual: 20.04
mrth: 90.61 cth: 78.35 usage: 52.46 residual: 38.15
mrth: 133.82 cth: 115.98 usage: 122.69 residual: 11.13
mrth: 37.24 cth: 30.77 usage: 33.75 residual: 3.49
mrth: 307.39 cth: 221.63 usage: 161.72 residual: 145.67
mrth: 96.21 cth: 79.88 usage: 89.07 residual: 7.14
mrth: 358.36 cth: 301.29 usage: 290.19 residual: 68.17
mrth: 261.16 cth: 183.9 usage: 224.72 residual: 36.44
mrth: 259.09 cth: 182.68 usage: 229.37 residual: 29.72
mrth: 106.9 cth: 77.81 usage: 64.06 residual: 42.84
mrth: 258.06 cth: 203.92 usage: 155.63 residual: 102.43
mrth: 271.56 cth: 198.66 usage: 198.74 residual: 72.82
mrth: 195.92 cth: 170.56 usage: 192.9 residual: 3.02
mrth: 59.81 cth: 48.37 usage: 58.97 residual: 0.84
mrth: 361.91 cth: 292.64 usage: 216.57 residual: 145.34
mrth: 326.4 cth: 246.93 usage: 199.06 residual: 127.34
mrth: 107.02 cth: 88.82 usage: 57.37 residual: 49.65
mrth: 55.19 cth: 48.39 usage: 43.99 residual: 11.2
mrth: 174.01 cth: 152.23 usage: 148.67 residual: 25.34
mrth: 9.74 cth: 7.58 usage: 6.0 residual: 3.74
mrth: 199.91 cth: 141.26 usage: 136.68 residual: 63.23
mrth: 166.01 cth: 127.75 usage: 161.75 residual: 4.26
mrth: 380.63 cth: 305.36 usage: 351.58 residual: 29.05
mrth: 282.68 cth: 222.83 usage: 163.02 residual: 119.66
mrth: 154.79 cth: 137.67 usage: 109.6 residual: 45.19
mrth: 86.54 cth: 70.27 usage: 82.56 residual: 3.98
mrth: 218.68 cth: 161.75 usage: 152.58 residual: 66.1
mrth: 67.6 cth: 60.12 usage: 48.14 residual: 19.46
mrth: 111.98 cth: 90.97 usage: 68.99 residual: 42.99
mrth: 66.96 cth: 52.4 usage: 47.16 residual: 19.8
mrth: 335.91 cth: 256.89 usage: 238.78 residual: 97.13
mrth: 177.58 cth: 133.81 usage: 97.48 residual: 80.1
mrth: 107.12 cth: 88.75 usage: 59.12 residual: 48.0
mrth: 149.82 cth: 132.81 usage: 85.02 residual: 64.8
mrth: 226.73 cth: 162.84 usage: 148.39 residual: 78.34
mrth: 232.82 cth: 167.73 usage: 203.41 residual: 29.41
mrth: 293.11 cth: 226.77 usage: 154.16 residual: 138.95
mrth: 196.21 cth: 175.43 usage: 123.29 residual: 72.92
mrth: 115.27 cth: 97.1 usage: 66.72 residual: 48.55
mrth: 426.15 cth: 362.68 usage: 247.94 residual: 178.21
mrth: 31.96 cth: 27.22 usage: 31.82 residual: 0.14
mrth: 141.35 cth: 99.87 usage: 125.11 residual: 16.24
mrth: 181.14 cth: 137.02 usage: 142.91 residual: 38.23
mrth: 446.5 cth: 324.23 usage: 365.84 residual: 80.66
mrth: 145.75 cth: 110.92 usage: 141.48 residual: 4.27
mrth: 154.27 cth: 116.66 usage: 123.67 residual: 30.6
mrth: 408.7 cth: 304.62 usage: 241.49 residual: 167.21
mrth: 83.01 cth: 69.89 usage: 63.92 residual: 19.09
mrth: 402.0 cth: 337.73 usage: 260.94 residual: 141.06
mrth: 364.46 cth: 264.69 usage: 279.24 residual: 85.22
mrth: 118.1 cth: 83.54 usage: 105.32 residual: 12.78
mrth: 198.52 cth: 154.26 usage: 128.12 residual: 70.4
mrth: 379.33 cth: 283.77 usage: 341.35 residual: 37.98
mrth: 215.56 cth: 166.96 usage: 178.88 residual: 36.68
mrth: 271.98 cth: 244.47 usage: 174.27 residual: 97.71
mrth: 174.15 cth: 127.43 usage: 166.91 residual: 7.24
mrth: 256.22 cth: 214.76 usage: 166.65 residual: 89.57
mrth: 215.41 cth: 180.1 usage: 165.68 residual: 49.73
mrth: 157.05 cth: 128.53 usage: 145.05 residual: 12.0
mrth: 46.0 cth: 37.97 usage: 25.16 residual: 20.84
mrth: 119.38 cth: 103.79 usage: 80.95 residual: 38.43
mrth: 283.74 cth: 217.84 usage: 186.81 residual: 96.93
mrth: 288.9 cth: 250.04 usage: 254.48 residual: 34.42
mrth: 173.55 cth: 146.57 usage: 103.25 residual: 70.3
mrth: 214.94 cth: 177.65 usage: 146.41 residual: 68.53
mrth: 113.4 cth: 101.84 usage: 104.9 residual: 8.5
mrth: 236.16 cth: 172.71 usage: 166.01 residual: 70.15
mrth: 197.72 cth: 153.0 usage: 118.44 residual: 79.28
mrth: 172.8 cth: 135.51 usage: 139.75 residual: 33.05
mrth: 209.69 cth: 158.51 usage: 182.71 residual: 26.98
mrth: 324.44 cth: 270.6 usage: 206.29 residual: 118.15
mrth: 196.09 cth: 169.07 usage: 123.13 residual: 72.96
mrth: 269.65 cth: 210.02 usage: 169.23 residual: 100.42
mrth: 84.82 cth: 72.14 usage: 55.44 residual: 29.38
mrth: 269.24 cth: 222.14 usage: 151.07 residual: 118.17
mrth: 97.71 cth: 84.01 usage: 85.65 residual: 12.06
mrth: 70.45 cth: 50.48 usage: 38.06 residual: 32.39
mrth: 154.97 cth: 116.32 usage: 84.52 residual: 70.45
mrth: 40.14 cth: 30.74 usage: 24.29 residual: 15.85
mrth: 156.52 cth: 117.0 usage: 88.67 residual: 67.85
mrth: 381.45 cth: 318.94 usage: 305.56 residual: 75.89
mrth: 187.39 cth: 159.94 usage: 163.35 residual: 24.04
mrth: 213.57 cth: 157.14 usage: 121.98 residual: 91.59
mrth: 454.72 cth: 408.27 usage: 311.36 residual: 143.36
mrth: 46.43 cth: 34.1 usage: 45.91 residual: 0.52
mrth: 381.21 cth: 310.54 usage: 209.1 residual: 172.11
mrth: 66.42 cth: 55.11 usage: 41.49 residual: 24.93
mrth: 74.22 cth: 54.19 usage: 44.18 residual: 30.04
mrth: 272.79 cth: 230.24 usage: 186.46 residual: 86.33
mrth: 132.84 cth: 95.58 usage: 94.54 residual: 38.3
mrth: 38.97 cth: 28.51 usage: 32.3 residual: 6.67
mrth: 122.73 cth: 91.11 usage: 110.26 residual: 12.47
mrth: 100.61 cth: 84.27 usage: 81.49 residual: 19.12
mrth: 336.86 cth: 297.06 usage: 216.62 residual: 120.24
mrth: 363.3 cth: 286.92 usage: 331.88 residual: 31.42
mrth: 217.94 cth: 190.89 usage: 188.44 residual: 29.5
mrth: 120.2 cth: 104.26 usage: 72.53 residual: 47.67
mrth: 175.1 cth: 150.04 usage: 111.24 residual: 63.86
mrth: 83.85 cth: 64.63 usage: 82.7 residual: 1.15
mrth: 146.57 cth: 116.03 usage: 86.64 residual: 59.93
mrth: 166.43 cth: 139.42 usage: 163.54 residual: 2.89
mrth: 137.44 cth: 97.04 usage: 135.09 residual: 2.35
mrth: 180.15 cth: 127.5 usage: 119.34 residual: 60.81
mrth: 155.85 cth: 117.1 usage: 111.03 residual: 44.82
mrth: 78.83 cth: 55.66 usage: 49.1 residual: 29.73
mrth: 255.25 cth: 218.5 usage: 236.21 residual: 19.04
mrth: 226.57 cth: 178.93 usage: 119.72 residual: 106.85
mrth: 252.9 cth: 206.85 usage: 169.79 residual: 83.11
mrth: 335.1 cth: 286.44 usage: 172.66 residual: 162.44
mrth: 127.02 cth: 101.68 usage: 80.54 residual: 46.48
mrth: 287.66 cth: 227.48 usage: 229.51 residual: 58.15
mrth: 104.83 cth: 77.42 usage: 57.58 residual: 47.25
mrth: 539.99 cth: 406.35 usage: 392.89 residual: 147.1
mrth: 412.18 cth: 303.32 usage: 290.11 residual: 122.07
mrth: 127.85 cth: 98.03 usage: 112.1 residual: 15.75
mrth: 205.09 cth: 177.88 usage: 103.1 residual: 101.99
mrth: 260.21 cth: 212.52 usage: 236.42 residual: 23.79
mrth: 69.91 cth: 52.44 usage: 51.53 residual: 18.38
mrth: 240.1 cth: 214.63 usage: 127.31 residual: 112.79
mrth: 268.24 cth: 237.6 usage: 157.55 residual: 110.69
mrth: 199.56 cth: 161.37 usage: 120.48 residual: 79.08
mrth: 39.7 cth: 31.05 usage: 21.53 residual: 18.17
mrth: 151.23 cth: 122.85 usage: 138.68 residual: 12.55
mrth: 233.06 cth: 170.66 usage: 213.73 residual: 19.33
mrth: 209.86 cth: 173.26 usage: 173.43 residual: 36.43
mrth: 181.54 cth: 130.01 usage: 142.71 residual: 38.83
mrth: 201.85 cth: 163.34 usage: 164.85 residual: 37.0
mrth: 262.92 cth: 190.98 usage: 223.67 residual: 39.25
mrth: 525.52 cth: 372.5 usage: 292.3 residual: 233.22
mrth: 27.24 cth: 22.14 usage: 24.1 residual: 3.14
mrth: 108.65 cth: 76.07 usage: 60.76 residual: 47.89
mrth: 202.44 cth: 159.28 usage: 128.68 residual: 73.76
mrth: 255.98 cth: 206.31 usage: 183.06 residual: 72.92
mrth: 313.34 cth: 222.53 usage: 265.23 residual: 48.11
mrth: 297.51 cth: 241.72 usage: 186.3 residual: 111.21
mrth: 209.26 cth: 178.7 usage: 190.1 residual: 19.16
mrth: 446.4 cth: 345.12 usage: 361.31 residual: 85.09
mrth: 195.71 cth: 173.4 usage: 105.74 residual: 89.97
mrth: 117.76 cth: 84.87 usage: 99.46 residual: 18.3
mrth: 251.78 cth: 193.48 usage: 251.31 residual: 0.47
mrth: 291.04 cth: 245.06 usage: 269.6 residual: 21.44
mrth: 339.24 cth: 288.18 usage: 287.31 residual: 51.93
mrth: 271.47 cth: 223.13 usage: 145.26 residual: 126.21
mrth: 160.65 cth: 124.24 usage: 140.89 residual: 19.76
mrth: 294.79 cth: 247.1 usage: 244.12 residual: 50.67
mrth: 68.1 cth: 54.64 usage: 56.0 residual: 12.1
mrth: 177.41 cth: 142.46 usage: 121.87 residual: 55.54
mrth: 152.9 cth: 107.63 usage: 114.91 residual: 37.99
mrth: 451.56 cth: 404.6 usage: 397.02 residual: 54.54
mrth: 234.69 cth: 190.16 usage: 129.08 residual: 105.61
mrth: 258.11 cth: 224.44 usage: 252.49 residual: 5.62
mrth: 86.42 cth: 66.7 usage: 75.38 residual: 11.04
mrth: 263.78 cth: 216.61 usage: 200.75 residual: 63.03
mrth: 253.79 cth: 225.53 usage: 213.31 residual: 40.48
mrth: 85.31 cth: 73.12 usage: 55.97 residual: 29.34
mrth: 206.45 cth: 168.59 usage: 195.49 residual: 10.96
mrth: 152.62 cth: 107.44 usage: 134.01 residual: 18.61
mrth: 92.11 cth: 78.95 usage: 56.88 residual: 35.23
mrth: 269.96 cth: 196.67 usage: 202.31 residual: 67.65
mrth: 160.72 cth: 121.36 usage: 135.99 residual: 24.73
mrth: 183.5 cth: 164.04 usage: 132.95 residual: 50.55
mrth: 33.74 cth: 25.28 usage: 17.44 residual: 16.3
mrth: 279.02 cth: 212.72 usage: 230.33 residual: 48.69
mrth: 227.86 cth: 172.02 usage: 215.85 residual: 12.01
mrth: 231.57 cth: 175.61 usage: 227.65 residual: 3.92
mrth: 193.51 cth: 143.73 usage: 107.98 residual: 85.53
mrth: 235.25 cth: 187.05 usage: 202.84 residual: 32.41
mrth: 177.22 cth: 128.13 usage: 130.9 residual: 46.32
mrth: 89.76 cth: 71.99 usage: 61.32 residual: 28.44
mrth: 183.91 cth: 164.26 usage: 111.38 residual: 72.53
mrth: 72.57 cth: 58.29 usage: 57.15 residual: 15.42
mrth: 262.88 cth: 225.71 usage: 182.61 residual: 80.27
mrth: 146.59 cth: 110.6 usage: 128.2 residual: 18.39
mrth: 362.4 cth: 271.67 usage: 283.67 residual: 78.73
mrth: 124.82 cth: 100.76 usage: 85.7 residual: 39.12
mrth: 42.67 cth: 32.86 usage: 31.29 residual: 11.38
mrth: 179.22 cth: 130.58 usage: 117.47 residual: 61.75
mrth: 200.22 cth: 150.1 usage: 140.88 residual: 59.34
mrth: 136.03 cth: 103.16 usage: 127.13 residual: 8.9
mrth: 464.72 cth: 335.01 usage: 423.84 residual: 40.88
mrth: 218.56 cth: 185.88 usage: 178.49 residual: 40.07
mrth: 164.92 cth: 141.86 usage: 104.85 residual: 60.07
mrth: 196.15 cth: 152.03 usage: 135.55 residual: 60.6
mrth: 79.85 cth: 70.38 usage: 56.85 residual: 23.0
mrth: 241.3 cth: 182.26 usage: 175.9 residual: 65.4
mrth: 148.07 cth: 123.7 usage: 95.06 residual: 53.01
mrth: 76.87 cth: 62.52 usage: 71.14 residual: 5.73
mrth: 263.2 cth: 198.9 usage: 248.66 residual: 14.54
mrth: 344.14 cth: 258.43 usage: 288.24 residual: 55.9
mrth: 278.01 cth: 244.8 usage: 244.13 residual: 33.88
mrth: 238.04 cth: 190.55 usage: 153.81 residual: 84.23
mrth: 59.17 cth: 51.87 usage: 48.36 residual: 10.81
mrth: 135.11 cth: 97.63 usage: 96.82 residual: 38.29
mrth: 256.55 cth: 210.72 usage: 219.15 residual: 37.4
mrth: 393.55 cth: 315.22 usage: 308.55 residual: 85.0
mrth: 96.29 cth: 70.2 usage: 89.49 residual: 6.8
mrth: 145.72 cth: 114.05 usage: 120.54 residual: 25.18
mrth: 318.34 cth: 269.38 usage: 278.1 residual: 40.24
mrth: 138.83 cth: 119.02 usage: 81.21 residual: 57.62
mrth: 249.22 cth: 181.84 usage: 174.97 residual: 74.25
mrth: 323.39 cth: 258.65 usage: 196.46 residual: 126.93
mrth: 250.44 cth: 179.68 usage: 248.58 residual: 1.86
mrth: 266.34 cth: 222.44 usage: 134.59 residual: 131.75
mrth: 72.19 cth: 59.54 usage: 43.43 residual: 28.76
mrth: 338.64 cth: 291.68 usage: 205.97 residual: 132.67
mrth: 212.89 cth: 171.46 usage: 198.27 residual: 14.62
mrth: 261.45 cth: 226.67 usage: 134.41 residual: 127.04
mrth: 356.25 cth: 281.7 usage: 266.53 residual: 89.72
mrth: 107.23 cth: 85.5 usage: 97.03 residual: 10.2
mrth: 41.17 cth: 30.26 usage: 31.66 residual: 9.51
mrth: 287.24 cth: 238.66 usage: 267.68 residual: 19.56
mrth: 261.16 cth: 217.62 usage: 180.97 residual: 80.19
mrth: 285.32 cth: 204.63 usage: 262.43 residual: 22.89
mrth: 240.91 cth: 193.78 usage: 196.75 residual: 44.16
mrth: 193.74 cth: 168.06 usage: 190.84 residual: 2.9
mrth: 354.23 cth: 315.32 usage: 289.85 residual: 64.38
mrth: 134.86 cth: 113.82 usage: 116.28 residual: 18.58
mrth: 91.59 cth: 77.92 usage: 79.63 residual: 11.96
mrth: 232.69 cth: 201.11 usage: 149.48 residual: 83.21
mrth: 242.6 cth: 198.0 usage: 190.31 residual: 52.29
mrth: 164.49 cth: 116.7 usage: 95.65 residual: 68.84
mrth: 185.84 cth: 130.37 usage: 124.65 residual: 61.19
mrth: 231.9 cth: 206.19 usage: 170.92 residual: 60.98
mrth: 166.64 cth: 117.29 usage: 126.53 residual: 40.11
mrth: 331.63 cth: 267.6 usage: 197.82 residual: 133.81
mrth: 449.98 cth: 385.3 usage: 353.78 residual: 96.2
mrth: 137.29 cth: 117.36 usage: 136.95 residual: 0.34
mrth: 46.33 cth: 36.29 usage: 32.81 residual: 13.52
mrth: 375.79 cth: 295.18 usage: 238.97 residual: 136.82
mrth: 200.44 cth: 150.99 usage: 126.14 residual: 74.3
mrth: 151.8 cth: 126.12 usage: 93.61 residual: 58.19
mrth: 227.64 cth: 203.13 usage: 199.49 residual: 28.15
mrth: 5.9 cth: 5.18 usage: 4.81 residual: 1.09
mrth: 366.89 cth: 289.04 usage: 325.52 residual: 41.37
mrth: 96.48 cth: 85.58 usage: 85.05 residual: 11.43
mrth: 42.57 cth: 31.31 usage: 25.93 residual: 16.64
mrth: 159.92 cth: 137.52 usage: 104.49 residual: 55.43
mrth: 286.56 cth: 213.0 usage: 143.38 residual: 143.18
mrth: 81.81 cth: 62.33 usage: 43.71 residual: 38.1
mrth: 175.02 cth: 137.19 usage: 108.68 residual: 66.34
mrth: 390.92 cth: 300.49 usage: 242.54 residual: 148.38
mrth: 166.04 cth: 122.85 usage: 165.45 residual: 0.59
mrth: 98.84 cth: 79.33 usage: 82.22 residual: 16.62
mrth: 147.72 cth: 131.13 usage: 100.59 residual: 47.13
mrth: 215.32 cth: 160.02 usage: 146.19 residual: 69.13
mrth: 293.98 cth: 229.5 usage: 245.05 residual: 48.93
mrth: 343.58 cth: 303.62 usage: 341.41 residual: 2.17
mrth: 186.72 cth: 147.27 usage: 108.02 residual: 78.7
mrth: 14.87 cth: 12.75 usage: 13.71 residual: 1.16
mrth: 37.31 cth: 32.39 usage: 24.81 residual: 12.5
mrth: 18.42 cth: 14.45 usage: 12.39 residual: 6.03
mrth: 146.92 cth: 127.53 usage: 76.14 residual: 70.78
mrth: 141.51 cth: 113.5 usage: 75.96 residual: 65.55
mrth: 244.89 cth: 195.11 usage: 233.81 residual: 11.08
mrth: 136.68 cth: 105.58 usage: 111.74 residual: 24.94
mrth: 108.95 cth: 89.61 usage: 73.48 residual: 35.47
mrth: 158.08 cth: 129.27 usage: 152.26 residual: 5.82
mrth: 170.64 cth: 130.35 usage: 148.15 residual: 22.49
mrth: 210.74 cth: 150.17 usage: 175.86 residual: 34.88
mrth: 158.01 cth: 117.49 usage: 137.46 residual: 20.55
mrth: 95.23 cth: 79.35 usage: 76.54 residual: 18.69
mrth: 371.45 cth: 283.17 usage: 213.93 residual: 157.52
mrth: 378.6 cth: 271.22 usage: 344.34 residual: 34.26
mrth: 314.76 cth: 247.56 usage: 243.18 residual: 71.58
mrth: 81.45 cth: 63.93 usage: 56.85 residual: 24.6
mrth: 199.92 cth: 175.77 usage: 129.87 residual: 70.05
mrth: 310.21 cth: 247.54 usage: 276.07 residual: 34.14
mrth: 207.88 cth: 180.89 usage: 146.93 residual: 60.95
mrth: 48.57 cth: 42.75 usage: 24.37 residual: 24.2
mrth: 98.8 cth: 70.66 usage: 53.05 residual: 45.75
mrth: 98.75 cth: 72.0 usage: 59.71 residual: 39.04
mrth: 159.92 cth: 136.63 usage: 90.0 residual: 69.92
mrth: 166.05 cth: 136.43 usage: 125.93 residual: 40.12
mrth: 253.59 cth: 210.58 usage: 156.74 residual: 96.85
mrth: 252.52 cth: 198.58 usage: 152.64 residual: 99.88
mrth: 135.82 cth: 109.44 usage: 77.47 residual: 58.35
mrth: 215.74 cth: 183.42 usage: 162.02 residual: 53.72
mrth: 136.07 cth: 100.14 usage: 72.07 residual: 64.0
mrth: 156.5 cth: 119.35 usage: 142.1 residual: 14.4
mrth: 225.02 cth: 163.86 usage: 172.48 residual: 52.54
mrth: 138.55 cth: 124.57 usage: 79.77 residual: 58.78
mrth: 240.48 cth: 205.79 usage: 233.91 residual: 6.57
mrth: 157.73 cth: 139.87 usage: 118.48 residual: 39.25
mrth: 99.41 cth: 74.52 usage: 79.18 residual: 20.23
mrth: 388.44 cth: 315.96 usage: 272.11 residual: 116.33
mrth: 54.26 cth: 44.4 usage: 51.78 residual: 2.48
mrth: 60.55 cth: 53.53 usage: 38.0 residual: 22.55
mrth: 163.68 cth: 127.44 usage: 163.48 residual: 0.2
mrth: 255.15 cth: 197.59 usage: 133.33 residual: 121.82
mrth: 437.1 cth: 340.13 usage: 433.48 residual: 3.62
mrth: 62.57 cth: 54.73 usage: 57.86 residual: 4.71
mrth: 286.13 cth: 213.26 usage: 157.73 residual: 128.4
mrth: 288.72 cth: 239.08 usage: 255.81 residual: 32.91
mrth: 174.39 cth: 133.15 usage: 102.68 residual: 71.71
mrth: 117.81 cth: 96.41 usage: 89.76 residual: 28.05
mrth: 246.76 cth: 184.72 usage: 150.88 residual: 95.88
mrth: 331.72 cth: 268.07 usage: 202.73 residual: 128.99
mrth: 151.55 cth: 109.58 usage: 134.05 residual: 17.5
mrth: 240.68 cth: 190.05 usage: 234.83 residual: 5.85
mrth: 146.11 cth: 118.5 usage: 101.5 residual: 44.61
mrth: 338.04 cth: 285.78 usage: 193.05 residual: 144.99
mrth: 167.81 cth: 132.81 usage: 149.7 residual: 18.11
mrth: 99.38 cth: 83.94 usage: 68.18 residual: 31.2
mrth: 201.17 cth: 146.75 usage: 169.12 residual: 32.05
mrth: 172.4 cth: 130.38 usage: 131.84 residual: 40.56
mrth: 281.4 cth: 202.56 usage: 142.86 residual: 138.54
mrth: 147.99 cth: 129.2 usage: 92.44 residual: 55.55
mrth: 105.97 cth: 84.18 usage: 57.49 residual: 48.48
mrth: 110.7 cth: 86.63 usage: 84.77 residual: 25.93
mrth: 196.37 cth: 152.14 usage: 185.61 residual: 10.76
mrth: 211.83 cth: 153.39 usage: 162.35 residual: 49.48
mrth: 26.63 cth: 23.63 usage: 21.32 residual: 5.31
mrth: 123.56 cth: 95.21 usage: 97.93 residual: 25.63
mrth: 134.79 cth: 115.06 usage: 129.17 residual: 5.62
mrth: 136.2 cth: 113.11 usage: 121.45 residual: 14.75
mrth: 405.96 cth: 288.93 usage: 347.28 residual: 58.68
mrth: 46.94 cth: 42.15 usage: 45.8 residual: 1.14
mrth: 284.75 cth: 229.39 usage: 152.78 residual: 131.97
mrth: 230.92 cth: 180.44 usage: 197.5 residual: 33.42
mrth: 246.31 cth: 193.14 usage: 232.83 residual: 13.48
mrth: 162.17 cth: 122.71 usage: 96.88 residual: 65.29
mrth: 383.18 cth: 311.9 usage: 280.66 residual: 102.52
mrth: 56.07 cth: 39.91 usage: 30.66 residual: 25.41
mrth: 46.38 cth: 39.45 usage: 42.76 residual: 3.62
mrth: 288.08 cth: 217.53 usage: 208.34 residual: 79.74
mrth: 339.9 cth: 278.97 usage: 194.34 residual: 145.56
mrth: 128.93 cth: 96.58 usage: 90.7 residual: 38.23
mrth: 253.38 cth: 194.04 usage: 210.2 residual: 43.18
mrth: 91.41 cth: 69.96 usage: 59.66 residual: 31.75
mrth: 330.66 cth: 256.68 usage: 303.1 residual: 27.56
mrth: 108.11 cth: 88.51 usage: 87.21 residual: 20.9
mrth: 120.88 cth: 98.38 usage: 113.77 residual: 7.11
mrth: 153.12 cth: 122.3 usage: 104.48 residual: 48.64
mrth: 193.95 cth: 166.01 usage: 125.23 residual: 68.72
mrth: 192.0 cth: 136.04 usage: 115.49 residual: 76.51
mrth: 248.34 cth: 203.56 usage: 140.79 residual: 107.55
mrth: 50.91 cth: 36.34 usage: 34.8 residual: 16.11
mrth: 277.83 cth: 236.8 usage: 139.11 residual: 138.72
mrth: 15.29 cth: 12.78 usage: 9.15 residual: 6.14
mrth: 225.28 cth: 174.38 usage: 161.15 residual: 64.13
mrth: 349.73 cth: 288.43 usage: 221.25 residual: 128.48
mrth: 76.74 cth: 57.11 usage: 67.39 residual: 9.35
mrth: 184.61 cth: 135.91 usage: 120.67 residual: 63.94
mrth: 351.23 cth: 282.1 usage: 314.92 residual: 36.31
mrth: 136.13 cth: 114.38 usage: 85.09 residual: 51.04
mrth: 252.03 cth: 205.83 usage: 165.68 residual: 86.35
mrth: 249.48 cth: 180.96 usage: 226.95 residual: 22.53
mrth: 182.41 cth: 161.47 usage: 149.84 residual: 32.57
mrth: 175.94 cth: 152.52 usage: 135.51 residual: 40.43
mrth: 241.13 cth: 194.52 usage: 159.52 residual: 81.61
mrth: 342.71 cth: 272.92 usage: 178.51 residual: 164.2
mrth: 246.1 cth: 206.56 usage: 205.07 residual: 41.03
mrth: 467.99 cth: 378.57 usage: 459.78 residual: 8.21
mrth: 217.56 cth: 161.18 usage: 171.2 residual: 46.36
mrth: 259.71 cth: 215.8 usage: 236.32 residual: 23.39
mrth: 313.24 cth: 270.3 usage: 305.98 residual: 7.26
mrth: 184.48 cth: 144.02 usage: 97.2 residual: 87.28
mrth: 201.56 cth: 162.5 usage: 121.8 residual: 79.76
mrth: 261.45 cth: 187.66 usage: 258.21 residual: 3.24
mrth: 158.27 cth: 140.19 usage: 154.03 residual: 4.24
mrth: 69.32 cth: 57.53 usage: 69.13 residual: 0.19
mrth: 157.9 cth: 111.12 usage: 108.77 residual: 49.13
mrth: 99.57 cth: 80.73 usage: 75.07 residual: 24.5
mrth: 278.25 cth: 204.9 usage: 216.55 residual: 61.7
mrth: 193.8 cth: 163.2 usage: 99.51 residual: 94.29
mrth: 315.8 cth: 227.12 usage: 264.02 residual: 51.78
mrth: 21.7 cth: 16.2 usage: 14.89 residual: 6.81
mrth: 166.61 cth: 122.34 usage: 114.88 residual: 51.73
mrth: 93.16 cth: 74.54 usage: 84.43 residual: 8.73
mrth: 154.25 cth: 138.8 usage: 109.94 residual: 44.31
mrth: 238.18 cth: 182.95 usage: 237.62 residual: 0.56
mrth: 121.9 cth: 95.04 usage: 64.35 residual: 57.55
mrth: 147.39 cth: 104.72 usage: 86.13 residual: 61.26
mrth: 138.34 cth: 113.98 usage: 114.45 residual: 23.89
mrth: 127.09 cth: 96.15 usage: 104.72 residual: 22.37
mrth: 271.95 cth: 202.17 usage: 145.75 residual: 126.2
mrth: 38.58 cth: 33.28 usage: 23.18 residual: 15.4
mrth: 255.15 cth: 192.96 usage: 170.49 residual: 84.66
mrth: 135.32 cth: 110.77 usage: 106.05 residual: 29.27
mrth: 223.12 cth: 181.52 usage: 177.37 residual: 45.75
mrth: 416.0 cth: 302.86 usage: 280.68 residual: 135.32
mrth: 68.58 cth: 48.06 usage: 42.21 residual: 26.37
mrth: 164.64 cth: 116.72 usage: 88.47 residual: 76.17
mrth: 22.22 cth: 16.25 usage: 12.14 residual: 10.08
mrth: 151.36 cth: 130.88 usage: 145.9 residual: 5.46
mrth: 118.74 cth: 95.05 usage: 95.62 residual: 23.12
mrth: 463.24 cth: 344.24 usage: 290.89 residual: 172.35
mrth: 325.35 cth: 269.38 usage: 296.86 residual: 28.49
mrth: 216.31 cth: 188.54 usage: 121.27 residual: 95.04
mrth: 317.37 cth: 233.27 usage: 234.21 residual: 83.16
mrth: 247.42 cth: 174.08 usage: 201.94 residual: 45.48
mrth: 351.36 cth: 312.26 usage: 324.3 residual: 27.06
mrth: 283.64 cth: 248.88 usage: 243.9 residual: 39.74
mrth: 351.96 cth: 269.91 usage: 220.83 residual: 131.13
mrth: 316.43 cth: 249.99 usage: 261.59 residual: 54.84
mrth: 226.69 cth: 187.96 usage: 122.53 residual: 104.16
mrth: 217.73 cth: 188.86 usage: 208.89 residual: 8.84
mrth: 166.52 cth: 132.85 usage: 156.04 residual: 10.48
mrth: 109.96 cth: 88.66 usage: 62.68 residual: 47.28
mrth: 267.89 cth: 230.92 usage: 185.43 residual: 82.46
mrth: 224.54 cth: 160.22 usage: 160.2 residual: 64.34
mrth: 301.2 cth: 258.47 usage: 156.94 residual: 144.26
mrth: 341.83 cth: 285.67 usage: 212.25 residual: 129.58
mrth: 251.61 cth: 176.18 usage: 234.64 residual: 16.97
mrth: 467.94 cth: 399.56 usage: 277.34 residual: 190.6
mrth: 136.87 cth: 115.8 usage: 76.64 residual: 60.23
mrth: 315.22 cth: 243.51 usage: 315.2 residual: 0.02
mrth: 404.35 cth: 347.33 usage: 259.14 residual: 145.21
mrth: 87.97 cth: 70.67 usage: 51.69 residual: 36.28
mrth: 110.76 cth: 98.52 usage: 75.89 residual: 34.87
mrth: 224.24 cth: 192.68 usage: 177.28 residual: 46.96
mrth: 71.69 cth: 61.47 usage: 59.34 residual: 12.35
mrth: 295.58 cth: 242.47 usage: 244.18 residual: 51.4
mrth: 369.72 cth: 275.13 usage: 216.88 residual: 152.84
mrth: 172.24 cth: 143.73 usage: 150.16 residual: 22.08
mrth: 272.41 cth: 212.92 usage: 258.44 residual: 13.97
mrth: 139.72 cth: 110.39 usage: 97.65 residual: 42.07
mrth: 273.03 cth: 215.19 usage: 156.8 residual: 116.23
mrth: 64.82 cth: 47.04 usage: 40.12 residual: 24.7
mrth: 221.87 cth: 162.43 usage: 118.17 residual: 103.7
mrth: 197.54 cth: 156.12 usage: 139.71 residual: 57.83
mrth: 182.44 cth: 154.85 usage: 149.23 residual: 33.21
mrth: 263.24 cth: 220.9 usage: 171.1 residual: 92.14
mrth: 129.08 cth: 91.42 usage: 109.27 residual: 19.81
mrth: 169.92 cth: 123.71 usage: 106.2 residual: 63.72
mrth: 250.68 cth: 189.28 usage: 229.61 residual: 21.07
mrth: 213.89 cth: 167.13 usage: 167.59 residual: 46.3
mrth: 90.43 cth: 68.72 usage: 89.32 residual: 1.11
mrth: 320.88 cth: 265.27 usage: 288.57 residual: 32.31
mrth: 67.9 cth: 54.45 usage: 47.82 residual: 20.08
mrth: 222.37 cth: 182.9 usage: 124.19 residual: 98.18
mrth: 93.06 cth: 76.84 usage: 55.47 residual: 37.59
mrth: 136.17 cth: 95.86 usage: 129.53 residual: 6.64
mrth: 339.56 cth: 276.68 usage: 194.38 residual: 145.18
mrth: 71.37 cth: 63.68 usage: 42.7 residual: 28.67
mrth: 279.4 cth: 227.27 usage: 239.55 residual: 39.85
mrth: 477.51 cth: 397.01 usage: 248.08 residual: 229.43
mrth: 255.23 cth: 190.17 usage: 246.49 residual: 8.74
mrth: 70.3 cth: 51.51 usage: 60.96 residual: 9.34
mrth: 180.7 cth: 131.21 usage: 138.3 residual: 42.4
mrth: 275.58 cth: 232.88 usage: 273.23 residual: 2.35
mrth: 92.62 cth: 71.62 usage: 76.78 residual: 15.84
mrth: 208.94 cth: 151.04 usage: 135.56 residual: 73.38
mrth: 198.78 cth: 158.03 usage: 165.84 residual: 32.94
mrth: 596.39 cth: 466.89 usage: 594.49 residual: 1.9
mrth: 321.21 cth: 275.05 usage: 204.66 residual: 116.55
mrth: 200.97 cth: 176.97 usage: 149.7 residual: 51.27
mrth: 64.99 cth: 58.28 usage: 59.61 residual: 5.38
mrth: 370.15 cth: 328.54 usage: 226.55 residual: 143.6
mrth: 414.6 cth: 307.92 usage: 345.78 residual: 68.82
mrth: 57.33 cth: 40.14 usage: 41.55 residual: 15.78
mrth: 212.75 cth: 167.82 usage: 200.5 residual: 12.25
mrth: 135.95 cth: 95.73 usage: 104.74 residual: 31.21
mrth: 260.44 cth: 190.6 usage: 202.72 residual: 57.72
mrth: 355.56 cth: 296.41 usage: 180.9 residual: 174.66
mrth: 108.97 cth: 92.57 usage: 81.1 residual: 27.87
mrth: 186.86 cth: 152.28 usage: 113.68 residual: 73.18
mrth: 140.82 cth: 118.43 usage: 104.03 residual: 36.79
mrth: 145.03 cth: 104.99 usage: 122.53 residual: 22.5
mrth: 187.04 cth: 145.53 usage: 149.53 residual: 37.51
mrth: 200.51 cth: 167.97 usage: 113.61 residual: 86.9
mrth: 120.81 cth: 86.88 usage: 114.64 residual: 6.17
mrth: 100.28 cth: 75.07 usage: 77.6 residual: 22.68
mrth: 110.89 cth: 77.82 usage: 82.46 residual: 28.43
mrth: 150.39 cth: 131.61 usage: 134.26 residual: 16.13
mrth: 145.87 cth: 118.29 usage: 138.39 residual: 7.48
mrth: 246.65 cth: 190.11 usage: 132.77 residual: 113.88
mrth: 180.57 cth: 146.23 usage: 156.55 residual: 24.02
mrth: 176.23 cth: 131.12 usage: 124.15 residual: 52.08
mrth: 130.69 cth: 112.66 usage: 121.86 residual: 8.83
mrth: 275.6 cth: 227.67 usage: 232.99 residual: 42.61
mrth: 135.08 cth: 118.62 usage: 69.13 residual: 65.95
mrth: 117.28 cth: 83.79 usage: 115.38 residual: 1.9
mrth: 111.43 cth: 81.62 usage: 67.92 residual: 43.51
mrth: 154.07 cth: 127.81 usage: 138.19 residual: 15.88
mrth: 57.22 cth: 43.23 usage: 29.96 residual: 27.26
mrth: 252.6 cth: 226.96 usage: 204.26 residual: 48.34
mrth: 306.84 cth: 226.45 usage: 245.33 residual: 61.51
mrth: 149.6 cth: 134.18 usage: 125.87 residual: 23.73
mrth: 260.38 cth: 219.32 usage: 254.26 residual: 6.12
mrth: 203.64 cth: 148.28 usage: 149.12 residual: 54.52
mrth: 187.73 cth: 139.93 usage: 100.63 residual: 87.1
mrth: 123.28 cth: 90.35 usage: 112.94 residual: 10.34
mrth: 129.24 cth: 115.86 usage: 120.88 residual: 8.36
mrth: 490.09 cth: 398.05 usage: 310.88 residual: 179.21
mrth: 217.45 cth: 160.53 usage: 124.21 residual: 93.24
mrth: 341.06 cth: 271.25 usage: 258.87 residual: 82.19
mrth: 88.05 cth: 73.38 usage: 69.03 residual: 19.02
mrth: 150.17 cth: 131.42 usage: 89.4 residual: 60.77
mrth: 199.55 cth: 153.43 usage: 156.59 residual: 42.96
mrth: 131.77 cth: 102.18 usage: 109.2 residual: 22.57
mrth: 243.3 cth: 178.82 usage: 153.55 residual: 89.75
mrth: 289.99 cth: 228.87 usage: 267.65 residual: 22.34
mrth: 32.69 cth: 28.2 usage: 24.66 residual: 8.03
mrth: 333.1 cth: 235.84 usage: 324.53 residual: 8.57
mrth: 151.03 cth: 132.85 usage: 146.52 residual: 4.51
mrth: 102.04 cth: 77.14 usage: 67.95 residual: 34.09
mrth: 407.26 cth: 286.88 usage: 347.89 residual: 59.37
