0.0
8.098999999999998e-05
1.865e-05
0.16738
6.208e-05
0.00012654999999999999
2.9890000000000007e-05
4.848e-05
3.428e-05
0.00010142000000000001
3.613999999999999e-05
6.334e-05
4.162000000000001e-05
9.118000000000003e-05
3.4880000000000005e-05
6.611e-05
4.621e-05
0.00010736000000000003
6.507e-05
5.475000000000001e-05
0.0001515
5.952e-05
2.1210000000000002e-05
4.3769999999999996e-05
5.4520000000000007e-05
1.505e-05
4.2530000000000015e-05
0.12022000000000001
8.703e-05
3.6849999999999994e-05
3.759999999999999e-05
2.6049999999999996e-05
3.0059999999999997e-05
9.913999999999999e-05
6.787e-05
0.00010775000000000003
6.528000000000001e-05
6.166e-05
5.695e-05
5.63e-05
0.00011276
0.00017847
0.00011125999999999997
5.1380000000000006e-05
2.1569999999999995e-05
2.863e-05
8.895999999999999e-05
3.4460000000000005e-05
0.17164000000000001
5.683e-05
6.85e-05
0.00011398
0.00011091999999999999
8.271e-05
8.779e-05
4.924999999999999e-05
3.1950000000000004e-05
8.668e-05
1.3510000000000004e-05
3.571e-05
6.608e-05
5.790000000000001e-05
0.00010846
3.939000000000001e-05
3.691999999999999e-05
0.43496999999999997
0.00013929999999999997
1.7330000000000002e-05
0.00013976999999999997
3.2300000000000006e-05
5.862e-05
0.00017355
0.18584
7.556e-05
1.4460000000000004e-05
3.649000000000002e-05
0.00010543
2.9370000000000005e-05
8.792e-05
5.9869999999999994e-05
2.345e-05
8.737e-05
3.713e-05
0.00012175000000000002
7.942999999999999e-05
2.8380000000000003e-05
8.199999999999999e-05
4.874e-05
8.885e-05
3.013e-05
3.111e-05
8.541999999999999e-05
3.7279999999999995e-05
6.858e-05
7.468000000000001e-05
3.0040000000000004e-05
6.842e-05
3.463e-05
0.09281
6.663e-05
6.657000000000001e-05
2.6680000000000002e-05
1.746e-05
3.889e-05
7.857000000000002e-05
5.1390000000000014e-05
1.5009999999999999e-05
1.4990000000000002e-05
2.9120000000000006e-05
2.9369999999999995e-05
1.9590000000000004e-05
0.25944
2.0739999999999998e-05
3.694e-05
2.339e-05
2.4400000000000007e-05
0.00016021999999999998
2.2550000000000003e-05
0.00011177
4.588000000000001e-05
7.557e-05
0.10136
0.00017829
5.446e-05
1.604e-05
3.256000000000001e-05
1.8309999999999996e-05
5.565e-05
3.826e-05
5.340999999999999e-05
7.507e-05
4.452e-05
3.1570000000000004e-05
6.189e-05
6.668e-05
6.716e-05
3.237e-05
2.6300000000000002e-05
7.077e-05
6.283999999999999e-05
9.808000000000004e-05
5.968e-05
0.00014381
9.317000000000002e-05
4.512000000000001e-05
2.292e-05
1.6870000000000003e-05
3.584e-05
4.780999999999999e-05
3.4070000000000004e-05
1.947e-05
3.727000000000001e-05
6.905e-05
9.189e-05
5.715000000000001e-05
7.402000000000001e-05
0.33562
2.097e-05
6.987000000000002e-05
2.6300000000000006e-05
4.317e-05
2.7880000000000004e-05
4.314e-05
4.696e-05
6.176e-05
2.896e-05
3.757e-05
4.6280000000000004e-05
3.317e-05
0.00019941
4.404e-05
2.098e-05
3.0299999999999994e-05
0.00015402000000000002
6.568000000000001e-05
8.209999999999999e-05
8.95e-05
2.851e-05
4.9930000000000005e-05
2.4470000000000005e-05
4.2380000000000004e-05
7.496e-05
6.487e-05
5.882e-05
3.303e-05
0.00015935
6.670000000000001e-05
4.9940000000000006e-05
5.2820000000000006e-05
2.4180000000000002e-05
8.571999999999999e-05
4.5460000000000015e-05
3.0230000000000007e-05
3.091000000000001e-05
3.211e-05
2.1990000000000005e-05
8.152e-05
6.075000000000001e-05
6.838e-05
6.18e-05
2.6450000000000003e-05
0.00010144000000000002
0.00012901000000000004
3.396000000000001e-05
3.3530000000000006e-05
2.8930000000000003e-05
8.324000000000002e-05
4.345000000000001e-05
4.2630000000000004e-05
0.00010456000000000002
0.00010062000000000002
6.689000000000002e-05
0.00011405000000000002
1.866e-05
4.196e-05
0.00013607000000000002
0.10190000000000002
4.607e-05
2.74e-05
0.00013884
8.596999999999998e-05
2.6080000000000004e-05
0.12891000000000002
2.8020000000000003e-05
0.13405999999999998
4.528000000000001e-05
7.395000000000001e-05
6.467e-05
0.00011135999999999999
0.00012272999999999999
3.938e-05
2.055e-05
3.806999999999999e-05
3.238e-05
6.0669999999999993e-05
0.00016257
3.598e-05
2.3780000000000003e-05
3.878e-05
0.0001068
8.385000000000002e-05
9.008e-05
4.526e-05
4.301e-05
2.625e-05
0.00012851000000000003
5.301e-05
4.8150000000000005e-05
2.913e-05
4.7619999999999995e-05
4.191e-05
2.974999999999999e-05
0.00010137
5.148000000000001e-05
3.613e-05
4.607e-05
0.3018
2.5060000000000004e-05
1.796e-05
0.30546
1.8429999999999998e-05
1.946e-05
0.37805999999999995
3.0329999999999996e-05
3.6840000000000006e-05
4.2860000000000006e-05
6.899e-05
8.833e-05
4.884e-05
6.686000000000001e-05
0.11367000000000001
0.18558999999999998
0.00011736000000000001
7.955999999999999e-05
2.373e-05
6.547000000000001e-05
5.2829999999999994e-05
2.957e-05
6.136999999999999e-05
1.9480000000000003e-05
2.4580000000000002e-05
7.329000000000003e-05
0.17724000000000004
5.750999999999999e-05
0.00013062000000000002
2.5659999999999998e-05
4.2720000000000004e-05
5.058e-05
6.613e-05
0.00011669000000000001
2.4460000000000003e-05
8.306000000000001e-05
9.086e-05
5.891e-05
5.177e-05
3.008e-05
4.818000000000001e-05
0.00010651999999999999
8.053e-05
0.00015608
0.00014177
4.6169999999999987e-05
9.036000000000001e-05
0.12544
5.4760000000000004e-05
1.7480000000000002e-05
0.00013981000000000003
4.3540000000000013e-05
2.4850000000000004e-05
3.159e-05
0.00012485000000000003
5.8870000000000004e-05
3.769000000000001e-05
0.00010397000000000001
3.279e-05
3.3570000000000006e-05
6.745000000000001e-05
3.619000000000001e-05
5.5060000000000005e-05
4.6920000000000005e-05
4.49e-05
8.018000000000001e-05
6.228e-05
0.00010571
4.4180000000000014e-05
4.1429999999999995e-05
2.7139999999999994e-05
6.139000000000001e-05
6.849e-05
2.6200000000000003e-05
2.5679999999999995e-05
7.978000000000003e-05
4.7830000000000015e-05
2.154e-05
9.092e-05
7.892e-05
4.384000000000001e-05
1.9170000000000005e-05
9.621999999999998e-05
3.5300000000000004e-05
2.081e-05
1.806e-05
9.852e-05
4.1580000000000005e-05
0.00014333000000000005
5.769999999999999e-05
3.367e-05
6.004e-05
0.00010059999999999998
5.6940000000000014e-05
4.669e-05
1.5459999999999998e-05
7.543e-05
9.329000000000001e-05
0.00010492000000000002
2.7990000000000005e-05
3.853000000000001e-05
0.00011989
4.667e-05
3.642e-05
0.20064
2.0590000000000008e-05
6.346e-05
5.3020000000000004e-05
9.318e-05
4.788000000000001e-05
4.204000000000001e-05
0.00014484000000000003
3.4620000000000004e-05
0.11251
4.2590000000000004e-05
0.00011742999999999998
4.433000000000001e-05
4.431000000000001e-05
0.10321999999999999
7.823000000000003e-05
8.466000000000002e-05
3.265e-05
8.889e-05
6.05e-05
5.869000000000001e-05
0.00014759000000000002
0.00011042000000000002
9.207000000000002e-05
8.170999999999999e-05
9.007e-05
4.484e-05
7.751000000000001e-05
0.00014314
0.23672
2.245e-05
1.805e-05
6.434000000000001e-05
8.363999999999999e-05
4.5860000000000005e-05
3.0850000000000004e-05
2.1070000000000003e-05
0.00011217
0.15678
2.2759999999999992e-05
3.5050000000000005e-05
0.00011181000000000002
0.00011311
5.822e-05
4.859e-05
5.043000000000001e-05
9.879e-05
4.476000000000001e-05
0.0966
3.577e-05
8.33e-05
6.349e-05
4.462000000000001e-05
4.388e-05
6.588e-05
2.9500000000000002e-05
0.53852
4.285999999999999e-05
8.151e-05
7.452e-05
3.3849999999999996e-05
4.754000000000001e-05
0.21149
6.893e-05
2.1769999999999997e-05
8.247e-05
0.00010376999999999999
0.00017329000000000002
5.6010000000000014e-05
5.3870000000000004e-05
0.00011796000000000002
5.2130000000000004e-05
5.083e-05
3.515000000000001e-05
3.295000000000001e-05
0.00014725000000000003
6.969e-05
9.256000000000001e-05
3.273000000000001e-05
2.1930000000000002e-05
2.64e-05
2.4390000000000005e-05
5.4210000000000004e-05
4.202e-05
2.6680000000000002e-05
0.00017299
0.00012134999999999998
5.142e-05
5.525e-05
4.254e-05
0.00014658000000000002
0.00015601000000000005
7.644999999999999e-05
2.699e-05
4.5860000000000005e-05
5.609e-05
4.369000000000001e-05
0.00010022
0.00010042
4.4559999999999993e-05
3.32e-05
2.4050000000000002e-05
0.00010562
0.37196000000000007
0.00015457
9.245000000000001e-05
4.072e-05
2.2250000000000002e-05
2.3779999999999996e-05
7.138999999999999e-05
6.334e-05
5.978e-05
0.00012453
4.0520000000000005e-05
3.826e-05
6.0020000000000005e-05
3.1190000000000005e-05
0.00012336000000000004
0.00012565999999999999
5.6769999999999993e-05
2.9609999999999996e-05
5.1730000000000015e-05
0.22764000000000004
3.394999999999999e-05
9.006e-05
0.00012205000000000001
0.36718000000000006
8.176000000000002e-05
6.565e-05
5.0440000000000005e-05
6.199000000000002e-05
4.123e-05
0.00013080999999999998
0.00010600000000000002
6.911000000000001e-05
0.36024
5.9050000000000006e-05
9.311e-05
3.3480000000000005e-05
2.2330000000000008e-05
9.865e-05
0.12977000000000002
5.5389999999999997e-05
6.941e-05
8.452999999999999e-05
3.139e-05
4.351e-05
5.071e-05
0.20924000000000004
8.379000000000002e-05
9.984e-05
4.8400000000000004e-05
6.893e-05
5.523999999999999e-05
5.1670000000000005e-05
8.274000000000001e-05
0.00010158000000000001
0.00012013
2.0510000000000002e-05
0.40580000000000005
6.977000000000002e-05
3.71e-05
2.4629999999999996e-05
6.0790000000000006e-05
0.00011901
5.609e-05
9.917000000000003e-05
6.347e-05
3.611e-05
9.196000000000001e-05
6.981e-05
2.5389999999999996e-05
4.192999999999999e-05
4.534e-05
0.00011834999999999998
4.762e-05
8.881e-05
9.086e-05
7.023e-05
0.22760999999999998
3.3520000000000004e-05
6.484999999999999e-05
3.607999999999999e-05
3.2590000000000005e-05
5.636e-05
3.158e-05
8.886e-05
4.5230000000000006e-05
5.2060000000000006e-05
8.899000000000001e-05
5.9950000000000014e-05
7.085e-05
2.6369999999999993e-05
7.236000000000002e-05
3.451e-05
7.944e-05
3.838e-05
7.389e-05
0.00012819
3.17e-05
5.693e-05
3.0449999999999998e-05
7.792000000000001e-05
7.489999999999998e-05
7.894e-05
2.761e-05
6.949000000000001e-05
0.37724
2.5970000000000004e-05
0.0001734
3.986000000000001e-05
5.6510000000000006e-05
0.00011397000000000002
6.189e-05
6.618e-05
0.00010096999999999999
5.318000000000001e-05
3.187000000000001e-05
8.662e-05
2.7839999999999998e-05
5.836000000000001e-05
1.9710000000000003e-05
5.8880000000000005e-05
4.947e-05
4.8100000000000004e-05
0.12960000000000002
8.079999999999999e-05
6.367e-05
1.9170000000000005e-05
4.571999999999999e-05
3.997999999999999e-05
0.00010058000000000002
4.173e-05
3.897e-05
5.793e-05
5.111000000000001e-05
2.213e-05
2.1880000000000007e-05
7.302e-05
0.1542
6.223e-05
1.08297
3.3780000000000005e-05
9.488e-05
8.276e-05
0.00018884000000000001
1.4499999999999998e-05
0.00015026000000000001
0.00010723
1.9790000000000002e-05
0.35463
3.9550000000000006e-05
7.13e-05
1.7990000000000002e-05
2.747e-05
7.532000000000002e-05
5.448e-05
4.200000000000001e-05
0.00010213999999999998
6.282999999999999e-05
0.00018231000000000003
2.9030000000000005e-05
7.471e-05
0.00013774
2.5440000000000004e-05
7.511000000000002e-05
1.6429999999999997e-05
3.936e-05
0.00013305
3.661e-05
4.591e-05
3.655e-05
2.931e-05
1.974e-05
3.008e-05
6.263e-05
2.9699999999999997e-05
9.074e-05
4.104999999999999e-05
4.519e-05
4.7699999999999994e-05
3.282e-05
9.021000000000002e-05
4.461e-05
0.00011199000000000002
4.907e-05
5.447000000000001e-05
0.00010091999999999999
0.22064
4.7040000000000004e-05
3.850000000000001e-05
7.731e-05
0.00015233
2.4840000000000006e-05
3.751e-05
0.00013709
4.2199999999999996e-05
3.9139999999999995e-05
0.34396
1.8680000000000007e-05
5.211e-05
0.00014712000000000004
2.5670000000000003e-05
1.9580000000000002e-05
6.935e-05
0.00014172999999999999
2.6289999999999994e-05
4.0199999999999995e-05
5.939e-05
2.424e-05
4.210000000000001e-05
3.851e-05
0.00012217
7.315999999999998e-05
4.5600000000000004e-05
5.3740000000000004e-05
0.00010255000000000003
1.513e-05
4.981e-05
3.587e-05
4.967e-05
7.082e-05
2.3900000000000005e-05
6.301e-05
0.00011949999999999999
6.408e-05
3.816e-05
5.3720000000000014e-05
0.5292500000000001
0.00013249
0.00012981
3.0709999999999996e-05
5.401e-05
4.2890000000000004e-05
6.29e-05
5.903999999999999e-05
2.8200000000000004e-05
3.56e-05
4.655000000000001e-05
3.303e-05
2.0870000000000005e-05
6.577000000000002e-05
3.168e-05
7.433e-05
0.0001194
4.067000000000001e-05
4.2600000000000005e-05
2.7239999999999997e-05
8.138000000000002e-05
3.8520000000000004e-05
0.31448
7.571e-05
9.153e-05
2.6200000000000003e-05
0.00015123
6.7e-05
0.00016489
0.00016165000000000003
7.583000000000001e-05
6.720999999999999e-05
3.719e-05
3.498000000000001e-05
5.0150000000000006e-05
9.430000000000002e-05
0.00010653
4.749e-05
0.00015091000000000003
0.00010529
7.721e-05
0.00012407
0.00017799
5.053e-05
0.4757199999999999
0.12687
8.473000000000001e-05
0.00011367000000000001
2.7369999999999997e-05
9.475000000000001e-05
0.41128
4.474e-05
0.09758000000000003
4.759000000000002e-05
4.337e-05
0.00010566999999999998
2.3310000000000002e-05
5.447000000000001e-05
0.11696
2.239e-05
0.00010887
0.00016028000000000003
3.422e-05
4.883e-05
0.00010484
1.4670000000000004e-05
9.581999999999999e-05
3.2080000000000005e-05
6.223999999999999e-05
8.345000000000001e-05
0.00017059999999999997
1.576e-05
5.768e-05
9.019000000000002e-05
8.556e-05
3.325e-05
4.612e-05
5.603e-05
7.200000000000002e-05
3.49e-05
0.00010395
2.4509999999999997e-05
7.724000000000001e-05
6.845e-05
8.600000000000002e-05
3.268e-05
4.280999999999999e-05
1.8250000000000003e-05
3.193000000000001e-05
5.4600000000000006e-05
6.183000000000001e-05
6.597000000000001e-05
9.043e-05
0.11202999999999999
2.273e-05
9.293000000000002e-05
3.856000000000001e-05
6.439e-05
8.899000000000001e-05
0.14684
3.4840000000000005e-05
4.397000000000001e-05
2.3450000000000008e-05
4.571999999999999e-05
5.413000000000001e-05
6.547000000000001e-05
6.676e-05
5.142e-05
3.0039999999999997e-05
2.5890000000000005e-05
6.253e-05
8.314000000000001e-05
2.558e-05
5.3389999999999995e-05
2.3950000000000006e-05
2.7310000000000004e-05
2.727e-05
0.00014668
2.013e-05
4.642e-05
6.85e-05
4.7010000000000006e-05
3.946e-05
6.365e-05
3.142000000000001e-05
5.951e-05
9.813000000000001e-05
4.6880000000000005e-05
3.0180000000000002e-05
3.096e-05
3.441e-05
4.064000000000001e-05
5.8730000000000015e-05
4.534e-05
7.618e-05
4.600000000000001e-05
4.403000000000001e-05
2.5309999999999997e-05
4.0770000000000004e-05
4.4590000000000005e-05
9.437999999999999e-05
3.261e-05
4.232e-05
0.00011437
5.664e-05
3.596e-05
7.468e-05
9.475e-05
4.5100000000000005e-05
3.839000000000001e-05
2.154e-05
6.440000000000002e-05
4.355000000000001e-05
5.263999999999999e-05
0.00012043
0.00013566
7.356000000000001e-05
0.00010808000000000001
4.5690000000000005e-05
2.9989999999999996e-05
5.91e-05
0.23817999999999998
5.611000000000001e-05
2.715e-05
2.59e-05
0.00010834
3.482e-05
2.0310000000000007e-05
0.00017152
4.303e-05
0.00021379
1.8280000000000008e-05
0.00010372000000000002
2.9800000000000003e-05
0.19814
3.9439999999999995e-05
4.7119999999999996e-05
6.403000000000001e-05
8.842999999999999e-05
3.7290000000000004e-05
4.6370000000000005e-05
6.0129999999999995e-05
4.668e-05
0.00013497000000000002
9.065999999999999e-05
1.8e-05
3.4330000000000005e-05
6.24e-05
3.0930000000000004e-05
4.753e-05
3.439000000000001e-05
0.44895
9.598000000000003e-05
2.1799999999999998e-05
3.342e-05
3.755e-05
4.7560000000000005e-05
0.00013313
1.755e-05
5.827000000000001e-05
5.687e-05
7.185e-05
0.18806
8.161e-05
3.6859999999999996e-05
0.00016777
2.3450000000000004e-05
3.847e-05
6.317e-05
7.495e-05
0.00010915000000000001
4.418000000000001e-05
6.672e-05
0.15996999999999997
2.5380000000000004e-05
0.15111
0.16202000000000003
0.00017408000000000001
0.0001597
0.00012544
7.081e-05
6.062000000000001e-05
6.523e-05
3.1169999999999995e-05
0.00020189
8.229000000000001e-05
3.32e-05
7.658000000000002e-05
3.9290000000000005e-05
6.161e-05
4.2800000000000004e-05
7.107000000000001e-05
7.170000000000002e-05
6.7e-05
0.00025145
7.488000000000001e-05
2.3140000000000002e-05
8.364e-05
0.27313999999999994
7.487e-05
2.1240000000000003e-05
2.245e-05
0.00010146000000000001
0.14473
6.23e-05
8.715e-05
2.0850000000000002e-05
7.855000000000001e-05
3.946000000000001e-05
5.431e-05
2.301e-05
4.233000000000001e-05
3.208999999999999e-05
8.639e-05
1.639e-05
5.3830000000000005e-05
4.819e-05
5.0520000000000004e-05
2.7000000000000006e-05
2.33e-05
3.655e-05
0.00018523999999999995
2.101e-05
3.1910000000000004e-05
2.194e-05
4.437e-05
0.00016204999999999998
2.8499999999999998e-05
1.8780000000000003e-05
3.101e-05
0.00010663
0.15838000000000002
4.1429999999999995e-05
0.00019624000000000003
3.426000000000001e-05
0.10586000000000002
4.069e-05
4.131e-05
0.00010405000000000002
9.609999999999999e-05
5.5780000000000005e-05
0.00010288
2.2700000000000006e-05
8.807000000000002e-05
3.843e-05
6.656000000000001e-05
2.885e-05
3.089e-05
5.0490000000000006e-05
3.101e-05
5.0820000000000005e-05
0.7825200000000001
4.2890000000000004e-05
4.725000000000001e-05
5.123e-05
4.131e-05
3.098999999999999e-05
7.526e-05
3.0120000000000006e-05
3.2529999999999995e-05
4.07e-05
0.00010876
3.753e-05
2.0279999999999996e-05
2.7600000000000003e-05
0.00014384
3.264e-05
7.757e-05
3.2099999999999994e-05
2.605e-05
3.0810000000000005e-05
0.12172999999999998
