0.0
0.1193
0.12578999999999999
0.03352
0.02844
0.06503
0.02933
0.13416
0.10889000000000003
0.10402000000000002
0.08093
0.07563
0.08646999999999999
0.09286
0.07886000000000001
0.06534000000000001
0.03652
0.12243
0.018800000000000004
0.18206999999999998
0.054430000000000006
0.03704
0.06568000000000002
0.15989
0.07325
0.15478999999999998
0.21204
0.059930000000000004
0.07280999999999999
0.07452
0.18941000000000002
0.08949
0.07329
0.12857
0.18026
0.14236
0.1466
0.08427000000000001
0.03602000000000001
0.06907999999999999
0.015590000000000001
0.06390000000000001
0.08406000000000001
0.18869
0.05188000000000001
0.19803
0.020959999999999996
0.049589999999999995
0.11879999999999999
0.020920000000000005
0.04029
0.17116999999999996
0.060980000000000006
0.0874
0.06230999999999999
0.030220000000000004
0.01901
0.04880999999999999
0.0321
0.05791
0.08749000000000001
0.06585999999999999
0.13735000000000003
0.04176000000000001
0.13602
0.04244
0.05161
0.02766
0.14661999999999997
0.022119999999999997
0.05061
0.06814999999999999
0.05573
0.07636
0.14941000000000002
0.049749999999999996
0.07112
0.14212
0.10569999999999999
0.11329999999999998
0.05975
0.07211000000000001
0.06055
0.05606
0.1152
0.05349
0.11497
0.04285000000000001
0.15402
0.13598000000000002
0.20948
0.07748000000000001
0.0691
0.08474
0.025390000000000003
0.12821
0.06034
0.09301
0.028730000000000002
0.08292
0.09444999999999998
0.04313000000000001
0.06654000000000002
0.10512
0.07795
0.11453999999999998
0.11342999999999998
0.04589000000000001
0.07184
0.13906000000000002
0.0608
0.07423
0.09153
0.04391
0.16235999999999998
0.10233
0.10559999999999999
0.10382000000000001
0.03865
0.022930000000000002
0.07493
0.03266
0.03125
0.19948
0.14937
0.03932
0.09215
0.02984
0.12077000000000002
0.11045999999999997
0.14303999999999997
0.15924000000000002
0.06161000000000001
0.06716000000000001
0.05679
0.058499999999999996
0.020669999999999997
0.03567
0.10542
0.07281
0.09999000000000001
0.07298
0.05895
0.12137999999999999
0.04122000000000001
0.059960000000000006
0.03647
0.07492
0.12551
0.10048
0.05741
0.09371
0.09057
0.06605
0.07186
0.14306000000000002
0.09657
0.03272
0.10785999999999998
0.10528000000000003
0.1636
0.14936
0.0403
0.042089999999999995
0.04273
0.02479
0.06593
0.14705000000000001
0.14654999999999999
0.03181
0.021799999999999996
0.060759999999999995
0.13616999999999999
0.02588
0.04928000000000001
0.09476000000000001
0.04694
0.03635
0.022189999999999998
0.030260000000000002
0.19580999999999998
0.05565
0.10757
0.07247
0.15700999999999998
0.03681
0.06113000000000001
0.12057999999999998
0.09983
0.12373999999999999
0.07651
0.02449
0.046310000000000004
0.11484
0.11045000000000002
0.07769
0.03522
0.18725000000000003
0.03593
0.16290000000000002
0.13046
0.12614
0.16230999999999998
0.09108000000000001
0.14789
0.029639999999999996
0.18332000000000004
0.10054000000000002
0.05883000000000001
0.13590999999999998
0.10912000000000001
0.03402
0.09187000000000001
0.17920999999999998
0.027160000000000004
0.047540000000000006
0.10379
0.09785000000000002
0.19906
0.14895
0.13015000000000002
0.17049
0.10924999999999999
0.10271999999999998
0.07079
0.06977
0.07694000000000002
0.08092
0.06026
0.09355000000000001
0.20096999999999998
0.026450000000000005
0.0688
0.09570000000000001
0.04329000000000001
0.11881
0.14185999999999999
0.14365
0.13707
0.14848
0.04145000000000001
0.04346
0.10216000000000001
0.14021999999999996
0.07082000000000001
0.016210000000000006
0.03113
0.053160000000000006
0.08702000000000001
0.061250000000000006
0.07963
0.16961999999999997
0.07069
0.10413
0.13562
0.022240000000000003
0.07633000000000001
0.09391
0.03351
0.10679000000000002
0.09858
0.10068000000000002
0.05925
0.039270000000000006
0.14706000000000002
0.031330000000000004
0.14043999999999998
0.05337000000000001
0.12683999999999998
0.023460000000000005
0.05244000000000001
0.14451
0.09559999999999999
0.14318
0.13899999999999998
0.016120000000000002
0.12969999999999998
0.05843999999999999
0.12323999999999997
0.10122
0.06149000000000002
0.0821
0.04806
0.11302999999999999
0.11828
0.045660000000000006
0.04236000000000001
0.11277
0.09156
0.02044
0.15206
0.14640999999999998
0.049210000000000004
0.06437000000000001
0.06466000000000001
0.15581
0.07945
0.06420000000000001
0.04425
0.06581000000000001
0.04211
0.045380000000000004
0.14559
0.09061
0.10769999999999998
0.06997999999999999
0.05485000000000001
0.09031
0.03995
0.06058999999999999
0.10785999999999998
0.12741999999999998
0.12888
0.17112000000000002
0.17015999999999998
0.08080999999999999
0.052030000000000014
0.10289
0.020600000000000004
0.05442
0.03482
0.10578000000000001
0.12388
0.05431
0.02736
0.08236
0.10622
0.12809
0.11915
0.0458
0.05933
0.06150000000000001
0.08023000000000001
0.05018000000000001
0.16558
0.08422999999999999
0.08117
0.031010000000000003
0.08623000000000001
0.08735
0.07982000000000002
0.031549999999999995
0.042640000000000004
0.1166
0.11325999999999997
0.050910000000000004
0.08233
0.10468000000000002
0.019870000000000002
0.12468000000000001
0.0966
0.13321000000000002
0.048150000000000005
0.019280000000000005
0.17784
0.04814
0.020109999999999996
0.1577
0.0617
0.02794
0.04747
0.03407
0.037469999999999996
0.06682
0.127
0.026289999999999994
0.06894
0.15868999999999997
0.16584
0.04576999999999999
0.03237
0.06402999999999999
0.0718
0.06138000000000001
0.1408
0.11463
0.05439000000000001
0.030010000000000002
0.10426
0.16385000000000002
0.10042999999999999
0.13063
0.05519
0.022099999999999998
0.04486
0.053070000000000006
0.04208
0.14932
0.022330000000000003
0.10632
0.04701
0.14051000000000002
0.11938
0.13299000000000002
0.14831
0.10687
0.023189999999999995
0.11159000000000001
0.046290000000000005
0.11931999999999998
0.06556999999999999
0.058339999999999996
0.14306
0.09078000000000001
0.10398999999999999
0.12815000000000001
0.03411
0.14361999999999997
0.027080000000000003
0.09468
0.046579999999999996
0.06967
0.06812
0.03611
0.062169999999999996
0.12992999999999996
0.11298
0.04793
0.13513999999999998
0.06361
0.030260000000000002
0.060200000000000004
0.028700000000000007
0.039990000000000005
0.08537
0.0823
0.05011
0.14823999999999998
0.05783000000000001
0.15133
0.1069
0.05052
0.03180000000000001
0.04804
0.03683
0.07939
0.12006
0.03754
0.03769000000000001
0.08898000000000002
0.13891
0.09849999999999999
0.04518
0.06048
0.06148999999999999
0.09408000000000001
0.10000999999999999
0.054430000000000006
0.07119
0.10212
0.11156
0.07994
0.04365000000000001
0.08767
0.06254
0.01984
0.11729
0.05525
0.19509
0.10665000000000001
0.12865000000000001
0.08385
0.028449999999999996
0.13097999999999999
0.13713
0.10749
0.14714
0.02108
0.026150000000000003
0.030140000000000004
0.07293999999999999
0.05221
0.08422
0.042409999999999996
0.035859999999999996
0.14128
0.08756
0.09004
0.07615
0.12215
0.057539999999999994
0.16964999999999997
0.14978999999999998
0.08891
0.08193000000000002
0.07196000000000001
0.11865
0.020490000000000005
0.02713
0.07164000000000001
0.11306999999999999
0.10096999999999999
0.09648
0.11425
0.019849999999999996
0.22244
0.05326
0.14982999999999996
0.11005999999999999
0.15016999999999997
0.06368
0.03794
0.07780999999999999
0.04079000000000001
0.12034
0.07955
0.07551000000000001
0.02391
0.04460000000000001
0.04634000000000001
0.07146
0.11251
0.050910000000000004
0.04394
0.015510000000000001
0.09815
0.04084000000000001
0.14479
0.02452
0.10246000000000001
0.12117999999999998
0.0347
0.19216999999999998
0.06265000000000001
0.09493000000000001
0.06721
0.014640000000000004
0.05009000000000001
0.0544
0.10957
0.04582000000000001
0.06731
0.06351
0.026140000000000004
0.15919000000000003
0.14603
0.14167
0.08920000000000002
0.06471
0.09545999999999999
0.015509999999999994
0.028110000000000003
0.15899
0.068
0.12113999999999998
0.12376
0.18259999999999998
0.042570000000000004
0.08144
0.04929
0.09758000000000001
0.09910999999999999
0.04412
0.04571
0.06524
0.08135999999999999
0.11826
0.09707
0.03034999999999999
0.056740000000000006
0.11688000000000001
0.1023
0.05715
0.0277
0.037450000000000004
0.08806000000000001
0.06297000000000001
0.11509
0.19657999999999998
0.04366
0.09087999999999999
0.04412
0.12306
0.0356
0.10460000000000001
0.04697
0.15911999999999998
0.09716999999999999
0.13518
0.031130000000000005
0.07215999999999999
0.08481
0.10625000000000001
0.07924
0.06931000000000001
0.09961000000000002
0.13404999999999997
0.05421
0.08675000000000001
0.04045000000000001
0.13791
0.020260000000000004
0.12090999999999999
0.022789999999999998
0.022300000000000004
0.027890000000000005
0.10593999999999999
0.0388
0.036210000000000006
0.06108
0.09111999999999998
0.08112
0.027159999999999997
0.03776000000000001
0.07967
0.058280000000000005
0.07583000000000001
0.06785000000000001
0.08012999999999999
0.0326
0.061930000000000006
0.07006
0.08308
0.07758
0.07805
0.13376
0.08277999999999999
0.05519
0.05327
0.08232000000000003
0.12413999999999997
0.08244
0.12804000000000001
0.09412
0.11787999999999998
0.14497999999999997
0.12747999999999998
0.13806000000000002
0.08466
0.13576
0.06424
0.08506999999999999
0.035780000000000006
0.24758
0.15864
0.08386999999999999
0.11322000000000002
0.09756999999999999
0.1551
0.10486
0.07088000000000001
0.047510000000000004
0.17053000000000001
0.06465000000000001
0.01915
0.12749
0.11716999999999998
0.08050999999999998
0.13493000000000002
0.1292
0.06966000000000001
0.10214000000000002
0.07002000000000001
0.15808
0.08914
0.07292
0.15888999999999998
0.08569
0.11810999999999999
0.03902
0.037630000000000004
0.13509
0.10411000000000001
0.020849999999999994
0.16397999999999996
0.031900000000000005
0.07881
0.13054
0.04844
0.08190000000000001
0.017929999999999995
0.09690000000000003
0.027830000000000004
0.15222
0.019790000000000002
0.13764
0.14588
0.13395
0.15410000000000001
0.10017
0.21228000000000005
0.06098
0.01853
0.10237
0.19347999999999996
0.03358
0.12511999999999998
0.20823000000000003
0.04041
0.061430000000000005
0.037520000000000005
0.04912
0.05952999999999999
0.08628000000000002
0.11489999999999999
0.06002
0.09202
0.13208999999999999
0.16876999999999998
0.037840000000000006
0.06744
0.05212
0.11642000000000001
0.08340000000000002
0.12229
0.08985
0.11687000000000002
0.06387
0.05243
0.04701
0.044050000000000006
0.11033000000000001
0.11151000000000001
0.08763
0.029440000000000004
0.03776999999999999
0.03697
0.08721
0.03032000000000001
0.056240000000000005
0.041330000000000006
0.10070999999999998
0.05974
0.10257999999999999
0.08127000000000001
0.08224000000000001
0.05395
0.18027
0.13203
0.036969999999999996
0.03737
0.09107
0.05189
0.10658000000000001
0.0662
0.10942
0.14586
0.10021000000000001
0.03101
0.06289
0.08530999999999998
0.07398
0.11744
0.052140000000000006
0.06277
0.11898999999999998
0.027689999999999996
0.11294
0.08372000000000002
0.06359999999999999
0.04885
0.08339
0.02138
0.05830000000000001
0.06328
0.12738
0.04657000000000001
0.03229
0.11983999999999999
0.03701000000000001
0.16756999999999997
0.06051
0.07268999999999999
0.06676
0.06857
0.06372
0.041339999999999995
0.03883999999999999
0.12023
0.14545
0.03548
0.08187000000000001
0.06614
0.11352000000000001
0.09119999999999999
0.09797999999999998
0.03407
0.11853
0.16875
0.049650000000000014
0.06776
0.08870000000000001
0.03175
0.07098
0.10651999999999999
0.05609
0.09393999999999998
0.06196999999999999
0.03909
0.13959000000000002
0.03879
0.04868
0.033870000000000004
0.09958
0.04167
0.052930000000000005
0.17296
0.10483
0.031380000000000005
0.15525999999999998
0.14342
0.09541000000000001
0.06564
0.07207
0.07035
0.07591
0.035890000000000005
0.03088
0.12936999999999999
0.04034
0.12365999999999999
0.027890000000000005
0.037750000000000006
0.11361
0.09144000000000002
0.07970000000000001
0.11964999999999999
0.07005
0.037200000000000004
0.047220000000000005
0.052489999999999995
0.027399999999999997
0.11021
0.06255000000000001
0.040440000000000004
0.10639
0.09024999999999998
0.0554
0.034690000000000006
0.025070000000000002
0.09122
0.10384
0.08556000000000001
0.07649999999999998
0.049289999999999994
0.042249999999999996
0.04636
0.15267
0.049710000000000004
0.03751
0.046509999999999996
0.08721
0.040229999999999995
0.11916
0.01977
0.1184
0.13061999999999999
0.16487000000000002
0.14582999999999996
0.01516
0.11547
0.05265
0.12099
0.0501
0.04047
0.03731
0.08989999999999998
0.053360000000000005
0.03332
0.03079
0.07111
0.08468
0.07926
0.05762
0.02963
0.035500000000000004
0.059539999999999996
0.05193
0.029660000000000002
0.10560999999999998
0.06219999999999999
0.04227
0.11278999999999999
0.045090000000000005
0.05505
0.09790000000000001
0.04952
0.048209999999999996
0.04162
0.09913
0.04628
0.13118000000000002
0.08498
0.08394000000000001
0.06076000000000001
0.10928999999999998
0.14139
0.07936
0.12413
0.13262
0.055170000000000004
0.10701000000000001
0.1255
0.18907
0.04096999999999999
0.04957000000000001
0.07442
0.12498999999999999
0.07173000000000002
0.09477000000000001
0.02533
0.12052
0.12837000000000004
0.07491
0.12808000000000003
0.05430000000000001
0.06555000000000001
0.05849
0.08332
0.044410000000000005
0.06356
0.18288999999999997
0.048490000000000005
0.14349
0.09741
0.06973000000000001
0.10629999999999999
0.16817000000000001
0.032780000000000004
0.17711
0.024050000000000002
0.062329999999999997
0.08911
0.14189
0.13922
0.07263
0.030480000000000004
0.059640000000000006
0.04239
0.049569999999999996
0.04135
0.09040000000000001
0.039220000000000005
0.05088
0.06392000000000002
0.04182
0.14257999999999998
0.0333
0.09726000000000001
0.16140999999999997
0.027540000000000005
0.08295999999999999
0.11302000000000001
0.09050000000000001
0.04128000000000001
0.041589999999999995
0.041479999999999996
0.048289999999999986
0.08556000000000001
0.10392000000000001
0.08058
0.06130000000000001
0.09721
0.025750000000000002
0.07139000000000001
0.16601
0.026489999999999996
0.15395999999999999
0.03157
0.17345
0.07503
0.07400000000000001
0.035010000000000006
0.12552
0.11702
0.09099
0.12462
0.07224
0.0251
0.03531
0.14706
0.15104
0.0704
0.07267000000000001
0.06844
0.14991000000000002
0.04911000000000001
0.09865
0.03730000000000001
0.05407
0.16876999999999998
0.10305999999999998
0.15055
0.02084
0.09680000000000001
0.10775999999999998
0.026029999999999998
0.06158
0.08618
0.058070000000000004
0.07848
0.08091
0.09312000000000001
0.07212
0.019790000000000002
0.04693
0.1025
0.031939999999999996
0.15251999999999996
0.10973000000000002
